{"no":0,"title":"Urat madu suplemen pria","price":"50.000","seller":"herbal maju","sellerPlace":"Jakarta Barat","url":"https://www.bukalapak.com/p/kesehatan-2359/obat-suplemen/obat-obatan/291thpc-jual-urat-madu-suplemen-pria?from=&product_owner=normal_seller","sold":14,"seen":290,"favorite":1,"updated":"2019-10-15 16:36:12","description":"Deskripsi Produk\r\n\r\n\r\nPERHATIAN !!!!!\r\n\r\n\r\nPRODUK INI HANYA DIJUAL UNTUK PASANGAN RUMAH TANGGA DEMI MENINGKATKAN KEHARMONISAN\r\n\r\n\r\nDETAIL :\r\n\r\n\r\n1 Box isi 10 Sachet @2 Kapsul (Total 20 Kapsul)\r\n\r\n\r\nKHASIAT DAN KEGUNAAN :\r\n\r\n\r\n\r\nMeningkatkan kekuatan dan daya tahan lebih lama\r\n\r\nMelancarkan peredaran darah keseluruh tubuh.\r\n\r\nPenambah stamina pria\r\n\r\n\r\n\r\n\r\nATURAN MINUM :\r\n\r\n\r\nMinumlah 1 atau 2 kapsul, 30-60 menit sebelum berhubungan, Sangat berkhasiat bila terdapat rangsangan.\r\n\r\n\r\nProduk Urat Madu diproduksi oleh PJ. AIR MADU, Magelang Indonesia dan sudah terdaftar dalam DEP KES RI Nomor TR. 23.\r\n\r\n\r\nPerhatian:\r\n\r\n\r\nBagi penderita penyakit jantung dilarang menggunakan suplemen ini.","rating":0}
{"no":0,"title":"Hotsale- Obat Cepat Hamil - Obat Penyubur Wanita Pria","price":"240.000","seller":"Herbal Kuat Pria","sellerPlace":"Jakarta Pusat","url":"https://www.bukalapak.com/p/kesehatan-2359/obat-suplemen/obat-obatan/1xci6tr-jual-hotsale-obat-cepat-hamil-obat-penyubur-wanita-pria?from=&product_owner=normal_seller","sold":7,"seen":36,"favorite":0,"updated":"2019-07-16 21:37:55","description":"PAKET PROMIL CV KARYA ABADI\r\n\r\nPROMO HARI INI:\r\n- Beli 1 paket Promil, BONUS 1 Strip Streril Pregnancy Test (alat tes kehamilan).\r\n- Berlaku kelipatan.\r\n\r\nKeunggulan:\r\nHerbal Alami -- Aman BPOM -- Hasil Maksimal -- Privasi Terjamin\r\n\r\nPaket PROMIL ini berisi:\r\n- 1 botol SEMEN BOOSTER (obat herbal penyubur pria)\r\n- 1 botol LHIFEMINE (obat herbal penyubur wanita)\r\n- Brosur produk yang berisi aturan konsumsi dan cara penyimpanan\r\n- BONUS 1 Strip Streril Pregnancy Test\r\n\r\n_________\r\nInilah sepaket obat herbal kesuburan pria dan wanita dari CV Karya Abadi Jepara. Paket Promil ini aman dikonsumsi karena terbuat dari bahan herbal alami higienis dan berkualitas.\r\n\r\n__________\r\nDetil Produk SEMEN BOOSTER:\r\n- Kemasan: Botol\r\n- Bentuk: Kapsul\r\n- Isi: 60 kapsul @ 500 mg\r\n- Komposisi: Pimpinella P Extract (Purwcng), Panax Ginseng Extract (Ginseng), Zygophyllaceae Extract, Zingiber Officinale Extract (Jahe), Piper Retrofractum Extract (Cabai Jawa)\r\n- Aturan Minum: 1-2 kapsul sehari, diminum sesudah makan.\r\n\r\nDetil Produk LHIFEMINE:\r\n- Kemasan: Botol\r\n- Bentuk: Kapsul\r\n- Isi: 30 kapsul @ 500 mg\r\n- Komposisi: Pegagan, Daun Kemangi, Daun Sirih, dan Kencur.\r\n- Aturan Minum: 1-2 kapsul sehari, diminum sesudah makan.","rating":0}
{"no":0,"title":"jamu goro original herbal tradisional","price":"90.000","seller":"PITI_OLSHOP","sellerPlace":"Jakarta Pusat","url":"https://www.bukalapak.com/p/kesehatan-2359/obat-suplemen/obat-obatan/235xwc1-jual-jamu-goro-original-herbal-tradisional?from=&product_owner=normal_seller","sold":0,"seen":24,"favorite":0,"updated":"2019-08-05 14:22:07","description":"PITI_OLSHOP \r\nAWAS JANGAN TERGIUR MURAH \r\nBANYAK BARANG PALSU BEREDAR MERAJA LELA\r\nPIKIRKAN SECARA TIDAK MUNGKIN BARANG ASLI DI JUAL DENGAN HARGA MURAH......!!!! \r\nADA HARGA ADA KUALITAS\r\nBARANG IMPOR LOKAL ORIGINAL TIDAK DIJUAL MURAH, JADILAH PEMBELI PINTAR.\r\n\r\nJANGAN PERTARUHKAN KESEHATAN ANDA UNTUK BARANG MURAH.\r\n\r\nHarga 1 box/10sachet jamu serbuk ..dijamin original\r\n\r\nPacking rapih aman \r\n\r\nINGAT AWAS BARANG PALSU KAMI INGATKAN KEMBALI !!\r\n\r\nPITI SHOP TERPERCAYA ..!!!!!\r\n\r\n\r\nSistem pengiriman toko di jamin privasi\r\nPRODUK ORIGINAL \r\nPACKING RAPI\r\nPENGIRIMAN CEPAT \r\nBARANG DI JAMIN Original\r\nPRIVASI SANGAT-SANGAT TERJAGA","rating":0}
{"no":0,"title":"BAO FU LING biru 60gr salep cream luka bakar jamin original","price":"450.000","seller":"SK SHOP","sellerPlace":"Jakarta Barat","url":"https://www.bukalapak.com/p/kesehatan-2359/obat-suplemen/obat-obatan/22fuizb-jual-bao-fu-ling-biru-60gr-salep-cream-luka-bakar-jamin-original?from=&product_owner=normal_seller","sold":0,"seen":12,"favorite":1,"updated":"2019-09-17 11:54:36","description":"Bao Fu Ling Cream, jamin asli 100%\r\nMerupakan krim yang terregister dengan nama asli dan huruf mandarin \"BAO FU LING\" dan sampai saat ini tidak ganti nama dan TETAP menggunakan nama BAO FU LING.\r\n\r\nKrim yang disarankan selalu tersedia pada tiap rumah.\r\nDigunakan sebagai perawatan terhadap luka kulit akibat terbakar atau terkena air mendidih, eksim, jerawat, gigitan serangga, hipersensitif kulit, otot atau bahu letih, ruam kulit, dan gangguan2 pada kulit.\r\n\r\nSegera sapukan pada kulit yg terbakar atau melepuh, lakukan berulang hingga sembuh.\r\nAgar awet dan tahan lama, selalu simpan dalam kulkas.\r\nHanya untuk penggunaan luar saja.\r\n\r\nUkuran 60gr.\r\n\r\nBao Fu Ling is a white cream that can heal wounds, skin diseases, skin allergies, itchy skin, eczema, skin sensitivity, pain / numb the skin or muscles of the body, skin rashes, and removing scars (exhaust, chickenpox, mosquito bites, burns, cuts down, etc.), black stain (Flek) well in the body or face . \r\nBao Fu Ling is also a first aid to the wound moist , which, when used as a wound still wet to dry ( cure ) quickly and no trace . Very helpful for acne and acne that can interfere with the appearance of stone .\r\n\r\n1 . Consequences / effects due to burning / burn / do muffler / wrong pan / hot thing\r\n2 . White spot / Eczema / Itchy and container from itching due to insect bites / allergies\r\n3 . For neurodematis ( inflammation of the nervous system )\r\n4 . Due to insect bites, mosquitoes, and lice.\r\n5 . Crack heel and rough skin.\r\n6 . Hypersensitivity skin is excess skin reactions , undesirable (damaging , resulting in inconvenience , and sometimes fatal) produced by the normal immune system.\r\n7 . Former Talons / scratch hand / animal cat dog .\r\nFor Treatment of Burns, Mosquito bites , Eczema, itching or any skin Diseases, skin hypersensitivity, shoulder and muscular Pains, chronic skin rashes .\r\n8 . Recommended for all ages, except for toddler under 3 years old.","rating":0}
{"no":0,"title":"salep pi kang wang original produk salep KL atau HL asli salep gatal-gatal panu kurap kudis jamur dan scadies","price":"55.000","seller":"Manjurmandiri shop","sellerPlace":"Tangerang","url":"https://www.bukalapak.com/p/kesehatan-2359/obat-suplemen/obat-obatan/1yjm1d6-jual-salep-pi-kang-wang-original-produk-salep-kl-atau-hl-asli-salep-gatal-gatal-panu-kurap-kudis-jamur-dan-scadies?from=&product_owner=normal_seller","sold":1,"seen":33,"favorite":0,"updated":"2019-09-13 19:12:13","description":"Salep pi kang wang 100% original \r\n\r\nKhasiat dan kegunaan obat Salep KL/ PI Kang Wang, Ketoconazole cream:\r\n* Mengobati penyakit kulit yang disebabkan jamur seperti panu, kadas, kudis, kurap, gudik, scadies.\r\n* Dapat digunakan untuk mengobati jerawat dan bekas jerawat\r\n* Mengobati gatal-gatal yang disebabkan alergi\r\n* Mengurangi efek iritasi kulit dari penggunaan kosmetik yang salah.\r\n* Mengobati gatal pada selangkangan\r\n\r\nAturan pakai :\r\n* Untuk gatal-gatal : bersihkan area kulit yang terinfeksi gatal, lalu oleskan salep KL di area yang gatal 3 kali sehari\r\n\r\n* Untuk jerawat : Oleskan salep KL pada bagian yang berjerawat saja. sebaiknya digunakan pada malam hari\r\n\r\nKemasan : botol berisi cream 7 gram","rating":0}
{"no":0,"title":"obat rematik asam urat pegallinu encok dll binahong asli","price":"75.000","seller":"sehat herbal999","sellerPlace":"Jakarta Barat","url":"https://www.bukalapak.com/p/kesehatan-2359/obat-suplemen/obat-obatan/1vl5ucl-jual-obat-rematik-asam-urat-pegallinu-encok-dll-binahong-asli?from=&product_owner=normal_seller","sold":0,"seen":18,"favorite":0,"updated":"2019-10-04 14:46:17","description":"KAPSUL Daun Binahong Asli Soal khasiat ini produk jangan ditanya apalagi ditawar dijamin khasiat dan manfaatnya.. HANYA MENJUAL PRODUK ASLI !!! Hati-hati banyak beredar produk palsu (tiruan) karena sekilas kemasan hampir sama TETEP PILIH STRIP KUNING Harga diatas adalah harga per hanger 1 hanger isi 20 saset 1 saset isi 2 kapsul (buah) @500mg Khasiat : Mengatasi asam urat, rheumatik, encok, flu tulang (rasa sakit di sendi tulang), pegal linu Note:Foto baru agar tidak dicuri orang dan tetap menjaga kepercayaan pelanggan","rating":0}
{"no":0,"title":"tieh ta wan dijamin asli obat herbal luka dalam memar n patah tulang","price":"165.000","seller":"sehat herbal999","sellerPlace":"Jakarta Barat","url":"https://www.bukalapak.com/p/kesehatan-2359/obat-suplemen/obat-obatan/1zi7eyt-jual-tieh-ta-wan-dijamin-asli-obat-herbal-luka-dalam-memar-n-patah-tulang?from=&product_owner=normal_seller","sold":0,"seen":24,"favorite":0,"updated":"2019-09-16 14:00:27","description":"ready stok.. dijamin Asli 100%\r\nlangsung order. .stok selalu ready!!\r\n\r\nHsiung Tan Tieh Ta Wan banyak digunakan untuk pengobatan cedera akibat olahraga atau luka akibat benturan dengan luka terbuka maupun tidak. Banyak digunakan oleh ahli bela diri untuk mengobati luka - luka akibat latihan. Tieh Ta Wan banyak dianjurkan untuk pengobatan patah tulang sebagai obat minum, terutama pada saat bagian yang patah tulangnya masih didalam gibs. Kurang efektif untuk luka tanpa adanya pembengkakan / memar, seperti misalnya luka tusuk, luka robek, dll tetapi tetap dapat membantu. Selain diminum Tieh Ta Wan juga bisa digunakan dengan dioleskan pada bagian yang memar.\r\n\r\nCara Kerja :\r\nMelancarkan peredaran darah, menghilangkan bekuan darah, mengecilkan bengkak, mengurangi rasa nyeri/sakit, merangsang pertumbuhan sel - sel yang rusak.\r\n\r\nIndikasi :\r\nLuka akibat olah raga dengan luka dalam dan pembengkakan atau memar, dengan atau tanpa luka terbuka. Cedera akibat keseleo atau otot ketarik. Cocok untuk patah tulang, tulang retak dan keseleo yang disertai memar, terutama pada saat baru saja luka. Cocok juga luka dengan lecet dan memar seperti akibat terjatuh dari sepeda motor, sepeda, dll.\r\n\r\nKhasiat : Membantu meredakan nyeri dan luka memar\r\n\r\nCara Pakai : \r\nDewasa : 1 kali sehari 1 pil\r\nAnak-anak : 1 kali sehari 1/2 pil\r\n\r\nUntuk pemakaian luar :\r\nDilarutkan dalam air panas dan digosok pada bagian yang luka/keseleo\r\n\r\nKomposisi : Pseudoginseng Radix 180 mg, Carthami flos 180 mg, dan Curcumae Radix 117 mg\r\n\r\nKemasan : 1 Kotak Besar berisi 12 kotak kecil\r\nDiproduksi Oleh : Guangdong Yihetang Herbal Manufactory \r\nDistributor : Sinar Herba Radix\r\nBPOM No : TI 014 402 191","rating":0}
{"no":0,"title":"tieh ta wan dijamin asli obat herbal luka dalam memar dan patah tulang","price":"165.000","seller":"healthy999","sellerPlace":"Jakarta Barat","url":"https://www.bukalapak.com/p/kesehatan-2359/obat-suplemen/obat-obatan/1zi50sl-jual-tieh-ta-wan-dijamin-asli-obat-herbal-luka-dalam-memar-dan-patah-tulang?from=&product_owner=normal_seller","sold":0,"seen":16,"favorite":0,"updated":"2019-09-14 21:23:28","description":"ready stok.. dijamin Asli 100%\r\nlangsung order. .stok selalu ready!!\r\n\r\nHsiung Tan Tieh Ta Wan banyak digunakan untuk pengobatan cedera akibat olahraga atau luka akibat benturan dengan luka terbuka maupun tidak. Banyak digunakan oleh ahli bela diri untuk mengobati luka - luka akibat latihan. Tieh Ta Wan banyak dianjurkan untuk pengobatan patah tulang sebagai obat minum, terutama pada saat bagian yang patah tulangnya masih didalam gibs. Kurang efektif untuk luka tanpa adanya pembengkakan / memar, seperti misalnya luka tusuk, luka robek, dll tetapi tetap dapat membantu. Selain diminum Tieh Ta Wan juga bisa digunakan dengan dioleskan pada bagian yang memar.\r\n\r\nCara Kerja :\r\nMelancarkan peredaran darah, menghilangkan bekuan darah, mengecilkan bengkak, mengurangi rasa nyeri/sakit, merangsang pertumbuhan sel - sel yang rusak.\r\n\r\nIndikasi :\r\nLuka akibat olah raga dengan luka dalam dan pembengkakan atau memar, dengan atau tanpa luka terbuka. Cedera akibat keseleo atau otot ketarik. Cocok untuk patah tulang, tulang retak dan keseleo yang disertai memar, terutama pada saat baru saja luka. Cocok juga luka dengan lecet dan memar seperti akibat terjatuh dari sepeda motor, sepeda, dll.\r\n\r\nKhasiat : Membantu meredakan nyeri dan luka memar\r\n\r\nCara Pakai : \r\nDewasa : 1 kali sehari 1 pil\r\nAnak-anak : 1 kali sehari 1/2 pil\r\n\r\nUntuk pemakaian luar :\r\nDilarutkan dalam air panas dan digosok pada bagian yang luka/keseleo\r\n\r\nKomposisi : Pseudoginseng Radix 180 mg, Carthami flos 180 mg, dan Curcumae Radix 117 mg\r\n\r\nKemasan : 1 Kotak Besar berisi 12 kotak kecil\r\nDiproduksi Oleh : Guangdong Yihetang Herbal Manufactory \r\nDistributor : Sinar Herba Radix\r\nBPOM No : TI 014 402 191","rating":0}
{"no":0,"title":"Obat Pembesar Payudara Kencang Besar Montok Berisi BREASTY PLUS","price":"150.000","seller":"Herbal Kuat Pria","sellerPlace":"Jakarta Pusat","url":"https://www.bukalapak.com/p/kesehatan-2359/obat-suplemen/obat-obatan/4f32j2-jual-obat-pembesar-payudara-kencang-besar-montok-berisi-breasty-plus?from=&product_owner=normal_seller","sold":741,"seen":989,"favorite":30,"updated":"2019-10-15 17:01:15","description":"----------------- P E N T I N G ----------------\r\n\r\nHATI-HATI, Pastikan barang yang Anda beli ada \"HOLOGRAM\"nya, karena sekarang banyak beredar PRODUK PALSU.\r\n----------------\r\nCiri-ciri Produk CV. Karya Abadi yang ASLI:\r\n----------------\r\n> Terdapat HOLOGRAM pada Botol Produk yang ASLI\r\n> Ada \"LAKBAN KHUSUS\" pada Paket Pengiriman\r\n> Mendapatkan Free KOPI VIREX setiap pembelian Produk ada saja, dengan total transaksi diatas 350.000,-\r\n\r\nINFO:\r\n...................\r\nBARANG SELALU READY ya, SIAP kirim BANYAK\r\n- LANGSUNG KLIK BELI \r\n- LANGSUNG KAMI PROSES \r\n- LANGSUNG KAMI KIRIM HARI INI JUGA \r\n(*cepat beli = cepat sampai)\r\n\r\n>> PRIVASI AMAN Terkendali \r\n\r\n--------------\r\nObat Herbal Paling Ampuh Untuk Memperbesar dan Mengancangkan Payudara Wanita. Membuat Payudara Terlihat Lebih Sehat, Indah, Montok Dan Seksi Secara Alami\r\n\r\nMungkin selama ini Anda kurang percaya diri, terutama di depan pria, hanya lantaran Anda memiliki payudara yang kurang ideal, kecil, atau kurang montok. Mungkin anda selama ini kurang percaya diri atau bahkan tidak pede sama sekali hanya karena PAYUDARA anda kurang ideal atau bisa di katakan orang kecil, dada rata dan banyak cibiran lainnya.\r\n\r\nMembuat payudara lebih kencang dan besar bukan perkara yang sulit jika Anda tahu caranya. Sebagai wanita, Anda pasti ingin memiliki bentuk payudara yang kencang, indah, dan terlihat seksi. Anda tidak perlu pergi ketempat pemijatan payudara (Breast Massage) dengan biaya mahal tentunya. Karena sekarang Anda dapat melakukan pijat payudara sendiri dirumah.\r\n\r\nAda solusinya! Dengan minyak oles herbal Breasty Plus, Anda dapat dengan mudah dan cepat memiliki payudara yang lebih besar, lebih besar, lebih cantik, dan lebih seksi tentunya.\r\n\r\nCara kerja dan Fungsi Breasty Plus\r\n> Menambah ukuran payudara secara alami dan bertahap\r\n> Mengangkat dan mengencangkan payudara\r\n> Membesarkan kembali payudara yang mengalami pertumbuhan terhambat\r\n> Mengencangkan payudara dan punggung Anda lebih seksi\r\n> Menegangkan dan menstabilkan posisi payudara agar tidak menggantung\r\n> Membuat payudara lebih kenyal\r\n> Menjaga kecantikan payudara secara alami\r\n> Meremajakan kulis sehingga lebih elastis\r\n\r\nDetail Produk:\r\n> Nama: Breasty Plus\r\n> Isi 15 ml\r\n> Ijin Edar: Depkes. RI: IKOT 442/00060/V-2.\r\n> Dalam paket dsertai Cara pemakaian lengkap.","rating":0}
{"no":0,"title":"SUPLEMEN STAMINA HALAL DAN BPOM POLTHRUS PolTrus OBAT PRIA HERBAL KUAT","price":"280.000","seller":"RAJA REVIEW","sellerPlace":"Jakarta Utara","url":"https://www.bukalapak.com/p/kesehatan-2359/obat-suplemen/obat-obatan/1p3tb7e-jual-suplemen-stamina-halal-dan-bpom-polthrus-poltrus-obat-pria-herbal-kuat?from=&product_owner=normal_seller","sold":11,"seen":80,"favorite":38,"updated":"2019-10-12 12:03:12","description":"READY STOK..!!!\r\n\r\nDjamin asli 100%\r\nPALSU UANG kembali 10X Lipat\r\n\r\n1 box isi 5 sachet\r\n\r\nCara konsumsi : masukan 1 sachet Polthrus ke dalam air 50ml atau dapat d konsumsi langsung (langsung dimasukan kedalam mulut dan di emut)\r\n\r\nCatatan : Polthrus memiliki reaksi yang sangat alami dan natural , efeknya baru dpat dirasakan kurang lebih 6-8 jam setelah dikonsumsi.\r\n\r\nDengan mengkonsumsi 1 sachet Polthrus dapat dirasakan hingga 2 hari khasiatnya, pasangan anda dijamin klepek2 dengan performa anda.\r\n\r\nYg ingin berkonsultasi atau bertanya2 silahkan chat saja ya :)","rating":0}
{"no":0,"title":"Obat Batuk Cap Ibu dan Anak 300 ml (Nin Jiom)","price":"100.000","seller":"Nicendy","sellerPlace":"Tangerang","url":"https://www.bukalapak.com/p/kesehatan-2359/obat-suplemen/obat-obatan/65ar98-jual-obat-batuk-cap-ibu-dan-anak-300-ml-nin-jiom?from=&product_owner=normal_seller","sold":44,"seen":537,"favorite":17,"updated":"2019-10-12 16:06:32","description":"Produk dijamin 100% ORIGINAL!\r\n\r\nObat Batuk Cap Ibu dan Anak (Nin Jiom Pei Pa Koa) sudah terkenal mampu menyembuhkan batuk berdahak, sakit tenggorokan dan memelihara kesehatan paru-paru. \r\n\r\nAturan pakai: \r\nDewasa : 3 x sehari 1 sendok makan (15 ml) \r\nAnak usia 7-12 tahun : 3 x sehari 2/3 sendok makan (10 ml) \r\nAnak usia 3-6 tahun : 3 x sehari 1/3 sendok makan (5 ml) \r\n\r\nDiminum perlahan-lahan atau dicampur dengan air hangat. \r\n\r\nKemasan : botol isi 300 ml \r\n\r\nDiimport oleh: PT. Sinde Budi Sentosa Bekasi, Indonesia. \r\n\r\nPOM TI. 084 627 811 \r\n\r\nPERHATIAN: Bila sakit berlanjut, hubungi dokter. \r\n\r\nPesan segera di Nicendy. \r\nSemoga lekas sembuh :)","rating":0}
{"no":0,"title":"Pe Min Kan Wan (Nasal Clear)","price":"66.000","seller":"mandjur","sellerPlace":"Jakarta Pusat","url":"https://www.bukalapak.com/p/kesehatan-2359/obat-suplemen/obat-obatan/412kpk-jual-pe-min-kan-wan-nasal-clear?from=&product_owner=normal_seller","sold":57,"seen":1541,"favorite":28,"updated":"2019-10-15 17:02:53","description":"Pe Min Kan Wan dibuat dari 100% herbal alami yang berguna melancarkan saluran pernafasan pada hidung serta menjaga kesehatan rongga hidung dan sinus.\r\n\r\nPe Min Kan Wan terbukti dapat menyembuhkan penyakit chronic rhintis (peradangan pada selaput lendir dalam hidung) yang disebabkan oleh alergi, virus, bakteri atau iritasi. Peradangan tersebut membuat produksi lendir berlebih yang menyebabkan hidung meler, pilek, dan hidung tersumbat. Chronic Rintis yang disebabkan oleh alergi memberikan gejala tambahan seperti bersin - bersin, hidung gatal, batuk, pusing, dan lelah.\r\n\r\nPe Min Kan Wan juga terbukti dapat mengobati penyakit sinusitis (peradangan pada sinus) yang terjadi akibat infeksi dari virus, bakteri, atau jamur. Gejala Sinusitis seperti : pilek, batuk (terutama pada saat malam), nafas bau, kehilangan penciuman, demam, sakit kepala (sakit seperti ditekan pada bagian belakang mata), Hidung tersumbat, dan sakit tengorokan. Sinusitis dapat berubah dari akut menjadi kronis apa bila sudah mengalami gejala sinusitis akut lebih dari 4 bulan.\r\n\r\nSelain itu Pe Min Kan Wan juga efektif mengobati infeksi pada hidung, alergi pada saluran pernafasan, penyumbatan saluran pernafasan, batuk, asma, dan bronchitis.\r\n\r\nTerbukti:\r\nFormula obat Pe Min Kan Wan berdasarkan ilmu pengobatan tradisional yang telah dibuktikan bertahun - tahun lalu, yang sekarang telah dibuktikan melalui uji coba dan tes mengunakan metode medis modern. Berdasarkan hasil 1184 tes dan uji coba pada berbagai rumah sakit besar di China, diperkirakan keberhasilan Pe Min Kan Wan sampai dengan 95,18% dalam menyembuhkan penyumbatan pada saluran pernafasan sinusitis akut dan kronis.\r\n\r\nKhasiat : \r\n- Melancarkan saluran pernafasan\r\n- Mengobati Chronic rhintis dan Sinusitis\r\n- Mengobati infeksi pada hidung dan alergi\r\n- Mengobati batuk berdahak akibat sinus\r\n- Mengobati asma dan bronchitis\r\n\r\nCara Pakai : Diminum Sehari 3 kali sehari sekali minum 3 tablet\r\n\r\nPerhatian : Jauhkan dari jangkauan anak - anak\r\n\r\nKomposisi :\r\nRadix Scutellariae 26%\r\nFructus Xanthii 25%\r\nHerba Pogostemonis 25%\r\nHerba Centipedae 24%\r\n\r\nKemasan : 1 Botol isi 60 tablet @ 350mg\r\n\r\nDiproduksi Oleh : M & A Natural Healthcare Products Co., Ltd.\r\n\r\nDistributor : Intra Aries\r\n\r\nBPOM No : Tl 044 509 261","rating":0}
{"no":0,"title":"Hufagrip bp syrup 60 ml","price":"16.500","seller":"Toko Obat DIZA","sellerPlace":"Jakarta Timur","url":"https://www.bukalapak.com/p/kesehatan-2359/obat-suplemen/obat-obatan/bnmd9e-jual-hufagrip-bp-syrup-60-ml?from=&product_owner=normal_seller","sold":221,"seen":415,"favorite":11,"updated":"2019-10-12 12:44:37","description":"INDIKASI\r\nMeringankan pilek dan batuk tidak berdahak\r\n\r\nDOSIS\r\n&amp;amp;amp;amp;amp;amp;amp;amp;amp;gt; 12 th: sehari 3 x 2 sendok teh, anak 6-12 th: sehari 3 x 1 sendok teh, \r\nanak 2-6 th: sehari 3 x 1/2 sendok teh, anak di bawah 2 th: menurut petunjuk dokter\r\n\r\nPENYAJIAN\r\nSesudah makan","rating":0}
{"no":0,"title":"Minyak angin cap ikan mas","price":"47.000","seller":"Toko Dunia Usaha","sellerPlace":"Tarakan","url":"https://www.bukalapak.com/p/kesehatan-2359/obat-suplemen/obat-obatan/dz0ra-jual-minyak-angin-cap-ikan-mas?from=&product_owner=normal_seller","sold":333,"seen":2567,"favorite":63,"updated":"2019-10-12 23:52:16","description":"Minyak angin GOLD FISH BRAND mempunyai warna yang bening, cocok untuk yang hobi minyak panas &amp;amp;amp;amp;amp; aroma aromatik\r\nBerguna untuk mengurangi sakit kepala, hidung tersumbat nyeri otot &amp;amp;amp;amp;amp; sendi, gatal karena gigitan serangga atau nyamuk\r\nSetiap botol mengandung:\r\nMenthol 16%, Methy Salicylate 30% , Camphor serbuk 5%\r\nisi netto 52 ml","rating":0}
{"no":0,"title":"Monster Pro Extra Fooding Ayam Laga","price":"7.500","seller":"Guna Online Shop","sellerPlace":"Cilacap","url":"https://www.bukalapak.com/p/kesehatan-2359/obat-suplemen/obat-obatan/qlqh4c-jual-monster-pro-extra-fooding-ayam-laga?from=&product_owner=normal_seller","sold":348,"seen":511,"favorite":10,"updated":"2019-10-14 19:34:41","description":"Monster Pro SN terbuat dari bahan-bahan terbaik khusus ayam bangkok yang menginginkan kualitas terbaik. Menjadikan tulang ayam lebih kuat dan menjadikan pertumbuhan ayam lebih maksimal.\r\nUntuk persiapan ayam turun laga juga sangat cocok apalagi kalau dikombinasikan dengan Dragon SN atau di kombinasikan dengan Bima Power Sangat terlihat efek baiknya. Ayam menjadi lebih sehat, lebih agresif dan merah membara.\r\nBuktikan sekarang juga dengan Monster Pro SN.","rating":0}
{"no":0,"title":"sea quill z3 omega 3","price":"520.000","seller":"Toko Doraemon","sellerPlace":"Jakarta Barat","url":"https://www.bukalapak.com/p/kesehatan-2359/obat-suplemen/obat-obatan/d7h50w-jual-sea-quill-z3-omega-3?from=&product_owner=normal_seller","sold":47,"seen":952,"favorite":8,"updated":"2019-10-10 20:01:52","description":"Sea-Quill Z3 Pharmaceutical Grade Omega-3 merupakan generasi terbaru dari Omega-3 yang berbeda dengan produk-produk Omega-3 yang lainnya. Dimana pada produk lain hanya mengandung 30% Omega-3 dan 70% minyak ikan, sedangkan pada Sea-Quill Z3 mengandung lebih dari 85% Omega-3, yang dihasilkan dari teknologi molecular dan fractionated distilation untuk membuang lemak ikan dan meningkatkan kadar asam lemak Omega-3. Sehingga untuk Omega-3 yang ada dalam Sea-Quill Z3 Pharmaceutical Grade Omega-3 tingkat kemurniannya lebih besar, dengan karakteristik sebagai berikut:\r\n- Tidak mengandung lemak jenuh (setelah disimpan pada freezer).\r\n- Tidak mengandung polutan atau pengotor logam berat seperti merkuri.\r\n- Kadar Omega-3 (EPA, DHA, dan ALA) yang tinggi.\r\n- Perbandingan AA : EPA kurang dari 0,1 (efek klinis yang tinggi).\r\n- Dimana 1 kapsul Z3 setara dengan 10 kapsul Omega-3 biasa.\r\n\r\nCara Kerja :\r\nEPA (Eicosapentaenoic acid) merupakan asam lemak tak jenuh yang bertindak sebagai penghambat agregasi trombosit (penggumpalan trombosit), sehingga dapat mencegah terjadinya penyumbatan pembuluh darah dan melebarkan arteri. Kandungan EPA dan DHA pada Sea-Quill Z3 Pharmaceutical Grade Omega-3 memilki efek antiaritmia pada jantung, menghambat proses lipogenesis (pembentukan lemak), dan mempercepat oksidasi asam lemak sehingga dapat menurunkan produksi kolesterol dan menurunkan trigliserida. Selain itu, EPA dan DHA juga dapat menghambat pembentukan mediator peradangan seperti PG E2, LTB4, TNFa, dan IL-1, yang berhubungan dengan neurodegeneratif (kerusakan sel-sel saraf) serta penyakit autoimun (penyakit yang disebabkan oleh kesalaahn sistem kekbalan tubuh) . Ditambah dengan kandungan Vitamin E yang berperan sebagai antioksidan serta pengawet alami.\r\n\r\nManfaat :\r\n- Membantu memelihara kesehatan jantung, mencegah pembekuan darah, membantu menurunkan kadar lemak darah (seperti kolesterol dan trigliserida) serta membantu menormalkan tekanan darah tinggi.\r\n- Mengurangi reaksi peradangan, gangguan autoimun dan mengurangi nyeri.\r\n- Memperbaiki metabolisme tubuh secara keseluruhan.\r\n\r\nDianjurkan bagi :\r\n- Cocok digunakan bagi penderita dengan koleterol dan trigliserida tinggi, tekanan darah tinggi, penyumbatan pembuluh darah, infark miokard (MCI), dan paska serangan stroke.\r\n- Cocok digunakan bagi penderita rematik, radang usus, serta penyakit autoimun.\r\n- Disarankan bagi orang yang sering mengkonsumsi makanan yang mengandung lemak jenuh.\r\n- Sangat diajurkan bagi paruh baya untuk memelihara kesehatan jantung dan kesehatan secara keseluruhan.\r\n\r\nKhasiat : Memelihara kesehatan\r\n\r\nCara Pakai : 1 softgel setiap hari sesudah makan\r\n\r\nKomposisi :\r\nInformasi Nilai Gizi per 1 Kapsul Lunak\r\n- Vitamin E 4 IU\r\n- Fish Oil 1200 mg\r\n- EPA 360 mg\r\n- DHA 240 mg\r\n\r\nKandungan lainnya : Gelatin, Glycerin dan Water\r\n\r\nKemasan : 50 softgel @ 1427 mg\r\n\r\nBrand : Sea-Quill\r\n\r\nDiproduksi Oleh : Natures Products, Inc.\r\n\r\nDistributor : Abad Dua Satu Makmur\r\n\r\nBPOM No : SI 104 301 561\r\ndi jamin 100% barang asli no tipu tipu","rating":0}
{"no":0,"title":"Tusuk Jari Kapsul Original. Asam Urat, Rematik, DLL","price":"33.300","seller":"OmahJamu","sellerPlace":"Malang","url":"https://www.bukalapak.com/p/kesehatan-2359/obat-suplemen/obat-obatan/181j89-jual-tusuk-jari-kapsul-original-asam-urat-rematik-dll?from=&product_owner=normal_seller","sold":1678,"seen":3023,"favorite":98,"updated":"2019-10-12 06:50:01","description":"AWAS TUSUK JARI KAPSUL PALSU HARGA MURAH\r\n\r\nTusuk Jari Original 100%\r\nTusuk Jari kapsul adalah jamu herbal berbentuk kapsul yang dapat mengobati berbagai macam penyakit. Benar benar manjur untuk mengobati berbagai macam penyakit. Buktikan khasiatnya......\r\n\r\nKhasiat dan Kegunaan:\r\n- Mengobati asam urat\r\n- Pegel linu\r\n- Asam Urat\r\n- Rematik\r\n- Kolesterol\r\n- Stamina\r\n- Masuk angin\r\n\r\nIsi:\r\n1 renteng isi 20 sachet @ 2 Kapsul\r\n\r\nProduksi:\r\nUD AM JAYA","rating":0}
{"no":0,"title":"Amino Mutant 600 tabs","price":"370.000","seller":"rumahsuplement","sellerPlace":"Tangerang","url":"https://www.bukalapak.com/p/kesehatan-2359/obat-suplemen/obat-obatan/1wskq1-jual-amino-mutant-600-tabs?from=&product_owner=normal_seller","sold":51,"seen":1738,"favorite":104,"updated":"2019-10-14 15:56:48","description":"NOMOR BPOM : \r\n\r\nMUTANT AMINO 600 TABS 194510571\r\n\r\n100% BARANG ASLI BPOM\r\n\r\nNote : \r\n1. Langsung Pilih Salah Satu Bonusnya Dibawah Ini ya :\r\n- Free Shaker\r\n- Free Tas Backpack (sold out)\r\n- Free Aksesoris Headband\r\n- Free Aksesoris Wristband\r\n\r\n\r\n2. Harap Memberi Keterangan Pada Saat Order (Seperti Rasa,Ukuran,Warna ,Dll) Jika Barang Dikirim Random Maka Pembeli Dilarang Komplain DIkarenkan Tidak Menulis Dicatatan Pembeli Untuk Pilihannya.\r\n\r\nNote : Bonus Atau Free Tidak Berlaku Selama Harga Promo !!!\r\n\r\nMUTANT AMINO 600 TABS adalah sumber asam amino (BCAA) untuk perbaikan Otot, asam amino adalah bahan dasar penting untuk pembentukan , pertumbuhan otot dan pencegahan penyusutan otot.\r\n\r\nMUTANT AMINO terbuat dari campuran protein kualitas tinggi dihidrolisis whey, bentuk bebas dan asam amino rantai cabang. Setiap porsi menyediakan lebih dari 2.000 mg asam amino berkualitas yang akan membantu Anda efisien memperbaiki dan membangun kembali otot\r\n\r\nCara pakai MUTANT AMINO 600 TABS : pagi hari, sebelum latihan, sesudah latihan. Off latihan : pagi , siang, malam\r\n\r\nKomposisi MUTANT AMINO 600 TABS :\r\n\r\nContainer Size : 300 Caplets\r\nServing Size : 2 Caplets\r\nServings Per Container : 150\r\n\r\nAmount Per Serving :\r\n\r\nAmino Acids : (2g)\r\nFree Form, Di, Tri & Oligo Peptide Amino Acids from Hydrolysed Whey Protein Isolate, BCAAs (L-Leucine, L-Valine, L-Isoleucine), L-Arginine, L-Glycine, L-Ornithine.","rating":0}
{"no":0,"title":"BODREX PARACETAMOL CAFFEINE 1 STRIP ISI 10 TABLET","price":"3.500","seller":"vitaminmurahdotcom","sellerPlace":"Jakarta Selatan","url":"https://www.bukalapak.com/p/kesehatan-2359/obat-suplemen/obat-obatan/f1wdfn-jual-bodrex-paracetamol-caffeine-1-strip-isi-10-tablet?from=&product_owner=normal_seller","sold":121,"seen":297,"favorite":14,"updated":"2019-10-13 08:50:27","description":"BARANG ORIGINAL NON RETUR. EXP DATE : SEPT 2022","rating":0}
{"no":0,"title":"selang makan ngt fr.16 silikon","price":"50.000","seller":"sintia store","sellerPlace":"Jakarta Timur","url":"https://www.bukalapak.com/p/kesehatan-2359/obat-suplemen/obat-obatan/1d1tfp-jual-selang-makan-ngt-fr-16-silikon?from=&product_owner=normal_seller","sold":156,"seen":1404,"favorite":34,"updated":"2019-10-11 12:22:06","description":"selang makan ngt fr.16 silikon\r\nkemenkes RI akl 20805512023","rating":0}
{"no":0,"title":"Swisse Vitamin D 1000IU 400 caps","price":"369.000","seller":"vitaminoz","sellerPlace":"Jakarta Barat","url":"https://www.bukalapak.com/p/kesehatan-2359/obat-suplemen/obat-obatan/jpvq0-jual-swisse-vitamin-d-1000iu-400-caps?from=&product_owner=normal_seller","sold":296,"seen":1262,"favorite":22,"updated":"2019-10-06 16:18:56","description":"Informasi Umum, expiry 7/2021\r\n\r\nSwisse Ultiboost Vitamin D adalah formula kualitas premium mengandung 1000 IU alami berasal vitamin D3 untuk mendukung tulang dan gigi kesehatan.\r\n\r\nTulang & Gigi Kesehatan: Mendukung pengembangan dan pemeliharaan kesehatan tulang dan gigi.\r\nPeningkatan Penyerapan: Vitamin D3 membantu penyerapan dan pemanfaatan kalsium, yang membantu mempertahankan kepadatan tulang yang sehat. Vitamin D3 dipertahankan dalam aliran darah lebih efektif bila dibandingkan dengan vitamin D2 (sintetis).\r\n\r\nKesehatan otot: Vitamin D membantu fungsi dukungan otot.\r\nKesehatan kekebalan: Mendukung sistem kekebalan tubuh yang sehat.\r\n\r\nKerangka manusia terdiri dari 206 tulang yang menyediakan kerangka kerja bagi tubuh untuk membantu mempertahankan bentuk, melindungi organ vital dan menyediakan tempat untuk otot untuk melampirkan. \r\n\r\nTulang juga berfungsi sebagai situs untuk penyimpanan mineral dan pembentukan sel darah. Sangat sedikit makanan alami mengandung jumlah vitamin D, sehingga paparan sinar matahari secara teratur untuk diperlukan bagi tubuh untuk memproduksi vitamin D3. Gaya hidup modern sering mengurangi waktu terkena sinar matahari, yang meningkatkan kebutuhan untuk mendapatkan vitamin D3 dari sumber lain.\r\n\r\nSwisse Ultiboost Vitamin D telah dirumuskan berdasarkan bukti ilmiah untuk menyediakan sumber alami berasal dari vitamin D3 dalam nyaman,\r\n\r\nDosis: 1 hari 1 tablet.","rating":0}
{"no":0,"title":"Obat Penyakit Kulit (Eksim,Dermatitis,Scabies)","price":"300.000","seller":"Kuple Olshop","sellerPlace":"Jakarta Utara","url":"https://www.bukalapak.com/p/kesehatan-2359/obat-suplemen/obat-obatan/2myj3e-jual-obat-penyakit-kulit-eksim-dermatitis-scabies?from=&product_owner=normal_seller","sold":74,"seen":4263,"favorite":110,"updated":"2019-10-06 14:02:18","description":"SkinSure merupakan sebuah Lotion Produk Kesehatan kulit impor dari Negara Maju United Kingdom (INGGRIS) yang multiguna.SkinSure telah terbukti mampu mengobati segala macam penyakit kulit,seperti EKSIM,DERMATITIS,SCABIES,SELULITIS,LEPRA,KELOID,LUPUS,IMPETIGO,PSORIASIS,PENYAKIT KULIT BANDEL/MENAHUN,JAMUR KULIT,SEBOROIK,IMPETIGO,ROSACEA,LUKA BAKAR,LUKA GORES,IRITASI,ALERGI,KADAS,KUDIS,KURAP,KAKI PECAH-PECAH/KAPALAN,KUTU AIR,CACAR,LUKA BEKAS OPERASI,GATAL DI SEKITAR AREA INTIM,GATAL DI BAGIAN KEPALA,DIABETES,BISULAN,KANKER KULIT,MAU PUN INFEKSI pada kulit.\r\n\r\nSelain itu SkinSure juga sangat bagus untuk perawatan kulit seperti Luluran/Treatment,karna SkinSure ini terbuat dari bahan-bahan alami seperti Aloe Vera dan Minyak Jojoba yang bisa melembabkan dan melembutkan kulit,serta kulit menjadi jauh lebih bersih dan sehat setelah menggunakan nya.\r\n\r\n# Keunggulan SkinSure di banding produk lainnya :\r\n\r\n- SkinSure mempunyai 3 Langkah Action,yaitu : 1.) Membunuh kuman/bakteri yg menyebabkan terjadinya luka 2.) Mengobati luka/penyakit kulit 3.) Melindungi/mencegah kulit dari bakteri/kuman yg akan datang lagi selama dalam proses penyembuhan\r\n- SkinSure mengandung bahan Anti Bakterial yang bisa membunuh kuman sekaligus melindungi kulit kita dari Bakteri selama 4 jam\r\n- SkinSure tidak mengandung Alkohol,Lanolin,Steroids,Pewarna atau pun Perfume,jadi memang benar-benar obat alami yang bagus untuk kulit dan tidak menyebabkan iritasi atau pun kulit kering\r\n- SkinSure merupakan satu-satunya Obat Antiseptik yang tidak mengandung Alkohol,dan SkinSure ini sudah mendapatkan sertifikat HALAL dari MUI\r\n- SkinSure juga tidak lengket dan cepat meresap ke dalam kulit,pori-pori kulit akan bernafas secara alami setelah menggunakan SkinSure\r\n- Di Luar Negeri sana khususnya Benua Eropa para Dokter atau Rumah Sakit/klinik kulit juga sudah banyak yang memakai untuk di rekomendasikan pada para pasien nya yang mempunyai berbagai macam keluhan penyakit kulit\r\n- SkinSure juga telah Lulus Uji Klinis Dermatologist,dan sudah mendapatkan sertifikat HACCP sehingga produk yang aman di pakai dan tidak mengandung bahan-bahan kimia yang berbahaya\r\n- SkinSure juga telah terdaftar di kementerian kesehatan dan juga sudah mempunyai no reg BPOM,sehingga sudah mempunyai izin edar resmi di indonesia ini\r\n\r\n\r\nCara Mengobati Penyakit Kulit Sampai Sembuh Total dan Tuntas dengan cepat adalah menggunakan ? SkinSure yang terbukti ampuh, manjur dan mujarab mengatasi penyakit kulit.\r\n\r\n\r\n# SkinSure ULTRA bisa mengobati segala macam penyakit/permasalahan kulit,GARANSI 1 minggu apabila sudah memakai SkinSure dengan rutin selama 1 minggu tapi tidak ada hasil,UANG KEMBALI\r\n\r\n\r\nPemakaian : oleskan setiap 4 jam sekali untuk hasil maksimal,dan minimal 3 kali sehari untuk luka ringan","rating":0}
{"no":0,"title":"BOLA DURI MAGNET UNTUK TERAPI KESEHATAN","price":"7.500","seller":"AKBAR MEDIKA","sellerPlace":"Bekasi","url":"https://www.bukalapak.com/p/kesehatan-2359/obat-suplemen/obat-obatan/31kk0-jual-bola-duri-magnet-untuk-terapi-kesehatan?from=&product_owner=normal_seller","sold":330,"seen":2872,"favorite":108,"updated":"2019-10-14 21:51:41","description":"BOLA DURI MAGNET TERAPI KESEHATAN Harga Promo Saat ini : Rp15.000 Pembelian RESELLER, Harga Bisa NEGO..!! CS : Special Harga utk Beli Grosir / Reseller). Melancarkan peredaran darah,Menghilangkan kantuk dan Menghilangkan sakit kepala, Menyembuhkan kesemutan, Menghangatkan tangan yang terasa dingin, Melatih otot tangan, Bola ini juga Mengandung Efek Gelombang Magnet yang Baik untuk Kesehatan.","rating":0}
{"no":0,"title":"Obat Herbal Pria Perkasa-Kuat-Tahan Lama|Terdaftar BPOM","price":"160.000","seller":"Apotek Kharisma","sellerPlace":"Jakarta Barat","url":"https://www.bukalapak.com/p/kesehatan-2359/obat-suplemen/obat-obatan/1ff6by-jual-obat-herbal-pria-perkasa-kuat-tahan-lama-terdaftar-bpom?from=&product_owner=normal_seller","sold":23,"seen":3602,"favorite":59,"updated":"2019-10-13 20:10:42","description":"Obat Tahan Lama Herbal yang berfungsi meningkatkan produksi hormon testosteron, mengatasi ezakulasi dini, meningkatkan libido/gairah seksual, menjadikan erexi keras dan tahan lama berhubungan, mengentalkan dan memperbanyak sperma.\r\n\r\nLHIFORVIT terdaftar BPOM dan Halal MUI\r\nObat Herbal Lhiforvit telah terdaftar di Badan POM dengan nomor regristrasi POM TR. 093 301 521 dan halal MUI 05 yang dikususkan untuk pria dewasa agar erexi lebih keras, meningkatkan libido dan menjaga stamina. Lhiforvit memiliki banyak keunggulan dibanding obat kejantanan lainnya, sehingga Lhiforvit adalah solusi yang sangat tepat bagi Anda yang ingin meningkatkan gairah seksual.\r\n\r\nLhiforvit adalah solusi tepat untuk masalah sbb:\r\n&amp;amp;gt; Durasi berhubungan intim terlalu singkat, hanya beberapa menit sudah keluar sperma.\r\n&amp;amp;gt; Erexi tidak keras/loyo.\r\n&amp;amp;gt; Performa seksual Anda kian menurun dengan bertambahnya usia.\r\n&amp;amp;gt; Sperma yang keluar encer dan kurang banyak.\r\n&amp;amp;gt; Stamina Anda mudah terkuras hanya beberapa menit berhubungan sehingga aktivitas kerja Anda tidak maksimal.\r\n&amp;amp;gt; Gairah seksual yang tidak menggebu-gebu seperti dulu.\r\n\r\nKomposisi obat LHIFORVIT\r\n&amp;amp;gt; Piperis nigri fructus ekstrak (lada hitam) 80 m\r\n&amp;amp;gt; Ocinum sanctum folius ekstrak (kemangi) 89 mg\r\n&amp;amp;gt; Bee pollen 74 mg\r\n&amp;amp;gt; Pimpinella pruatjan radic ekstrak (purwo ceng) 81 mg\r\n&amp;amp;gt; Arecae semen ekstrak (buah pinang) 82 mg\r\n&amp;amp;gt; Piper retrofracti fructus ekstrak (cabai jawa) 89 mg\r\n\r\nDosis &amp;amp;amp; Cara Penggunaan\r\nDiminum 1 kapsul setelah makan dan 1 kapsul diminum 1 jam sebelum berhubungan untuk menjadikan Anda lelaki perkasa.\r\n\r\nDetail Produk:\r\nNama : Lhiforvit\r\nTampilan : Lihat foto di atas\r\nIsi : 30 Kapsul @500mg\r\nNo. Reg : POM TR 093 301 511","rating":0}
{"no":0,"title":"Madu Kuat Indrajit","price":"65.000","seller":"Hudzai","sellerPlace":"Bekasi","url":"https://www.bukalapak.com/p/kesehatan-2359/obat-suplemen/obat-obatan/2193a4-jual-madu-kuat-indrajit?from=&product_owner=normal_seller","sold":236,"seen":5587,"favorite":183,"updated":"2019-10-10 03:51:05","description":"stok ready\r\n\r\nMadu Indrajit, madu kuat yang menambah kegantengan Anda di ranjang\r\nBermain di ranjang dengan istri tercinta tentu membutuhkan kekuatan stamina. Tentu istri sangat menginginkan kepuasan dan rasa kasih sayang dari sang suami. Stamina yang prima tentu bisa memuaskan sang istri, dengan begitu istri pun makin sayang kepada suami.\r\n\r\nMadu kuat Indrajit terbuat dari madu murni dengan tambahan rempah seperti pas*k bumi dan lada hitam serta herbal lainnya yang berfungsi menambah kekuatan kejantanan Anda. Madu kuat ini 100% herbal alami tanpa efek samping, melainkan efek ke depan.\r\n\r\nLaki Banget\r\n-Minum madu Indrajit 1 jam sebelum bertanding untuk memunculkan efek laki banget.\r\n-Tidak ada efek samping\r\n-Terbuat dari bahan alami, tidak menimbulkan jantung deg-degan, hanya efek ke depan.\r\n-menambah keharmonisan\r\n\r\nIstri bisa memberikan madu Indrajit sebagai hadiah untuk suami agar makin harmonis.\r\n-Banyak manfaat\r\n-Aman bagi penderita diabetes, dapat mengentalkan sperma, menjaga daya tahan tubuh.\r\n\r\nManfaat madu kuat Indrajit\r\nInsya Allah bermanfaat untuk:\r\n- Mengobati badan letih dan loyo serta menjaga tubuh tetap segar setelah berhubungan suami istri\r\n- Mengentalkan sperma\r\n- Membantu awet muda\r\n- Penting untuk keharmonisan rumah tangga\r\n\r\nKomposisi :\r\n- Madu\r\n- Bawang Putih\r\n- Lada Hitam\r\n- P*s*k Bumi\r\n\r\nAturan minum:\r\n- Kocok terlebih dahulu\r\n- Pagi bangun tidur dan malam 1 jam sebelum berhubungan (pagi dan malam @ 2 sendok makan)\r\n- Baik dikonsumsi setiap hari untuk menjaga stamina dan kebugaran tanpa efek samping","rating":0}
{"no":0,"title":"Kuramo THO Kunyit","price":"170.000","seller":"Kuramo Herbal Store Sukabumi","sellerPlace":"Kab. Sukabumi","url":"https://www.bukalapak.com/p/kesehatan-2359/obat-suplemen/obat-obatan/1iplia-jual-kuramo-tho-kunyit?from=&product_owner=normal_seller","sold":246,"seen":3104,"favorite":64,"updated":"2019-10-14 06:25:43","description":"Kuramo Kunyit Mas adalah Obat Herbal asli Indonesia yang terbuat dari bahan kunyit organik yang diramu bersama rempah-rempah organik lainnya. BEBAS BAHAN KIMIA.\r\n\r\n\r\n\r\nKuramo Kunyit Mas sangat di rekomendasikan bagi Anda yang menderita masalah pencernaan, seperti gangguan asam lambung dan maag kronis, serta masalah kesehatan lainnya.\r\n\r\n\r\n\r\nKuramo Kunyit Mas Sudah Mendapatkan Izin Dari DEPKES PIRT Dengan No. 213320201820 Dan Bersetifikat HALAL MUI-JB 01121067881211 sehingga khsiat &amp; keamanannya tidak bisa di ragukan lagi. \r\n\r\n\r\n\r\nManfaat &amp; Khasiat Kuramo Kunyit Mas :\r\n\r\n\r\n\r\n1. Mengatasi Sembelit, \r\n\r\n2. Mengatasi mual, \r\n\r\n3. Mengatasi mulas, \r\n\r\n4. Mengatasi perih, \r\n\r\n5. Mengatasi kembung, \r\n\r\n6. Mengatasi gastritis, \r\n\r\n7. Mengatasi perut begah, \r\n\r\n8. Mengatasi radang usus, serta\r\n\r\n9. Meningkatkan kualitas ASI\r\n\r\n10. Mencegah kanker dan tumor\r\n\r\n11. berfungsi sebagai antibiotik alami\r\n\r\n\r\n\r\nKuramo Kunyit Mas sudah terbukti berdasarkan testimoni dapat mengobati berbagai macam masalah kesehatan salah satunya seperti penyakit Maag Kronis &amp; Asam Lambung\r\n\r\n\r\n\r\nCara Konsumsi :\r\n\r\n\r\n\r\nSeduh 1 Sendok untuk 1 Gelas - 3 Kali dalam 1 hari - Pagi, Siang, Malam","rating":0}
{"no":0,"title":"Minyak Kayu Putih Cap Lang 30 ml","price":"12.000","seller":"Apotik Kosmetik Bintang Jaya","sellerPlace":"Jakarta Timur","url":"https://www.bukalapak.com/p/kesehatan-2359/obat-suplemen/obat-obatan/uhe2z-jual-minyak-kayu-putih-cap-lang-30-ml?from=&product_owner=normal_seller","sold":42,"seen":848,"favorite":6,"updated":"2019-10-14 14:51:18","description":"Minyak Kayu Putih Cap Lang adalah produk minyak kayu putih murni 100 % yg berkhasiat untuk membantu meringankan:\r\n1. Sakit perut\r\n2. Perut kembung.\r\n3. Rasa mual.\r\n4. Gatal-gatal akibat gigitan serangga atau nyamuk.\r\n\r\n1 botol berisi 30 ml.\r\nExpired date: Februari 2023.\r\nProduksi: PT. Eagle Indo Pharma, Indonesia.\r\nTerdaftar di BPOM TR 1.","rating":0}
{"no":0,"title":"Gaviscon Double Action - Solusi Maag Gerd AsamLambung - ReadyStock","price":"225.000","seller":"JamuGendong","sellerPlace":"Tangerang Selatan","url":"https://www.bukalapak.com/p/kesehatan-2359/obat-suplemen/obat-obatan/cmvmam-jual-gaviscon-double-action-solusi-maag-gerd-asamlambung-readystock?from=&product_owner=normal_seller","sold":34,"seen":795,"favorite":9,"updated":"2019-09-20 12:13:10","description":"|| Selama Barang Terpajang || Ready Stock ya... || Langsung Order Aja\r\nPasti Aman Pasti Asli Pasti Berkualitass \r\n\r\nGaviscon Double Action\r\n150ml\r\nExp Date 2020 \r\n\r\n100% Original Produk Impor-Money Back Guarantee \r\n\r\nSolusi Ampuh Maag, HeartBurn &amp; AsamLambung \r\n\r\n|| Ready GoSend &amp; Grab || \r\n\r\n==============================\r\nKESEHATAN anda adalah KEBAHAGIAAN kami\r\n==============================\r\n/ Be a smart Buyer\\ produk Original langsung dari importir /\\\r\n------------------------------------------------------------------------------\r\nDilarang Crop / Copy Gambar / Deskripsi Tanpa Ijin = Mencuri HakCipta\r\n--------------------------------------------------------------------------------------","rating":0}
{"no":0,"title":"permen hamer ginseng coffee candy","price":"500.000","seller":"syarul","sellerPlace":"Jakarta Timur","url":"https://www.bukalapak.com/p/kesehatan-2359/obat-suplemen/obat-obatan/lukuvz-jual-permen-hamer-ginseng-coffee-candy?from=&product_owner=normal_seller","sold":43,"seen":1249,"favorite":20,"updated":"2019-10-14 20:01:24","description":"melayani eceran dan grosiran exp terbaru","rating":0}
{"no":0,"title":"ROCHE Softclik Lancet Accu-check 200pcs","price":"1.200","seller":"EKO Medika","sellerPlace":"Jakarta Timur","url":"https://www.bukalapak.com/p/kesehatan-2359/obat-suplemen/obat-obatan/i1ga3-jual-roche-softclik-lancet-accu-check-200pcs?from=&product_owner=normal_seller","sold":1081,"seen":786,"favorite":19,"updated":"2019-09-15 09:56:21","description":"300.ROC.01141\r\n=============\r\nDeskripsi Produk\r\n\r\nSteril-R.\r\n0,4 mm, 28g.\r\nLancets.\r\nAccu-Chek Softclix.\r\nAccu-Chek Softclix plus.\r\nAccu-Chek Softclix klasik.\r\nAccu-Chek dan Softclix adalah merek dagang dari Roche.\r\n\r\nHARGA DIATAS PER PCS\r\n\r\nminimal order 25strip","rating":0}
{"no":0,"title":"Obat kuat oles hajar saadah herbal oles kuat pria original","price":"21.500","seller":"Dalyta_herbal","sellerPlace":"Bekasi","url":"https://www.bukalapak.com/p/kesehatan-2359/obat-suplemen/obat-obatan/1cnm2me-jual-obat-kuat-oles-hajar-saadah-herbal-oles-kuat-pria-original?from=&product_owner=normal_seller","sold":37,"seen":1466,"favorite":14,"updated":"2019-10-11 15:12:40","description":"==(BARANG READY STOCK)==\r\n\r\n*Jika ingin privasi silahkan pilih expedisi JNE / TIKI, kalau J&T / SICEPAT pakai resi otomatis dan nama barang akan terlihat.\r\n\r\n*Jika ingin menggunakan expedisi J&T untuk barang cair harap chat terlebih dahulu karena J&T untuk barang cair hanya pengiriman pulau jawa.\r\n\r\n*Terima pesanan Full 24jam, lebih cepat diproses untuk jam 7.00 sampai jam 19.00.\r\n\r\n*Terima order setiap hari (order dihari minggu via tiki dikirim hari senin atau diganti JNE).\r\n\r\n*Proses dijamin CEPAT, AMAN 100% dan ASLI.\r\n\r\n\r\nAsli 100%!!!\r\nReady, langsung ATC!\r\nJika di estalase masih ada, berarti barang READY.\r\nBagi ya sudah terima barang, segera konfirmasi dan berikan review thanks :)\r\n\r\nHAJAR SA'ADAH CAIR\r\nHJ MESIR SA'ADAH ORI 100% IMPORT MESIR\r\n\r\nTEKNOLOGI PENGAWETAN MODERN &amp;amp; AMAN dengan MASA KADALUARSA yang lama\r\n\r\nSebuah ramuan tradisional yg konon digunakan sebagai anestesi sementara telah ditemukan pada zaman firaun,berasal dari getah getahan tumbuhan yang hanya ada di mesir.\r\n\r\nCOCOK BUAT BERCINTA DIATAS RANJANG BIKIN LELAKI TANGGUH DAN PERCAYA DIRI\r\nBikin ranjang bergoyang istri puas suami makin di sayang.\r\n\r\nSensasi bercinta anda akan semakin dahsyat ranjang bergoyang.\r\n\r\nCARA PAKAI:\r\nProduk dioleskan pada saat tidak tegang,obat akan meresap dan memperbesar pembuluh darah sehingga rongga pembuluh darah akan menekan ureter. Oleskan secara meratan dibatang bagian bawah. Rasa hangat yg timbul menandakan obat meresap secara optimal. Setelah dioleskan tunggu 30 menit ketika rasa hangat sudah hilang terus dicuci dengan sabun. Lama hubungan minimal bisa 15 hingga 30 menit lebih lama tergantung sensitifitas setiap orang. Manfaat produk bisa bertahan hingga 2 hari\r\n\r\nStop penggunaan obat obatan yang membahayakan tubuh anda. Pilih hanya yang aman","rating":0}
{"no":0,"title":"Zheng Gu Shui 60 ml","price":"52.000","seller":"Murni Jaya","sellerPlace":"Jakarta Barat","url":"https://www.bukalapak.com/p/kesehatan-2359/obat-suplemen/obat-obatan/6bm9dq-jual-zheng-gu-shui-60-ml?from=&product_owner=normal_seller","sold":46,"seen":691,"favorite":18,"updated":"2019-10-14 14:45:43","description":"Barang Dijamin Asli Herbal 100%!!\r\nPengiriman Barang Cepat!!\r\nBarang Dipacking Dengan Rapih!!\r\n\r\n\"Semprot\" Zheng Gu Sui' 60ml \r\n(Obat Luar)\r\n\r\nKhasiat &amp;amp;amp;amp;amp;amp;amp;amp;amp;amp;amp;amp;amp;amp;amp;amp;amp;amp;amp;amp;amp;amp; Kegunaan :\r\n* Membantu penyembuhan retak tulang dan keseleo\r\n* Meringankan rasa sakit rematik\r\n* Meredakan bengkak\r\n* Melancarkan sirkulasi darah\r\n* Meredakan kelelahan sebelum dan setelah berolahraga dan aktivititas fisik\r\n\r\nCara Pakai &amp;amp;amp;amp;amp;amp;amp;amp;amp;amp;amp;amp;amp;amp;amp;amp;amp;amp;amp;amp;amp;amp; Dosis :\r\n* Oles atau semprotkan pada bagian yang sakit beberapa kali sehari\r\n* Patah tulang atau dislokasi harus dikembalikan ke posisi yang benar sebelum pemakaian obat\r\n* Jika luka berdarah, hentikan perdarahan dan gosokkan obat di sekitar luka. Jangan gosokkan pada luka terbuka\r\n* Jangan diperban setelah pemakaian obat untuk menghindari kulit melepuh karena hambatan darah\r\n\r\nKomposisi : \r\nCrotonis Fructus \r\nCinnamomi Cassiae Cortex\r\nAngelicae Dahuricae Radix\r\nPseudoginseng Radix\r\nPiperis Kadsurae Caulis\r\nCynanchi Paniculati Radix\r\nCurcumae Rhizoma\r\nPolygoni Cuspidati Rhizoma\r\nZanthoxyli Radix\r\nGleditsiae Sinensis Fructus\r\n\r\nDIIMPORT OLEH :\r\nPT. SARAS SUBUR ABADI\r\nPOM TI. 164 650 651","rating":0}
{"no":0,"title":"Geranium Salep Kulit'10gr-Wilfordii Ointment SOHC","price":"11.000","seller":"Murni Jaya","sellerPlace":"Jakarta Barat","url":"https://www.bukalapak.com/p/kesehatan-2359/obat-suplemen/obat-obatan/7rs3r9-jual-geranium-salep-kulit-10gr-wilfordii-ointment-sohc?from=&product_owner=normal_seller","sold":103,"seen":333,"favorite":11,"updated":"2019-10-02 17:27:13","description":"Barang Dijamin Asli Herbal 100%!!\r\nPengiriman Barang Cepat!!\r\nBarang Dipacking dengan Rapih!!\r\n\r\nSalep Kulit Geranium'10gr\r\n Wilfordii Ointment SOHC\r\n\r\nKhasiat & Kegunaan : \r\n-. Untuk gatal-gatal eksim\r\n-. Tersiram air panas/luka bakar\r\n-. Bengkak gigitan serangga\r\n-. Alergi kulit \r\n-. Meremajakan kulit\r\n\r\nBentuk : Salep & berwarna coklat\r\n\r\nPakai & Dosis : \r\nOleskan pada daerah yang gatal/luka,2-3 x sehari\r\n\r\nKemasan : Kotak berisi tube @10gr\r\n\r\nKomposisi : Geranium Wilfordii\r\n\r\nDIIMPORT OLEH : \r\nSOHC\r\nPT. SKY ONE HEALTH CARE\r\nPOM TI. 104 743 051","rating":0}
{"no":0,"title":"Muscle Juice 4.96 Lbs (5 Lbs) Ultimate Nutrition","price":"492.500","seller":"IvanZ Supplement","sellerPlace":"Jakarta Barat","url":"https://www.bukalapak.com/p/kesehatan-2359/obat-suplemen/obat-obatan/1kz0f7-jual-muscle-juice-4-96-lbs-5-lbs-ultimate-nutrition?from=&product_owner=normal_seller","sold":80,"seen":4087,"favorite":60,"updated":"2019-10-14 19:18:27","description":"PROMO\r\n\r\n''FREE RANDOM COLOR SHAKER''\r\nTersedia rasa chocolate, strawberry & vanila (apabila tidak tulis rasa, dikirim random) Muscle Juice 4.96 Lbs (5 Lbs) Ultimate Nutrition promo ultimate nutrition","rating":0}
{"no":0,"title":"Gom / borax glycerine 10% / obat sariawan","price":"3.500","seller":"Aneka Lapak 77","sellerPlace":"Jakarta Barat","url":"https://www.bukalapak.com/p/kesehatan-2359/obat-suplemen/obat-obatan/1d97dj-jual-gom-borax-glycerine-10-obat-sariawan?from=&product_owner=normal_seller","sold":805,"seen":4173,"favorite":181,"updated":"2019-10-15 15:45:27","description":"GOM \r\n\r\nBorax Glycerine 10 % \r\n\r\nkegunanaan :\r\n- obat sariawan yang efektif \r\n- untuk membuat slime \r\n\r\nisi 8ml","rating":0}
{"no":0,"title":"OMEGA SQUA K-LINK","price":"138.000","seller":"Herbal ORIGINAL","sellerPlace":"Depok","url":"https://www.bukalapak.com/p/kesehatan-2359/obat-suplemen/obat-obatan/8axbrw-jual-omega-squa-k-link?from=&product_owner=normal_seller","sold":62,"seen":30859,"favorite":49,"updated":"2019-10-11 16:09:16","description":"K-OmegaSqua merupakan suplemen yang sangat bermanfaat untuk membantu menjaga kesehatan jantung, kulit dan otak manusia.\r\nK-OmegaSqua mengandung tiga unsur yang bekerja secara maksimal dan sinergis untuk menjaga kesehatan jantung, kulit dan otak.\r\n\r\nOMEGA 3 (EPA &amp; DHA)\r\nBersumber dari ikan Salmon Norwegia yang mempunyai kandungan Omega 3 yang paling tinggi yaitu 70% dengan perbandingan EPA 40% dan DHA 30%.\r\n\r\nSQUALENE\r\nSangat bermanfaat untuk meningkatkan kadar oksigen dalam sel dan menjaga kesehatan kulit. Merupakan minyak ikan hiu putih yang hidup di samudera Pasifik dengan kedalaman 600-1000 meter dengan kondisi lingkungan tanpa cahaya matahari, tekanan tinggi dan miskin akan oksigen.\r\n\r\nVITAMIN E\r\nMerupakan vitamin E natural yang bermanfaat sebagai antioksidan yang mampu mencegah terbentuknya plak pada dinding pembuluh darah, menjaga kelembaban kulit dan lain-lain.\r\n\r\nMANFAAT K-OMEGASQUA MEMBANTU :\r\n\r\nMenurunkan kadar kolesterol dan trigliserida dalam darah.\r\nMengatasi rasa sakit dan radang pada penderita rematik, osteoarthritis, psoriasis, eksim, dll.\r\nMenjaga kelenturan pembuluh darah dan menurunkan tekanan darah tinggi.\r\nMenjaga kelenturan pembuluh darah dan menurunkan tekanan darah tinggi.\r\nMencegah terjadinya penyumbatan pada pembuluh darah.\r\nMencegah terjadinya kanker.\r\nMenjaga kesehatan kulit dari terinfeksi bakteri dan jamur.\r\nMengatur denyut jantung sehingga mencegah serangan jantung.\r\nMeningkatkan sistem pertahanan tubuh.\r\nMencegah terserang penyakit influenza dan batuk.\r\nMempercepat penyembuhan luka, jerawat dan penyakit kulit lainnya.\r\nPada ibu hamil, mencegah terjadinya peningkatan tekanan darah yang berlebihan selama hamil, membantu perkembangan otak dan meningkatkan berat badan janin serta mencegah bayi lahir prematur.\r\nMembantu regenerasi sel saraf yang mati seperti pada penderita kencing manis dan orang tua.\r\nmencegah terjadinya serangan asma.","rating":0}
{"no":0,"title":"MADU HITAM RATU LEBAH","price":"35.000","seller":"Herbal ORIGINAL","sellerPlace":"Depok","url":"https://www.bukalapak.com/p/kesehatan-2359/obat-suplemen/obat-obatan/8sfp6f-jual-madu-hitam-ratu-lebah?from=&product_owner=normal_seller","sold":54,"seen":1145,"favorite":14,"updated":"2019-10-12 16:07:45","description":"madu hitam ratu lebah adalah madu hitam yg di kombinasikan dg propolis sehingga menimbulkan reaksi yg lebih di banding madu hitam biasa..\r\n\r\ndiantara khasiat madu ratu lebah adalah untuk mengobati penyakit seperti :\r\n\r\n- diabetes\r\n- kolestrol\r\n- hipertensi\r\n- kurang stamina\r\n- pegal linu\r\n- capek2\r\n- meningkatkan imunitas\r\n- menjaga stamina\r\n- multivitamin\r\n- dll","rating":0}
{"no":0,"title":"Fiesta Banana isi 3 - kondom kontrasepsi","price":"9.900","seller":"Happy Life Forever","sellerPlace":"Bandung","url":"https://www.bukalapak.com/p/kesehatan-2359/obat-suplemen/obat-obatan/19stdu-jual-fiesta-banana-isi-3-kondom-kontrasepsi?from=&product_owner=normal_seller","sold":68,"seen":901,"favorite":12,"updated":"2019-10-04 15:54:03","description":"Packing aman (privacy terjamin)","rating":0}
{"no":0,"title":"Sandal Refleksi Glisten Untuk Kesehatan","price":"27.000","seller":"Trust MediShop","sellerPlace":"Depok","url":"https://www.bukalapak.com/p/kesehatan-2359/obat-suplemen/obat-obatan/1v6l0-jual-sandal-refleksi-glisten-untuk-kesehatan?from=&product_owner=normal_seller","sold":165,"seen":3204,"favorite":87,"updated":"2019-10-12 13:47:21","description":"Harga grosir tidak bisa pilih ukuran ya.\r\nKhusus grosir dikirim seri\r\n\r\n#NO DROPSHIPPER\r\n\r\nUpdate stok 28 JUNI\r\nSize : 10, 10.5\r\n\r\nPANDUAN ukuran:\r\nNo. 10 (40) \r\nNo. 10,5 (41) \r\n\r\nMOHON TIDAK ORDER DILUAR DARI NOMOR YANG DI UPDATE. JIKA MASIH ORDER NOMOR LAIN AKAN KAMI KIRIM ACAK AJA SESUAI STOK TANPA KONFIRMASI DAHULU. Terima Kasih\r\n\r\nKHUSUS UKURAN 11 (42), BEDA IKLAN. Jika masih order Ukuran 11 di iklan ini, kami kirim acak aja sesuai stok tanpa konfirmasi terlebih dahulu. Terima Kasih\r\n\r\nWarna RANDOM\r\nGa bisa pilih warna\r\nNo tanya jawab dan request warna\r\n\r\nSandal bisa dipakai di dalam rumah saat bersantai ataupun saat keluar rumah (menjalani aktifitas). Pakailah cukup kurang lebih sekitar 20 menit sehari selama 1-2 bulan, maka tubuh akan terasa lebih sehat\r\n\r\nUntuk pemakaian pertama kalinya, kaki mungkin akan terasa sedikit sakit / panas karena belum terbiasa &amp; hal tersebut berarti fungsi tonkolan-tonjolan tersebut berjalan dengan baik karena mengenai titik-titik akupuntur pada kaki secara tepat. Namun, bila sudah terbiasa, maka rasa panas / sakit tersebut berangsur-angsur hilang &amp; badan terasa lebih segar &amp; sehat.","rating":0}
{"no":0,"title":"Obat Wasir Ambeien Ambeyen Herbal Alami Untuk Anak Pria Dan Wanita Serta Ibu Hamil Denature","price":"420.000","seller":"juragan amanah","sellerPlace":"Cilacap","url":"https://www.bukalapak.com/p/kesehatan-2359/obat-suplemen/obat-obatan/1xgv0qe-jual-obat-wasir-ambeien-ambeyen-herbal-alami-untuk-anak-pria-dan-wanita-serta-ibu-hamil-denature?from=&product_owner=normal_seller","sold":14,"seen":39,"favorite":1,"updated":"2019-09-30 13:04:35","description":"#Stock\r\n selalu tersedia. Jangan ragu apabila mau tanya stock bisa\r\n#Garansi\r\n asli de Nature Official (resmi)\r\n#Packing\r\n Rapih dan Aman, RAHASIA TERJAMIN 100%\r\n- bubble wrap untuk produk/ botol yg dengan kaca\r\n- dus putih (tidak tembus pandang), dibalut dengan karton warna (tidak tembus pandang), dan dilakban rapat bolak-balik. (tidak akan sobek apabila tidak disobek dengan cutter)\r\n- RAHASIA TERJAMIN bos\r\n\r\n# Kenapa Obat Wasir/ Ambeien Herbal de Nature Berkhasiat Untuk Menyembuhkan Tanpa Operasi?\r\nKapsul AmbeJoss terbuat dari bahan-bahan herbal berkualitas yang terdiri dari Mahkota Dewa, Daun Ungu, dan Kunyit Putih. Ketiga bahan herbal ini mempunyai kandungan yang sangat dahsyat untuk menyembuhkan wasir tanpa operasi.\r\n\r\n# Khasiat Daun Unggu\r\n&amp;amp;amp;amp;amp;amp;amp;amp;gt; Mengobati sakit ambeien atau wasir\r\n&amp;amp;amp;amp;amp;amp;amp;amp;gt; Mengandung handeuleum yang berkhasiat mengatasi pembekakan\r\n&amp;amp;amp;amp;amp;amp;amp;amp;gt; Mengandung Flavonoloid, Glikosid, steroid, saponin, tanin yang bersifat anti inflamasi sehingga dapat mengurangi &amp;amp;amp;amp;amp;amp;amp;amp;gt; Pembengkakan / peradangan\r\n&amp;amp;amp;amp;amp;amp;amp;amp;gt; Menghilangkan rasa nyeri dan pendarahan.\r\n&amp;amp;amp;amp;amp;amp;amp;amp;gt; Menyembuhkan aneka macam luka pada kulit.\r\n&amp;amp;amp;amp;amp;amp;amp;amp;gt; Menyembuhkan reumatik, sakit encok dan sakit pada persendian\r\n&amp;amp;amp;amp;amp;amp;amp;amp;gt; Memperlancar Datang Bulan\r\n&amp;amp;amp;amp;amp;amp;amp;amp;gt; Menurut anjuran staf Balai Penelitian Tanaman Obat (BPTO) bahwa daun ungu tersebut sudah populer sebagai obat ambeien / wasir tanpa operasi. Daun ungu ini menjadi obat mujarab tradisional tanpa efek samping.\r\n\r\n# Khasiat Mahkota Dewa\r\n&amp;amp;amp;amp;amp;amp;amp;amp;gt; Mencegah pertumbuhan sel sel tumor dan kanker\r\n&amp;amp;amp;amp;amp;amp;amp;amp;gt; Menyembuhkan rematik dan asam urat\r\n&amp;amp;amp;amp;amp;amp;amp;amp;gt; Penetralisir racun dalam tubuh\r\n&amp;amp;amp;amp;amp;amp;amp;amp;gt; Melancarkan peredarah.","rating":0}
{"no":0,"title":"zheng gu sui tiga puluh ml dr ssa","price":"30.000","seller":"sinar gemilang shop","sellerPlace":"Jakarta Utara","url":"https://www.bukalapak.com/p/kesehatan-2359/obat-suplemen/obat-obatan/24952yc-jual-zheng-gu-sui-tiga-puluh-ml-dr-ssa?from=&product_owner=normal_seller","sold":0,"seen":0,"favorite":0,"updated":"2019-10-12 22:24:06","description":"ZHENG GU SHUI ( Arak obat gosok ) \r\nDigunakan untuk membantu meringankan luka dalam seperti ,\r\nTerpukul , tulang retak , terkilir , kram dan nyeri sendi . \r\nKomposisi : \r\nCrotonis Fructus......................18mL\r\nCinnamomi Cassiae Cortex......15mL \r\nAngelicae Dahuricae Radix.......13mL \r\nPsedoginseng Radix.................25mL\r\nPiperis Kadsurae Caulis..............3mL\r\nCynanchi Paniculati Radix..........2mL\r\nCurcumae Rhizoma...................6mL\r\nPolygoni Cuspidati Rhizoma......6mL\r\nZanthoxyli Radix........................6mL\r\nGleditsiae Sinensis Fructus........6mL\r\n\r\nCara pakai dan dosis : \r\nOleskan pada bagian yang sakit 3 - 4 kali sehari \r\nKemasan : botol berisi @ 30mL \r\nPerhatian : hanya untuk pemakain luar \r\nCara penyimpanan : \r\nSimpan di tempat sejuk dan kering , terhindar dari sinar matahari langsing.\r\nSimpan pada suhu di bawah 30 C \r\nDiproduksi oleh : Guangxi Yulin Pharmaceutical Co.,Ltd. China\r\nDiimpor Oleh : PT. Saras Subur Abadi , jakarta - indonesia \r\nPOM TI 164 650 651","rating":0}
{"no":0,"title":"Lucas papaw ointment 25g salep lipbalm","price":"110.000","seller":"healthy111","sellerPlace":"Jakarta Barat","url":"https://www.bukalapak.com/p/kesehatan-2359/obat-suplemen/obat-obatan/2a8b90z-jual-lucas-papaw-ointment-25g-salep-lipbalm?from=&product_owner=normal_seller","sold":0,"seen":2,"favorite":0,"updated":"2019-10-03 23:28:28","description":"100% ASLI DARI DISTRIBUTOR DI AUSTRALIA.\r\n\r\n\r\nSALEP LUCAS PAPAW ASLI 100% dari AUSTRALIA. TOP SELLING PRODUCT DI AUSTRALIA.\r\n\r\n\r\nKEMASAN PRAKTIS 25gr. TIDAK MAKAN TEMPAT DI TAS.\r\n\r\n\r\nEXPIRY: 11/2020\r\n\r\n\r\nREADY STOCK!!\r\n\r\n\r\nSo Natural. Anak anak pun dapat menggunakannya\r\n\r\n\r\nLucas papaw diformulasikan dari buah pepaya (Carica Papaya) yang ditanam di Queensland.\r\n\r\n\r\nSangat Popular karena begitu natural nya dalam menyembuhkan luka.\r\n\r\n\r\nBisa dipake buat lipbalm ataupun salep.\r\n\r\n\r\nBerikut Manfaatnya :\r\n\r\n\r\n1.\r\nBekas luka gigitan nyamuk yang kehitaman akan hilang.\r\n2.\r\nLuka bakar ringan dan kulit melepuh akibat terbakar.\r\n3.\r\nKulit yang terbakar sinar matahari\r\n4.\r\nLuka setelah jatuh dan luka sayatan\r\n5.\r\nRuam popok\r\n6.\r\nGigitan serangga\r\n7.\r\nLuka akibat tertancap duri dan serpihan kaca\r\n8.\r\nMengurangi gejala eksim dan dermatitis\r\n9.\r\nBisa juga utk Melembabkan bibir dan kulit\r\n\r\n\r\n\r\nLucas papaw mengandung petroleum jelly yang murni dan memenuhi standar keamanan FDA AS dan Pharmacopeia Eropa.","rating":0}
{"no":0,"title":"LANBENA anti scras untuk menghilangkan bekas luka-bekas jerawat-gigitan serangga-bekas operasi original","price":"125.000","seller":"MAKMUR JAYA","sellerPlace":"Jakarta Barat","url":"https://www.bukalapak.com/p/kesehatan-2359/obat-suplemen/obat-obatan/1ngs0gb-jual-lanbena-anti-scras-untuk-menghilangkan-bekas-luka-bekas-jerawat-gigitan-serangga-bekas-operasi-original?from=&product_owner=normal_seller","sold":1,"seen":134,"favorite":1,"updated":"2019-10-12 22:33:26","description":"TERBUKTI AMPUH\r\n\r\nTerutama Berlaku: Pit yang disebabkan oleh jerawat, bekas luka jerawat, bekas gigitan serangga, tanda gosok dan sebagainya; Efektif membantu menghilangkan: luka bakar, luka bakar, tanda operasi dan tanda pengaruh lainnya.\r\nMengembalikan dan menghaluskan kulit: Mempromosikan regenerasi faktor pertumbuhan kulit, mensimulasikan, sel kulit dan keratinosit dan menghasilkan kolagen.\r\nSecara efektif mengembalikan, mengurangi bekas jerawat dan bekas luka lainnya karena kerusakan kulit; Menyembuhkan bekas luka yang disebabkan oleh operasi atau luka\r\nPenggunaan: Gunakan beberapa kali sehari-hari. Sebelum digunakan, bersihkan dan hancurkan luka atau ketakutan, dan oleskan beberapa gel ke atasnya dengan pijatan lembut.\r\nCatatan: Tolong taruh di tempat yang sejuk dan kering tanpa jangkauan anak-anak jika terjadi menelan atau menyalahgunakannya","rating":0}
{"no":0,"title":"Obat Vitamin Penambah Stamina Libido AMPUH Best Seller Original USA","price":"325.000","seller":"hudi jaya","sellerPlace":"Jakarta Pusat","url":"https://www.bukalapak.com/p/kesehatan-2359/obat-suplemen/obat-obatan/1y2m9jy-jual-obat-vitamin-penambah-stamina-libido-ampuh-best-seller-original-usa?from=&product_owner=normal_seller","sold":68,"seen":126,"favorite":35,"updated":"2019-10-15 11:14:42","description":"PURITAN MACA 1000 mg Exotic Herb for Men 1000 mg 60 Cap\r\n--------------------------------------------------------------------------------------\r\n\r\n100% ORI IMPOR USA Puritan..HATI-HATI Toko Lain TIDAK ORI/PALSU...\r\n** DISTRIBUTOR RESMI ** BAHAYA BELI Toko Lain*PALSU CEK ke wwwpuritancom\r\n***WASPADA BARANG PALSU*** TELITI CERMAT SEBELUM MEMBELI*** \r\n****Apakah ada Referensi GROSIR SUPLEMEN USA di Website wwwpuritancom?**** MACA dikenal sbg Ginseng Peru. Sejak ribuan tahun lalu bangsa Inca sudah mengenal khasiat Maca dalam meningkatkan energi dan libido. Riset-riset belakangan bahkan menemukan jauh lebih banyak lagi manfaat Maca bagi kesehatan manusia. antara lain:\r\n1. Meningkatkan libido & fungsi seksual\r\n2. Meningkatkan stamina & energi; meningkatkan prestasi atlit\r\n3. Memperbaiki kesuburan/ fertilitas\r\n4. Mengurangi depresi\r\n5. Muscle building (pembentukan massa otot)\r\n6. Memulihkan kelelahan kronis chronic fatigue syndrome (CFS)\r\n7. Meningkatkan daya ingat\r\n8. Untuk mengatasi tulang keropos (osteoporosis). Kesuburan rambut, dan mencegah kerontokan\r\nAturan Pakai : 1 kapsul, 1-2 x sehari, sesudah makan","rating":0}
{"no":0,"title":"Yunnan Baiyao Capsule obat luka dalam dan obat sipilis ampuh kencing nanah raja singa original bpom","price":"120.000","seller":"Manjurmandiri shop","sellerPlace":"Tangerang","url":"https://www.bukalapak.com/p/kesehatan-2359/obat-suplemen/obat-obatan/1shq37e-jual-yunnan-baiyao-capsule-obat-luka-dalam-dan-obat-sipilis-ampuh-kencing-nanah-raja-singa-original-bpom?from=&product_owner=normal_seller","sold":0,"seen":47,"favorite":0,"updated":"2019-09-13 19:11:21","description":">> Produk Dijamin 100% Original Asli!! >> Pengiriman Cepat !! >> Packing Rapih !! \"Mohon konfirmasi stok barang sebelum memesan\" Dapat digunakan untuk: - menghentikan pendarahan, menghilangkan nyeri, bengkak dan memar, serta mengobati patah tulang akibat terjatuh / terpukul - mengobati radang lambung menahun, nyeri lambung, radang usus, tukak lambung dan usus serta pendarahan pada saluran pencernaan dan pernapasan - menghentikan pendarahan berlebihan saat haid dan setelah melahirkan - mengobati wasir yang disertai nyeri, bengkak dan pendarahan Cara minum dan dosis: 1. Pada luka jatuh/terpukul cukup berat, minum terlebih dahulu satu butir Pil Keselamatan (pil berwarna merah), kemudian minum Kapsul Yunnan Baiyao 4 x sehari @ 2 kapsul. 15 kotak sebagai satu seri pengobatan. Bila luka jatuh/terpukul ringan minum 4 x sehari @ 2 kapsul (tidak perlu minum Pil Keselamatan), 3 kotak sebagai satu ser