{"no":0,"title":"Obat Herbal Mata Minus 100 % Aman + Pijat Mata, Obat Mata Minus Herbal, Tetes Mata Minus Herbal, Obat Mata Rabun Jauh","price":"478.500","seller":"Nusa Herbal","sellerPlace":"Jepara","url":"https://www.bukalapak.com/p/kesehatan-2359/obat-suplemen/obat-obatan/62e0uw-jual-obat-herbal-mata-minus-100-aman-pijat-mata-obat-mata-minus-herbal-tetes-mata-minus-herbal-obat-mata-rabun-jauh?from=&product_owner=normal_seller","sold":10,"seen":1982,"favorite":41,"updated":"2019-09-30 17:48:23","description":"Menginginkan kesehatan mata secara alami memang sangat baik karena dipandang lebih aman dilakukan. Tapi jangan salah ya. Tidak jarang juga ada penjual nakal yang memanfaatkan kebutuhan Anda itu untuk hanya sekedar menjual obat mata palsu atau bahkan berbahaya.\r\n\r\nHal itu banyak dikonsultasikan ke kami. Sebelumnya banyak klien kami yang sudah pernah membeli obat terapi mata yang katanya alami. Namun sayang, mereka tidak kunjung juga mengalami peningkatan kondisi meski sudah habis 5 paket. Ini sangat tragis.\r\n\r\nNormalnya, dengan 1 paket saja menggunakan ramuan herbal, kemungkinan besar sudah ada perubahan yang bisa Anda rasakan. Jangan mau ditipu dengan stigma bahwa \"Reaksi obat herbal memang lebih lama dari obat kimia. Maka Anda harus menjalani terapi rutin selama 6 bulan untuk merasakan khasiatnya\". Itu hanya stigma untuk membohongi Anda supaya bisa beli dan beli terus selama 6 bulan.\r\n\r\nUntuk memastikan keamanan dan efektifitas ramuan herbal, tentu saja Anda harus mendapatkannya langsung dari seorang Herbalis. Ibarat Anda sakit, kepada siapa Anda akan memeriksakan diri? tentu saja kepada Dokter. Dan tentu saja beliaulah yang boleh memberikan resep obat kepada Anda.\r\n\r\nBegitu pula jika Anda menginginkan obat herbal yang aman dan efektif. Dapatkanlah dari seorang Herbalis. Ya, karena Herbalis adalah seorang yang ahli dalam pengobatan herbal. Jangan pertaruhkan kesehatan mata Anda dengan membeli obat herbal terapi mata dari sembarang orang.\r\n\r\n\r\n\r\nISI DALAM PAKET\r\n\r\n1). Satu Botol Kapsul Herbal (80 kapsul herbal). Cukup untuk 1 bulan terapi.\r\n\r\n2). Satu botol tetes mata herbal (12 ml). Cukup unutk lebih dari 1 bulan\r\n\r\n3). CD Panduan Pijat Quick Accupresure Khusus untuk mata. (Terbukti mampu mempercepat pemulihan kondisi mata hingga 40 %)\r\n\r\n4). Panduan penggunaan langsung dari Herbalis\r\n\r\n5) Gratis konsultasi dengan Herbalis selama menjalani terapi\r\n\r\n\r\n\r\n\r\n\r\n\r\nApakah Dengan 1 Kali Terapi Rabun Jauh / Minus Bisa Sembuh Total?\r\n\r\nBeberapa klien kami memang ada yang bisa sembuh total dengan hanya 1 paket terapi. Tentu tergantung seberapa parah kondisi mata Anda saat melakukan terapi. Semakin cepat Anda melakukan terapi mata, maka semakin cepat pula Anda bisa merasakan kesembuhan.\r\n\r\nSebaliknya, semakin Anda menunda-nunda untuk melakukan terapi, maka kondisi mata Anda akan semakin parah dan membutuhkan waktu terapi yang jauh lebih lama. Ada salah satu dari klien kami membutuhkan sampai 5 paket terapi untuk bisa merasakan efek terapi mata Rabun Jauh / Minus yang memuaskan.\r\n\r\n\r\n\r\n\r\nReaksi Terapi yang Paling Banyak Terjadi\r\n\r\nBerikut ini adalah reaksi terapi yang paling banyak terjadi pada klien kami, dan sangat mungkin juga Anda alami saat melakukan Metode Terapi Mata Rabun Jauh / Minus:\r\n\r\nReaksi Tetes Mata Herbal.\r\n\r\nSaat pertama kali menggunakanya, kebanyakan klien kami merasa sedikit perih. Setelah itu, secara perlahan mata pun terasa dingin dan lebih nyaman. Jika Anda tidak merasakan perih saat tetesan pertama, itu tandanya kondisi mata Anda tidak begitu parah dan mungkin bisa lebih cepat sembuh.\r\n\r\n\r\nReaksi Kapsul Herbal.\r\n\r\nBerfungsi untuk melakukan perbaikan dari dalam, menutrisi dan memperlancar peredaran darah. Mempercepat regenerasi sel baru. Reaksi ini menjadikan tubuh Anda, dan khususnya organ mata terasa lebih enteng dan lebih fresh dari biasanya.\r\n\r\n\r\nReaksi Pijat Mata Quick Acupressure.\r\n\r\nPijat ini bisa memperlancar aliran darah, nutrisi, oksigen dan energi murni ke mata Anda hingga Anda bisa merasa rileks. Pijat ini memposisikan keseluruhan sel dan jaringan mata Anda benar-benar siap untuk tetes mata herbal. Dengan itu, pemulihan bisa bertambah cepat.\r\n\r\n\r\n\r\n\r\nApakah Saya Bisa Jadi Reseller?\r\n\r\nPerlu Anda tahu bahwa bukalapak merupakan alternatif media kami untuk lebih mengenalkan berbagai produk herbal bermanfaat. Media utama kami adalah website resmi NusaHerbal. Disana ada keterangan lengkap tentang reseller dan dropshipper.\r\n\r\nSingkatnya, sebagian besar reseller kami adalah mereka yang sudah pernah merasakan manfaat dari terapi mata. Sebab itu mereka sudah tahu betul bagaimana manfaat, kualitas dan efektifnya terapi ini. Namun apabila Anda ingin jadi reseller meski belum pernah merasakan manfaat, kami juga persilakan.\r\n\r\nBerarti peran Anda adalah sebagai penyampai solusi kesehatan mata. Anda bisa berbuat baik dengan menyampaikan terapi mata ini pada orang-orang yang membutuhkan.\r\n\r\nUntuk menjadi reseller atau dropshipper, Anda bisa hubungi kami via kontak, website atau komentar di bukalapak. Terimakasih :)\r\n\r\nSalam sehat dan bugar.","rating":0}
{"no":0,"title":"Sumbu Lampe Berger / Catalytic Burner","price":"225.000","seller":"my Lampe Berger","sellerPlace":"Jakarta Selatan","url":"https://www.bukalapak.com/p/kesehatan-2359/obat-suplemen/obat-obatan/8zypa-jual-sumbu-lampe-berger-catalytic-burner?from=&product_owner=normal_seller","sold":31,"seen":1209,"favorite":27,"updated":"2019-10-07 22:23:37","description":"Direkomendasikan untuk diganti setiap 200x pemakaian atau berumur 1 tahun\r\nUntuk membersihkan burner cukup dengan menyalakan selama 20 menit dengan menggunakan oil Neutre/So Neutral\r\nHarap membaca petunjuk pemakaian untuk penggunaan maksimal","rating":0}
{"no":0,"title":"Refill oil Lampe Berger (France) - Lavender Fields (Lavender)","price":"450.000","seller":"my Lampe Berger","sellerPlace":"Jakarta Selatan","url":"https://www.bukalapak.com/p/kesehatan-2359/obat-suplemen/obat-obatan/9o9ad-jual-refill-oil-lampe-berger-france-lavender-fields-lavender?from=&product_owner=normal_seller","sold":17,"seen":1279,"favorite":7,"updated":"2019-10-09 17:04:31","description":"Refill oil Lampe Berger (France) - Lavender Fields (Lavender)\r\nMengurangi perasaan cemas dan gelisah, menyeimbangkan tekanan darah tinggi, anti depresi, menghilangkan rasa sesak atau hidung tersumbat, mengatasi insomnia, jerawat dan eksim.\r\n\r\nCocok digunakan di :\r\nruang tidur, ruang duduk, ruang belajar.\r\n\r\n================================================\r\nKHUSUS melayani pengiriman area JABODETABEK (Jakarta, Bogor, Depok, Tangerang, Bekasi) dan JAWA BARAT. \r\nDiluar lokasi diatas mohon DIDISKUSIKAN terlebih dahulu.\r\n\r\nPembelian lebih dari 1 botol bisa pilih aroma (jenis kemasan dan harga yang sama) dengan menambahkan catatan aroma yang dipilih di kolom \"Keterangan\".\r\n\r\nMOHON DIBACA selengkapnya sebelum melakukan pemesanan.\r\n================================================\r\n\r\nUntuk informasi penggunaan oil/diffuser/burner, fungsi/manfaat setiap jenis aroma, video, tips dan trik selengkapnya bisa dilihat di website kami berikut ini:\r\n\r\nlampeberger-jualbeli","rating":0}
{"no":0,"title":"SENDI CREAM PLUS MERICA HITAM","price":"23.000","seller":"May 89","sellerPlace":"Jakarta Utara","url":"https://www.bukalapak.com/p/kesehatan-2359/obat-suplemen/obat-obatan/ua2ge-jual-sendi-cream-plus-merica-hitam?from=&product_owner=normal_seller","sold":2,"seen":712,"favorite":1,"updated":"2019-10-13 18:24:43","description":"SENDI CREAM PLUS MERICA HITAM membantu :\r\n- meredakan pegal\r\n- linu\r\n- nyeri otot pinggang\r\n- encok\r\n\r\nCara pemakaian: gosokkan pada tempat yang sakit\r\n\r\nKemasan berisi 60 gram\r\n\r\nPerhatian: \r\n- Jangan kena mata dan luka terbuka\r\n- Simpan di tempat yang kering dan sejuk\r\n\r\nProduksi : Borobudur","rating":0}
{"no":0,"title":"Fufang Ejiao Jiang Fufangejiao Jiang Fufang Ejiaojiang Obat Sakit Kepala Pusing Demam Panas Fufangejiaojiang","price":"305.000","seller":"Kans Shop","sellerPlace":"Jakarta Timur","url":"https://www.bukalapak.com/p/kesehatan-2359/obat-suplemen/obat-obatan/1ucd1qd-jual-fufang-ejiao-jiang-fufangejiao-jiang-fufang-ejiaojiang-obat-sakit-kepala-pusing-demam-panas-fufangejiaojiang?from=&product_owner=normal_seller","sold":10,"seen":12,"favorite":2,"updated":"2019-10-15 14:14:01","description":"iBARANG YANG DI JUAL SUDAH HARGA DISKON YA KAK.\r\n\r\n\r\n100% ORIGINAL !!!\r\n\r\n\r\nWASPADA HARGA MURAH tapi BARANG GAK ASLI / KW\r\n\r\n\r\nsi 12 botol (20 ml per botol)\r\n\r\n\r\nManfaat :\r\n\r\n\r\n\r\nMembantu meredakan sakit kepala/pusing dan memelihara stamina.\r\n\r\nMembantu meningkatkan trombosit pada penderita demam berdarah.\r\n\r\nMembantu meredakan demam panas.\r\n\r\n\r\n","rating":0}
{"no":0,"title":"Gaviscon Liquid Sachets Gaviskon Liquit Sachet Obat Sakit Maag Mag Magh Maagh Mah Maah Ampuh","price":"240.000","seller":"Kans Shop","sellerPlace":"Jakarta Timur","url":"https://www.bukalapak.com/p/kesehatan-2359/obat-suplemen/obat-obatan/1rmk0tc-jual-gaviscon-liquid-sachets-gaviskon-liquit-sachet-obat-sakit-maag-mag-magh-maagh-mah-maah-ampuh?from=&product_owner=normal_seller","sold":60,"seen":172,"favorite":14,"updated":"2019-08-23 16:54:59","description":"BARANG YANG DI JUAL SUDAH HARGA DISKON YA KAK.\r\n100% ORIGINAL !!!\r\nWASPADA HARGA MURAH tapi BARANG GAK ASLI / KW\r\n\r\nObat untuk mengatasi sakit maag yang ampuh.\r\n\r\nDengan konsumsi obat ini sakit maag yang dialami akan langsung sembuh.","rating":0}
{"no":0,"title":"TERLARIS PENAMBAH STAMINA PRIA - THEORYMAN","price":"300.000","seller":"PROJEKSTRONG ID","sellerPlace":"Kab. Bandung","url":"https://www.bukalapak.com/p/kesehatan-2359/obat-suplemen/obat-obatan/2ccttxt-jual-terlaris-penambah-stamina-pria-theoryman?from=&product_owner=normal_seller","sold":3,"seen":16,"favorite":2,"updated":"2019-10-15 01:25:45","description":"&lt;p>READY STOCK GAN / SIS&hellip;.!!!&lt;/p>\r\n\r\n\r\n&lt;p>BELI 3'GRATIS 1&lt;/p>\r\n\r\n\r\n&lt;p>(BUKTIKAN DAN RASAKAN KEMAMPUAN NYA)&lt;/p>\r\n\r\n\r\n&lt;p>&lt;em>ANDA CEPAT KAMIPUN CEPAT&lt;/em>&lt;/p>\r\n\r\n\r\n&lt;pre>&lt;code> expedisi 24jam full time\r\n\r\n\r\n&lt;/code>&lt;/pre>\r\n\r\n\r\n&lt;p>minat order klik beli verifikasi pembayaran lewat&lt;/p>\r\n\r\n\r\n&lt;p>SISTEM PENJUALAN KAMI DAN PELAYANAN KAMI USAHAKAN SEBAIK MUNGKIN&hellip;. !!!&lt;/p>\r\n\r\n\r\n&lt;p>KAMI MELAYANI PENGIRIMAN KE SELURUH KOTA DI INDONESIA LUAR NEGERI..&lt;/p>\r\n\r\n\r\n&lt;p>KELEBIHAN TOKO KAMI KELUARGA - HERBAL&lt;/p>\r\n\r\n\r\n&lt;ul>\r\n\r\n\r\n&lt;li>&lt;p>privacy anda di jamin kerahasiaanya&lt;/p>&lt;/li>\r\n\r\n\r\n&lt;li>&lt;p>Pengirim selalu tepat waktu&lt;/p>&lt;/li>\r\n\r\n\r\n&lt;li>&lt;p>Kami Melayani segala kebutuhan Anda.&lt;/p>&lt;/li>\r\n\r\n\r\n&lt;li>&lt;p>Mengutamakan kualitas produk.&lt;/p>&lt;/li>\r\n\r\n\r\n&lt;li>&lt;p>Fast Respons&hellip;&lt;/p>&lt;/li>\r\n\r\n\r\n&lt;li>&lt;p>Barang akan Kami Bungkus Rapi&hellip;&lt;/p>&lt;/li>\r\n\r\n\r\n&lt;li>&lt;p>Di jamin aman 100%&hellip;&lt;/p>&lt;/li>\r\n\r\n\r\n&lt;li>&lt;p>Tanpa di Ketahui Petugas Via Paket&hellip;&lt;/p>&lt;/li>\r\n\r\n\r\n&lt;li>&lt;p>Barang Dijamin Asli Original&hellip;..&lt;/p>&lt;/li>\r\n\r\n\r\n&lt;li>&lt;p>Dijamin Packing Aman Sesuai Privacy Anda&lt;/p>&lt;/li>\r\n\r\n\r\n&lt;li>&lt;p>Di jamin barang sampai&lt;/p>\r\n\r\n\r\n&lt;p> selamat dan sesuai&lt;/p>\r\n\r\n\r\n&lt;p> sampai dengan kondisi baik&lt;/p>&lt;/li>\r\n\r\n\r\n&lt;li>&lt;p>karna kami packing&lt;/p>\r\n\r\n\r\n&lt;p> dengan ahli dan profesional 100%&lt;/p>&lt;/li>\r\n\r\n\r\n&lt;li>&lt;p>Kwalitas barang dan keaslian&lt;/p>\r\n\r\n\r\n&lt;p> barang yang jadi keutamaan kami.&lt;/p>&lt;/li>\r\n\r\n\r\n&lt;/ul>\r\n\r\n\r\n&lt;p>Di jamin ORIGINAL&hellip;!!! Jika berminat langsung aja klik Beli&hellip;!!!&lt;/p>\r\n\r\n\r\n&lt;p>&lt;&lt;Salam harmonis buat anda sekeluarga>>&lt;/p>\r\n\r\n\r\n&lt;p>&lt;em>JAMINAN MUTU &amp; KUALITAS INTERNATIONAL&lt;/em> KEPUASAN CUSTOMER ADALAH PRIORITAS UTAMA KAMI&lt;/p>","rating":0}
{"no":0,"title":"Mentalk Candy Permen Ginseng","price":"550.000","seller":"Sinar Jaya","sellerPlace":"Jakarta Barat","url":"https://www.bukalapak.com/p/kesehatan-2359/obat-suplemen/obat-obatan/1e1ze0v-jual-mentalk-candy-permen-ginseng?from=&product_owner=normal_seller","sold":2,"seen":134,"favorite":0,"updated":"2019-10-11 11:43:46","description":"Exp terbaru 2021\r\n\r\nManfaat Mentalk :\r\n- Memperbaiki sel sel tubuh yang mulai menua.\r\n- Mengobat berbagai penyakit (jantung, diabetes, hypertensi, kanker prostat, dll)\r\n- Memperbaiki sistem imum, metabolisma tubuh, otot jantung.\r\n- Meningkatkan sel darah merah.\r\n- Anti Oksidan.\r\n- Menjaga kulit, menambah nafsu makan.\r\n- Memperlancar pembuangan air seni.\r\n- Mengurangi rasa letih.\r\n- Memperbaiki vitalitas yang mulai melemah &amp;amp; menambah stamina\r\n\r\nKandungan Utama Mentalk :\r\n- Ginseng\r\nMemperbaiki sistem kekebalan tubuh yang melemah , memperbaiki sistem metabolisme tubuh, cara kerja otot hati, mengurangi kelelahan, memperbaiki sel darah merah, membantu memperlambat penuaan.\r\n- Protein terhidrolisis\r\nMembantu dan menyerap secara langsung , memperbaiki sel dasar, merubah sel-sel menjadi yang baru .\r\n- Enzim\r\nMembantu memproduksi sel baru, mengurai toksin didalam tubuh, mengurai lemak dan membantu glycogen memproduksi energi.\r\n- Buah Delima\r\nbertenaga menjadi anti oksidant, mencegah perubahan genetik, menekan sel pertumbuhan yang berhubungan dengan kanker.\r\n- Malt Tulen\r\nMenjaga kulit, Meningkatan stamina\r\n\r\nCara Konsumsi Mentalk :\r\nDosis yang dianjurkan.\r\n1-2 Biji Sehari\r\nWaktu Konsumsi :\r\n1-2jam sebelum sarapan (waktu ini disarankan/recommended ) atau\r\n1-2jam sebelum makan siang. atau\r\n1-2jam sebelum tidur.\r\nTips:\r\n1. Minum Sebanyak air putih untuk membantu Healing Process/proses penyembuhan.\r\n2. Jangan minum Tea/teh.\r\n3. Makan Permen satu atau 2 jam selepas bangun tidur dan sebelum makan pagi.\r\n4. Menghabiskan dalam masa seminggu hingga 10 hari untuk melihat hasilnya.\r\n\r\nIsi : 30 pcs","rating":0}
{"no":0,"title":"permen hamer candy","price":"20.000","seller":"syarul","sellerPlace":"Jakarta Timur","url":"https://www.bukalapak.com/p/kesehatan-2359/obat-suplemen/obat-obatan/lungjn-jual-permen-hamer-candy?from=&product_owner=normal_seller","sold":344,"seen":1388,"favorite":29,"updated":"2019-10-14 02:14:07","description":"Melayani eceran dan Grosiran exp 2021","rating":0}
{"no":0,"title":"angong niuhuang wan-angkung-onkiung","price":"900.000","seller":"DUNIA FARMA 889","sellerPlace":"Jakarta Utara","url":"https://www.bukalapak.com/p/kesehatan-2359/obat-suplemen/obat-obatan/109g648-jual-angong-niuhuang-wan-angkung-onkiung?from=&product_owner=normal_seller","sold":0,"seen":243,"favorite":3,"updated":"2019-10-04 16:05:32","description":"di jamin 100% asli\r\n\r\n\r\nexp 2023\r\n\r\n\r\nManfaat Angkung untuk pengobatan :\r\n\r\n\r\n1.\r\nStroke\r\n2.\r\nGejala Stroke\r\n3.\r\nPenyumbatan pembuluh darah\r\n4.\r\nRadang selaput otak\r\n5.\r\nAsam urat\r\n6.\r\nPenyakit hati\r\n7.\r\nKekurangan cairan tubuh\r\n\r\n\r\n\r\nCara penyajian Angkung untung penderita :\r\n\r\n\r\n1.\r\nSiapkan air hangat stengah gelas\r\n2.\r\nBuka pembungkus angkung\r\n3.\r\nBuka pembungkus pil angkung yang berwarna kuning\r\n4.\r\nMasukkan angkung ke dalam air hangat\r\n5.\r\nAduklah hingga larut sampai berwarna kekuningan\r\n6.\r\nMinumlah langsung habis jangan di jeda waktu meminumnya\r\n\r\n\r\n\r\nCara penyajian angkung untuk orang sehat :\r\n\r\n\r\n1.\r\nSiapkan air hangat setengah gelas\r\n2.\r\nBuka pembungkus angkung\r\n3.\r\nBuka pembungkus pil angkung yang berwarna kuning\r\n4.\r\nPotonglah menjadi 3 bagian\r\n5.\r\nMasukkan potongan angkung ke dalam gelas\r\n6.\r\nAduk hingga larut\r\n7.\r\nMinum lah sehari 1 potongan\r\n\r\n\r\n\r\nbisa juga di konsumsi 1 butir tergantung kebutuhan\r\n\r\n\r\nCatatan ..\r\n\r\n\r\nAngkung diminum ketika anda mau tidur , karena ketika tubuh sedang istirahat maka proses penyembuhan angkung akan semakin cepat.\r\n\r\n\r\nSurvei yang saya lakukan , angkung terbukti menyembuhkan . Jadi ini adalah solusi anda jika ingin sembuh dari penyakit yang selama ini anda derita. Tetapi harus tetap hati-hati dalam pembelian produk ini mengingat banyak produk palsu yang beredar.","rating":0}
{"no":0,"title":"TOLAK ANGIN CAIR 1 BOX - OBAT MASUK ANGIN DAN KEMBUNG","price":"46.500","seller":"Republic Swalayan","sellerPlace":"Jakarta Barat","url":"https://www.bukalapak.com/p/kesehatan-2359/obat-suplemen/obat-obatan/1x8fdz1-jual-tolak-angin-cair-1-box-obat-masuk-angin-dan-kembung?from=&product_owner=normal_seller","sold":290,"seen":242,"favorite":3,"updated":"2019-10-14 09:30:12","description":"Herbal masuk angin yang diproses di pabrik berstandar GMP (Good Manufacturing Practice) sehingga tetap terjaga kualitasnya. Dengan minum Tolak Angin 2 sachet setiap hari selama 7 hari berturut-turut dapat meningkatkan daya tahan tubuh.\r\n\r\nKomposisi :\r\nAdas\r\nKayu Ules\r\nDaun Cengkeh\r\nJahe\r\nDaun Mint\r\nMadu\r\n\r\nManfaat :\r\nMembantu mengatasi berbagai gejala masuk angin, seperti : mual, pusing, flu, dan demam, serta menjaga daya tahan tubuh saat beraktifitas atau melakukan perjalanan jauh.\r\n\r\nAturan Minum :\r\nDiminum 1 sachet setiap hari untuk menjaga daya tahan tubuh.\r\nDiminum 2 sachet setiap hari selama 7 hari atau hingga kondisi membaik.\r\n\r\nKemasan :\r\nDus isi 12 sachet.\r\n\r\nPerhatian :\r\nTidak direkomendasikan bagi Ibu Hamil dan Menyusui, juga penderita gangguan ginjal.\r\n\r\nSolusi masalah masuk angin Silahkan di Order ^^","rating":0}
{"no":0,"title":"Obat Sipilis Paket Satu Minggu","price":"295.000","seller":"Muhammad Nurul Huda","sellerPlace":"Cilacap","url":"https://www.bukalapak.com/p/kesehatan-2359/obat-suplemen/obat-obatan/18w79f4-jual-obat-sipilis-paket-satu-minggu?from=&product_owner=normal_seller","sold":16,"seen":802,"favorite":22,"updated":"2019-10-09 05:08:19","description":"* Izin BPOM : POM TR.173 300 491\r\n* IZIN UKOT DINKES RI No. 503/1259/2016/2\r\n* BERSERTIFIKAT HALAL DARI MUI\r\n* BERSERTIFIKAT ISO 9001:2005\r\n* IJIN RESMI PERUSAHAAN DARI KEMENTRIAN KESEHATAN\r\n\r\n\r\nPAKET POLOS DAN RAPI, TIDAK ADA TULISAN OBAT ATAU PENYAKIT\r\nDI DALAM KEMASAN, LABEL TERTULIS UNTUK OBAT KENCING DAN DEMAM, UNTUK MENJAGA PRIVACY AGAR TIDAK MALU JIKA DIBACA ORANG LAIN\r\n\r\nJangan tunda lagi, gunakan produk kami ini sebelum terlambat.\r\n\r\nDETAIL PRODUK :\r\n1 Botol GANG JlE isi 50 Kapsul\r\n1 Botol GH0 SIAH Isi 50 Kapsul\r\n\r\nAturan Minum :\r\n- Kapsul GANG JlE diminum tiga kali sehari 1 jam sebelum makan (pagi, siang dan malam), sekali minum 2 kapsul.\r\n- Kapsul GH0 SlAH diminum tiga kali sehari 1 jam sebelum makan (pagi, siang dan malam) sekali minum 2 kapsul.\r\n- Gang J1e + Gh0 S1ah Diminum Bersamaan.","rating":0}
{"no":0,"title":"Agaricpro ORIGINAL Obat Hernia Terbaik - Turun Berok Balita Bayi Anak dan Dewasa","price":"200.000","seller":"Wargi Online","sellerPlace":"Tasikmalaya","url":"https://www.bukalapak.com/p/kesehatan-2359/obat-suplemen/obat-obatan/26g9bez-jual-agaricpro-original-obat-hernia-terbaik-turun-berok-balita-bayi-anak-dan-dewasa?from=&product_owner=normal_seller","sold":776,"seen":93,"favorite":0,"updated":"2019-10-13 15:08:12","description":"Selamat datang di Agen Tasik yang menyediakan produk pelangsing Berkualitas Tinggi Kelas Premium dan Terjamin produk ORIGINAL Karena kami menyetok langsung dari Pusatnya.\r\n\r\nProduk Herbal AgaricPro merupakan produk Herbal Madu terfermentasi yang multikompleks khasiatnya karena merupakan kombinasi dari berbagai tumbuhan herbal asli Indonesia seperti: Madu Fermentasi, Ekstrak Jamur Agaricus Blazei Murill, Propolis, Ekstrak Manggis, Ekstrak Kelopak Bunga Rosella, Ekstrak Sarang Semut, Gula Aren. Dari kombinasi tumbuhan herbal tersebut Produk Herbal AgaricPro mampu menghasilkan mikroba positif yang bekerja untuk merawat dan menjaga kesehatan tubuh.\r\n\r\nAgaricPro Herbal Madu terfermentasi yang multikompleks khasiatnya, merupakan kombinasi dari berbagai tumbuhan herbal seperti: \r\n* Madu Fermentasi, \r\n* Ekstrak Jamur Agaricus Blazei Murill, \r\n* Propolis, \r\n* Ekstrak Manggis, \r\n* Ekstrak Kelopak Bunga Rosella, \r\n* Ekstrak Sarang Semut, \r\n* Gula Aren. \r\nDari kombinasi herbal tersebut Herbal AgaricPro mampu menghasilkan mikroba positif yang bekerja untuk merawat dan menjaga kesehatan tubuh yang disebut Probiotik. \r\n\r\n*Keistimewaan AgaricPro Herbal Tradisional*\r\nAgaricPro adalah produk hasil fermentasi dari beberapa herbal yang berkhasiat diramu dengan formula tepat, dibandingkan dengan produk herbal lainya.\r\nManfaat AgaricPro untuk:\r\n1. Darah: Mengencerkan perlengketan antar sel darah, menurunkan tekanan darah, memperkaya oksigen dalam darah, membersihkan Toxin/Racun dalam darah, kolesterol, asam urat, menurunkan kadar gula darah.\r\n2. Pembuluh Darah: Terhindar dari penyempitan/penyumbatan pembuluh darah, membersihkan plak dari dinding pembuluh darah mempedancar peredaran darah.\r\n3. Jantung: Kerja jantung tidak berat, karena jantung tidak terbebani untuk memompa darah kental keseluruh organ tubuh.\r\n4. Paru-Paru: Mengatasi masalah TBC, Bronchitis, Plek pada paru-paru akibat polusi udara, merokok, alkohol.\r\n5. Ginjal: Membantu mengatasi urinasi, memperlancar pengeluaran urine, mengatasi Hematuria, membantu mengatasi Albumenuria, mencegah Impotensi.\r\n6. Saluran Pencernaan: Membersihkan saluran pencernaan, mengatasi maag terhindar dari kanker kolon atau kanker usus besar","rating":0}
{"no":0,"title":"OBAT-KUAT OLES PEMBESAR PENI S","price":"135.000","seller":"toko berkah herbal","sellerPlace":"Jakarta Pusat","url":"https://www.bukalapak.com/p/kesehatan-2359/obat-suplemen/obat-obatan/28m4d9c-jual-obat-kuat-oles-pembesar-peni-s?from=&product_owner=normal_seller","sold":28,"seen":30,"favorite":27,"updated":"2019-10-08 09:06:20","description":"PACKING RAPI, RAHASIA TERJAMIN!\r\nSTOCK SELALU READY\r\n===============\r\n\r\nMinyak Liintah Triple L \r\n\r\nKej4ntanan Anda kecil & Pendek? \r\nIstri tidak puas dengan senj4ta Anda?\r\n\r\nTidak sedikit pria yang merasa alt vitaIInya terlalu kecil sehingga merasa minder dan tidak bisa memuaskan istri. Misalpun bisa, kerap kali yang dialami istri ialah 0rgassmeee palsu untuk membuat senang suami. . Ketika istri tidak merasakan kepuasan, maka bisa jadi istri akan melirik laki-laki lain yang alat atau senj4tanya lebih besar dan tahan lama. Jika sudah demikian keharmonisan dalam rumah tangga pun jadi taruhan. \r\n\r\nSolusi yang tepat untuk masalah Anda ialah dengan memperbesar alat Anda agar bisa besar dan panjang serta kuat untuk memuaskan istri. Caranya sangat mudah dengan Minyak Liintah Super Triple L. \r\n\r\nTriple L terbuat dari minyak liintah murni kualitas super asli dari papua yang di rekomendasikan oleh para ahli karena zat aktif yang terkandung didalamnya telah teruji secara klinis dan terbukti mampu menambah ukuran pada alt vitaII. Selain berkhasiat juga aman di pakai tidak mengakibatkan iritasi maupun efek samping buruk bagi kesehatan. Khasiat Triple L sendiri sudah banyak dibuktikan hasilnya. \r\n\r\nManfaat Triple L\r\n- Menaikan masa otot dan panjang ukuran alat pria punya hingga 40%\r\n- Meningkatkan ukuran dan kekuatan vitall pria punya \r\n- Mengobati l3mah syhwat\r\n- Mengatasi ejak*lasi din*\r\n- memperpanjang sesi 0rgasmee pria\r\n\r\nDeskripsi produk: Triple L\r\nKemasan : Botol (lihat gambar)\r\nIsi : 15 ml\r\nDepkes. RI: IKOT 442/00060/V-2\r\nHarga : Rp.135.000,-\r\n\r\n1 Botol biasanya cukup untuk 3-4 minggu penggunaan rutin...\r\n\r\n----------------------PENTING-----------------------\r\nHATI-HATI PRODUK PALSU! PRODUK PALSU TIDAK MEMILIKI KHASIAT DAN BERBAHAYA BAGI KESEHATAN ORGAN VITAI.\r\nPRODUK PALSU DIJUAL DENGAN HARGA DIBAWAH HET (135.000/PRODUK) ATAU HARGA ECERAN TERENDAH!!! \r\nHATI-HATI !!! Jika Ada yng menjual dibawah harga HET dipastikan adalah produk palsu, karena harga bahan baku TRIPLE L tidak semurah yang produk palsu tawarkan!!!\r\nJANGAN TERGODA DENGAN IMING-IMING HARGA MURAH! PASTIKAN UNTUK SELALU MEMBELI PRODUK ASLI! SAYANGI KESEHATAN ORGAN VITAI ANDA !!!","rating":0}
{"no":0,"title":"OBAT KUAT PRIA DIABETES","price":"200.000","seller":"ARRAHMAH HERBA","sellerPlace":"Semarang","url":"https://www.bukalapak.com/p/kesehatan-2359/obat-suplemen/obat-obatan/23h6cmb-jual-obat-kuat-pria-diabetes?from=&product_owner=normal_seller","sold":72,"seen":191,"favorite":47,"updated":"2019-10-11 14:08:50","description":"CV. KARYA ABADI JEPARA -- SIUP No. 510/24/PK/VIII/2015 -- Produsen dan Distributor Obat Herbal -- 100% Aman dan Terdaftar Resmi di BPOM\r\n\r\nPENGEMASAN AMAN, PRIVASI TERJAGA\r\n_________________________\r\nKUATPRIA PRO adalah obat herbal yang diformulasikan untuk membantu memelihara stamina pria diabetes. Dengan rutin mengonsumsi KUATPRIA PRO, kesehatan dan stamina pria diabetes dapat selalu terjaga.\r\n\r\nKomposisi: Prwcng, Ginseng, Pasak Bumi/Tongkat Ali, Jahe, Sirsak, dan Manggis.\r\n\r\nKhasiat:\r\n- Merileksasikan otot.\r\n- Menghilangkan rasa pusing, cepat ngantuk, rasa lelah dan meningkatkan stamina.\r\n- Melancarkan sirkulasi darah ke sistem reproduksi Anda, sehingga erekzy bisa lebih kencang dan libido akan meningkat.\r\n- Meningkatkan kontrol otot polos pada alat vital, sehingga mampu mencapai erekzy dengan sempurna.\r\n- Bekerja secara sistemasis dan konstruktif menyembuhkan diabetes secara bertahap.\r\n\r\nAturan Minum: 2 x 1 kapsul sehari, diminum 15 menit sebelum makan.\r\n\r\nEfek Samping: Asal mengikuti petunjuk konsumsi dengan benar, maka aman dikonsumsi jangka panjang dan tidak membahayakan kesehatan tubuh.\r\n\r\nDetil Produk\r\n- Nama: Kuatpria Pro\r\n- Kemasan: Botol\r\n- Bentuk: Kapsul\r\n- Isi: 50 kapsul @500 mg\r\n- Catatan: Simpan di tempat sejuk dan kering","rating":0}
{"no":0,"title":"OBAT KUAT VITAMALE PERKASA DAN TAHAN LAMA","price":"244.500","seller":"Indo_Health","sellerPlace":"Jakarta Selatan","url":"https://www.bukalapak.com/p/kesehatan-2359/obat-suplemen/obat-obatan/1h1bsb3-jual-obat-kuat-vitamale-perkasa-dan-tahan-lama?from=&product_owner=normal_seller","sold":117,"seen":1347,"favorite":21,"updated":"2019-10-07 16:20:42","description":"IJIN BPOM LENGKAP\r\n\r\n\r\nProduk ori 100%\r\n\r\n\r\nKALAU ADA YANG TERJANGKAU, KENAPA HARUS BELI YANG MAHAL, HARGA MAHAL BELUM TENTU MEMUASKAN.\r\n\r\n\r\nDiminum hanya pada saat mau aktifitas hubungan\r\n\r\n\r\n*Contoh hari ini malam mao hubungan\r\n\r\n\r\nSiang diminum 1 kapsul/ diminum 2 jam sebelum berhubungan.\r\n\r\n\r\n100% herbal karena itu butuh waktu untuk bereaksi.\r\n\r\n\r\nTidak diminum HARIAN\r\n\r\n\r\n(Takutnya tegak terus )\r\n\r\n\r\n*Diminum saat ingin hubungan saja\r\n\r\n\r\nTidak membuat jantung berdebar\r\n\r\n\r\nTidak membuat panas\r\n\r\n\r\nAman 100%\r\n\r\n\r\nKeterangan lengkap\r\n\r\n\r\nKonon katanya satu dari tiga pria di dunia tidak mampu mengontrol ejakulasi saat berhubungan intim. OMG !!\r\n\r\n\r\nHeLowwwww pria-pria zaman now\r\n\r\n\r\nVITAMALE is COMING……\r\n\r\n\r\nSolusi tepat membantu masalah seksual pria-pria zaman NOW\r\n\r\n\r\nMau tahu apa itu VITAMALE?\r\n\r\n\r\nVitamale adalah kapsul herbal alami khusus pria dewasa yang diekstrak dari gingseng panax dan tongkat ali yang dapat membantu meningkatkan Stamina,Energi dan Vitalitas Pria.\r\n\r\n\r\nMANFAAT :\r\n\r\n\r\n-Membantu meningkatkan vitalitas dan gairah seksual pria\r\n\r\n\r\n-Membantu meningkatkan stamina tubuh\r\n\r\n\r\n-Membantu meningkatkan kadar hormon testoteron\r\n\r\n\r\n-Membantu meningkatkan kualitas 3raks1 dan tahan lama\r\n\r\n\r\n-Membantu meningkatkan produksi sperma dan mengatasi masalah kesuburan\r\n\r\n\r\n-Membantu keharmonisan p4sutr1\r\n\r\n\r\n-Membantu menenangkan pikiran dan meredakan kelelahan.\r\n\r\n\r\nYuk diorder gan, barang langsung kami kirim.","rating":0}
{"no":0,"title":"Garlut Obat Herbal Untuk Diabetes Kencing Asli Bekualitas Garlut Spray Diabetes Extra Sarang Semut Manggis Dan Madu 100 persen original","price":"350.000","seller":"OKUMANSTORE","sellerPlace":"Jakarta Selatan","url":"https://www.bukalapak.com/p/kesehatan-2359/obat-suplemen/obat-obatan/1nqozwo-jual-garlut-obat-herbal-untuk-diabetes-kencing-asli-bekualitas-garlut-spray-diabetes-extra-sarang-semut-manggis-dan-madu-100-persen-original?from=&product_owner=normal_seller","sold":170,"seen":981,"favorite":11,"updated":"2019-10-09 07:04:07","description":"GARLUT SPRAY diramu dengan perpaduan beberapa komponen herbal yang memiliki bahan aktif antioksidan yang sangat bermanfaat bagi Tubuh anda.\r\n\r\n\r\nKomposisi GARLUT SPRAY\r\n\r\n* Madu murni.\r\n\r\n* Ekstrak Kulit Manggis.\r\n\r\n* Jamur Agaricus Blazei Murill.\r\n\r\n* Ekstrak Sarang Semut.\r\n\r\n* Ekstrak Daun Mint.\r\n\r\nKandungan Mikroba pada GARLUT SPRAY berfungsi sebagai :\r\n\r\n* Cleansing yaitu membersihkan racun, zat toksin yang masuk ke dalam tubuh melalui makanan dan minuman.\r\n\r\n* Balancing yaitu menyeimbangkan kecukupan asupan gizi supaya 0rgan tubuh dapat berfungsi dengan baik.\r\n\r\n* Protecting yaitu mampu memberikan efek perlindungan (imunitas) dari serangan penyakit.\r\n\r\n* Diet yaitu membakar lemak dan mampu memperbaiki metabolisme serta menurunkan kadar kolesterol darah dan lemak tak jenuh dibawah kulit.\r\n\r\nManfaat GARLUT SPRAY\r\n\r\n* Membersihkan dan meremajan fungsi saluran pencernaan.\r\n\r\n* Membuang racun, membersihkan seluruh darah.\r\n\r\n* Mengontrol Kolesterol dan kadar gula dalam tubuh.\r\n\r\n* Meningkatkan fungsi serta mencegah penyakit pada hati dan 0rgan dalam lainnya.\r\n\r\n* Mencegah Alergi.\r\n\r\n* Mencegah infeksi dalam dan luar tubuh.\r\n\r\n* Mencegah peradangan dalam dan luar tubuh.\r\n\r\n* Meningkatkan daya tahan tubuh terhadap serangan penyakit.\r\n\r\n* Mendorong fungsi penyerapan gizi dan vitamin, serta mengontrol berat badan.\r\n\r\n* Mengoptimalkan fungsi obat, terutama obat herbal.\r\n\r\n* Memperbaiki metabolisme.\r\n\r\n* Mengatasi sariawan, menyegarkan pernapasan dan mengatasi bau mulut.\r\n\r\nAturan pakai GARLUT SPRAY\r\n\r\n* Disarankan untuk minum segelas air hangat sebelum melakukan penyemprotan.\r\n\r\n* Semprotkan 3x GARLUT SPRAY ke bawah pangkal lidah.\r\n\r\n* Setelah rasa mint hilang dari mulut, disarankan minum segelas air hangat lagi.\r\n\r\n* Selama satu jam kedepan, hindari minuman apapun (kopi, . dll.) kecuali air putih saja.\r\n\r\n* Untuk penyembuhan digunakan 3x sehari; pagi, siang dan malam.\r\n\r\n* Untuk perawatan, sesuai kebutuhan.","rating":0}
{"no":0,"title":"OBAT EXCLEAR DE NATURE - SALEP GATAL EKSIM","price":"100.000","seller":"Raja De Nature","sellerPlace":"Cilacap","url":"https://www.bukalapak.com/p/kesehatan-2359/obat-suplemen/obat-obatan/mgrabq-jual-obat-exclear-de-nature-salep-gatal-eksim?from=&product_owner=normal_seller","sold":2231,"seen":985,"favorite":217,"updated":"2019-10-15 10:36:25","description":"Salep Gatal Dan Eksim Exclear Asli De Nature\r\nSalep Exclear merupakan salep untuk mengobati eksim, gatal alergi, gatal jamur, gatal bakteri, kurap, dll\r\n\r\nDETAIL PRODUK\r\n1 Pot Salep exclear (POM TR. 173 707 401)\r\n\r\nATURAN PAKAI\r\nSalep Exclear dioles 2X sehari\r\n\r\nBARANG SELALU READY STOCK!!!!!\r\n\r\nBekerja dengan efektif\r\nTerbuat dari 100% bahan alami\r\nAman di konsumsi oleh segala umur tanpa menimbulkan efek samping dan ketergantungan\r\nMudah di pakai\r\nHALAL\r\nGaransi asli\r\nPacking Rapih dan Aman, RAHASIA TERJAMIN 100%\r\n- bubble wrap untuk produk/ botol yg dengan kaca\r\n- dus putih (tidak tembus pandang), dibalut dengan karton warna (tidak tembus pandang), dan dilakban rapat bolak-balik. (tidak akan sobek apabila tidak disobek dengan cutter)\r\nRAHASIA TERJAMIN","rating":0}
{"no":0,"title":"Obat Ambeien Wasir","price":"275.000","seller":"De Nature Online","sellerPlace":"Cilacap","url":"https://www.bukalapak.com/p/kesehatan-2359/obat-suplemen/obat-obatan/1knpxtn-jual-obat-ambeien-wasir?from=&product_owner=normal_seller","sold":99,"seen":127,"favorite":4,"updated":"2019-10-09 13:06:27","description":"PAKET HERBAL WASIR / AMBEIEN :\r\n1 AMBEJOSS ( isi 50 kapsul )\r\n1 SALEP SALWA\r\n- ORIGINAL De Natur ( botol bersegel hologram dan dikirm langsung dari Majenang , Kab. Cilacap )\r\n- GARANSI ASLI / ORIGINAL ( CV. DE NATURE INDONESIA ) dari CILACAP, JAWA TENGAH\r\n- PAKET YANG AKAN DIKIRIM KAMI PASTIKAN DIKEMAS DENGAN RAPIH, HANYA TERTERA NAMA, ALAMAT DAN NO HP, TANPA MEMEBERI DESKRIPSI PRODUK, ITU SEMUA SEBAGAI BENTUK MENJAGA PRIVASI PEMBELI.\r\n- HALAL DAN LULUS UJI BPOM\r\n\r\nPaket herbal wasir / ambeien mengkombinasikan 2 produk De Nature : AMBEJOSS &amp;amp;amp;amp;amp;amp;amp;amp;amp;amp;amp;amp;amp;amp;amp;amp; SALEP SALWA\r\n\r\nPaket obat wasir De Nature di buat dengan bahan - bahan yang di dapat dari alam seperti Daun ungu, Mahkota dewa, Kunyit Putih, Daun Binahong sehingga aman di konsumsi oleh anak dan orang dewasa tidak menyebabkan efek samping dan ketergantunagan.\r\nDETAIL PAKET :\r\n- 1 botol AMBEJOSS isi 50 kapsul\r\n- 1 salep SALWA\r\n- IZIN BPOM\r\n- IZIN UKOT DINKES RI No. 503/1259/2016/2\r\n- BERSERTIFIKAT HALAL MUI\r\n\r\nKHASIAT DAN KEGUNAAN :\r\n- AMBEJOSs :\r\nMembantu Meringkan Bab Sakit, Membantu Meringkan Bab Berdarah, Membantu Meringkan Ambeien Internal, Membantu Meringkan Infeksi Ambeien / Wasir, Membantu Meringkan Perih dan Gatal Di Area Dubur, Membantu Meringkan Mengempiskan Benjolan Wasir, Membantu Meringkan Gejala Wasir / Ambeien / Hemorroids\r\n\r\n- Salep SALWA\r\nMenghentikan Infeksi Luka BAB Berdarah, Menormalkan Benjolan Wasir Dalam/Luar, Mempercepat Penyembuhan Wasir/Ambeien\r\n\r\nATURAN PAKAI DAN DETAIL LAIN LENGKAP DIDALAM KEMASAN","rating":0}
{"no":0,"title":"OBAT DIABETES CHITIN CHITOSAN TIENS TIANSHI Obat Herbal Diabetes Kencing Manis ASLI","price":"629.000","seller":"Medika Utama Online","sellerPlace":"Jakarta Timur","url":"https://www.bukalapak.com/p/kesehatan-2359/obat-suplemen/obat-obatan/1yfokx9-jual-obat-diabetes-chitin-chitosan-tiens-tianshi-obat-herbal-diabetes-kencing-manis-asli?from=&product_owner=normal_seller","sold":102,"seen":48,"favorite":0,"updated":"2019-09-20 22:46:11","description":"Mengandung dua macam serat, yaitu Chitin (serat tempurung yang tidak larut) dan Chitosan (serat tempurung yang dapat larut) Chitosan merupakan satu-satunya zat molekul tinggi pembawa ion positif yang ada di alam bebas.\r\n\r\nZat Chitin bermanfaat untuk mengaktifkan sel tubuh manusia, mengatur saraf simpatik dan sekresi hormon serta melancarkan metabolisme tubuh.\r\n\r\nChitosan adalah zat molekul tinggi pembawa ion positif yang dapat mengikat penyerapan kolesterol sehingga kolesterol tidak mengendap didalam liver. Chitosan juga akan menangkap dan mengikat senyawa asam lemak sehingga tidak bisa diserap usus, lalu dikeluarkan dari tubuh, sehingga mampu mencegah liver berlemak, menormalkan pembuluh darah dan tekanan darah, mempercepat pencernaan sehingga dapat menurunkan berat badan.\r\n\r\nSangat disarankan : Bagi yang daya tahannya lemah Penderita diabetes dan kolesterol tinggi Penderita penyakit pembuluh darah, hati, dan salurah pencernaan.\r\n\r\nAturan : 2 kali sehari, sekali konsumsi 2 kapsul\r\n\r\nKeterangan : Banyak minum air putih, tidak cocok untuk yang alergi makanan laut. Harus disertai dengan olahraga teratur, diet rendah kalori dan lemak.\r\n\r\nKontraindikasi : Anak-anak, wanita hamil dan ibu menyusui.\r\n\r\nSpesifikasi produk : 1 botol isi 100 kapsul","rating":0}
{"no":0,"title":"MULTIVITAMIN ETABION KAPSUL TAMBAH DARAH","price":"25.000","seller":"Toko Embak","sellerPlace":"Palembang","url":"https://www.bukalapak.com/p/kesehatan-2359/obat-suplemen/obat-obatan/ken4re-jual-multivitamin-etabion-kapsul-tambah-darah?from=&product_owner=normal_seller","sold":846,"seen":607,"favorite":0,"updated":"2019-07-20 16:19:43","description":"ETABION KAPSUL / MULTIVITAMIN IBU HAMIL / TAMBAH DARAH\r\n\r\nHarga untuk 1 tablet \r\n1 strip isi 10 kapsul\r\nJadi lebih murah","rating":0}
{"no":0,"title":"jamu anak anak","price":"1.000","seller":"Bianka738","sellerPlace":"Surabaya","url":"https://www.bukalapak.com/p/kesehatan-2359/obat-suplemen/obat-obatan/1oz0jkl-jual-jamu-anak-anak?from=&product_owner=normal_seller","sold":249,"seen":5,"favorite":0,"updated":"2019-10-06 07:22:54","description":"jamu anak anak biat kesehatan anak anak","rating":0}
{"no":0,"title":"Minyak HJ Mesir Hajar Original Jahanam 5ml Segel Asli","price":"35.000","seller":"LYK Store","sellerPlace":"Bekasi","url":"https://www.bukalapak.com/p/kesehatan-2359/obat-suplemen/obat-obatan/28z35xt-jual-minyak-hj-mesir-hajar-original-jahanam-5ml-segel-asli?from=&product_owner=normal_seller","sold":553,"seen":235,"favorite":52,"updated":"2019-10-15 13:52:10","description":"- Pengiriman Barang dari Hari Senin - Sabtu Jam 08:00 - 14:00 (Order lewat jam 14:00 dikirim esok hari)\r\n\r\n- JAMINAN PRODUK 100% ORI, TIDAK ORI KEMBALIKAN.\r\n- isi murni : 5 ml\r\n\r\nHati2 Produk KW, ciri2 nya : \r\n- isi cuma 2 - 3 ml. isi cuma setengah botol, Cuma Panas tanpa khasiat.\r\n- Harga murah meriah karena cuma isi setengah botol.\r\nHATI-HATI YANG KW SEKILAS MIRIP DENGAN YANG ORI TAPI TIDAK ADA KASIATNYA !!!!!!!\r\n\r\nSELISIH SERIBU PERAK DAPAT BARANG KW. isi cuma setengah BOTOL ???\r\nHasil nya cuma PANAS aja tanpa khasiat? \r\n\r\nMENDING BELI YG ASLI KARENA SELISIH DIKIT TAPI ORIGINAL.\r\nTES BELI DAN BANDINGKAN DENGAN TOKO LAIN.\r\nSELISIH KW DAN ORI CUMA SERIBU TAPI KUALITAS JAUH.\r\n\r\nPRIVASI AMAN TIDAK DITULIS OBAT KUAT DAN LAINNYA - PACKING RAPIH - BARANG DIKIRIM SESUAI FOTO/GAMBAR ASLI","rating":0}
{"no":0,"title":"Obat Peninggi Badan Terbukti AMPUH USA Original Best seller","price":"299.000","seller":"hudi jaya","sellerPlace":"Jakarta Pusat","url":"https://www.bukalapak.com/p/kesehatan-2359/obat-suplemen/obat-obatan/1y6201r-jual-obat-peninggi-badan-terbukti-ampuh-usa-original-best-seller?from=&product_owner=normal_seller","sold":69,"seen":402,"favorite":44,"updated":"2019-10-15 11:04:13","description":"Puritan's Pride Chelated Calcium Mag Zinc - Peninggi Badan\r\n---------------------------------------------------------------------------------\r\n\r\nREADY STOCK!! ORDER DIPROSES DI HARI YG SAMA!!\r\nPRODUK 100% ASLI DARI USA.\r\n\r\nPuritan's Pride CHELATED CALCIUM MAGNESIUM ZINC (Made in USA)\r\nISI: 100 Kaplet\r\n\r\nChelated Calcium adalah bentuk kalsium yang terikat dengan asam amino, sehingga tubuh manusia akan mengenalnya sebagai makanan dan lebih mudah untuk diserap tubuh. Kalsium merupakan zat utama dalam pertumbuhan tinggi badan, yaitu zat yang diperlukan oleh tulang dan gigi, bahkan untuk kontraksi otot.\r\n\r\nMagnesium adalah mineral yang tersimpan dalam tulang, dan mempengaruhi pertumbuhan tulang yang sehat. Magnesium juga berfungsi dalam ratusan reaksi kimia dalam tubuh. Magnesium mengatur kadar gula dalam darah, dan mendukung sistem kekebalan tubuh.\r\n\r\nTidak seperti Kalsium dan Magnesium, Zinc tidak dapat disimpan dalam tubuh, namun diperlukan tubuh setiap hari. Zinc berperan penting dalam berbagai proses enzim. Zinc membantu penyerapan mineral yang optimal dalam tubuh.\r\n\r\nFormula Chelated Calcium, Magnesium, dan Zinc adalah suplemen peninggi badan untuk Anda yang sedang dalam masa pertumbuhan, namun mempunyai masalah tinggi badan yang kurang atau tidak optimal.\r\n\r\nAturan Pakai : 3 x 1 kaplet per hari, sebaiknya sesudah makan. (pagi, siang, malam)","rating":0}
{"no":0,"title":"Penyubur Sperma Obat","price":"260.000","seller":"CV Karya Abadi Mart","sellerPlace":"Jakarta Selatan","url":"https://www.bukalapak.com/p/kesehatan-2359/obat-suplemen/obat-obatan/19zw4qt-jual-penyubur-sperma-obat?from=&product_owner=normal_seller","sold":5,"seen":4465,"favorite":31,"updated":"2019-08-01 14:13:54","description":"<<<<<<<<<<<<<< BARANG READY STOK >>>>>>>>>>>\r\n\r\n# PRODUK DIJAMIN ORIGINAL 100% ( Ber-HOLOGRAM )\r\n# PRIVASI DIJAMIN AMAN DAN TERJAGA KERAHASIAANNYA \r\n# PENGIRIMAN CEPAT\r\n# SUPLAIER TANGAN PERTAMA DARI CVKARYAABADI, DIJAMIN ORI DAN HARGA LEBIH TERJANGKAU\r\n\r\n<<<<<< FUNGSI UTAMA >>>>>>\r\n\r\nMENYUBURKAN, MENGENTALKAN, DAN MENAMBAH JUMLAH SPERMA PRIA.\r\nMENGATASI PRIA MANDUL\r\nMEMBUAT SPERMA JADI LEBIH AKTIF\r\n\r\n<<<<<< CARA PAKAI >>>>>>>\r\n\r\n1-2 kapsul sehari sekali, diminum sesudah makan\r\n\r\nSCOUNT ORIGINAL 100%\r\nISI: 50KAPSUL\r\nPOM TR: 163 397 951\r\nDIPRODUKSI: CV. KARYA ABADI, JEPARA\r\n\r\nPRIVASI KAMI JAGA AMAN\r\nNama barang tidak kami cantumkan. hanya nama dan alamat penerima saja","rating":0}
{"no":0,"title":"MINYAK OBAT PEMBESAR PEN IS","price":"135.000","seller":"toko berkah herbal","sellerPlace":"Jakarta Pusat","url":"https://www.bukalapak.com/p/kesehatan-2359/obat-suplemen/obat-obatan/28ltdhz-jual-minyak-obat-pembesar-pen-is?from=&product_owner=normal_seller","sold":27,"seen":30,"favorite":27,"updated":"2019-10-09 06:17:59","description":"PACKING RAPI, RAHASIA TERJAMIN!\r\nSTOCK SELALU READY\r\n===============\r\n\r\nMinyak Liintah Triple L \r\n\r\nKej4ntanan Anda kecil & Pendek? \r\nIstri tidak puas dengan senj4ta Anda?\r\n\r\nTidak sedikit pria yang merasa alt vitaIInya terlalu kecil sehingga merasa minder dan tidak bisa memuaskan istri. Misalpun bisa, kerap kali yang dialami istri ialah 0rgassmeee palsu untuk membuat senang suami. . Ketika istri tidak merasakan kepuasan, maka bisa jadi istri akan melirik laki-laki lain yang alat atau senj4tanya lebih besar dan tahan lama. Jika sudah demikian keharmonisan dalam rumah tangga pun jadi taruhan. \r\n\r\nSolusi yang tepat untuk masalah Anda ialah dengan memperbesar alat Anda agar bisa besar dan panjang serta kuat untuk memuaskan istri. Caranya sangat mudah dengan Minyak Liintah Super Triple L. \r\n\r\nTriple L terbuat dari minyak liintah murni kualitas super asli dari papua yang di rekomendasikan oleh para ahli karena zat aktif yang terkandung didalamnya telah teruji secara klinis dan terbukti mampu menambah ukuran pada alt vitaII. Selain berkhasiat juga aman di pakai tidak mengakibatkan iritasi maupun efek samping buruk bagi kesehatan. Khasiat Triple L sendiri sudah banyak dibuktikan hasilnya. \r\n\r\nManfaat Triple L\r\n- Menaikan masa otot dan panjang ukuran alat pria punya hingga 40%\r\n- Meningkatkan ukuran dan kekuatan vitall pria punya \r\n- Mengobati l3mah syhwat\r\n- Mengatasi ejak*lasi din*\r\n- memperpanjang sesi 0rgasmee pria\r\n\r\nDeskripsi produk: Triple L\r\nKemasan : Botol (lihat gambar)\r\nIsi : 15 ml\r\nDepkes. RI: IKOT 442/00060/V-2\r\nHarga : Rp.135.000,-\r\n\r\n1 Botol biasanya cukup untuk 3-4 minggu penggunaan rutin...\r\n\r\n----------------------PENTING-----------------------\r\nHATI-HATI PRODUK PALSU! PRODUK PALSU TIDAK MEMILIKI KHASIAT DAN BERBAHAYA BAGI KESEHATAN ORGAN VITAI.\r\nPRODUK PALSU DIJUAL DENGAN HARGA DIBAWAH HET (135.000/PRODUK) ATAU HARGA ECERAN TERENDAH!!! \r\nHATI-HATI !!! Jika Ada yng menjual dibawah harga HET dipastikan adalah produk palsu, karena harga bahan baku TRIPLE L tidak semurah yang produk palsu tawarkan!!!\r\nJANGAN TERGODA DENGAN IMING-IMING HARGA MURAH! PASTIKAN UNTUK SELALU MEMBELI PRODUK ASLI! SAYANGI KESEHATAN ORGAN VITAI ANDA !!!","rating":0}
{"no":0,"title":"MINYAK HERBAL OBAT PEMBESAR PEMANJANG PEN IS.-","price":"135.000","seller":"toko berkah herbal","sellerPlace":"Jakarta Pusat","url":"https://www.bukalapak.com/p/kesehatan-2359/obat-suplemen/obat-obatan/28ls02e-jual-minyak-herbal-obat-pembesar-pemanjang-pen-is?from=&product_owner=normal_seller","sold":27,"seen":32,"favorite":26,"updated":"2019-10-05 13:30:43","description":"PACKING RAPI, RAHASIA TERJAMIN!\r\nSTOCK SELALU READY\r\n===============\r\n\r\nMinyak Liintah Triple L \r\n\r\nKej4ntanan Anda kecil & Pendek? \r\nIstri tidak puas dengan senj4ta Anda?\r\n\r\nTidak sedikit pria yang merasa alt vitaIInya terlalu kecil sehingga merasa minder dan tidak bisa memuaskan istri. Misalpun bisa, kerap kali yang dialami istri ialah 0rgassmeee palsu untuk membuat senang suami. . Ketika istri tidak merasakan kepuasan, maka bisa jadi istri akan melirik laki-laki lain yang alat atau senj4tanya lebih besar dan tahan lama. Jika sudah demikian keharmonisan dalam rumah tangga pun jadi taruhan. \r\n\r\nSolusi yang tepat untuk masalah Anda ialah dengan memperbesar alat Anda agar bisa besar dan panjang serta kuat untuk memuaskan istri. Caranya sangat mudah dengan Minyak Liintah Super Triple L. \r\n\r\nTriple L terbuat dari minyak liintah murni kualitas super asli dari papua yang di rekomendasikan oleh para ahli karena zat aktif yang terkandung didalamnya telah teruji secara klinis dan terbukti mampu menambah ukuran pada alt vitaII. Selain berkhasiat juga aman di pakai tidak mengakibatkan iritasi maupun efek samping buruk bagi kesehatan. Khasiat Triple L sendiri sudah banyak dibuktikan hasilnya. \r\n\r\nManfaat Triple L\r\n- Menaikan masa otot dan panjang ukuran alat pria punya hingga 40%\r\n- Meningkatkan ukuran dan kekuatan vitall pria punya \r\n- Mengobati l3mah syhwat\r\n- Mengatasi ejak*lasi din*\r\n- memperpanjang sesi 0rgasmee pria\r\n\r\nDeskripsi produk: Triple L\r\nKemasan : Botol (lihat gambar)\r\nIsi : 15 ml\r\nDepkes. RI: IKOT 442/00060/V-2\r\nHarga : Rp.135.000,-\r\n\r\n1 Botol biasanya cukup untuk 3-4 minggu penggunaan rutin...\r\n\r\n----------------------PENTING-----------------------\r\nHATI-HATI PRODUK PALSU! PRODUK PALSU TIDAK MEMILIKI KHASIAT DAN BERBAHAYA BAGI KESEHATAN ORGAN VITAI.\r\nPRODUK PALSU DIJUAL DENGAN HARGA DIBAWAH HET (135.000/PRODUK) ATAU HARGA ECERAN TERENDAH!!! \r\nHATI-HATI !!! Jika Ada yng menjual dibawah harga HET dipastikan adalah produk palsu, karena harga bahan baku TRIPLE L tidak semurah yang produk palsu tawarkan!!!\r\nJANGAN TERGODA DENGAN IMING-IMING HARGA MURAH! PASTIKAN UNTUK SELALU MEMBELI PRODUK ASLI! SAYANGI KESEHATAN ORGAN VITAI ANDA !!!","rating":0}
{"no":0,"title":"Gaviscon Double Action Gaviskon Gafiscon Gafiskon Obat Maag Maagh Mag Mah Maah Mulas Mules Ganguan Pencernaan Gestric Heartburn","price":"240.000","seller":"Kans Shop","sellerPlace":"Jakarta Timur","url":"https://www.bukalapak.com/p/kesehatan-2359/obat-suplemen/obat-obatan/1rm536r-jual-gaviscon-double-action-gaviskon-gafiscon-gafiskon-obat-maag-maagh-mag-mah-maah-mulas-mules-ganguan-pencernaan-gestric-heartburn?from=&product_owner=normal_seller","sold":54,"seen":142,"favorite":14,"updated":"2019-09-18 08:31:32","description":"BARANG YANG DI JUAL SUDAH HARGA DISKON YA KAK.\r\n100% ORIGINAL !!!\r\nWASPADA HARGA MURAH tapi BARANG GAK ASLI / KW\r\n\r\nTablets : 16\r\n\r\nJika anda sakit pada pencernaan tidak usah bingung, obati saja dengan Gaviscon doublet action.\r\n\r\nObat yang ampuh meredakan sakit maag, perut mules, gangguan pencernaan.\r\n\r\nSangat cocok untuk kalian yang punya masalah pada Gestric dan Heartburn.","rating":0}
{"no":0,"title":"Minyak Hajar Original HJ-Mesir Jahanam 5ml","price":"36.000","seller":"LYK Store","sellerPlace":"Bekasi","url":"https://www.bukalapak.com/p/kesehatan-2359/obat-suplemen/obat-obatan/291a81y-jual-minyak-hajar-original-hj-mesir-jahanam-5ml?from=&product_owner=normal_seller","sold":519,"seen":205,"favorite":54,"updated":"2019-10-15 02:05:36","description":"- Pengiriman Barang dari Hari Senin - Sabtu Jam 08:00 - 14:00 (Order lewat jam 14:00 dikirim esok hari)\r\n\r\n- JAMINAN PRODUK 100% ORI, TIDAK ORI KEMBALIKAN.\r\n- isi murni : 5 ml\r\n\r\nHati2 Produk KW, ciri2 nya : \r\n- isi cuma 2 - 3 ml. isi cuma setengah botol, Cuma Panas tanpa khasiat.\r\n- Harga murah meriah karena cuma isi setengah botol.\r\nHATI-HATI YANG KW SEKILAS MIRIP DENGAN YANG ORI TAPI TIDAK ADA KASIATNYA !!!!!!!\r\n\r\nSELISIH SERIBU PERAK DAPAT BARANG KW. isi cuma setengah BOTOL ???\r\nHasil nya cuma PANAS aja tanpa khasiat? \r\n\r\nMENDING BELI YG ASLI KARENA SELISIH DIKIT TAPI ORIGINAL.\r\nTES BELI DAN BANDINGKAN DENGAN TOKO LAIN.\r\nSELISIH KW DAN ORI CUMA SERIBU TAPI KUALITAS JAUH.\r\n\r\nPRIVASI AMAN TIDAK DITULIS OBAT KUAT DAN LAINNYA - PACKING RAPIH - BARANG DIKIRIM SESUAI FOTO/GAMBAR ASLI","rating":0}
{"no":0,"title":"MIN YAK HJ HAJAR SA ADAH ORIGINAL ASLI","price":"40.000","seller":"LYK Store","sellerPlace":"Bekasi","url":"https://www.bukalapak.com/p/kesehatan-2359/obat-suplemen/obat-obatan/291b5z7-jual-min-yak-hj-hajar-sa-adah-original-asli?from=&product_owner=normal_seller","sold":578,"seen":178,"favorite":57,"updated":"2019-10-15 14:30:29","description":"> Pengiriman Barang dilakukan Hari Senin - Sabtu Jam 4 Sore (Order lewat dari jam 2 sore dikirim esok hari).\r\n> Input Resi jam 6-12 malam.\r\n\r\nProduk Original isi penuh 1 botol. ORIGINAL Berkhasiat.\r\n\r\nJAMINAN 100% ORI, TIDAK ORI KEMBALIKAN.\r\nHATI-HATI YANG KW SEKILAS MIRIP DENGAN YANG ORI TAPI TIDAK ADA KASIATNYA !!!!!!!\r\n\r\nHati2 Produk KW, ciri2 nya : \r\n- isi cuma 2 - 3 ml. isi cuma setengah botol, Cuma Panas tanpa khasiat.\r\n- Harga murah meriah karena cuma isi setengah botol.\r\n\r\nMENDING BELI YG ASLI KARENA SELISIH DIKIT TAPI ORIGINAL HANYA DISINI...\r\nTES BELI DAN BANDINGKAN DENGAN TOKO LAIN.","rating":0}
{"no":0,"title":"PREMIUM Minyak HJ Hajar Asli - Jahanam Premium BPOM","price":"78.000","seller":"LYK Store","sellerPlace":"Bekasi","url":"https://www.bukalapak.com/p/kesehatan-2359/obat-suplemen/obat-obatan/20me375-jual-premium-minyak-hj-hajar-asli-jahanam-premium-bpom?from=&product_owner=normal_seller","sold":579,"seen":301,"favorite":62,"updated":"2019-10-15 14:56:41","description":"Supaya dikirim Hari ini, order sebelum Jam 14:30 (Order diatas jam 14:30 dikirim esok hari)\r\n\r\n- Merupakan Prodak Yang Berkualitas NO 1 dan Aman dibandingkan dengan Varian Yang Lainnya. \r\n- HARGA LEBIH MAHAL Karena Kualitas NO 01 dan Sudah Berizin BPOM Jadi 100% Aman Dan Nyaman Buat ANDA.\r\n- Dijamin Komposisi Kualitas NO 01.\r\n- Black-Stone Al Afiah Liquid Hygiene For Man Sudah Mengantongi Izin Edar Dari Badan POM (BPOM) Jadi Sudah Tentu Pasti 100% Aman.\r\n\r\n* Produk dijamin 100 Persen Asli !!\r\n* Pengiriman Cepat !!\r\n* Packing Rapih, Kokoh & RAHASIA!! \r\n\r\nMinyak Hajar-Jahanam Black-Stone Al Afiah Liquid Hygiene For Man\r\nNetto : 10ML\r\nIzin Badan POM : 18171600054\r\nDiproduksi Oleh : CV An Naufa\r\nDistribusikan Oleh : Al Afiah \r\n\r\nBekerja sebagai Anti Ej*kulasi Dini\r\n\r\nDosis dan Cara Pakai :\r\n- Kocok dahulu sebelum di pakai\r\n- Di oleskan sedikit di bagian bawah leher Mr. P (jengger) kurang lebih 2x oles.\r\nKemudian diamkan selama 45 menit, lalu setelah meresap cuci dengan sabun hingga bersih maka anda siap menikmati kedahsyatannya","rating":0}
{"no":0,"title":"HOTIN DCL","price":"25.000","seller":"Anne","sellerPlace":"Surabaya","url":"https://www.bukalapak.com/p/kesehatan-2359/obat-suplemen/obat-obatan/1djx8b1-jual-hotin-dcl?from=&product_owner=normal_seller","sold":667,"seen":71,"favorite":3,"updated":"2019-04-13 13:45:21","description":"Deskripsi:\r\n\r\nHotin DCL indikasinya berbeda dengan Hotin yang lain, Hotin DCL merupakan emulsi gel yang cocok untuk meredakan nyeri sendi, sakit pinggang, rematik, linu dan kram. Hotin DCL pereda nyeri pertama di Indonesia, dengan formula diklofenac meresap dan langsung bekerja pada pusat rasa sakit dengan sensasi panas yang pas. Hotin DCL ketika dioleskan secara merata tidak lengket dikulit, dan tidak meninggalkan bekas. Bentuk sediaan Hotin DCL berbentuk tube modern sehingga praktis untuk dibawa kemana-mana, jika terasa nyeri langsung dapat digunakan. Hotin DCL diproduksi oleh PT. Ultra Sakti.","rating":0}
{"no":0,"title":"Obat Batuk TBC Herbal De Nature","price":"295.000","seller":"Faqih Herbal Shop","sellerPlace":"Cilacap","url":"https://www.bukalapak.com/p/kesehatan-2359/obat-suplemen/obat-obatan/14skdiw-jual-obat-batuk-tbc-herbal-de-nature?from=&product_owner=normal_seller","sold":87,"seen":894,"favorite":29,"updated":"2019-10-15 09:25:39","description":"Obat Detox Paru Obat Batuk TBC\r\nDETOPAR+PIPECA DE NATURE\r\n\r\nDetail Produk :\r\n1 Botol Detopar isi 50 kapsul\r\n1 Botol Pipeca isi 50 kapsul\r\n\r\nKhasiat :\r\nMembersihkan paru-paru\r\nMengobati Batuk Berlendir\r\nMengobati Batuk Berdahak\r\nMengobati TBC\r\nMerindah Vokal Suara\r\n\r\nAturan Pakai :\r\nKapsul di minum 3x sehari, 1 jam sebelum makan\r\nsekali konsumsi 2 kapsul tiap botol.\r\n\r\nStok ready gan/sis silahkan diorder\r\n\r\nKeterangan : Kemasan lama bertuliskan Detox Paru, kemasan sekarang Detopar","rating":0}
{"no":0,"title":"Obat Wasir hemmorhoida obat wasir ambeien","price":"215.000","seller":"Medika Utama Online","sellerPlace":"Jakarta Timur","url":"https://www.bukalapak.com/p/kesehatan-2359/obat-suplemen/obat-obatan/1yfa61o-jual-obat-wasir-hemmorhoida-obat-wasir-ambeien?from=&product_owner=normal_seller","sold":99,"seen":48,"favorite":0,"updated":"2019-10-04 02:11:08","description":"Disclaimer :\r\nhasil tiap individu dapat berbeda2 tergantung metabolisme tubuh masing2.\r\n\r\n1. TDK USAH TANYA READY STOK !\r\n2. MURNI 100% HERBAL TANPA EFEK SAMPING\r\n3. CANTUMKAN PESAN DALAM ORDER :\r\n1. PRIORITAS BERDARAH\r\n2. PRIORITAS BENJOLAN \r\n#TANPA PESAN DIKIRIM BENJOLAN\r\n\r\nSTAD. 3-4 TAMBAH SALEP","rating":0}
{"no":0,"title":"Papiluz Asli Impor isi 60","price":"400.000","seller":"Max Energy","sellerPlace":"Jakarta Selatan","url":"https://www.bukalapak.com/p/kesehatan-2359/obat-suplemen/obat-obatan/26eumqd-jual-papiluz-asli-impor-isi-60?from=&product_owner=normal_seller","sold":40,"seen":220,"favorite":1,"updated":"2019-10-15 15:15:47","description":"Penumbuh Rambut Ampuh Pria Wanita Anti Ketombe Uban Obat","rating":0}
{"no":0,"title":"Penggemuk Badan Ampuh Impor Pria Wanita berat badan","price":"350.000","seller":"Cv Raja Suplemen","sellerPlace":"Bandung","url":"https://www.bukalapak.com/p/kesehatan-2359/obat-suplemen/obat-obatan/1uf2gny-jual-penggemuk-badan-ampuh-impor-pria-wanita-berat-badan?from=&product_owner=normal_seller","sold":30,"seen":441,"favorite":4,"updated":"2019-10-12 08:04:19","description":"“ CV RAJA SUPPLEMENTS ”\r\n\r\n\r\nKEPUASAN PELANGGAN ADALAH KEPUASAN KAMI!!\r\n\r\n\r\nGARANSI UANG KEMBALI!!\r\n\r\n\r\nSilahkan di baca dan check deskripsi kami baik-baik.\r\n\r\n\r\nJangan beli barang palsu karena murah. Sayang buang uang om.\r\n\r\n\r\nKami 100% Importir yang menjual produk asli termurah!!\r\n\r\n\r\nAda Harga ada kualitas!!\r\n\r\n\r\nCek review asli kepuasan pelanggan\r\n\r\n\r\nToko palsu ReViewnya Juga PALSU\r\n\r\n\r\nSAYANGI TUBUH ANDA,JANGAN SEMBARANG KOMSUMSI PRODUK MURAH DAN TIDAK JELAS YANG HANYA AKAN MEMPERBURUK KEADAAN TUBUH ANDA.\r\n\r\n\r\nBARANG ORIGINAL IMPORT USA DAN BERCODE ORIGINAL!!\r\n\r\n\r\nPROMO BELI 3 BONUS 1 BOTOL,JADI KAMI AKAN KIRIM 4 BOTOL\r\n\r\n\r\nJAMINAN BONUS ASLI JUGA!!\r\n\r\n\r\nREADY STOK!!\r\n\r\n\r\nORDER MASUK LANGSNG DIKIRIM.\r\n\r\n\r\nPAKET DIJAMIN PRIVASI DAN RAHASIA.\r\n\r\n\r\nKIAN PI WISDOM ORIGINAL NEW PACKAGING WITH BARCODE\r\n\r\n\r\nASLI IMPOR PERSONAL DARI SHANGHAI\r\n\r\n\r\nBUKAN BELI DI YG DI RAGUKAN ASAL USULNYA\r\n\r\n\r\n1000% ORIGINAL\r\n\r\n\r\nHATI HATI DENGAN KIANPI PALSU PALSU TIDAK BIKIN GEMUK PALSU MERUSAK GINJAL KARENA MENGANDUNG TIMBAL , MENYEBABKAN KANKER JUGA\r\n\r\n\r\nKAMI MENJUAL PRODUK KIANPI DIJAMIN ORI 100000000000PERSEN ,\r\n\r\n\r\n*BACA AJ TESTI KL MASI BELUM PERCAYA :)\r\n\r\n\r\nJadi untuk kalian yang merasa gampang lelah, terus nggak bisa makan banyak terus gampang sakit, peredaran darah nggak lancar.\r\n\r\n\r\nSering Pucat &amp;amp;amp;amp; Mau gemuk tapi nggak gemuk gemuk / susah gemuk &amp;amp;amp;amp; Cenderung soaaak / gampang sakit/ gampang terserang virus / penyakit ini dia solusinya GINGSENG KIANPI\r\n\r\n\r\nJangan salah pilih Kianpi Gingseng, karena banyak sekali produk Kianpi (lebih dari 6 jenis dengan nama yg sama). saya jual beda dengan yg 30 / 50rebuan ya sist n agan, kianpi pasar kosmetik ORI punya. buktikan.. Pil Penggemuk Ginseng Kianpi Pil GINSENG KIANPI PIL efektif untuk menambah berat badan,, yang telah terbukti untuk menambah berat badan dengan efektif tanpa menimbulkan efek samping yang merugikan. KIANPI PIL berkhasiat untuk : * memperlancar peredaran darah * menambah nafsu makan * menaikan tenaga dan stamina * membentuk badan lebih berisi dan ideal. Menambah berat badan dengan normal 2-5kg dalam 1-2 minggu.\r\n\r\n\r\nATURAN PAKAI :: Minum 1-2 kapsul sebelum tidur malam,,kalau nafsu makan sudah timbul penggunaan bias dikurangi dikit demi dikit. PERHATIAN :: Hanya digunakan pada usia di atas 12 tahun ke atas. Tidak di gunakan untuk ibu hamil.\r\n\r\n\r\nSELAIN BUAT NAFSU MAKAN KIANPI BISA MENAMBAH STAMINA.. BIAR KITA TIDAK LOYO.. OBAT NAFSU MAKAN INI TIDAK MEMPUNYAI EFEK SAMPING JADI SANGAT AMAN DI GUNAKAN.. OBAT-OBAT INI DARI BAHAN-BAHAN TUMBUH-TUMBUHAN (ALAMI)\r\n\r\n\r\nIsi 60 Kapsul, untuk 1-2 bulan.","rating":0}
{"no":0,"title":"Obat Impor Asli Stamina Khusus Pria Herbal Ampuh","price":"350.000","seller":"Cv Raja Suplemen","sellerPlace":"Bandung","url":"https://www.bukalapak.com/p/kesehatan-2359/obat-suplemen/obat-obatan/1uinu3l-jual-obat-impor-asli-stamina-khusus-pria-herbal-ampuh?from=&product_owner=normal_seller","sold":31,"seen":192,"favorite":1,"updated":"2019-10-02 00:07:20","description":"\" CV RAJA SUPPLEMENTS \"\r\n\r\n\r\nKEPUASAN PELANGGAN ADALAH KEPUASAN KAMI!!\r\nGARANSI UANG KEMBALI!!\r\n\r\nSilahkan di baca dan check deskripsi kami baik-baik.\r\nJangan beli barang palsu karena murah. Sayang buang uang om. \r\n\r\nKami 100% Importir yang menjual produk asli termurah!!\r\n\r\nAda Harga ada kualitas!!\r\n\r\nSAYANGI TUBUH ANDA,JANGAN SEMBARANG KOMSUMSI PRODUK MURAH DAN TIDAK JELAS YANG HANYA AKAN MEMPERBURUK KEADAAN TUBUH ANDA.\r\n\r\nBARANG ORIGINAL DI JAMIN 100%\r\nATAU GARANSI UANG KEMBALI\r\n\r\n(3 DIKIRIM 4 DISINI) \r\n\r\nASLI IMPOR ORIGINAL\r\n\r\nAdalah solusi yang unik bagi mereka yang ingin mendapatkan\r\nkekuatan 5eksual yang stabil dan meningkatkan ukuran Mr. P sendiri. Karena\r\nbahan-bahan khusus yang merupakan bagian dari obat, Anda dapat memastikan bahwa\r\nAnda menerima hasil yang memuaskan\r\n\r\nKhasiat Dan Manfaat\r\nImpor Original Untuk Pria :\r\n\r\n1. Membantu Melancarkan sirkulasi darah ke Mr. P.\r\n2. Mengatasi lemah 5yahwat dan loyo.\r\n3. Membantu Mr. P cepat bangun lagi sehabis melakukan hubungan 1ntim.\r\n4. Membangkitkan gairah Libido.\r\n5. Mengurangi permasalahan 3jakulasi dini.\r\n6. Mr. P bisa berdiri hingga berjam-jam lamanya.\r\n7. Menambah Tegang, ku4t, k3ras saat 3reksi.\r\n8. Mendapatkan 0rgasm3 yang lebih nikmat.\r\n9. Mengeraskan 3reksi tiada henti.\r\n10. T4han lama berulang-ulang.\r\n11. Mr. P Jadi besar dan panjang secara alami.\r\n\r\nCARA PAKAI :\r\nSEHARI 2X SESUDAH MAKAN PAGI DAN MALAM\r\n\r\nISI : 30 KAPSUL\r\n\r\nAMAN KE JANTUNG","rating":0}
{"no":0,"title":"SidoMuncul Libidione Meningkatkan Vitalitas & Stamina Pria","price":"125.000","seller":"Indo_Health","sellerPlace":"Jakarta Selatan","url":"https://www.bukalapak.com/p/kesehatan-2359/obat-suplemen/obat-obatan/1sq5yio-jual-sidomuncul-libidione-meningkatkan-vitalitas-stamina-pria?from=&product_owner=normal_seller","sold":80,"seen":736,"favorite":20,"updated":"2019-10-09 16:00:26","description":"Pengiriman PRIVASI silahkan pilih via JNE !!!\r\n\r\n\r\nBeberapa bahan seperti ginseng, tribulus terrestris, dan eurycoma longifoli (tongkat ali) sudah diketahui khalayak umum sebagai bahan utama yang biasa digunakan dalam pembuatan obat stamina pria. Bahan-bahan ini dipercaya membantu meningkatkan stamina dan vitalitas kaum pria dewasa. Sementara ginko bilofa folium dapat membantu melancarkan aliran darah serta meningkatkan daya ingat dan kewaspadaan.\r\n\r\n\r\nKapsul Libidione merupakan salah satu dari sekian ratus produk herbal yang diproduksi oleh Sido Muncul yang telah berdiri sejak 1951. Perusahaan jamu nasional ini sudah berkomitmen mengembangkan produk-produk berbahan baku yang aman, rasional, serta jujur berdasarkan penelitian. Untuk itu Libidione juga telah mendapatkan pengakuan dari lembaga BPOM yang membuktikan obat ini aman untuk dikonsumsi.\r\n\r\n\r\nKhasiat Libidione :\r\n\r\n\r\n-Membantu meningkatkan gairah, vitalitas dan stamina pria dewasa\r\n\r\n\r\n-Memperlancar sirkulasi dan peredaran darah di dalam tubuh\r\n\r\n\r\n-Menjaga kebugaran dan kesehatan tubuh.\r\n\r\n\r\n-Meningkatkan kualitas dan kuantitas hormone testoteron secara alami dan mengatasi masalah masalah pria dewasa.\r\n\r\n\r\n-Meningkatkan daya ingat otak.\r\n\r\n\r\nKomposisi :\r\n\r\n\r\n\r\nEkstrak Ginko Biloba Folium . 80 mg\r\n\r\nGinseng . 40 mg\r\n\r\nTribulus Terrestris . 250 mg\r\n\r\nHippocampus . 8 mg\r\n\r\nEurycoma Longifoli . 25 mg\r\n\r\n\r\n\r\n\r\nCara Pakai:\r\n\r\n\r\nDewasa: 3 x 1 kapsul setiap hari, selama 1 2 bulan\r\n\r\n\r\nSuplemen: 1 x 1 kapsul setiap hari\r\n\r\n\r\nIsi : 30 kapsul","rating":0}
{"no":0,"title":"DETOPAR PIPECA","price":"295.000","seller":"DE NATURE RESMI","sellerPlace":"Cilacap","url":"https://www.bukalapak.com/p/kesehatan-2359/obat-suplemen/obat-obatan/24myxlh-jual-detopar-pipeca?from=&product_owner=normal_seller","sold":1053,"seen":229,"favorite":85,"updated":"2019-10-15 08:31:00","description":"DETOPAR &amp;amp;amp;amp;amp;amp;amp;amp;amp;amp;amp;amp;amp;amp;amp;amp;amp;amp;amp;amp;amp;amp;amp;amp;amp;amp;amp;amp;amp;amp;amp;amp;amp;amp;amp;amp;amp;amp;amp;amp;amp; PIPECA DE NATURE !!! SOLUSI PENYEMBUHAN MASALAH PARU PARU\r\n\r\n\r\n### Berikut berbagai Keluhan PARU yang bisa di sembuhkan dengan obat DETOPAR DAN PIPECA de nature ###.\r\n\r\n1.TBC\r\n2.Radang paru paru\r\n3.Paru Paru Basah\r\n4.Asma\r\n5.Bronkitis\r\n6.Kanker Paru Paru\r\n7.Pneumonia\r\n8.Sesak Nafas\r\n9.Ganguan pernafasan\r\n10. Batuk Menahuna\r\n11. Batuk Berdarah\r\n\r\n\r\n\r\nPENGOBATAN: \r\n\r\n### Jika Anda adalah salah satu dari penderita penyakit di atas, Maka sangat tepat jika Anda menggunakan obat DETOPAR Dan PIPECA de nature, Berikut adalah komposisi dari Obat PARU PARU De Nature\r\n\r\n*** 1 BOTOL DETOPAR DE NATURE\r\n*** 1 BOTOL PIPECA\r\n\r\n### Bagi Anda yang masih ragu dengan originalitas herbal yang terkandung dalam obat Ambejoss De Nature berikut kami sertakan komposisi yang terkandung dalam setiap butiran herbal DETOPAR dan PIPECA De Nature###\r\n\r\n*** morinda citrifolia fructus ( Buah Mengkudu )\r\n\r\n*** zingiber officinale rhizoma ( Jahe Merah )\r\n\r\n*** languatis galangae rhizoma ( lengkuas )\r\n\r\n*** piperis crocatum folium ( Sirih Merah )\r\n\r\n\r\nPENTING &amp;amp;amp;amp;amp;amp;amp;amp;amp;amp;amp;amp;amp;amp;amp;amp;amp;amp;amp;amp;amp;amp;amp;amp;amp;amp;amp;amp;amp;amp;amp;amp;amp;amp;amp;amp;amp;amp;amp;amp;amp; MOHON DI PERHATIKAN!!!\r\n\r\n*** Untuk mendapatkan kesembuhan total tentunya tidak instan.\r\n\r\n*** Pilih jumlah paket sesuai dengan tingkat keparahan penyakit Anda\r\n\r\n*** Sebaiknya konsultasikan Via chat terlebih dahulu mengenai penyakit Anda\r\n\r\n*** Segera lakukan pemesanan jika Anda sudah sangat yakin dengan obat De Nature agar barang langsung di kirim\r\n\r\n*** Semua produk yang tertera di etalase KHAREEN HERBAL De Nature sudah memiliki SERTIFIKAT BPOM, MUI serta lulus uji produksi bertaraf internasional ( ISO )\r\n\r\n***Barang Selalu Ready Stok\r\n\r\n\r\n\r\n\r\nSILAHKAN PESAN SEGERA.....!!!!!!!","rating":0}
{"no":0,"title":"OBAT HERBAL-. EJAKULASI-. DINI","price":"100","seller":"ZONA DEVASA","sellerPlace":"Semarang","url":"https://www.bukalapak.com/p/kesehatan-2359/obat-suplemen/obat-obatan/1512pp7-jual-obat-herbal-ejakulasi-dini?from=&product_owner=normal_seller","sold":10,"seen":386,"favorite":37,"updated":"2019-10-15 15:32:15","description":"PROMO HARI INI:\r\n- Beli 1 botol, GRATIS 1 pack Kondom Arjoena Extra Tipis (isi 3 pcs).\r\n- Berlaku kelipatan, selama persediaan masih ada.\r\n------------\r\nCV. KARYA ABADI JEPARA -- SIUP No. 510/24/PK/VIII/2015 -- Produsen dan Distributor Obat Herbal -- 100% Aman dan Terdaftar Resmi di BPOM\r\n\r\n100% AMAN, PRAKTIS, dan BEKERJA MAKSIMAL!\r\nPACKING AMAN, PRIVASI TERJAGA\r\n\r\nuntuk Anda kami hadirkan obat oles untuk kuat tahan lama saat Anda sedang bermadu kasih diatas ranjang dengan istri tercinta yakni DUREVEL obat oles herbal 100% organic yang akan membuat Anda kuat tahan lama menambah durasi main di atas ranjang. dengan menggunakan durevel secara rutin maka Anda akan terhindar dari ej akulasi dini.\r\n\r\nKhasiat\r\n- Tahan lama hingga 2 jam.\r\n- Ejakulasi dini tuntas.\r\n- Membantu untuk dapat erekzy lebih lama.\r\n- Membantu pria mampu melakukan penetrasi dalam durasi yang cukup lama.\r\n- Pria akan merasakan sensasi orgasme yang luar biasa nikmat.\r\n- Pria akan mendapatkan hubungan sekz yang sangat memuaskan.\r\n\r\nPetunjuk Pemakaian DUREVEL\r\n(1) Kocok Durevel terlebih dahulu.\r\n(2) Semprotkan Durevel sedikit saja pada kepala P, atau bisa juga teteskan 1-2 tetes pada kepala P, kemudian ratakan hingga leher P.\r\n(3) Rasa hangat akan terasa sekitar 10 menit setelah pemakaian. Saat itulah Durevel bekerja.\r\n(4) P akan terasa sedikit kebas, dan siap digunakan untuk bercinta dengan istri.\r\n\r\nEfek Samping: Asal mengikuti petunjuk pemakaian dengan benar, maka aman digunakan jangka panjang dan tidak membahayakan kesehatan tubuh.\r\n\r\nDetil Produk\r\n- Nama Produk: Durevel\r\n- Kemasan: Botol\r\n- Bentuk: Cair\r\n- Isi: 15 ml\r\n- Catatan: Simpan di tempat sejuk dan kering.","rating":0}
{"no":0,"title":"MEILIBAHENLING Efektif Hilangkan Bekas Luka Cacar Flek & Jerawat 100 ORIGINAL","price":"37.000","seller":"Angie Care","sellerPlace":"Jakarta Timur","url":"https://www.bukalapak.com/p/kesehatan-2359/obat-suplemen/obat-obatan/u55bsc-jual-meilibahenling-efektif-hilangkan-bekas-luka-cacar-flek-jerawat-100-original?from=&product_owner=normal_seller","sold":0,"seen":5,"favorite":0,"updated":"2019-10-05 10:26:59","description":"MEILIBAHENLING by VICELL\r\n\r\n\r\nNetto: 60gr\r\n\r\n\r\nBpom NA18180102451\r\n\r\n\r\nCara Pakai:\r\n\r\n\r\nOleskan tipis pada area noda gelap di kulit. Gunakan 2-4 kali sehari (hindari penggunaan di luka basah atau masih terbuka)\r\n\r\n\r\n\r\n\r\n[+] Welcome Reseller\r\n\r\n\r\n[+] Langsung di order aja ya sis :)\r\n\r\n\r\n[+] Semua Ready Stock\r\n\r\n\r\n[+] Kunjungi toko kami dan cek barang-barang keren lainnya\r\n\r\n\r\n[+] Terimakasih, Jangan Lupa Follow+\r\n\r\n\r\n\r\n\r\nSelamat Berbelanja\r\n\r\n\r\nkesehatan #luka #obatan #cacar #flek #obat #hilangkan #bekas #jerawat #original #meilibahenling #efektif","rating":0}
{"no":0,"title":"PENAMBAH STAMINA PRIA - THEORYMAN","price":"300.000","seller":"GOODSTRONG ID","sellerPlace":"Kab. Bandung","url":"https://www.bukalapak.com/p/kesehatan-2359/obat-suplemen/obat-obatan/2ccrket-jual-penambah-stamina-pria-theoryman?from=&product_owner=normal_seller","sold":0,"seen":19,"favorite":2,"updated":"2019-10-11 01:51:24","description":"READY STOCK GAN / SIS.!!!\r\n\r\n\r\nBELI 3'GRATIS 1\r\n\r\n\r\n(BUKTIKAN DAN RASAKAN KEMAMPUAN NYA)\r\n\r\n\r\nANDA CEPAT KAMIPUN CEPAT\r\n\r\n\r\n<pre><code> expedisi 24jam full time\r\n\r\n</code></pre>\r\n\r\nminat order klik beli verifikasi pembayaran lewat\r\n\r\n\r\nSISTEM PENJUALAN KAMI DAN PELAYANAN KAMI USAHAKAN SEBAIK MUNGKIN. !!!\r\n\r\n\r\nKAMI MELAYANI PENGIRIMAN KE SELURUH KOTA DI INDONESIA LUAR NEGERI..\r\n\r\n\r\nKELEBIHAN TOKO KAMI KELUARGA - HERBAL\r\n\r\n\r\n<ul>\r\n\r\n<li>\r\nprivacy anda di jamin kerahasiaanya\r\n</li>\r\n\r\n<li>\r\nPengirim selalu tepat waktu\r\n</li>\r\n\r\n<li>\r\nKami Melayani segala kebutuhan Anda.\r\n</li>\r\n\r\n<li>\r\nMengutamakan kualitas produk.\r\n</li>\r\n\r\n<li>\r\nFast Respons\r\n</li>\r\n\r\n<li>\r\nBarang akan Kami Bungkus Rapi\r\n</li>\r\n\r\n<li>\r\nDi jamin aman 100%\r\n</li>\r\n\r\n<li>\r\nTanpa di Ketahui Petugas Via Paket\r\n</li>\r\n\r\n<li>\r\nBarang Dijamin Asli Original..\r\n</li>\r\n\r\n<li>\r\nDijamin Packing Aman Sesuai Privacy Anda\r\n</li>\r\n\r\n<li>\r\nDi jamin barang sampai\r\n\r\n\r\nselamat dan sesuai\r\n\r\n\r\nsampai dengan kondisi baik\r\n</li>\r\n\r\n<li>\r\nkarna kami packing\r\n\r\n\r\ndengan ahli dan profesional 100%\r\n</li>\r\n\r\n<li>\r\nKwalitas barang dan keaslian\r\n\r\n\r\nbarang yang jadi keutamaan kami.\r\n</li>\r\n\r\n</ul>\r\n\r\nDi jamin ORIGINAL!!! Jika berminat langsung aja klik Beli!!!\r\n\r\n\r\n<<Salam harmonis buat anda sekeluarga>>\r\n\r\n\r\nJAMINAN MUTU & KUALITAS INTERNATIONAL KEPUASAN CUSTOMER ADALAH PRIORITAS UTAMA KAMI","rating":0}
{"no":0,"title":"PLOSSA - MINYAK ANGIN INHALER DAN ROLL ON - EUCALYPTUS","price":"11.000","seller":"May 89","sellerPlace":"Jakarta Utara","url":"https://www.bukalapak.com/p/kesehatan-2359/obat-suplemen/obat-obatan/23qkh6y-jual-plossa-minyak-angin-inhaler-dan-roll-on-eucalyptus?from=&product_owner=normal_seller","sold":5,"seen":36,"favorite":3,"updated":"2019-10-15 11:39:13","description":"Plossa Minyak Angin Aromatherapy Eucalyptus\r\n\r\nPlossa Press &amp;amp; Sooth Aromatics adalah alat serbaguna dengan manfaat refleksi yang dapat menangani:\r\n1.Sakit Kepala\r\n2.Gejala masuk angin\r\n3.Pegal-pegal\r\n4.Kembung dan mual\r\n5.Hidung tersumbat\r\n\r\nPlossa Aromatherapy 4in1 dapat digunakan sebagai:\r\n-Inhaler : aromatherapy yang menyegarkan\r\n-Roll on : Dioleskan dileher dan pelipis untuk meredakan sakit kepala\r\n-Kerokan : Meredakan gejala masuk angin\r\n-Relaksasi : Menangani pegal-pegal pada otot\r\n\r\nPerhatian :\r\n* Tidak digunakan pada anak di bawah 2 tahun\r\n* Tidak digunakan langsung di bawah lubang hidung\r\n\r\n\r\nKemasan tube berisi : \r\n** roll on netto 8ml\r\nPOM QD. 171615321\r\n** inhaler netto 2ml\r\nPOM QD. 171615781\r\n\r\nExp. 04/2021","rating":0}
{"no":0,"title":"Gaviscon Double Action Gaviskon Obat Mulas Mules Ganguan Pencernaan Gafiscon Gafiskon","price":"190.000","seller":"Kans Shop","sellerPlace":"Jakarta Timur","url":"https://www.bukalapak.com/p/kesehatan-2359/obat-suplemen/obat-obatan/1rmbh58-jual-gaviscon-double-action-gaviskon-obat-mulas-mules-ganguan-pencernaan-gafiscon-gafiskon?from=&product_owner=normal_seller","sold":53,"seen":105,"favorite":11,"updated":"2019-08-21 14:26:03","description":"BARANG YANG DI JUAL SUDAH HARGA DISKON YA KAK.\r\n100% ORIGINAL !!!\r\nWASPADA HARGA MURAH tapi BARANG GAK ASLI / KW\r\n\r\nisi 5 pcs\r\n\r\nGaviscon Double Action bekerja dalam dua cara untuk secara efektif meredakan mulas dan gangguan pencernaan.\r\n\r\nDengan cepat menetralkan kelebihan asam lambung. Membentuk rakit di atas isi perut yang membantu mencegah asam kembali ke kerongkongan (pipa makanan).\r\n\r\nCocok untuk digunakan meskipun dalam keadaan hamil.","rating":0}
{"no":0,"title":"Kayu Bajakah Kalalawit merah","price":"17.000","seller":"fin cover","sellerPlace":"Jakarta Utara","url":"https://www.bukalapak.com/p/kesehatan-2359/obat-suplemen/obat-obatan/2dcazfe-jual-kayu-bajakah-kalalawit-merah?from=&product_owner=normal_seller","sold":0,"seen":4,"favorite":0,"updated":"2019-10-14 18:30:49","description":"Akar Kayu bajakah kalimantan yang terbukti mampu menyembuhkan semua kanker dan tumor. \r\n\r\nAkar bajakah kalimantan adalah obat Herbal turun menurun suku dayak untuk menyembuhkan berbagai kanker dan tumor dan baru sekarang di buktikan melalui riset dan penelitian ,dan akhirnya di akui dunia kesehatan, yang dibuktikan siswa sma kalimantan tengah di korea selatan mendapat medali emas atas hasil yang menakjubkan dr akar kayu bajakah kalimantan\r\n\r\nSetelah pengujian laboratorium, tanaman bajakah terbukti mengandung 40 macam zat penyembuh kanker, di antaranya saponin, fenolik, steroid, terpenoid, tannin, alkonoid, dan terpenoid.\r\n\r\nCara masak akar kayu bajakah\r\n\r\n50 gram bajakah direbus dengan air 1 liter selama 30 menit dengan api kecil dan minum air rebusan tersebut sebagai pengganti air minum setiap hari. Untuk rasa, rebusan air bajakah memiliki warna seperti teh dan rasa yang \r\nhambar.\r\n\r\nDiminum setelah makan \r\n\r\nambil 1 liter air untuk direbus ke 2 kali nya pada hari yg sama \r\n\r\nStok barang banyak,,, siap dikirim kan ke seluruh Indonesia\r\n\r\nHarga 22.000 dapat 100.gram","rating":0}
{"no":0,"title":"suplemen NATROL SLEEP MELATONIN 5mg isi 100 tablet original usa KLO BUKAN ORIGINAL UANG KEMBALI","price":"190.000","seller":"SEHAT BUGAR 1983","sellerPlace":"Jakarta Pusat","url":"https://www.bukalapak.com/p/kesehatan-2359/obat-suplemen/obat-obatan/13wgpfr-jual-suplemen-natrol-sleep-melatonin-5mg-isi-100-tablet-original-usa-klo-bukan-original-uang-kembali?from=&product_owner=normal_seller","sold":0,"seen":32,"favorite":2,"updated":"2019-10-02 15:36:19","description":"SELAMAT BERBELANJA DI LAPAK\r\n\" SEHAT BUGAR 1983 \"\r\n\r\nInformasi Produk\r\nExpired date: 6/2021\r\nIsi : 100 V-TABLET\r\nNEW LOOK....!!\r\nProduk USA\r\n\r\nNatrol Melatonin 5 mg Time Release adalah 100% vegetarian dan menawarkan sistem pengiriman biphasic yang melepaskan melatonin cepat untuk membantu Anda tertidur cepat dan kemudian terus untuk membantu Anda tetap tidur sepanjang malam. Melatonin membantu membentuk pola tidur normal untuk memberikan ketenangan dan kesehatan secara keseluruhan. Tubuh secara alami memproduksi melatonin dan Vitamin B6 sangat penting untuk produksi melatonin.\r\n\r\nKegunaan:\r\n- Membantu Anda tertidur Cepat\r\n- Tetap Tidur Sepanjang Malam\r\n- Membantu pola tidur secara normal dgn memberikan ketenangan \r\n- Time release yang artinya melepaskan tablet secara perlahan\r\n- Waktu tidur menjadi berkualitas.\r\n\r\nSaran Penggunaan\r\nAmbil 1 tablet 15-20 menit sebelum tidur.\r\n\r\nTidak mengandung ragi, gandum, jagung, susu, telur, kedelai, gluten, warna buatan atau rasa, ditambahkan gula, pati atau pengawet.\r\n\r\nPeringatan\r\nJika Anda berada di bawah pengawasan medis atau menggunakan obat penenang, tanyakan pendapat dari dokter Anda sebelum menggunakan. Konsultasikan dengan dokter Anda sebelum menggunakan jika Anda memiliki kondisi autoimun atau gangguan depresi atau sedang hamil atau menyusui. \r\nTidak untuk digunakan oleh anak-anak di bawah usia 12 tahun. \r\nJangan mengambil saat mengoperasikan mesin atau mengendarai kendaraan.","rating":0}
{"no":0,"title":"Obat asam urat dan rematik BINAHONG 10 sachet isi 2