{"no":0,"title":"Obat kanker - Obat kanker serviks","price":"315.000","seller":"juragan Obat Herbal","sellerPlace":"Cilacap","url":"https://www.bukalapak.com/p/kesehatan-2359/obat-suplemen/obat-obatan/5gmj7-jual-obat-kanker-obat-kanker-serviks?from=&product_owner=normal_seller","sold":467,"seen":3747,"favorite":40,"updated":"2019-10-15 01:05:23","description":"Obat Kanker de Nature Indonesia, Perpaduan dahsyat ZIIRZAX (Ekstrak sirsak) dan TYPHOGELL (Ekstrak Keladi Tikus)\r\n\r\nZIIRZAK De Nature adalah sebuah produk terbaik yang sudah di buktikan oleh ratusan orang dan sudah banyak membantu pasien kanker terhindar dari operasi yang biayanya cukup mahal. Selain biaya mahal, hal yang paling penting adalah anda tidak perlu kehilangan organ penting dari tubuh anda karena operasi.\r\n\r\nKasiat sirsak dalam membasmi kanker:\r\n- Secara efektif memilih target dan membunuh sel jahat dari 12 tipe kanker yang berbeda, diantaranya kanker : Usus Besar, PayuDara, Prostat, Paru2, dan Pankreas.\r\n- Daya kerjanya 10.000 kali lebih kuat dalam memperlambat pertumbuhan sel kanker dibandingkan dengan Adriamicin dan Terapi Kemo yang biasa di gunakan.\r\n- Tidak seperti terapi kemo, sari buah ini secara selektif hanya memburu dan membunuh sel2 jahat dan TIDAK membahayakan/ membunuh sel2 sehat.\r\n\r\nKeladitikus Mujarab Basmi Kanker\r\n\r\nEkstrak daun keladitikus terbukti memotong rantai DNA sel kanker sehingga berbentuk menjadi nick circular alias lingkaran semu sebagaimana tampak di bawah sinar ultraviolet. RIPs merupakan protein dengan aktivitas mampu memotong rantai DNA atau RNA sel. Dampaknya pembentukan protein sel pun terhambat sehingga sel kanker gagal berkembang.\r\n\r\nPada pengobatan, RIPs menonaktifkan perkembangan sel kanker dengan cara merontokkan sel kanker tanpa merusak jaringan di sekitarnya. Selain itu RIPs juga memblokir pertumbuhan sel kanker. Ekstrak keladitikus yang mengandung RIPs mampu memotong rantai DNA sel kanker.\r\n\r\nCiri-Ciri De Nature Palsu :\r\n\r\n-Tidak dikirim dari Majenang Cilacap Jawa Tengah\r\n-Didapatkan dari toko offline seperti apotik, toko herbal, atau pihak yang mengaku De Nature tapi menjual tidak dengan sistem online\r\n-Rekening yang digunakan tidak bisa dikuatkan dengan surat keagenan resmi\r\n-Kemasan tidak bersegel dan berhologram\r\n\r\nGARANSI OBAT ASLI 100%\r\nBELANJA ONLINE AMAN DENGAN BUKALAPAK :)","rating":0}
{"no":0,"title":"Obat Wasir Ambejoss 1 botol dan Zaitop I Botol","price":"275.000","seller":"juragan Obat Herbal","sellerPlace":"Cilacap","url":"https://www.bukalapak.com/p/kesehatan-2359/obat-suplemen/obat-obatan/9ztnbk-jual-obat-wasir-ambejoss-1-botol-dan-zaitop-i-botol?from=&product_owner=normal_seller","sold":3,"seen":444,"favorite":4,"updated":"2019-10-14 08:27:41","description":"Barang selalu ready ya sist/gan. Tinggal kirim... (fast respond)\r\n\r\nPaket 1 minggu 275.000\r\n\r\n1 botol ambejoss @50 kapsul\r\n1 botol salep salwa\r\n\r\nApa Yang Anda Rasakan Ketika Terkena Penyakit Wasir / Ambeien Luar ataupun Dalam?\r\n\r\nRisih\r\nSulit Beraktifitas\r\nBAB Terasa Sakit\r\nGatal di Sekitar Anus\r\nBAB Berdarah\r\nMalu Ketika Berkumpul dg Teman\r\n\r\nApa Saja Yang Sudah Anda Lakukan Selama Ini Untuk Menghilangkan Penyakit Wasir Atau Ambeien Tersebut?\r\n\r\nKonsumsi Berbagai Macam Obat Namun Tak Kunjung Sembuh?\r\nDisarankan Untuk Operasi Tapi Takut?\r\nSudah Pernah Operasi Tapi Kambuh Lagi?\r\n\r\nJangan Khawatir Kami Punya Solusinya..!!\r\nTidak Sedikit Yang Sudah Operasi Wasir/ Ambeien Namun Kambuh Lagi..!!! Setelah Konsultasi dan Kami Sarankan Berobat Menggunakan Kapsul AmbeJoss dan Alhamdulillah Menemukan Kecocokan dan Sembuh..\r\n\r\nTANPA OPERASIPaket Ambejoss+ Salep salwa\r\nDiperuntukan untuk penderita wasir stadium II keatas yang sudah ada benjolannya.\r\n\r\n\r\n\r\nCara Mengobati Wasir Secara Tradisional yaitu dengan Ambejoss De Nature Indonesia sebagai obat wasir tradisional yang dirancang secara khusus untuk sembuhkan wasir ringan maupun parah secara alami.\r\n\r\nUji klinis telah menunjukkan bahwa produk ini aman dan tidak memiliki efek samping. Ambejoss De Nature Indonesia, Herbal Kami terbuat dari daun ungu pilihan yang sudah banyak membantu mengobati pasien wasir atau ambeien. Pemakaian Ambejoss secara rutin selama satu bulan bisa membantu mengobati wasir, baik itu wasir stadium IV sekalipun. Untuk yang stadium II keatas yang sudah ada benjolan di sekitar anus akibat pembengkakan, cara mengobati wasir luar kami sarankan juga untuk menggunakan Salep salwa. Salep salwa untuk wasir terbuat dari campuran herbal, diantaranya adalah propolis murni, minyak zaitun, binahong dan bahan lain yang membantu menyembuhkan wasir dari luar.","rating":0}
{"no":0,"title":"DETOCLINE OBAT PEMBUNUH PARASIT Obat herbal ORIGINAL","price":"400.000","seller":"toko HERBAL original","sellerPlace":"Jakarta Pusat","url":"https://www.bukalapak.com/p/kesehatan-2359/obat-suplemen/obat-obatan/2d1jwl5-jual-detocline-obat-pembunuh-parasit-obat-herbal-original?from=&product_owner=normal_seller","sold":1,"seen":117,"favorite":6,"updated":"2019-10-15 11:01:59","description":"Detocline Bagaimana kita dapat melindungi diri sendiri dari parasit?\r\n\r\nSayangnya, sejauh ini tidak ada cara untuk mendiagnosis apakah ada parasit di dalam tubuh atau tidak. Salah satu alasan adalah bahwa ada banyak jenis parasit (lebih dari 2.000 spesies sejauh ini diketahui). Satu lagi adalah fakta bahwa mereka sangat sulit untuk mendeteksi. Pemeriksaan menyeluruh yang dapat mengkonfirmasi adanya parasit dalam tubuh dapat dilakukan hanya dalam beberapa tempat di Portugal dan sangat mahal.\r\nGejala Infeksi parasit oleh adalah:\r\n\r\nJelek nafas\r\n\r\n(Gatal, alergi berair mata dan pilek)\r\n\r\nGatal dan Kemerahan pada kulit\r\n\r\nSering selsema, tenggorokan, hidung pengap\r\n\r\nChronic Fatigue (lelah anda dengan cepat tidak kira apa yang anda lakukan\r\n\r\nSakit kepala sering\r\n\r\nNyeri otot dan sendi\r\n\r\nKegelisahan, insomnia dan gangguan nafsu makan\r\n\r\nLingkaran gelap dan bags di bawah mata\r\n\r\nMasalah Kulit\r\n\r\nNyeri saat feses / saat membersihkan\r\n\r\nJika anda melihat sedikitnya salah satu gejala ini, ada kemungkinan bahwa 99% parasit-parasit mengeksploitasi tubuh anda. Mereka telah menyingkirkan mereka sesegera mungkin!\r\nPada sisi lain, berbicara tentang suplemen, ini: hari ini hanya ada satu solusi yang memungkinkan anda menyingkirkan parasit dari tubuh.\r\n\r\nPROMO BELI 3 GRATIS 1","rating":0}
{"no":0,"title":"Penggemuk Badan Impor Asli Ampuh Top Quality Pria Wanita","price":"380.000","seller":"Max Energy","sellerPlace":"Jakarta Selatan","url":"https://www.bukalapak.com/p/kesehatan-2359/obat-suplemen/obat-obatan/1u7rjwk-jual-penggemuk-badan-impor-asli-ampuh-top-quality-pria-wanita?from=&product_owner=normal_seller","sold":49,"seen":579,"favorite":8,"updated":"2019-10-15 14:07:42","description":"MAX ENERGY \r\nPUSAT PRODUK ORIGINAL IMPOR\r\nBELI 3 GRATIS 1\r\nADA HARGA ADA KUALITAS\r\n\r\nKIAN PI WISDOM ORIGINAL NEW PACKAGING WITH BARCODE \r\n\r\nASLI IMPOR PERSONAL DARI SHANGHAI\r\nBUKAN BELI DI YG DI RAGUKAN ASAL USULNYA\r\n1000% ORIGINAL\r\n\r\nHATI HATI DENGAN KIANPI PALSU PALSU TIDAK BIKIN GEMUK PALSU MERUSAK GINJAL KARENA MENGANDUNG TIMBAL , MENYEBABKAN KANKER JUGA \r\n\r\nKAMI MENJUAL PRODUK KIANPI DIJAMIN ORI 100000000000PERSEN , \r\n\r\n*BACA AJ TESTI KL MASI BELUM PERCAYA :) \r\n\r\nJadi untuk kalian yang merasa gampang lelah, terus nggak bisa makan banyak terus gampang sakit, peredaran darah nggak lancar. \r\nSering Pucat &amp;amp;amp;amp;amp; Mau gemuk tapi nggak gemuk gemuk / susah gemuk &amp;amp;amp;amp;amp; Cenderung soaaak / gampang sakit/ gampang terserang virus / penyakit ini dia solusinya GINGSENG KIANPI\r\n\r\nJangan salah pilih Kianpi Gingseng, karena banyak sekali produk Kianpi (lebih dari 6 jenis dengan nama yg sama). saya jual beda dengan yg 30 / 50rebuan ya sist n agan, kianpi pasar kosmetik ORI punya. buktikan.. Pil Penggemuk Ginseng Kianpi Pil GINSENG KIANPI PIL efektif untuk menambah berat badan,, yang telah terbukti untuk menambah berat badan dengan efektif tanpa menimbulkan efek samping yang merugikan. KIANPI PIL berkhasiat untuk : * memperlancar peredaran darah * menambah nafsu makan * menaikan tenaga dan stamina * membentuk badan lebih berisi dan ideal. Menambah berat badan dengan normal 2-5kg dalam 1-2 minggu. \r\n\r\nATURAN PAKAI :: Minum 1-2 kapsul sebelum tidur malam,,kalau nafsu makan sudah timbul penggunaan bias dikurangi dikit demi dikit. PERHATIAN :: Hanya digunakan pada usia di atas 12 tahun ke atas. Tidak di gunakan untuk ibu hamil. \r\n\r\nSELAIN BUAT NAFSU MAKAN KIANPI BISA MENAMBAH STAMINA.. BIAR KITA TIDAK LOYO.. OBAT NAFSU MAKAN INI TIDAK MEMPUNYAI EFEK SAMPING JADI SANGAT AMAN DI GUNAKAN.. OBAT-OBAT INI DARI BAHAN-BAHAN TUMBUH-TUMBUHAN (ALAMI) \r\n\r\nIsi 60 Kapsul, untuk 1-2 bln","rating":0}
{"no":0,"title":"FLEX AMOVE OBAT PERSENDIAN DAN TULANG obat herbal original","price":"350.000","seller":"toko HERBAL original","sellerPlace":"Jakarta Pusat","url":"https://www.bukalapak.com/p/kesehatan-2359/obat-suplemen/obat-obatan/2d15a91-jual-flex-amove-obat-persendian-dan-tulang-obat-herbal-original?from=&product_owner=normal_seller","sold":1,"seen":121,"favorite":4,"updated":"2019-10-15 10:02:22","description":"Flex Amove adalah produk yang dapat menghilangkan rasa sakit akibat penyakit seperti arthrosis dan osteochondrosis dengan cepat. Produk ini menghilangkan ketegangan otot dan inflamasi. Flex Amove juga efektif untuk merawat osteochondrosis dan arthrosis karena memperlambat proses degenerasi jaringan tulang rawan, melancarkan metabolisme, serta membantu perbaikan tulang rawan artikular. Efek positifnya dapat segera terlihat setelah penggunaan pertama. Jika digunakan secara rutin, penyakit sendi dan tulang belakang tidak akan bertambah parah.\r\n\r\nPROMO BELI 3 GRATIS 1","rating":0}
{"no":0,"title":"1 Botol The Shelton Green Coffee Extract / Kopi Hijau ( Premium Quality )","price":"150.000","seller":"Shelton Nutrition Store","sellerPlace":"Malang","url":"https://www.bukalapak.com/p/kesehatan-2359/obat-suplemen/obat-obatan/7epe85-jual-1-botol-the-shelton-green-coffee-extract-kopi-hijau-premium-quality?from=&product_owner=normal_seller","sold":74,"seen":3527,"favorite":35,"updated":"2019-10-14 09:34:44","description":"PROMO FREE ONGKIR !!\r\n\r\n\r\nAREA JABODETABEK DAN JAWA TIMUR\r\n\r\n\r\nORDER AKAN MENGGUNAKAN EKSPEDISI WAHANA\r\n\r\n\r\n.\r\n\r\n\r\n.\r\n\r\n\r\nGREEN COFFEE BEAN EXTRACT\r\n\r\n\r\n( Kopi Hijau Extract )\r\n\r\n\r\nBy Shelton Nutrition\r\n\r\n\r\n100% ORIGINAL\r\n\r\n\r\nDEPKES UKOT : 422/100/GC.1/2018\r\n\r\n\r\nDinkes P-IRT : 5103573012679-22\r\n\r\n\r\nHalal MUI : 00170012700600\r\n\r\n\r\nDapat Menurunkan Berat Badan Hingga 8 kg dalam 50 hari !!\r\n\r\n\r\n( NB : Syarat dan Ketentuan berlaku )\r\n\r\n\r\n1 Botol ( 50 Kapsul )\r\n\r\n\r\n\r\nProven Material dan Dosage\r\n\r\nMembakar Lemak Lebih Cepat\r\n\r\nTanpa Efek Samping\r\n\r\n15 Manfaat dalam 1 Kapsul\r\n\r\nHasil Terbaik Dengan Olahraga / Gym\r\n\r\n\r\n\r\n\r\nBerikut 15 Manfaat Green Bean untuk Membakar Lemak , Menjaga Kesehatan dan kulit serta rambut kita :\r\n\r\n\r\n1.\r\nKaya AntiOksidan\r\n2.\r\nMeningkatkan Metabolisme\r\n3.\r\nMembantu Membakar Lemak Ekstra\r\n4.\r\nMenekan Rasa Lapar\r\n5.\r\nMembantu Diabetes\r\n6.\r\nMengurangi Tingkat Kolesterol Buruk (LDL)\r\n7.\r\nMembantu Meningkatkan Sirkulasi Darah\r\n8.\r\nDigunakan Untuk Detoksifikasi alami\r\n9.\r\nMeningkatkan Energi\r\n10.\r\nMengurangi Pengaruh Radikal Bebas\r\n11.\r\nMeningkatkan Sistem Kekebalan Tubuh\r\n12.\r\nMembantu memperlambat tanda penuaan\r\n13.\r\nMembantu Melembabkan Kulit\r\n14.\r\nMenghilangkan Zat penyebab Kerusakan rambut\r\n15.\r\nMencegah Kebotakan\r\n\r\n\r\n\r\nAturan Pakai / Suggested Use :\r\n\r\n\r\n1 atau 2 kapsul , 2x Sehari\r\n\r\n\r\n15 menit sebelum atau sesudah makan\r\n\r\n\r\n10 menit sebelum olahraga\r\n\r\n\r\n\r\nKami Menggunakan Bahan Kopi Hijau Kualitas A+ . Jangan Tertipu oleh harga murah dengan kualitas buruk -\r\n\r\n\r\n\r\n\r\nPELUANG KERJASAMA DISTRIBUTOR DI KOTA ANDA !","rating":0}
{"no":0,"title":"Green Coffee Bean Extract . Kopi Hijau Diet Shelton","price":"150.000","seller":"Shelton Nutrition Store","sellerPlace":"Malang","url":"https://www.bukalapak.com/p/kesehatan-2359/obat-suplemen/obat-obatan/1mx5897-jual-green-coffee-bean-extract-kopi-hijau-diet-shelton?from=&product_owner=normal_seller","sold":7,"seen":526,"favorite":14,"updated":"2019-10-14 09:34:43","description":"PROMO FREE ONGKIR !!\r\nAREA JABODETABEK DAN JAWA TIMUR \r\nORDER AKAN MENGGUNAKAN EKSPEDISI WAHANA\r\n.\r\n.\r\nGREEN COFFEE BEAN EXTRACT\r\n( Kopi Hijau Extract )\r\nBy Shelton Nutrition \r\n\r\n100% ORIGINAL\r\nDEPKES UKOT : 422/100/GC.1/2018\r\nDinkes P-IRT : 5103573012679-22\r\nHalal MUI : 00170012700600\r\n\r\nDapat Menurunkan Berat Badan Hingga 8 kg dalam 50 hari !! \r\n( NB : Syarat dan Ketentuan berlaku )\r\n\r\n1 Botol ( 50 Kapsul )\r\n- Proven Material dan Dosage\r\n- Membakar Lemak Lebih Cepat\r\n- Tanpa Efek Samping \r\n- 15 Manfaat dalam 1 Kapsul\r\n- Hasil Terbaik Dengan Olahraga / Gym\r\n\r\nBerikut 15 Manfaat Green Bean untuk Membakar Lemak , Menjaga Kesehatan dan kulit serta rambut kita :\r\n\r\n1. Kaya AntiOksidan\r\n2. Meningkatkan Metabolisme\r\n3. Membantu Membakar Lemak Ekstra\r\n4. Menekan Rasa Lapar\r\n5. Membantu Diabetes\r\n6. Mengurangi Tingkat Kolesterol Buruk (LDL)\r\n7. Membantu Meningkatkan Sirkulasi Darah\r\n8. Digunakan Untuk Detoksifikasi alami\r\n9. Meningkatkan Energi\r\n10. Mengurangi Pengaruh Radikal Bebas\r\n11. Meningkatkan Sistem Kekebalan Tubuh\r\n12. Membantu memperlambat tanda penuaan\r\n13. Membantu Melembabkan Kulit\r\n14. Menghilangkan Zat penyebab Kerusakan rambut\r\n15. Mencegah Kebotakan\r\n\r\nAturan Pakai / Suggested Use :\r\n1 atau 2 kapsul , 2x Sehari\r\n15 menit sebelum atau sesudah makan\r\n10 menit sebelum olahraga\r\n\r\n- Kami Menggunakan Bahan Kopi Hijau Kualitas A+ . Jangan Tertipu oleh harga murah dengan kualitas buruk -\r\n\r\nPELUANG KERJASAMA DISTRIBUTOR DI KOTA ANDA !","rating":0}
{"no":0,"title":"QnC jelly gamat TangSel Depok bisa Gojek","price":"155.000","seller":"QnC Jakarta","sellerPlace":"Tangerang Selatan","url":"https://www.bukalapak.com/p/kesehatan-2359/obat-suplemen/obat-obatan/97qdyd-jual-qnc-jelly-gamat-tangsel-depok-bisa-gojek?from=&product_owner=normal_seller","sold":57,"seen":1703,"favorite":11,"updated":"2019-10-15 11:12:27","description":"Siap kirim via Gojek/gosend\r\n1. Pengiriman GOSEND/gojek pk.09.00 - 15.00 Paket dikirim gojek, bisa menjangkau seluruh wilayah Jakarta, Tangerang Selatan dan Depok\r\n3. Pengiriman JNE s/d pk.16.00\r\nPesanan yang masuk lewat jam maksimal pengiriman masuk pengiriman hari selanjutnya.\r\n\r\nLegalitas Terdaftar Di :\r\n1. BPOM TR173301471\r\n2. DEPKES No. P-IRT No: 109321601291-1229\r\n\r\n\r\nISI 300 ML QnC Jelly Gamat merupakan produk terbaru yang diolah dari 100% ekstrak gamat asli murni, dan diolah menggunakan teknology modern dengan metode khusus \"natural extracing\" yang menjamin kealamian dan kehigienisan produk. QnC jelly gamat yang satu ini sangat berbeda dari produk gamat lainnya, dipastikan mempunyai khasiat dan kualitas yang paling unggul\r\nKandungan :\r\nColagen, Protein, Mukopolisakarida , Gamapeptida, Cell Growth Factor, Saponin, Omega 3,6,9, Mineral, Glucasaminoglycans (GAGs), Lektin, Asam Amio & Antiseptik Ilmiah\r\n\r\nKomposisi :\r\nEkstrak Teripang Emas MURNI 100% , Sweetener Stevia, Air RO, Pengemulasi Nabati , Essen Natural, Ekstrak Buah dan Sayur\r\n\r\nDapat Dikonsumsi oleh Semua Usia\r\n\r\nAturan Konsumsi :\r\nBayi 0-5 tahun : 1-2 sendok teh / hari\r\nAnak anak : 2 x 1 sendok makan / hari\r\nDewasa : 3 x 3-4 sendok makan / hari\r\n\r\nDisclaimer : Qnc JellyGamat adalah produk yang Terdaftar di DEPKES No. P-IRT No: 109321601291-1229 Manfaat yang didapat dari mengkonsumsi Qnc Jelly Gamat bisa berbeda-beda pada setiap orang, Tergantung tingkatan penyakit, usia, jenis kelamin dan, jumlah produk yang digunakan.","rating":0}
{"no":0,"title":"HERBABET Herbal Diabetes Terdaftar BPOM","price":"249.000","seller":"Toko Bunda Zian","sellerPlace":"Tangerang Selatan","url":"https://www.bukalapak.com/p/kesehatan-2359/obat-suplemen/obat-obatan/ktxrlh-jual-herbabet-herbal-diabetes-terdaftar-bpom?from=&product_owner=normal_seller","sold":192,"seen":2093,"favorite":40,"updated":"2019-10-15 13:11:42","description":"BARANG SELALU READY SILAHKAN LANGSUNG DIORDER YA..\r\n\r\n\r\n\r\nGARANSI ASLI 100%, tidak Perlu Khawatir, jika tidak Asli uang kami kembalikan 100%.\r\n\r\n\r\n\r\n================================================================\r\n\r\n\r\n\r\n\r\n\r\n\r\n\r\nHERBABET SOLUSI DIABETES\r\n\r\n\r\n\r\nMenormalkan Kadar Gula Darah, Memperbaiki Kinerja Pankreas &amp;amp;amp;amp;amp;amp;amp; Memperbaiki Sel-sel Tubuh yang Rusak Akibat Diabetes\r\n\r\n\r\n\r\n(Memiliki Izin dari Badan POM - POM TR. 173300301)\r\n\r\n\r\n\r\n\r\n\r\n\r\n\r\nManfaat Herbabet\r\n\r\n\r\n\r\n- Membantu meringankan gejala kencing manis / diabetes\r\n\r\n\r\n\r\n- Membantu perawatan bagi penderita diabetes melitus dengan menurunkan kadar gula darah\r\n\r\n\r\n\r\n- Membantu regenerasi/perbaikan sel dan jaringan yang rusak akibat komplikasi diabetes\r\n\r\n\r\n\r\n- Membantu proses regenerasi dan perbaikan sel beta pankreas untuk mengembalikan fungsi mengontrol gula darah dengan lebih baik\r\n\r\n\r\n\r\n- Membantu menurunkan tekanan darah tinggi akibat pembuluh darah akibat komplikasi diabetes\r\n\r\n\r\n\r\n- Membantu menurunkan kadar asam urat, kolesterol dan juga trigliseride\r\n\r\n\r\n\r\n\r\n\r\n\r\n\r\nkhasiat dan kegunaan :\r\n\r\n\r\n\r\n\r\n\r\n\r\n\r\nsecara tradisional membantu meringankan gejala kencing manis\r\n\r\n\r\n\r\n\r\n\r\n\r\n\r\nisi 50 kapsul\r\n\r\n\r\n\r\n\r\n\r\n\r\n\r\naturan minum\r\n\r\n\r\n\r\n3 x sehari 2 kapsul diminum sebelum makan\r\n\r\n\r\n\r\n\r\n\r\n\r\n\r\nAMAN DI KONSUMSI!!!\r\n\r\n\r\n\r\nSUDAH TERDAFTAR BPOM\r\n\r\n\r\n\r\nPOM TR. 173300301\r\n\r\n\r\n\r\n\r\n\r\n\r\n\r\nHERBAL Untuk KOLESTEROL TINGGI dilink ini &amp;amp;amp;amp;amp;amp;gt;&amp;amp;amp;amp;amp;amp;gt; https://www..com/ahmadashop/herbakoles-herbal-untuk-kolesterol-terdaftar-bpom\r\n\r\n\r\n\r\n\r\n\r\n\r\n\r\npengiriman hanya dengan ekspedisi JNE dan POS, selain itu akan kami kondisikan ganti kurir, medekati ongkir yang sama. :)\r\n\r\n\r\n\r\n\r\n\r\n\r\n\r\nFREE ONGKIR KLIK INI\r\n\r\n\r\n\r\nShopeecoid/mommeid","rating":0}
{"no":0,"title":"GINSAMYONG titanium series isi 1 kalung dan 1 gelang original made in korea","price":"1.350.000","seller":"Jempol Shop","sellerPlace":"Solo","url":"https://www.bukalapak.com/p/kesehatan-2359/obat-suplemen/obat-obatan/tstm53-jual-ginsamyong-titanium-series-isi-1-kalung-dan-1-gelang-original-made-in-korea?from=&product_owner=normal_seller","sold":23,"seen":4888,"favorite":40,"updated":"2019-10-15 13:02:18","description":"tersedia 2 motif liontin.(ka'bah dan kura-kura)\r\ndan 3 pilihan warna (hitam,putih,hijau)\r\nsilahkan masukkan motif dan warna di kolom keterangan pembelian apabila tidak kami kirim random\r\n\r\nPaket Hemat:\r\n1 Kalung Ginsamyong\r\n1 Gelang Ginsamyong\r\n1 Tali Cadangan\r\n1 Sertifikat Ginsamyong\r\n\r\nPerbedaan utama antara Ginsamyong Titanium Series dan Ginsamyong Classic terletak pada:\r\n1. Peningkatan kadar far infrared yang tadinya hanya 92% sekarang menjadi 97%.\r\n2. Dilengkapi dengan lapisan Titanium (Ti), yang merupakan logam mulia non emas yang di eksplorasi dari lapisan ke 9 kerak bumi dengan manfaat menangkal gelombang elektro magnetik yang dapat memicu kanker! \r\n\r\nGinsamyong dengan Sinar Infra Merah Jarak Jauhnya yang dipancarkan mampu:\r\n1. Menghancurkan gumpalan minyak dan kotoran, menjadikan darah Anda menjadi encer.\r\n2. Menghilangkan racun dalam tubuh, menjadikan darah Anda menjadi bersih.\r\n3. Meregenerasi sel-sel darah dengan getaran-getaran dari gelombang Sinar Infra Merah Jarak Jauhnya.\r\n4. Memecah molekul-molekul air dalam darah menjadi ukuran-ukuran kecil, menjadikan sirkulasi darah Anda menjadi lebih baik.\r\n5. Mengaktifkan molekul-molekul air dalam darah Anda, menjadikan darah Anda mendapat cukup suplai oksigen.\r\n\r\nSelain mengandung far infrared Ginsamyong juga mengandung Ion Negatif dan Neodymium Magnet.\r\n\r\nKalung Ginsamyong mengandung serbuk batu Tourmaline yaitu sama dengan 3 terapi sebagai berikut :\r\n1. Terapi far infra merah yang dapat :\r\nMeningkatkan stamina, segar dan tidak mudah lelah.\r\nMenurunkan tekanan darah.\r\nMemembantu mengatasi pegal linu.\r\nMengurangi sakit kepala dan asam lambung.\r\n2. Terapi ion negatif, yang setara dengan terapi dari alam pegunungan, air terjun dan tempat tempat yang masih asri dan bersih.\r\n3. Terapi bio magnetik, biasanya kita sering terkena radiasi hp atau barang elektronik lainnya, dengan terapi bio magnetik Ph tubuh dapat kembali seimbang.","rating":0}
{"no":0,"title":"OBAT HERBAL EJAKULASI DINI - DUREVEL","price":"280.000","seller":"JAKARTA STORE","sellerPlace":"Jakarta Utara","url":"https://www.bukalapak.com/p/kesehatan-2359/obat-suplemen/obat-obatan/1whfsej-jual-obat-herbal-ejakulasi-dini-durevel?from=&product_owner=normal_seller","sold":148,"seen":194,"favorite":0,"updated":"2019-10-13 04:28:41","description":"Stok selalu ready, PRODUK 100% ORIGINAL!\r\nPROMO TERBATAS !!! BELI 2 GRATIS 1 BOX VIREX \r\n\r\nTahan lama saat bercinta adalah satu dari sekian banyak hal yang para pria inginkan saat berhubungan. Sayangnya keinginan itu tidak selalu bisa tercapai, ada kalanya pria mengalami ejakulIasi yang terlalu cepat atau ejakuIlasi dini (alatvitallcepat loyo)\r\n\r\nMenurut penelitian yang dilakukan oleh dr. Alfred Kinsey, rata-rata pria hanya mampu bertahan sampai dua menit saja saat berhubungan ilntim. Sementara wanita butuh waktu sekitar 30 sampai 60 menit\r\nSaat itu terjadi maka perasaan jadi tidak nyaman & menimbulkan rasa malu yang pada akhirnya akan memperburuk situasi\r\n\r\nSekarang wanita tidak lagi menganggap sekkss sebagai kewajiban melayani suami,wanita juga menuntut dipuaskan sama seperti pria\r\nUntuk mengatasi masalah ini, DUREVEL bisa menjadi solusi bagi para pria...\r\nDurevel Herbal spray kusus pria dewasa yang praktis digunakan, cepat bekerja untuk mengatasi ejakulaxi dini, menjadikan erexi keras dan tahan lama.\r\n\r\nKenapa harus DUREVEL SPRAY?\r\n\r\nDurevel Spray adl formula herbal yang terbuat dari ekstrak tanaman herbal terbaik yang berkhasiat tinggi dalam membantu mengatasi ejakulasii dini secara nyata dan aman. Cukup semprotkan Durevel Spray 45 menit sebelum berhubungan maka Anda sudah bisa mendapatkan erekksii (alatvitalberdiri) lebih lama dan kuat meski telah keluar.\r\n\r\nKhasiat utama DUREVEL :\r\n* Membantu Anda untuk kuat dan tahan lebih lama berhubungan bersama pasangan\r\n* Durasi berhubungan lebih lama\r\n* Ejakulasii Dini Anda teratasi\r\n* Anda akan merasakan sensasi berhubungan yang luar biasa\r\n\r\n\r\n1 Botol DUREVEL SPRAY berisi 15ml gunakan hanya saat akan berhubungan saja\r\nbisa untuk 2 bulan pemakaian tergantung sedikit banyaknya pemakaian\r\n\r\nPenting: \r\n-Pengiriman maksimal jam 15:00 WIB\r\n-Produk 100% asli \r\n-Pengiriman langsung dari distributor resmi","rating":0}
{"no":0,"title":"hansaplast koyo hangat panas 10s","price":"10.000","seller":"MAR_KET","sellerPlace":"Bandung","url":"https://www.bukalapak.com/p/kesehatan-2359/obat-suplemen/obat-obatan/10b3zm2-jual-hansaplast-koyo-hangat-panas-10s?from=&product_owner=normal_seller","sold":83,"seen":14345,"favorite":41,"updated":"2019-10-02 20:11:30","description":"Pereda pegal dan nyeri otot\r\n\r\nDengan varian :\r\n- panas\r\n- hangat\r\n\r\nKhusus untuk flash sale, varian yang dikirim random.","rating":0}
{"no":0,"title":"ECER 1 PCS GARANSI ASLI DAN MANJUR HICKEL UK Original Mr.H Asli Isi 1 Permen K.U-At Obat Pria Herbal","price":"50.000","seller":"HERBAL MURAH","sellerPlace":"Jakarta Utara","url":"https://www.bukalapak.com/p/kesehatan-2359/obat-suplemen/obat-obatan/2bqvojh-jual-ecer-1-pcs-garansi-asli-dan-manjur-hickel-uk-original-mr-h-asli-isi-1-permen-k-u-at-obat-pria-herbal?from=&product_owner=normal_seller","sold":103,"seen":108,"favorite":4,"updated":"2019-10-10 20:01:07","description":"Dijamin Asli 100%\r\n\r\n\r\nPALSU = UANG KEMBALI 1X LIPAT\r\n\r\n\r\nisi 1 permen\r\n\r\n\r\nsilahkan langsung di order ,\r\n\r\n\r\n1 permen tahan buat tempur 3 hari","rating":0}
{"no":0,"title":"Canesten Cream anti jamur 5 gram","price":"24.500","seller":"Bayer Health","sellerPlace":"Jakarta Timur","url":"https://www.bukalapak.com/p/kesehatan-2359/obat-suplemen/obat-obatan/1vzi4t8-jual-canesten-cream-anti-jamur-5-gram?from=&product_owner=seller_brand","sold":458,"seen":1784,"favorite":23,"updated":"2019-10-15 14:53:10","description":"Canesten Cream anti jamur 5 gram\r\n\r\nED November 2019\r\n\r\nMengandung Kloritimazol 1%\r\nMengatasi jamur pada kulit, panu, kadas/kurap, kutu air dan ruam popok\r\n\r\nCara pemakaian: \r\nOleskan krim Canesten secukupnya pada daerah kulit sakit 2-3 kali sehari. Dapat juga digunakan sebagai pengobatan lanjutan untuk mencegah berjangkitnya kembali penyakit jamur pada kulit/lipatan-lipatan kulit. Perkembangan positif dengan hilangnya rasa gatal biasanya terjadi dalam minggu pertama pengobatan. Jika tidak memperlihatkan perkembangan positif setelah 4 minggu maka diagnosa harus diulang.\r\n\r\nJika ada hal yg ingin disampaikan tentang produk kami, silahkan menghubungi call center Bayer di (bebas pulsa)\r\n\r\n#Bayer #Canesten #kirmantijamur #antifungalcream","rating":0}
{"no":0,"title":"Upixon Obat Cacing 10ml","price":"14.500","seller":"Bayer Health","sellerPlace":"Jakarta Timur","url":"https://www.bukalapak.com/p/kesehatan-2359/obat-suplemen/obat-obatan/1484jak-jual-upixon-obat-cacing-10ml?from=&product_owner=seller_brand","sold":47,"seen":993,"favorite":19,"updated":"2019-10-15 15:01:10","description":"Upixon Obat Cacing 10ml\r\n\r\nKomposisi: \r\nSetiap 5ml mengandung pirantel pamoate 360,25mg setara dengan pirantel base 125mg. Pirantel pamoate dapat digunakan oleh salah satu jenis cacing atau lebih pada orang dewasa dan anak-anak. Apabila salah seorang anggota keluarga menderita infeksi dari salah satu jenis cacing diatas, maka kemungkinan besar anggota keluarga lainnya juga dapat terinfeksi yang tidak teridentifikasi. Oleh karena itu, dianjurkan agar seluruh keluarga mengkonsumsi pirantel pamoate. Dengan menjaga kebersihan badam makanan, dan lingkungan akan mencegah terjadinya infeksi kembali. \r\n\r\nInteraksi obat: \r\nPemberian dengan piperazine dapat menyebabkan efek antagonis.\r\n\r\nCara kerja obat: \r\nPirantel pamoate melumpuhkan cacing dengan cara mendepolarisasi senyawa penghambat neuromuskuler dan mengeluarkannya dari dalam tubuh biasanya tanpa memerlukan pencahar. \r\n\r\nPeringatan dan Perhatian:\r\nTidak dianjurkan untuk anak dibawah usia 2 tahun dan wanita hamil karena keamanan penggunaannya belum banyak diteliti / banyak diketahui\r\n\r\nHati-hati penggunaan pada pasien dengan gangguan fungsi hati.\r\n\r\n.\r\n.","rating":0}
{"no":0,"title":"OBAT-KUAT","price":"210.000","seller":"JAKARTA STORE","sellerPlace":"Jakarta Utara","url":"https://www.bukalapak.com/p/kesehatan-2359/obat-suplemen/obat-obatan/1whko4n-jual-obat-kuat?from=&product_owner=normal_seller","sold":148,"seen":155,"favorite":1,"updated":"2019-10-12 21:29:32","description":"Magic Oil merupakan produk berbahan herbal termutakhir hasil dari penelitian anggota Perhimpunan Herbalis Indonesia.\r\nTidak seperti obatkuat pada umumnya, yang cara pemakaiannya dengan diminum, Magic Oil berbentuk oles, yaitu cairan yang dioleskan pada alatvital pria.\r\nFormula yang unik ini dirancang untuk memungkinkan konsumen menikmati ereksii dengan kualitas, fungsi dan kontrol yang kuat.\r\n\r\nKhasiat :\r\n* Membangun pelepasan hormone adrenalin yang dapat memperlebar pembuluh darah, sehingga tubuh menjadi hangat, darah mengalir lebih lancar dan tekanan darah menurun\r\n* Mengatasi masalah ejakulasii dini\r\n* Membangun ereksii, mencegah kemandulan dan memperkuat daya tahan sperma\r\n* Dapat meningkatkan ukuran alatvital pria serta membuatnya kencang\r\n* Meningkatkan libidoo.\r\n\r\nAturan Pakai :\r\n1. Oleskan Magic Oil satu atau dua kali sehari\r\n2. Pastikan alatvital Anda dalam keadaan bersih. (setelah mandi adalah waktu terbaik untuk pemakaian)\r\n3. Teteskan Magic Oil pada alatvital, cukup 3-5 tetes. (Jangan terlalu banyak menggunakan Magic Oil, karena akan membuat alatvital Anda lembab dan ini tidak baik untuk kesehatan alatvital Anda)\r\n4. Ratakan dengan menggunakan jari atau telapak tangan hingga merata dari pangkal sampai ujung alatvital, Anda juga bisa meneteskan Magic Oil ditelapak tangan, lalu usapkan ke alatvital.\r\n5. Untuk bagian yang paling sensitif berikan lebih banyak minyak Magic Oil. (kepala alatvital bagian belakang: bagian kepala yang menyambung alatvital)\r\n6. Gosokkan Magic Oil sampai benar-benar diserap alatvital atau sampai sedikit bisa merasakan hangat. (Penggosokan sekitar 30 detik adalah waktu yang ideal)\r\n7. Cuci bersih kedua telapak tangan Anda pakai sabun. Magic Oil berbau harum, jadi minyak yang melekat ditelapak tangan Anda juga bisa Anda gunakan untuk aroma terapi.\r\n8. Anda akan merasakan sedikit hangat sampai sekitar 5 menit setelah pemakaian. Rasa hangat ini sangat nyaman karena alami, tidak seperti rasa hangat karena terkena bahan kimia.\r\n9. Anda bisa berhubungan setelah 20 menit, dan untuk menjaga kesehatan kulit Anda, cuci bersih sebelum berhubungan.\r\nSekarang Anda telah memiliki kekuatan yang meningkat 10 kali lipat dibanding sebelum menggunakan Magic Oil.\r\n\r\n1 Botol MAGIC OIL berisi 15ml gunakan 1 atau maksimal 2 sehari\r\nbisa untuk 1 bulan pemakaian tergantung jumlah dan seringnya pemakaian","rating":0}
{"no":0,"title":"OBAT EJAKULASI DINI - DUREVEL","price":"280.000","seller":"JAKARTA STORE","sellerPlace":"Jakarta Utara","url":"https://www.bukalapak.com/p/kesehatan-2359/obat-suplemen/obat-obatan/1whejrl-jual-obat-ejakulasi-dini-durevel?from=&product_owner=normal_seller","sold":148,"seen":132,"favorite":2,"updated":"2019-10-10 06:29:27","description":"*TERIMA PESANAN FULL 24 JAM, lebih cepat di proses untuk jam 7 pagi sampai jam 3 sore.\r\n*TERIMA ORDER Setiap HARI, Kecuali Minggu dan Tanggal Merah.\r\n*Proses Dijamin CEPAT, AMAN 100%, ASLI dari CV. Karya Abadi Jepara.\r\n\r\nAda banyak cara untuk mengatasi ezakulasi dini, namun ada satu obat yang bekerja dengan cara yang berbeda dari obat lainnya. DureVel, adalah obat herbal khusus pria dewasa yang cara pemakaiannya sangat praktis. Anda cukup menyemprotkan DureVel pada alat vital dan setelah 45 menit Anda siap bertempur di ranjang.\r\n\r\nDurevel adalah formula herbal yang terbuat dari ekstrak tanaman herbal terbaik yang berkhasiat tinggi dalam mengatasi ezakulasi dini secara nyata dan aman.\r\n\r\nManfaat DureVel dalam mengatasi masalah seksual adalah :\r\nErexi tahan lebih lama\r\nAnda mampu melakukan penetrasi dalam durasi yang cukup lama\r\nTak ada takut lagi pada ezakulasi dini\r\nAnda akan merasakan sensasi orgasme yang luar biasa\r\nHubungan seksual yang sangat memuaskan\r\nIstri Anda akan bahagia karena Anda bisa membuatnya orgasme berkali-kali\r\nKeharmonisan Anda dan pasangan kembali terjalin\r\n\r\nAnda hanya perlu menyemprotkan Durevel ke kepala alat vital (glans) Anda dengan sedikit pijatan untuk meratakannya, setelah itu:\r\nAlat vital Anda akan terasa hangat setelah 10 menit.\r\nTunggu selama 45 menit.\r\nAda sedikit efek kebas atau mati rasa.\r\nDurevel bisa berfungsi setelah 45 menit sampai 12 jam.\r\nDan Anda siap untuk bertempur dengan pasangan Anda selama mungkin.\r\n\r\nDetail Produk:\r\nNama : Durevel Spray\r\nKemasan : Botol (lihat foto diatas)\r\nIsi : 15 ml\r\nDepkes. RI: IKOT 442/00060/V-2","rating":0}
{"no":0,"title":"Obat Mata Minus Plus Silinder Herbal - vitamin mata Katarak Rabun Jauh Rabun Dekat Vitamata Kesehatan Mata","price":"650.000","seller":"Mahe Olshop","sellerPlace":"Tasikmalaya","url":"https://www.bukalapak.com/p/kesehatan-2359/obat-suplemen/obat-obatan/2acppcy-jual-obat-mata-minus-plus-silinder-herbal-vitamin-mata-katarak-rabun-jauh-rabun-dekat-vitamata-kesehatan-mata?from=&product_owner=normal_seller","sold":537,"seen":119,"favorite":41,"updated":"2019-10-04 16:42:44","description":"BPOM : MD 867013060071\r\nP.IRT : 513351538074622\r\nKemasan sachet\r\nIsi kemasan: 225gr/15 sachet @15gr\r\n\r\nVITAMATA adalah minuman kesehatan masa kini yang kaya akan antioksidan, vitamin, mineral dan fitonutrien serta serat alami. Dibuat dari perpaduan harmonis bahan-bahan legendaris yang telah dikenal khasiatnya di seluruh dunia. Diproses sedemikian rupa dengan teknologi modern sehingga kandungan Bioaktifnya tetap terjaga dan membuat citarasa menjadi mewah dan nikmat. Hal terpenting adalah Vitamata aman dikonsumsi seluruh keluarga setiap hari untuk meningkatkan kualitas kehidupan.\r\n\r\nVITAMATA diproduksi dari berbagai bahan herbal alami pilihan sbb :\r\nTomat\r\nwortel\r\nStroberi\r\nBuah merah\r\nApel\r\nBiji anggur\r\nSerat larut\r\nSerat gandum\r\nL Glutathione\r\nL Arginine\r\nPremix vitamin dan mineral\r\nPolifenol\r\nAA DHA Bit\r\nKalsium Laut\r\nStevia\r\n\r\nManfaat VITAMATA :\r\nMembantu menormalkan kembali mata minus, mata plus, dan mata silinder\r\nMeningkatkan fungsi penglihatan\r\nMelindungi mata dari efek buruk cahaya biru yang berasal dari gadget/hp dan komputer/laptop\r\nMencegah degenerasi pada pusat retina mata atau pada makular (amd)\r\nMencegah katarak\r\nMengurangi mata lelah\r\nMenjaga fungsi penglihatan normal\r\nMembantu mengatasi masalah silau pandangan saat berkendara di malam hari\r\nMembantu mengatasi mata merah\r\nMeningkatkan kualitas tidur\r\nTerbukti sudah ribuan pelanggan kami yang merasakan manfaatnya.\r\n\r\nManfaat lain VITAMATA :\r\n\r\nMeningkatkan Energi dan Stamina\r\nMeningkatkan kualitas tidur\r\nMeningkatkan kadar antioksidan dalam tubuhMencegah penuaan dini (Anti Aging)\r\nMeningkatkan sistem kekebalan tubuhMencegah alergi (Anti Allergenic)\r\nMencegah terjadinya inflamasi(peradangan)\r\nMencegah penyakit jantung dan penyempitan pembuluh darah\r\nMembantu menurunkan tekanan darahMencegah penyakit kanker\r\nMembantu menstabilkan gula darah\r\nMembantu menurunkan asam urat\r\nMencegah penyakit TBC\r\nMeningkatkan kebugaran dan daya tahan tubuh pada anak\r\nMenghambat pertumbuhan Tumor\r\nMembantu menghambat perkembangan virus\r\nMengurangi efek kemoterapi\r\nMenjaga kesehatan pencernaan\r\nMembantu mengatasi anemia\r\nMembantu mengatasi encok, radang sendi dan rematik\r\nMembantu menurunkan kadar kolesterol tinggi","rating":0}
{"no":0,"title":"OBAT KUAT STAMINA PRIA","price":"240.000","seller":"OBAT HERBAL ORIGINAL","sellerPlace":"Jakarta Pusat","url":"https://www.bukalapak.com/p/kesehatan-2359/obat-suplemen/obat-obatan/ma1f3l-jual-obat-kuat-stamina-pria?from=&product_owner=normal_seller","sold":234,"seen":2554,"favorite":191,"updated":"2019-10-15 15:06:13","description":"STOCK READY BANYAK .. SILAHKAN DIORDER\r\n\r\nLHIFORMEN ASLI - ORIGINAL CV KARYA ABADI\r\nPOM TR: 093301521\r\nHALAL MUI: 01173000160905\r\n\r\nJANGAN TERTIPU DENGAN HARGA MURAH, PASTIKAN LHIFORMEN YANG ANDA BELI ASLI DARI CV KARYA ABADI\r\n\r\nCara Membedakan Lhiformen Asli dan Palsu:\r\n1. Lhiformen Asli HET nya Rp. 240.000, jika harga jauh dibawah HET perlu dicurigai jika Lhiformen tersebut adalah Palsu\r\n2. Lhiformen asli pasti tertera tanggal Exp Date\r\n3. Saat dibuka pada masing-masing kapsul lhiformen asli terdapat tulisan Lhi\r\n4. Lhiformen asli 100% alami tanpa campuran bahan kimia apapun\r\n5. Lhiformen asli resmi terdaftar di BPOM dengan no POM TR: . Lhiformen yang asli juga telah mendapatkan sertifikasi HALAL MUI: 01173000160905\r\n\r\n\r\nKhasiat Lhiformen Secara Keseluruhan adalah sbb:\r\n> Meningkatkan jumlah hormon testosteron\r\n> Membuat alat vital keras dan tahan lama\r\n> Mengatasi disfungsi seksual/impotensi pada pria\r\n> Meningkatkan stamina pria\r\n> Menyuburkan sperma/mani, sebagai terapi alternatif untuk melawan infertilitas (ketidaksuburan) pada pria\r\n> Membuat durasi hubungan intim/ML/bercinta tahan lama\r\n> Memperlancar aliran darah ke Mr.P.\r\n> Meningkatkan gairah seksual/libido\r\n> Mencegah dan mengatasi Andropouse\r\n> Mengatasi masalah Prostat.\r\n> Mengatur suhu tubuh untuk mendukung perkembangan fungsi-fungsi seksual yang normal\r\n> Sangat dianjurkan untuk Anda yang impoten dan kurang bergairah\r\n> Menjadikan orgasme lebih nikmat dan mengesankan\r\n> Aman dikonsumsi bagii Anda yang mempunyai masalah ginjal, jantung, hipertensi, kolesterol,diabetes dan penyakit lainnya.\r\nDetail Produk:\r\n> Nama: Lhiformen\r\n> Kemasan: Botol (lihat foto diatas)\r\n> Isi: 50 kapsul @ 500 mg\r\n> Ijin BPOM: POM TR.\r\n> Halal MUI 05\r\n\r\nProduced by : CV. Karya Abadi.\r\nNomor Regristrasi SIUP: 510/24/PK/VIII/2015","rating":0}
{"no":0,"title":"obat-kuat..","price":"480.000","seller":"OBAT HERBAL ORIGINAL","sellerPlace":"Jakarta Pusat","url":"https://www.bukalapak.com/p/kesehatan-2359/obat-suplemen/obat-obatan/sq8b5c-jual-obat-kuat?from=&product_owner=normal_seller","sold":110,"seen":342,"favorite":123,"updated":"2019-10-15 14:53:38","description":"STOCK SELALU READY.. SILAHKAN LANGSUNG DIORDER YA..\r\n\r\n# Produk Dijamin 100% Original\r\n# Pengiriman Cepat & Respon Kilat\r\n# Suplair Tangan Pertama, Dijamin Lebih Murah.\r\n\r\nBanyak pria yang tidak tahu rahasianya agar mempunyai erexi yang kuat, libido tinggi dan tidak lekas ejakulasi dini. Jika Anda hanya konsumsi kapsul herbal, maka ini hanya meningkatkan libido dan masalah ketahanan penetrasi biasanya masih tetap. Maka dari itu selain kapsul herbal Anda perlu Durevel yang menjadikan bagian sensitif pada daerah alat vitas menjadi kebas dan lebih tahan ragsangan, tergantung Anda mengoleskannya, jika semakin banyak maka semakin tahan lama, namun jangan kebanyakan nanti anda tidak merasakan rangsangan.\r\n\r\nPaket Obat Kusus Pria Dewasa Malam Pertama, adalah Obat Herbal yang wajib Anda miliki untuk merasakan tiap kali berhubungan senikmat malam pertama, Paket ini ierisi:\r\n\r\n1. Satu Botol obat herbal kusus pria dewasa Lhiformen\r\n\r\nObat herbal kusus pria Lhiformen telah terdaftar di Badan POM dengan nomor regristrasi POM TR. dan halal MUI 05 yang berkasiat untuk mendongkrak libido pria, agar errexsi lebih keras, meningkatkan libiddo dan menjaga stamina. Dengan menggunakan obat herbal kusus pria dewasa Lhiformen anda akan mendapatkan keperkasaan layaknya paduan Arjuna dan Werkudara.\r\n\r\nLhifomen meningkatkan stamina pria hingga mencapai 10 kali lipat. Anda tak perlu khawatir dengan efek samping konsumsi obat ini, karena Lhiformen terbuat dari 100% bahan herbal alami. Lhiformen adalah obat herbal kusus pria dewasa BPOM pertama kali di Indonesa dengan jaminan keberhasilan. Anda bisa mengklaim uang kembali jika tidak berhasil setelah beberapa hari anda mengkonsumsinya! \r\n\r\n2. Satu Botol Obat Tahan Lama Semprot Durevel\r\n\r\nObat Semprot Durevel dengan ijin IKOT 442/00060/V-2 adalah obat herbal khusus pria dewasa yang cara pemakaiannya cukup disemprotkan pada bagian-bagian yang paling sensitif pada alat vital pria, yaitu bagian kepala, leher serta bagian bawah alat vital. Anda cukup menyemprotkan 3 kali dan tunggu 45 menit. Anda akan merasakan bagian-bagian alat vital yang sensitif menjadi kebas, atau tahan terhadap rangsangan seksual. Hasil Terbaik obat semprot ini adalah setelah 2 jam, danm masih bekerja setelah 12 jam.\r\n\r\nDurevel adalah solusi terbaik untuk menjadikan durasi penetrasi lebih lama dan tangguh, mampu melakukan manuver posisi seksual, apapunposisi yang ingin anda coba. Durevel tercipta karena adanya keluhan kebanyakan pria yang mengalami masalah pada ejjakulaxi dini, sehingga ia hanya melakukan hal yang monoton untuk menghindari cepat keluar, namun dengan Durevel Anda menjadi raja diranjang. Durevel bekerja dengan mengurangi sensitivitas pada alat kelamin pria.\r\n\r\nDengan Paket Malam Pertama, hubungan suami istri Anda telalu terasa layaknya malam pertama!!! Ini adalah produk unggulan kami.\r\n\r\nDetail Produk:\r\nNama : LHIFORMEN\r\nKemasan: Botol (lihat foto di samping)\r\nIsi: 50 kapsul @ 500 mg\r\nDinkes: POM TR. 093 301\r\n\r\nNama: Durevel\r\nIsi 15 ml\r\nIjin Edar: Depkes. RI: IKOT 442/00060/V-2.\r\nDisertai cara pakai\r\n\r\nProduced by : CV. Karya Abadi.\r\nNomor Regristrasi SIUP: 510/24/PK/VIII/2015\r\n\r\nKelebihan belanja di PUSAT HERBAL INDONESIA :\r\n1. Terjamin keamanan produknya 100% herbal\r\n2. legalitas resmi\r\n3. Original Brand\r\n4. Pelayanan maksimal . (pengiriman dihari yang sama pembayaran jika sebelum pukul 15:00 WIB )\r\n5. packing rapih aman dan terjamin kerahasiaannya\r\n6. Stock Selalu Ready","rating":0}
{"no":0,"title":"OBAT PEMBESAR PENI S HERBAL ZP","price":"130.000","seller":"JAKARTA STORE","sellerPlace":"Jakarta Utara","url":"https://www.bukalapak.com/p/kesehatan-2359/obat-suplemen/obat-obatan/1whj81n-jual-obat-pembesar-peni-s-herbal-zp?from=&product_owner=normal_seller","sold":148,"seen":220,"favorite":2,"updated":"2019-10-14 11:34:15","description":"STOK READY BANYAK, PRIVASI TERJAMIN 100% !!!!!!!!!!\r\n\r\nZhang Power - Oles Herbal Pembesar dan Memperpanjang Jagoan Pria\r\n\r\nsolusi mudah untuk memperbesar dan memperpanjang ukuran \"Jagoan\" anda, Terbukti!!!\r\n\r\nkhasiat Zhang Power:\r\n* Memperbesar dan memperpanjang ukuran alat vital pria 1-7 cm secara alami dan dalam waktu yang relatif singkat.\r\n* Mempertebal kulit alat vital secara alami.\r\n* Erexi semakin kencang dan kuat.\r\n* Manambah gairah seksual atau libido pria.\r\n* Mengobati disfungsi erexi (impotensi) secara alami.\r\n* Mengatasi ezakulasi dini.\r\n* Manambah kekuatan erekx hingga 10 kali lipat\r\n\r\nCARA PAKAI\r\n-Panjang dan besarnya alat vi tal hanya bisa bertambah secara normal sekitar 30 -40 %. Jika ukuran panjang sebelumnya 15 cm, maka setelah menggunakan maxxman oil, ukuran panjang maksimal mencapai sekitar 20 cm.\r\n-Agar tidak lekas bosan, luangkan waktu kusus dan tempat kusus untuk melakukannya. Misalnya tiap pagi hari dikamar mandi ketika mandi.\r\n-Jangan lekas puas jika Anda mendapatkan hasil yang cepat. Jika Anda langsung menghentikan ketika telah melihat hasil yang cepat ini, maka ukurannya kembali lagi keukuran normal.\r\n-Oleskan Zhang Power tiga tetes, ratakan dari pangkal sampai ke ujung.\r\n-Sedikit lakukan rangsangan kegenital Anda agar setengah ere xi.\r\n-Lakukan pengurutan dari pangkal ke ujung, dan tarik lebih keras ketika sampai diujung.\r\n-Dengan bantuan Zhang Power , Anda hanya perlu melakukan teknik ini selama 6 -8 menit saja dan dengan cepat melihat hasilnya\r\n\r\nProduced by : CV. Karya Abadi.\r\nNomor Regristrasi SIUP: 510/24/PK/VIII/2015\r\n\r\nKelebihan belanja di toko kami :\r\n1. Terjamin keamanan produknya 100% herbal\r\n2. legalitas resmi\r\n3. Original Brand\r\n4. Pelayanan maksimal . pengiriman dihari yang sama pembayaran sebelum pukul 15:00 WIB\r\n5. packing rapih aman dan terjamin kerahasiaannya\r\n6. Stock Selalu Ready","rating":0}
{"no":0,"title":"OBAT KUAT..","price":"125.000","seller":"OBAT HERBAL ORIGINAL","sellerPlace":"Jakarta Pusat","url":"https://www.bukalapak.com/p/kesehatan-2359/obat-suplemen/obat-obatan/k4ucvs-jual-obat-kuat?from=&product_owner=normal_seller","sold":211,"seen":2240,"favorite":164,"updated":"2019-10-15 15:06:10","description":"Kelebihan belanja disini:\r\n1. Terjamin keamanan produknya 100% herbal\r\n2. legalitas resmi / Original Brand/No KW/No abal-abal\r\n3. Pelayanan maksimal (pengiriman langsung jika order masuk sebelum 15:00 WIB )\r\n4. packing rapi aman dan terjamin kerahasiaannya\r\n5. Stock Selalu Ready , silahkan langsung bisa diorder ...\r\n6. Cek feedback positif kami dan pastikan anda bertransaksi disini \r\n\r\nKopi Virex\r\n\r\nKopi Virex yang mempunyai citarasa khas perpaduan kopi arabica dan herbal ini berbeda dengan kopi stamina lainnya, karena bukan hanya meningkatkan performa seks pria, tapi juga untuk menjaga vitalitas. Dengan minum 1 sachet kopi virex Anda akan merasakan tubuh Anda terapa lebih segar dan bergairah dalam melakukan aktivitas. Dan selanjutnya Anda akan merasakan dorongan seksual Anda yang meningkat. Karena Kopi Virex ini 100% alami, maka kami tidak bisa menjanjikan dorongan seksual anda meningkat dengan sangat cepat. Perlu waktu sekitar 4 jam untuk merasakan khasiatnya yang maksimal. Jadi sangat cocok diminum disore hari untuk menghilangkan rasa lelah kan lesu karena seharian bekerja, dan selanjutnya Anda dapat memuaskan istri anda ketika hendak tidur.\r\n\r\nKhasiat Kopi Virex\r\nMeningkatkan stamina pria\r\nMeningkatkan produksi hormon testosteron\r\nMembuat ereksi keras dan tahan lama\r\nMengatasi masalah ejakulasi dini\r\nMengatasi disfungsi ereksi/impotensi pada pria\r\nMenyuburkan sperma/mani, sebagai terapi alternatif untuk melawan infertilitas(ketidaksuburan) pada pria\r\nMembuat durasi hubungan intim/ML/bercinta tahan lama\r\nMemperlancar aliran darah ke penis.\r\nMeningkatkan gairah seksual/libido\r\nMencegah dan mengatasi Andropouse\r\nMengatasi masalah Prostat.\r\nMengatur suhu tubuh untuk mendukung perkembangan fungsi-fungsi seksual yang normal\r\nSangat dianjurkan untuk Anda yang mempunyai kamampuan seksual menurun, tidak bergairah dan impotensi\r\nMenjadikan orgasme lebih nikmat dan mengesankan\r\nLebih cepat memulihkan tenaga setelah aktivitas seksual\r\nMenjadikan hari-hari Anda selalu berstamina\r\nAman dikonsumsi bagai Anda yang mempunyai masalah ginjal, jantung, hipertensi, koesterol,diabetes dan penyakit lainnya.\r\n\r\nKomposisi Kopi Virex\r\nKopi Arabica (Coffea arabica)\r\nMaca Root, akar maca (Lepidium meyenii)\r\nTribullus (Tribullus Terrestris)\r\nBuah Plum (Prunus domestica)\r\nGula\r\n\r\nDetail Produk:\r\nNama: Kopi Virex\r\nHarga 95.000,-\r\nKemasan: 1 Box isi 6 Sachet @ 25 g.\r\nP-ITR No: 5103 5243 50805-23\r\n\r\nAturan Pakai Virex Coffee\r\nTuangkan air mendidih 180 ml pada 1 sachet Virex Coffee lalu aduk.\r\nMinum 1 sachet setiap 3 hari sekali (minum 1 sachet Hublot Coffee khasiatnya akan terasa sampai 3 hari).\r\nSangat direkomendasikan dikonsumsi 2 sampai 4 jam sebelum berhubungan suami istri.\r\nCocok dan bisa di konsumsi pria dan wanita.","rating":0}
{"no":0,"title":"Obat Penyubur Pria","price":"200.000","seller":"Vitpro Herbal","sellerPlace":"Jakarta Timur","url":"https://www.bukalapak.com/p/kesehatan-2359/obat-suplemen/obat-obatan/1ll3k4j-jual-obat-penyubur-pria?from=&product_owner=normal_seller","sold":158,"seen":388,"favorite":185,"updated":"2019-10-06 09:33:11","description":"Produk Selalu Ready, Silahkan Langsung diorder.\r\n\r\n\r\n“JAMINAN PRODUK ORIGINAL”\r\n\r\n\r\nPRIVASI TERJAGA - PACKING RAPI\r\n\r\n\r\nVertymale merupakan suplemen herbal yang berfungsi untuk meningkatkan kesuburan pria.\r\n\r\n\r\nVertymale terbuat dari 100% herbal alami berkhasiat yang terbukti mampu meningkatkan kualitas sperma, mengentalkan, memperbanyak sperma sekaligus meningkatkan kesuburan pria.\r\n\r\n\r\nKhasiat:\r\n\r\n\r\n*meningkatkan fertilitas dan kesuburan pria\r\n\r\n\r\n*memperbesar peluang untuk memiliki keturunan\r\n\r\n\r\n*meningkatkan kualitas sperma\r\n\r\n\r\n*meningkatkan liibido pria\r\n\r\n\r\n*memperbanyak air mani\r\n\r\n\r\n*mengentalkan sperma atau air mani\r\n\r\n\r\n*meningkatkan kepuasan saat berhubungan karena sperma yang dikeluarkan lebih banyak\r\n\r\n\r\n*mengobati mani encer karena membuat mani lebih kental\r\n\r\n\r\n*meningkatkan produksi hormon testosteron\r\n\r\n\r\n*meningkatkan stamina dan vitalitass pria\r\n\r\n\r\n*memperbaiki fungsi reproduksi pria\r\n\r\n\r\n*lebih kencang, kuat dan tahan lama\r\n\r\n\r\n*meningkatkan imunitas\r\n\r\n\r\n*meningkatkan volume enjakulasi\r\n\r\n\r\n*mencegah sekaligus menhgatasi enjakulasi dini\r\n\r\n\r\n*Jumlah kapsul & Aturan minum :\r\n\r\n\r\n\r\nPer botol isi 50 kapsul\r\n\r\nAturan minum 3x2 kapsul/hari.\r\n\r\n\r\n\r\n\r\nNB : simpan ditempat yang sejuk serta terhindar dari sinar matahari secara langsung.","rating":0}
{"no":0,"title":"Obat Kuat Tahan Lama Ejakulasi Dini Pria Herbal","price":"240.000","seller":"toko herbal","sellerPlace":"Bekasi","url":"https://www.bukalapak.com/p/kesehatan-2359/obat-suplemen/obat-obatan/1wsdu4i-jual-obat-kuat-tahan-lama-ejakulasi-dini-pria-herbal?from=&product_owner=normal_seller","sold":702,"seen":341,"favorite":97,"updated":"2019-10-15 14:00:03","description":"READY BANYAK.. BISA LANGSUNG DIORDER \r\nPROMO TERBATAS !!! HANYA BELI 2 PCS LANGSUNG DAPAT GRATIS 1 BOX VITEX\r\n\r\nObat Suplemen Khusus Pria Kuat Perkasa Tahan Lama LHIFORMEN Ijin BPOM\r\n\r\nLHIFORMEN adalah obat herbal pria dewasa yang AMPUH mengatasi berbagai masalah seksual seperti gairah yang tiba-tiba hilang, alat vital tidak bisa berdiri dan cepat keluar (ED) yang disebabkan karena berbagai faktor.\r\n\r\nLhifomen juga dikenal sebagai jamu kuat serba guna yang sangat berpengalaman dalam mengatasi masalah gangguan seksual Anda. Jika Anda mengalami gangguan seksual seperti halnya sering mengalami ejakula5i, terkena disfungsi 3r3ksi, 3r3ksi p3ni5 kurang kuat dan kencang, lemah syahwat, kurang bertenaga, tidak tahan lama di ranjang, serta kurang bergairah dalam melakukan hubungan dengan istri Anda kami sangat sarankan untuk memakai obat pria tahan lama LHIFORMEN.\r\n\r\nObat herbal pria dewasa ini sangat cocok mengatasi masalah seksual yang dituliskan diatas, obat ini juga sudah teruji dan terbukti aman.\r\n\r\nFUNGSI OBAT TAHAN LAMA LHIFORMEN:\r\n* Meningkatkan daya tahan tubuh.\r\n* Memelihara stamina pria dewasa.\r\n* Mengatasi alat vital yang tidak bisa berdiri.\r\n* Mengatasi letih, lesu dan loyo.\r\n* Alat vital berdiri lebih kuat, keras dan tahan lama.\r\n* Durasi saat berhubungan akan tambah lama.\r\n\r\nATURAN MINUM:\r\nSehari 1x2 kapsul dengan menggunakan air putih hangat (supaya cepat larut) , diminum pagi hari dan 1 jam sebelum tidur malam\r\n\r\nKOMPOSISI LHIFORMEN:\r\n1. Piperis nigri fructus ekstrak (lada hitam) 80 mg\r\n2. Ocinum sanctum folius ekstrak (kemangi) 89 mg\r\n3. Bee pollen 74 mg\r\n4. Pimpinella pruatjan radic ekstrak (purwo ceng) 81 mg\r\n5. Arecae semen ekstrak (buah pinang) 82 mg\r\n6. Piper retrofracti fructus ekstrak (cabai jawa) 89 mg\r\n\r\nDETAIL PRODUK:\r\nNama: Lhiformen\r\nKemasan: Botol\r\nIsi: 50 kapsul @ 500 mg\r\nIjin BPOM: POM TR. 093301521\r\nHalal MUI: 01173000160905","rating":0}
{"no":0,"title":"obat penyubur PAKET","price":"360.000","seller":"Vitpro Herbal","sellerPlace":"Jakarta Timur","url":"https://www.bukalapak.com/p/kesehatan-2359/obat-suplemen/obat-obatan/1ll3k5i-jual-obat-penyubur-paket?from=&product_owner=normal_seller","sold":156,"seen":309,"favorite":184,"updated":"2019-10-02 12:05:35","description":"Produk Selalu Ready, Silahkan Langsung diorder.\r\n\r\n\r\n“JAMINAN PRODUK ORIGINAL”\r\n\r\n\r\nPaket Promil VitPro merupakan obat untuk program kehamilan yang di formulasikan dari bahan herbal pilihan dan berkualitas sehingga dapat bekerja secara maksimal bagi Kesuburan Pria. Dengan cara memperbaiki jaringan sel reproduksi dan memaksimalkan pembuahan.\r\n\r\n\r\nKhasiat paket VitPro for HIM:\r\n\r\n\r\n\r\nMemperpanjang Usia Sperma\r\n\r\nMenambah Jumlah Sperma\r\n\r\nPendongkrak Libido Pria\r\n\r\nMengentalkan Sperma\r\n\r\nPenis makin keras dan tahan lama berhubungan\r\n\r\nMenguatkan semburan sperma\r\n\r\nMengatasi Ejakulasi Dini\r\n\r\nMeningkatkan Stamina\r\n\r\n\r\n\r\n\r\nKhasiat paket VitPro for HER:\r\n\r\n\r\n\r\nMemaksimalkan terjadinya pembuahan\r\n\r\nMenambah Stamina Wanita\r\n\r\nMembersihkan Saluran Reproduksi\r\n\r\nMenambah Daya Hidup Sel Telur\r\n\r\nMenguatkan sel indung telur\r\n\r\nMenebalkan dinding rahim\r\n\r\nCepat Hamil\r\n\r\n\r\n\r\n\r\n*Jumlah kapsul & Aturan minum :\r\n\r\n\r\n\r\nPer botol isi 50 kapsul\r\n\r\nAturan minum 3x2 kapsul/hari\r\n\r\n\r\n\r\n\r\nNB : simpan ditempat yang sejuk serta terhindar dari sinar matahari secara langsung.","rating":0}
{"no":0,"title":"Paket Cepat HAMIL - VITPRO","price":"360.000","seller":"Vitpro Herbal","sellerPlace":"Jakarta Timur","url":"https://www.bukalapak.com/p/kesehatan-2359/obat-suplemen/obat-obatan/1ll3k8u-jual-paket-cepat-hamil-vitpro?from=&product_owner=normal_seller","sold":138,"seen":442,"favorite":193,"updated":"2019-10-15 08:39:29","description":"Produk Selalu Ready, Silahkan Langsung diorder.\r\n\r\n\r\n“JAMINAN PRODUK ORIGINAL”\r\n\r\n\r\nPaket Promil VitPro merupakan obat untuk program kehamilan yang di formulasikan dari bahan herbal pilihan dan berkualitas sehingga dapat bekerja secara maksimal bagi Kesuburan Pria. Dengan cara memperbaiki jaringan sel reproduksi dan memaksimalkan pembuahan.\r\n\r\n\r\nKhasiat paket VitPro for HIM:\r\n\r\n\r\n\r\nMemperpanjang Usia Sperma\r\n\r\nMenambah Jumlah Sperma\r\n\r\nPendongkrak Libido Pria\r\n\r\nMengentalkan Sperma\r\n\r\nPenis makin keras dan tahan lama berhubungan\r\n\r\nMenguatkan semburan sperma\r\n\r\nMengatasi Ejakulasi Dini\r\n\r\nMeningkatkan Stamina\r\n\r\n\r\n\r\n\r\nKhasiat paket VitPro for HER:\r\n\r\n\r\n\r\nMemaksimalkan terjadinya pembuahan\r\n\r\nMenambah Stamina Wanita\r\n\r\nMembersihkan Saluran Reproduksi\r\n\r\nMenambah Daya Hidup Sel Telur\r\n\r\nMenguatkan sel indung telur\r\n\r\nMenebalkan dinding rahim\r\n\r\nCepat Hamil\r\n\r\n\r\n\r\n\r\n*Jumlah kapsul & Aturan minum :\r\n\r\n\r\n\r\nPer botol isi 50 kapsul\r\n\r\nAturan minum 3x2 kapsul/hari\r\n\r\n\r\n\r\n\r\nNB : simpan ditempat yang sejuk serta terhindar dari sinar matahari secara langsung.","rating":0}
{"no":0,"title":"OBAT OLES PEMBESAR PENI S","price":"130.000","seller":"JAKARTA STORE","sellerPlace":"Jakarta Utara","url":"https://www.bukalapak.com/p/kesehatan-2359/obat-suplemen/obat-obatan/1rmapm4-jual-obat-oles-pembesar-peni-s?from=&product_owner=normal_seller","sold":162,"seen":694,"favorite":15,"updated":"2019-10-14 22:35:57","description":"Khasiat :\r\n\r\n- Memperbesar venis secara alami\r\n- Memperpanjang venis secara alami\r\n- Mempertebal kulit venis secara alami\r\n- Memperjelas urat dalam venis \r\n- Membuat menjadi lebih kencang dan kuat\r\n- Meningkatkan kekuatan hingga 10 kali lipat\r\n- Meningkatkan libido dan gairah seksual\r\n- Mengobati disfungsi atau imp0t3nsi secara alami","rating":0}
{"no":0,"title":"OBAT PEMBESAR PENIS---PRIA KUAT","price":"135.000","seller":"toko berkah herbal","sellerPlace":"Jakarta Pusat","url":"https://www.bukalapak.com/p/kesehatan-2359/obat-suplemen/obat-obatan/28m7317-jual-obat-pembesar-penis-pria-kuat?from=&product_owner=normal_seller","sold":94,"seen":173,"favorite":95,"updated":"2019-10-13 09:04:00","description":"PACKING RAPI, RAHASIA TERJAMIN!\r\nSTOCK SELALU READY\r\n===============\r\n\r\nMinyak Liintah Triple L \r\n\r\nKej4ntanan Anda kecil & Pendek? \r\nIstri tidak puas dengan senj4ta Anda?\r\n\r\nTidak sedikit pria yang merasa alt vitaIInya terlalu kecil sehingga merasa minder dan tidak bisa memuaskan istri. Misalpun bisa, kerap kali yang dialami istri ialah 0rgassmeee palsu untuk membuat senang suami. . Ketika istri tidak merasakan kepuasan, maka bisa jadi istri akan melirik laki-laki lain yang alat atau senj4tanya lebih besar dan tahan lama. Jika sudah demikian keharmonisan dalam rumah tangga pun jadi taruhan. \r\n\r\nSolusi yang tepat untuk masalah Anda ialah dengan memperbesar alat Anda agar bisa besar dan panjang serta kuat untuk memuaskan istri. Caranya sangat mudah dengan Minyak Liintah Super Triple L. \r\n\r\nTriple L terbuat dari minyak liintah murni kualitas super asli dari papua yang di rekomendasikan oleh para ahli karena zat aktif yang terkandung didalamnya telah teruji secara klinis dan terbukti mampu menambah ukuran pada alt vitaII. Selain berkhasiat juga aman di pakai tidak mengakibatkan iritasi maupun efek samping buruk bagi kesehatan. Khasiat Triple L sendiri sudah banyak dibuktikan hasilnya. \r\n\r\nManfaat Triple L\r\n- Menaikan masa otot dan panjang ukuran alat pria punya hingga 40%\r\n- Meningkatkan ukuran dan kekuatan vitall pria punya \r\n- Mengobati l3mah syhwat\r\n- Mengatasi ejak*lasi din*\r\n- memperpanjang sesi 0rgasmee pria\r\n\r\nDeskripsi produk: Triple L\r\nKemasan : Botol (lihat gambar)\r\nIsi : 15 ml\r\nDepkes. RI: IKOT 442/00060/V-2\r\nHarga : Rp.135.000,-\r\n\r\n1 Botol biasanya cukup untuk 3-4 minggu penggunaan rutin...\r\n\r\n----------------------PENTING-----------------------\r\nHATI-HATI PRODUK PALSU! PRODUK PALSU TIDAK MEMILIKI KHASIAT DAN BERBAHAYA BAGI KESEHATAN ORGAN VITAI.\r\nPRODUK PALSU DIJUAL DENGAN HARGA DIBAWAH HET (135.000/PRODUK) ATAU HARGA ECERAN TERENDAH!!! \r\nHATI-HATI !!! Jika Ada yng menjual dibawah harga HET dipastikan adalah produk palsu, karena harga bahan baku TRIPLE L tidak semurah yang produk palsu tawarkan!!!\r\nJANGAN TERGODA DENGAN IMING-IMING HARGA MURAH! PASTIKAN UNTUK SELALU MEMBELI PRODUK ASLI! SAYANGI KESEHATAN ORGAN VITAI ANDA !!!","rating":0}
{"no":0,"title":"OBAT. KUAT. PRIA.","price":"240.000","seller":"KURNIA HERBAL","sellerPlace":"Jakarta Selatan","url":"https://www.bukalapak.com/p/kesehatan-2359/obat-suplemen/obat-obatan/ge11p4-jual-obat-kuat-pria?from=&product_owner=normal_seller","sold":98,"seen":389,"favorite":100,"updated":"2019-10-15 10:05:24","description":"Pertama di Indonesia, Obat Kusus Pria DewasaTerdaftar di BPOM dan halal MUI.\r\n\r\nObat Herbal Lhiformen telah terdaftar di Badan POM dengan nomor regristrasi POM TR. dan halal MUI 05. L\r\n\r\nKhasiat Lhiformen Secara Keseluruhan adalah sbb:\r\n> Meningkatkan jumlah hormon testosteron\r\n> Membuat alat vital keras dan tahan lama\r\n> Mengatasi disfungsi seksual/impotensi pada pria\r\n> Meningkatkan stamina pria\r\n> Menyuburkan sperma/mani, sebagai terapi alternatif untuk melawan infertilitas (ketidaksuburan) pada pria\r\n> Membuat durasi hubungan intim/ML/bercinta tahan lama\r\n> Memperlancar aliran darah ke Mr.P.\r\n> Meningkatkan gairah seksual/libido\r\n> Mencegah dan mengatasi Andropouse\r\n> Mengatasi masalah Prostat.\r\n> Mengatur suhu tubuh untuk mendukung perkembangan fungsi-fungsi seksual yang normal\r\n> Sangat dianjurkan untuk Anda yang impoten dan kurang bergairah\r\n> Menjadikan orgasme lebih nikmat dan mengesankan\r\n> Aman dikonsumsi bagii Anda yang mempunyai masalah ginjal, jantung, hipertensi, kolesterol,diabetes dan penyakit lainnya.\r\nDetail Produk:\r\n> Nama: Lhiformen\r\n> Kemasan: Botol (lihat foto diatas)\r\n> Isi: 50 kapsul @ 500 mg\r\n> Ijin BPOM: POM TR.\r\n> Halal MUI 05\r\n\r\nProduced by : CV. Karya Abadi.\r\nNomor Regristrasi SIUP: 510/24/PK/VIII/2015","rating":0}
{"no":0,"title":"OBAT KUAT PRIA HERBAL TAHAN LAMA EJAKULASI DINI- Strong Man","price":"220.000","seller":"toko herbal","sellerPlace":"Bekasi","url":"https://www.bukalapak.com/p/kesehatan-2359/obat-suplemen/obat-obatan/1wtdeoi-jual-obat-kuat-pria-herbal-tahan-lama-ejakulasi-dini-strong-man?from=&product_owner=normal_seller","sold":311,"seen":497,"favorite":99,"updated":"2019-10-15 14:00:16","description":"+ Langsung order saja ya Gan barang ready stcok...\r\n+ Selamat berbelanja\r\n\r\nSTOCK READY BANYAK.. SILAHKAN DIORDER\r\n\r\nStrong Man adalah obat-kuat kusus pria dewasa yang kami rumuskan melalui proses yang panjang sehingga Anda tak ada alasan sedikitpun untuk ragu menggunakan obat-kuat ini. Strong Man adalah obat-kuat yang telah terdaftar di Badan POM dan mendapatkan sertifikasi halal dari aktif alami yang terkandung dalam Strong Man juga sudah di buktikan khasiatnya sejak zaman nenek moyang manusia di bumi. Kandungan ekstrak herbal pilihan dalam Strong Man seperti Pimpinella pruatjan (alpina), Eurycoma longifolia, Symphytum officinale bersifat afrodisiak sehingga mampu menjaga stamina tubuh, meningkatkan kadar hormon testosteron sekaligus meningkatkan gairah seksual atau libido pria.\r\n\r\nBerikut Manfaat Obat Herbal Strong Man :\r\n- Meningkatkan libiddo dan gairah sekzsual\r\n- Mengatasi Ejakulaszi Dini Pada Pria\r\n- Meningkatkan produksi hormon testosteron\r\n- Meningkatkan keaktifan pria dalam melakukan aktivitas sekzsual\r\n- Memperlancar aliran darah pada organ vital sehingga erekzsi lebih kuat dan tahan lama\r\n- Merileksasikan organ reproduksi sehingga bisa lebih merasakan sensasi\r\n- Meningkatkan performa sekszual Anda\r\n- Meningkatkan ukuran testis sehingga produksi sperma lebih banyak\r\n- Mengatasi disfungsi erekzsi dan ejakulaszi dini\r\n- Menormalkan tekanan darah sehingga baik untuk dikomsumsi pria dengan hipotensi\r\natau tekanan darah rendah.\r\n\r\nDeskripsi Produk :\r\nNama: Strong Man\r\nKemasan: Botol (lihat foto diatas)\r\ng\r\nMinum 1 atau 2 kapsul perhari \r\n\r\nNama Perusahaan: CV. Karya Abadi\r\nSIUP :510/24/PK/VIII/2015","rating":0}
{"no":0,"title":"OBAT PEMBESAR PENIS-ORIGINAL","price":"130.000","seller":"toko berkah herbal","sellerPlace":"Jakarta Pusat","url":"https://www.bukalapak.com/p/kesehatan-2359/obat-suplemen/obat-obatan/28m8wai-jual-obat-pembesar-penis-original?from=&product_owner=normal_seller","sold":93,"seen":122,"favorite":92,"updated":"2019-10-12 14:27:50","description":"RECOMENDED SELLER TELAH DIBUKTIKAN LEBIH DARI 500rb PELANGGAN!!!!\r\n\r\nSENJATA KECIL & LEMBEK?\r\n\r\nAlatvitall yang kecil, kurang panjang & lembek bisa jadi pemicu ketidakpuasan istri saat berhubungan. Jangan puas hanya karena istri orgasssme, BISA JADI ORGAssSME PALSU DAN ISTRI TAK PUAS!\r\nPuaskan istri dengan senjjata yang lebih besar, kuat & panjang!\r\n\r\nDengan Zhang Power, Anda bisa membesarkan senjata (alatvitall) Anda hingga 40% lebih besar, panjang & berurat. Tidak lembek dan loyo. \r\nZhang Power aman & alami, terbuat dari herbal piIihan terbukti memperbesar dan memperpanjang kejanntannan (alatvitalI) dengan aman & hasil permanen!\r\n\r\nKhasiat :\r\n* Mempertebal alatvitaIl pria secara alami\r\n* Menambah ereksii semakin kencang & kuat\r\n* Menambah gairah seksuaIl / libidoo pria\r\n* Mengobati disfungsi ereksii (impotensii) secara alami\r\n* Mengatasi ejakulasii dini\r\n* Memaksimalkan kekuatan ereksii hingga 10 kali lipat.\r\n\r\nAturan Pakai :\r\n1. Lakukan pengukuran alatvital anda sebelum memulainya dihari pertama.\r\n2. Oleskan Zhang Power tiga sampai lima tetes pada alatvitaIl, ratakan dari pangkal sampai ke ujung.\r\n3. Lakukan rangsangan pada alatvitaI Anda agar sedikit kencang.\r\n4. Lakukan pengurutan dari pangkal ke ujung.\r\n\r\n#HATI-HATI Produk TIRUAN! Zhang Power asli menggunakan bahan baku berkualitas tinggi yg telah teruji. Harga Produk HET ZHang Power Asli Rp.130.000. Jika Ada yng menjual dibawah harga HET dipastikan adalah produk palsu, karena harga bahan baku zhang power tidak semurah yang produk palsu tawarkan!!!\r\nKami tidak menerima klaim GARASI UANG KEMBALI 100% jika yg Anda beli bukan dari toko kami! \r\n\r\nLegalitas ZHANG POWER IKOT 442/00060/V-2 & MUI 05\r\n\r\nJADWAL PENGIRIMAN\r\nSENIN s/d JUMAT : pengiriman sampai jam 3 sore\r\nSABTU : pengiriman sampai jam 12 siang\r\n) ORDER yg diterima SETELAHNYA / hari LIBUR NASIONAL akan dikirim pada HARI KERJA BERIKUTNYA.\r\n) Paket DIKEMAS rapih TANPA MEREK/GAMBAR Produk RAHASIA TERJAMIN..","rating":0}
{"no":0,"title":"MINYAK PEMBESAR PE-NIS-PRIA","price":"130.000","seller":"toko berkah herbal","sellerPlace":"Jakarta Pusat","url":"https://www.bukalapak.com/p/kesehatan-2359/obat-suplemen/obat-obatan/28m8kxh-jual-minyak-pembesar-pe-nis-pria?from=&product_owner=normal_seller","sold":93,"seen":116,"favorite":93,"updated":"2019-10-14 07:31:54","description":"RECOMENDED SELLER TELAH DIBUKTIKAN LEBIH DARI 500rb PELANGGAN!!!!\r\n\r\nSENJATA KECIL & LEMBEK?\r\n\r\nAlatvitall yang kecil, kurang panjang & lembek bisa jadi pemicu ketidakpuasan istri saat berhubungan. Jangan puas hanya karena istri orgasssme, BISA JADI ORGAssSME PALSU DAN ISTRI TAK PUAS!\r\nPuaskan istri dengan senjjata yang lebih besar, kuat & panjang!\r\n\r\nDengan Zhang Power, Anda bisa membesarkan senjata (alatvitall) Anda hingga 40% lebih besar, panjang & berurat. Tidak lembek dan loyo. \r\nZhang Power aman & alami, terbuat dari herbal piIihan terbukti memperbesar dan memperpanjang kejanntannan (alatvitalI) dengan aman & hasil permanen!\r\n\r\nKhasiat :\r\n* Mempertebal alatvitaIl pria secara alami\r\n* Menambah ereksii semakin kencang & kuat\r\n* Menambah gairah seksuaIl / libidoo pria\r\n* Mengobati disfungsi ereksii (impotensii) secara alami\r\n* Mengatasi ejakulasii dini\r\n* Memaksimalkan kekuatan ereksii hingga 10 kali lipat.\r\n\r\nAturan Pakai :\r\n1. Lakukan pengukuran alatvital anda sebelum memulainya dihari pertama.\r\n2. Oleskan Zhang Power tiga sampai lima tetes pada alatvitaIl, ratakan dari pangkal sampai ke ujung.\r\n3. Lakukan rangsangan pada alatvitaI Anda agar sedikit kencang.\r\n4. Lakukan pengurutan dari pangkal ke ujung.\r\n\r\n#HATI-HATI Produk TIRUAN! Zhang Power asli menggunakan bahan baku berkualitas tinggi yg telah teruji. Harga Produk HET ZHang Power Asli Rp.130.000. Jika Ada yng menjual dibawah harga HET dipastikan adalah produk palsu, karena harga bahan baku zhang power tidak semurah yang produk palsu tawarkan!!!\r\nKami tidak menerima klaim GARASI UANG KEMBALI 100% jika yg Anda beli bukan dari toko kami! \r\n\r\nLegalitas ZHANG POWER IKOT 442/00060/V-2 & MUI 05\r\n\r\nJADWAL PENGIRIMAN\r\nSENIN s/d JUMAT : pengiriman sampai jam 3 sore\r\nSABTU : pengiriman sampai jam 12 siang\r\n) ORDER yg diterima SETELAHNYA / hari LIBUR NASIONAL akan dikirim pada HARI KERJA BERIKUTNYA.\r\n) Paket DIKEMAS rapih TANPA MEREK/GAMBAR Produk RAHASIA TERJAMIN..","rating":0}
{"no":0,"title":"Obat Kuat Pria Bpom","price":"230.000","seller":"Vitpro Herbal","sellerPlace":"Jakarta Timur","url":"https://www.bukalapak.com/p/kesehatan-2359/obat-suplemen/obat-obatan/1ll3k3a-jual-obat-kuat-pria-bpom?from=&product_owner=normal_seller","sold":321,"seen":1815,"favorite":201,"updated":"2019-10-11 18:19:15","description":"Produk Selalu Ready, Silahkan Langsung diorder.\r\n\"JAMINAN PRODUK ORIGINAL\"\r\nPRIVASI TERJAGA - PACKING RAPI\r\n\r\nSuplemen Herbal Meningkatkan Vitalitas, Stamina Pria Agar Tahan Lama\r\nVitproX terbuat dari 100% herbal alami berkhasiat yang terbukti mampu meningkatkan produksi hormon testosteron sehingga meningkatkan vitalitas dan stamina pria agar tahan lama\r\n\r\nKhasiat:\r\n*meningkatkan produksi hormon testosteron\r\n*meningkatkan vitalitas pria\r\n*meningkatkan stamina pria dewasa\r\n*meningkatkan gairah sekssual pria dewasa\r\n*meningkatkan kekuatan e-reksi agar lebih keras dan tahan lama\r\n*bercinta tahan lama dengan durasi maksimal\r\n*bisa tahan lama bercinta hingga berjam-jam\r\n*ampuh mengatasi ejakulasi-dini\r\n*pengental sperma \r\n*memperbanyak sperma\r\n*meningkatkan kesuburan atau vitalitas pria\r\ndan masih banyak lagi\r\n\r\n*Jumlah kapsul & Aturan minum :\r\n- 1 botol VitraMEN isi 50 kapsul\r\n- Aturan minum 1-2 Kapsul sebelum Berhubungan Intim.\r\n\r\n*Jumlah kapsul & Aturan minum :\r\n- Per botol isi 50 kapsul\r\n- Aturan minum 3x2 kapsul/hari.\r\n\r\nNB : simpan ditempat yang sejuk serta terhindar dari sinar matahari secara langsung.","rating":0}
{"no":0,"title":"OBAT EJAKULASI DINI - HERBAL OBAT PRIA","price":"220.000","seller":"GELOMBANG ASMARA","sellerPlace":"Jakarta Barat","url":"https://www.bukalapak.com/p/kesehatan-2359/obat-suplemen/obat-obatan/1whrbl2-jual-obat-ejakulasi-dini-herbal-obat-pria?from=&product_owner=normal_seller","sold":153,"seen":155,"favorite":2,"updated":"2019-10-13 05:21:10","description":"PRODUK READY.. SILAHKAN DIORDER\r\n\r\nStrong Man adalah obat-kuat kusus pria dewasa yang kami rumuskan melalui proses yang panjang sehingga Anda tak ada alasan sedikitpun untuk ragu menggunakan obat-kuat ini. Strong Man adalah obat-kuat yang telah terdaftar di Badan POM dan mendapatkan sertifikasi halal dari aktif alami yang terkandung dalam Strong Man juga sudah di buktikan khasiatnya sejak zaman nenek moyang manusia di bumi. Kandungan ekstrak herbal pilihan dalam Strong Man seperti Pimpinella pruatjan (alpina), Eurycoma longifolia, Symphytum officinale bersifat afrodisiak sehingga mampu menjaga stamina tubuh, meningkatkan kadar hormon testosteron sekaligus meningkatkan gairah seksual atau libido pria.\r\n\r\nBerikut Manfaat Obat Herbal Strong Man :\r\n- Meningkatkan libiddo dan gairah sekzsual\r\n- Mengatasi Ejakulaszi Dini Pada Pria\r\n- Meningkatkan produksi hormon testosteron\r\n- Meningkatkan keaktifan pria dalam melakukan aktivitas sekzsual\r\n- Memperlancar aliran darah pada organ vital sehingga erekzsi lebih kuat dan tahan lama\r\n- Merileksasikan organ reproduksi sehingga bisa lebih merasakan sensasi\r\n- Meningkatkan performa sekszual Anda\r\n- Meningkatkan ukuran testis sehingga produksi sperma lebih banyak\r\n- Mengatasi disfungsi erekzsi dan ejakulaszi dini\r\n- Menormalkan tekanan darah sehingga baik untuk dikomsumsi pria dengan hipotensi\r\natau tekanan darah rendah.\r\n\r\nDeskripsi Produk :\r\nNama: Strong Man\r\nKemasan: Botol (lihat foto diatas)\r\nIsi: 60 kapsul @ 500 mg\r\nDepkes. RI: IKOT 442/00060/V-2\r\nMinum 1 atau 2 kapsul perhari \r\n\r\nToko Kami Sangat Recommended dan terpercaya karena terjamin legalitas dan keamanan produknya\r\nNama Perusahaan: CV. Karya Abadi\r\nSIUP :510/24/PK/VIII/2015\r\n\r\nSilahkan langsung order saja gan, stok Ready\r\n| jam kerja: 08-17.00 wib | minggu libur |","rating":0}
{"no":0,"title":"Obat Kuat Pria Herbal Tahan Lama Ejakulasi Dini","price":"280.000","seller":"RIZKY HERBAL","sellerPlace":"Jakarta Pusat","url":"https://www.bukalapak.com/p/kesehatan-2359/obat-suplemen/obat-obatan/1x66rbw-jual-obat-kuat-pria-herbal-tahan-lama-ejakulasi-dini?from=&product_owner=normal_seller","sold":120,"seen":504,"favorite":125,"updated":"2019-10-15 12:38:18","description":"Dijamin 100% Original dari CV. KARYA ABADI !!!\r\nHarga untuk 1 Botol (15 ml)\r\nBarang selalu READY Stok gan, \r\n\r\n----------------- P E N T I N G ----------------\r\n\r\nJADWAL PENGIRIMAN\r\n\r\nSENIN s/d JUMAT : pengiriman sampai jam 3 sore\r\nSABTU : pengiriman sampai jam 12 siang\r\n\r\n\r\n**) Paket DIKEMAS rapih TANPA MEREK/GAMBAR Produk... RAHASIA TERJAMIN..\r\n\r\n----------------- D U R E V E L - S P R A Y Obat Herbal Tahan Lama Pria Terbaik Di Indonesia-------------\r\n\r\nDurevel Spray adalah formula herbal yang terbuat dari ekstrak tanaman herbal terbaik yang berkhasiat tinggi dalam membantu mengatasi ejakulasii dini secara nyata dan aman.\r\nDurevel berbahan dasar air dan dikemas dalam botol kaca spray. \r\nHal ini menjadikan Anda sangat mudah menggunakannya, cukup disemprotkan dan tunggu hasilnya setelah 45 menit. \r\n\r\nKhasiat :\r\n* Membantu Anda untuk kuat dan tahan lebih lama berhubungan bersama pasangan\r\n* Durasi berhubungan lebih lama\r\n* Ejakulasii Dini Anda berakhir\r\n* Anda akan merasakan sensasi yang luar biasa\r\nAturan Pakai :\r\n1. Anda hanya perlu menyemprotkan Durevel ke alatvital Anda dengan sedikit pijatan untuk meratakannya.\r\n2. Alatvital Anda akan terasa hangat setelah 10 menit.\r\n3. Tunggu selama 45 menit.\r\n4. Durevel bisa berfungsi setelah 45 menit sampai 12 jam.\r\n5. Dan Anda siap untuk berhubungan selama mungkin.\r\n\r\n1 Botol DUREVEL SPRAY berisi 15ml gunakan hanya saat akan berhubungan saja\r\nbisa untuk 2 bulan pemakaian tergantung sedikit banyaknya pemakaian\r\n\r\nHATI-HATI produk palsu! Durevel Spray hanya dijual di jaringan CV Karya Abadi! Durevel Spray Asli tidak dijual dg harga dibawah HET (Rp,280.000)!\r\n#obatkuatpria #herbalkuatpria #obattahanlama #obatkuatpriaperkasa #obatkuattahanlama","rating":0}
{"no":0,"title":"Obat Perkasa Kuat Tahan Lama Atasi Eja Kulasi Dini - Penambah Stamina Saat Bercinta","price":"280.000","seller":"toko herbal","sellerPlace":"Bekasi","url":"https://www.bukalapak.com/p/kesehatan-2359/obat-suplemen/obat-obatan/26lbtrc-jual-obat-perkasa-kuat-tahan-lama-atasi-eja-kulasi-dini-penambah-stamina-saat-bercinta?from=&product_owner=normal_seller","sold":337,"seen":75,"favorite":46,"updated":"2019-10-15 04:56:27","description":"STOCK READY BANYAK.. BISA LANGSUNG DIORDER..\r\nPROMO TERBATAS !!! HANYA BELI 2 LANGSUNG DAPAT GRATIS 1 BOX VIREX\r\n\r\nKasiat Durevel\r\n- Anda mampu melakukan penetrasi dalam durasi yang cukup lama, bahkan jika Anda memakai terlalu banyak maka siap-siaplah untuk berhubungan sampai pagi!\r\n- Ezakulasi dini Anda berakhir\r\n- Orgasme lebih memuaskan, Anda akan merasakan sensasi orgasme yang luar biasa\r\n- Hubungan seksual yang sangat memuaskan\r\n- Istri Anda bahagia, karena bisa membuatnya orgasme berkali-kali\r\n- Keharmonisan Anda dan pasangan kembali terjalin\r\n\r\nCara Penggunaan Durevel\r\n1. Pakailah tiap kali mau berhubungan saja\r\n2. Kocok botol terlebih dahulu\r\n3. Semprotkan sedikit Durevel ke kepala alat vtal lalu ratakan sampai leher, semprotkan 2 kali ke bagian bawah batang alat vital, ratakan\r\n4. Rasa hangat Durevel tidak langsung terasa dan akan terasa +- 10 menit setelah pemakaian\r\n5. Tunggu minimal 45 menit. Setelah 45 menit rasa hangat akan hilang. Jangan berhubungan jika masih terasa hangat\r\n6. Durevel bisa berfungsi dengan baik setelah 45 menit, namun hasil paling baik jika menunggu setelah 2 jam, dan Durevel masih bisa berfungsi sampai 12 jam\r\n\r\nDetail Produk:\r\n- Nama: Durevel\r\n- Isi 15 ml\r\n- Ijin Edar: Depkes. RI: IKOT 442/00060/V-2.\r\n- Disertai cara pakai","rating":0}
{"no":0,"title":"Obat Kuat Penambah Stamina Pria Tahan Lama Atasi Eja Kulasi Dini Disfungsi E reksi Dan Impoten","price":"280.000","seller":"toko herbal","sellerPlace":"Bekasi","url":"https://www.bukalapak.com/p/kesehatan-2359/obat-suplemen/obat-obatan/26le3vq-jual-obat-kuat-penambah-stamina-pria-tahan-lama-atasi-eja-kulasi-dini-disfungsi-e-reksi-dan-impoten?from=&product_owner=normal_seller","sold":634,"seen":103,"favorite":47,"updated":"2019-10-15 07:09:46","description":"STOCK READY BANYAK.. BISA LANGSUNG DIORDER..\r\nPROMO TERBATAS !!! HANYA BELI 2 LANGSUNG DAPAT GRATIS 1 BOX VIREX\r\n\r\nKasiat Durevel\r\n- Anda mampu melakukan penetrasi dalam durasi yang cukup lama, bahkan jika Anda memakai terlalu banyak maka siap-siaplah untuk berhubungan sampai pagi!\r\n- Ezakulasi dini Anda berakhir\r\n- Orgasme lebih memuaskan, Anda akan merasakan sensasi orgasme yang luar biasa\r\n- Hubungan seksual yang sangat memuaskan\r\n- Istri Anda bahagia, karena bisa membuatnya orgasme berkali-kali\r\n- Keharmonisan Anda dan pasangan kembali terjalin\r\n\r\nCara Penggunaan Durevel\r\n1. Pakailah tiap kali mau berhubungan saja\r\n2. Kocok botol terlebih dahulu\r\n3. Semprotkan sedikit Durevel ke kepala alat vtal lalu ratakan sampai leher, semprotkan 2 kali ke bagian bawah batang alat vital, ratakan\r\n4. Rasa hangat Durevel tidak langsung terasa dan akan terasa +- 10 menit setelah pemakaian\r\n5. Tunggu minimal 45 menit. Setelah 45 menit rasa hangat akan hilang. Jangan berhubungan jika masih terasa hangat\r\n6. Durevel bisa berfungsi dengan baik setelah 45 menit, namun hasil paling baik jika menunggu setelah 2 jam, dan Durevel masih bisa berfungsi sampai 12 jam\r\n\r\nDetail Produk:\r\n- Nama: Durevel\r\n- Isi 15 ml\r\n- Ijin Edar: Depkes. RI: IKOT 442/00060/V-2.\r\n- Disertai cara pakai","rating":0}
{"no":0,"title":"OBAT-PEMBESAR PENIS-HERBAL-ALAMI","price":"130.000","seller":"GELOMBANG ASMARA","sellerPlace":"Jakarta Barat","url":"https://www.bukalapak.com/p/kesehatan-2359/obat-suplemen/obat-obatan/1whvmvc-jual-obat-pembesar-penis-herbal-alami?from=&product_owner=normal_seller","sold":152,"seen":320,"favorite":5,"updated":"2019-10-14 11:29:00","description":"*Stok Barang Selalu Ready Silahkan klik BELI\r\n\r\nApa Saja Khasiat ZhangPower ?\r\n\r\nMembantu memperbesar ukuran penis.\r\nMelancarkan peredaran yang berada di sekitar Mr. P\r\nMembantu membersihkan Mr. P dari kotoran-kotoran yang menempel pada Mr. P\r\nMembantu mengencangkan kulit pada area Mr. P\r\nMenjaga kelembaban kulit di area Mr. P\r\nMenambah ereksi penis semakin kencang dan kuat\r\nDan lain-lain\r\n\r\nCARA PAKAI -Panjang dan besarnya alat vi tal hanya bisa bertambah secara normal sekitar 30 -40 %. \r\nJika ukuran panjang sebelumnya 15 cm, maka setelah menggunakan ZhangPower , \r\nukuran panjang maksimal mencapai sekitar 20 cm. \r\n-Agar tidak lekas bosan, luangkan waktu kusus dan tempat kusus untuk melakukannya.\r\nMisalnya tiap pagi hari dikamar mandi ketika mandi. \r\nJangan lekas puas jika Anda mendapatkan hasil yang cepat. \r\nJika Anda langsung menghentikan ketika telah melihat hasil yang cepat ini, maka ukurannya kembali lagi keukuran normal. \r\n-Oleskan ZhangPower tiga tetes, ratakan dari pangkal sampai ke ujung. \r\n-Sedikit lakukan rangsangan kegenital Anda agar setengah ere xi. \r\n-Lakukan pengurutan dari pangkal ke ujung, dan tarik lebih keras ketika sampai diujung. \r\n-Dengan bantuan ZhangPower , Anda hanya perlu melakukan teknik ini selama 6 -8 menit saja dan dengan cepat melihat hasilnya. lebih jelasnya di dalam brosur aturan pakai yang kami sertakan dalam kemasan paket. \r\n\r\n\r\nApa Saja Khasiat ZhangPower ?\r\n\r\nMembantu memperbesar ukuran penis.\r\nMelancarkan peredaran yang berada di sekitar Mr. P\r\nMembantu membersihkan Mr. P dari kotoran-kotoran yang menempel pada Mr. P\r\nMembantu mengencangkan kulit pada area Mr. P\r\nMenjaga kelembaban kulit di area Mr. P\r\nMenambah ereksi penis semakin kencang dan kuat\r\nDan lain-lain\r\n\r\nCARA PAKAI -Panjang dan besarnya alat vi tal hanya bisa bertambah secara normal sekitar 30 -40 %. \r\nJika ukuran panjang sebelumnya 15 cm, maka setelah menggunakan ZhangPower , \r\nukuran panjang maksimal mencapai sekitar 20 cm. \r\n-Agar tidak lekas bosan, luangkan waktu kusus dan tempat kusus untuk melakukannya.\r\nMisalnya tiap pagi hari dikamar mandi ketika mandi. \r\nJangan lekas puas jika Anda mendapatkan hasil yang cepat. \r\nJika Anda langsung menghentikan ketika telah melihat hasil yang cepat ini, maka ukurannya kembali lagi keukuran normal. \r\n-Oleskan ZhangPower tiga tetes, ratakan dari pangkal sampai ke ujung. \r\n-Sedikit lakukan rangsangan kegenital Anda agar setengah ere xi. \r\n-Lakukan pengurutan dari pangkal ke ujung, dan tarik lebih keras ketika sampai diujung. \r\n-Dengan bantuan ZhangPower , Anda hanya perlu melakukan teknik ini selama 6 -8 menit saja dan dengan cepat melihat hasilnya. lebih jelasnya di dalam brosur aturan pakai yang kami sertakan dalam kemasan paket. \r\n\r\nDetail Produk:\r\n> Nama : Zhng Power\r\n> Kemasan : Botol (lihat foto diatas)\r\n> Isi : 15 ml\r\n> Depkes. RI: IKOT 442/00060/V-2","rating":0}
{"no":0,"title":"OBAT KUAT MENGOBATI EJAKULASI DINI - OBAT KUAT","price":"220.000","seller":"FOOT HERBAL","sellerPlace":"Jakarta Pusat","url":"https://www.bukalapak.com/p/kesehatan-2359/obat-suplemen/obat-obatan/269xjae-jual-obat-kuat-mengobati-ejakulasi-dini-obat-kuat?from=&product_owner=normal_seller","sold":165,"seen":414,"favorite":6,"updated":"2019-10-15 11:36:03","description":"Strong Man adalah obat-kuat kusus pria dewasa yang kami rumuskan melalui proses yang panjang sehingga Anda tak ada alasan sedikitpun untuk ragu menggunakan obat-kuat ini. Strong Man adalah obat-kuat yang telah terdaftar di Badan POM dan mendapatkan sertifikasi halal dari aktif alami yang terkandung dalam Strong Man juga sudah di buktikan khasiatnya sejak zaman nenek moyang manusia di bumi. Kandungan ekstrak herbal pilihan dalam Strong Man seperti Pimpinella pruatjan (alpina), Eurycoma longifolia, Symphytum officinale bersifat afrodisiak sehingga mampu menjaga stamina tubuh, meningkatkan kadar hormon testosteron sekaligus meningkatkan gairah seksual atau libido pria.\r\n\r\nBerikut Manfaat Obat Herbal Strong Man :\r\n- Meningkatkan libiddo dan gairah sekzsual\r\n- Mengatasi Ejakulaszi Dini Pada Pria\r\n- Meningkatkan produksi hormon testosteron\r\n- Meningkatkan keaktifan pria dalam melakukan aktivitas sekzsual\r\n- Memperlancar aliran darah pada organ vital sehingga erekzsi lebih kuat dan tahan lama\r\n- Merileksasikan organ reproduksi sehingga bisa lebih merasakan sensasi\r\n- Meningkatkan performa sekszual Anda\r\n- Meningkatkan ukuran testis sehingga produksi sperma lebih banyak\r\n- Mengatasi disfungsi erekzsi dan ejakulaszi dini\r\n- Menormalkan tekanan darah sehingga baik untuk dikomsumsi pria dengan hipotensi\r\natau tekanan darah rendah.\r\n\r\nDeskripsi Produk :\r\nNama: Strong Man\r\nKemasan: Botol (lihat foto diatas)\r\nIsi: 60 kapsul @ 500 mg\r\nDepkes. RI: IKOT 442/00060/V-2\r\nMinum 1 atau 2 kapsul perhari\r\n\r\nToko Kami Sangat Recommended dan terpercaya karena terjamin legalitas dan keamanan produknya\r\nNama Perusahaan: CV. Karya Abadi\r\nSIUP :510/24/PK/VIII/2015","rating":0}
{"no":0,"title":"MINYAK OBAT OLES PEMBESAR PENI S","price":"135.000","seller":"toko berkah herbal","sellerPlace":"Jakarta Pusat","url":"https://www.bukalapak.com/p/kesehatan-2359/obat-suplemen/obat-obatan/28m4udv-jual-minyak-obat-oles-pembesar-peni-s?from=&product_owner=normal_seller","sold":92,"seen":118,"favorite":92,"updated":"2019-10-13 09:06:44","description":"PACKING RAPI, RAHASIA TERJAMIN!\r\nSTOCK SELALU READY\r\n===============\r\n\r\nMinyak Liintah Triple L \r\n\r\nKej4ntanan Anda kecil & Pendek? \r\nIstri tidak puas dengan senj4ta Anda?\r\n\r\nTidak sedikit pria yang merasa alt vitaIInya terlalu kecil sehingga merasa minder dan tidak bisa memuaskan istri. Misalpun bisa, kerap kali yang dialami istri ialah 0rgassmeee palsu untuk membuat senang suami. . Ketika istri tidak merasakan kepuasan, maka bisa jadi istri akan melirik laki-laki lain yang alat atau senj4tanya lebih besar dan tahan lama. Jika sudah demikian keharmonisan dalam rumah tangga pun jadi taruhan. \r\n\r\nSolusi yang tepat untuk masalah Anda ialah dengan memperbesar alat Anda agar bisa besar dan panjang serta kuat untuk memuaskan istri. Caranya sangat mudah dengan Minyak Liintah Super Triple L. \r\n\r\nTriple L terbuat dari minyak liintah murni kualitas super asli dari papua yang di rekomendasikan oleh para ahli karena zat aktif yang terkandung didalamnya telah teruji secara klinis dan terbukti mampu menambah ukuran pada alt vitaII. Selain berkhasiat juga aman di pakai tidak mengakibatkan iritasi maupun efek samping buruk bagi kesehatan. Khasiat Triple L sendiri sudah banyak dibuktikan hasilnya. \r\n\r\nManfaat Triple L\r\n- Menaikan masa otot dan panjang ukuran alat pria punya hingga 40%\r\n- Meningkatkan ukuran dan kekuatan vitall pria punya \r\n- Mengobati l3mah syhwat\r\n- Mengatasi ejak*lasi din*\r\n- memperpanjang sesi 0rgasmee pria\r\n\r\nDeskripsi produk: Triple L\r\nKemasan : Botol (lihat gambar)\r\nIsi : 15 ml\r\nDepkes. RI: IKOT 442/00060/V-2\r\nHarga : Rp.135.000,-\r\n\r\n1 Botol biasanya cukup untuk 3-4 minggu penggunaan rutin...\r\n\r\n----------------------PENTING-----------------------\r\nHATI-HATI PRODUK PALSU! PRODUK PALSU TIDAK MEMILIKI KHASIAT DAN BERBAHAYA BAGI KESEHATAN ORGAN VITAI.\r\nPRODUK PALSU DIJUAL DENGAN HARGA DIBAWAH HET (135.000/PRODUK) ATAU HARGA ECERAN TERENDAH!!! \r\nHATI-HATI !!! Jika Ada yng menjual dibawah harga HET dipastikan adalah produk palsu, karena harga bahan baku TRIPLE L tidak semurah yang produk palsu tawarkan!!!\r\nJANGAN TERGODA DENGAN IMING-IMING HARGA MURAH! PASTIKAN UNTUK SELALU MEMBELI PRODUK ASLI! SAYANGI KESEHATAN ORGAN VITAI ANDA !!!","rating":0}
{"no":0,"title":"BENTRAP SERBUK HERBAL ASLI AMPUH TERPERCAYA KHASIATNYA BELI 2 BONUS 1","price":"300.000","seller":"HerbalShopAman","sellerPlace":"Jakarta Selatan","url":"https://www.bukalapak.com/p/kesehatan-2359/obat-suplemen/obat-obatan/25mb1zm-jual-bentrap-serbuk-herbal-asli-ampuh-terpercaya-khasiatnya-beli-2-bonus-1?from=&product_owner=normal_seller","sold":115,"seen":51,"favorite":5,"updated":"2019-10-15 13:47:03","description":"Dalam 1 box bentrap isi 5 sachet\r\nOriginal Suplemen Herbal Alami\r\n\r\nBENTRAP satu-satunya minuman serbuk yang diproduksi dengan teknologi steam cell, yang membantu mengatasi keluhan vitalitas pria.\r\n\r\nREADY STOK ditempat kami,,,\r\n\r\nPENTING \r\nBACA DESKRIPSI SEBELUM ORDER \r\n\r\nBENTRAP \r\nmerupakan minuman kesehatan yang sudah terbukti manfaatnya.\r\n(kurang dari 1 jam sudah langsung terasa reaksinya)\r\nBENTRAP mengandung EXTRACT GINGSENG merah ASLI dari KOREA, diolah menggunakan teknologi STEM CELL.\r\nsehingga mudah larut dan diserap secara cepat dan langsung masuk kedalam aliran darah untuk memberikan reaksi secara CEPAT, KUAT dan bisa LAMA. \r\n\r\nFUNGSI EXTRACT GINGSENG MERAH YAITU : \r\n- UNTUK MELEBARKAN SERTA MENGUATKAN ELASTISITAS PEMBULUH DARAH KAPILER \r\n(sehingga mempercepat aliran darah masuk kedalam kantong2 pembuluh darah pada pria dan bisa memperbesar size )\r\n\r\n- MENINGKATKAN KEPEKAAN pada ujung syaraf\r\n\r\n- MENORMALKAN FUNGSI DAN KERJA HORMON ANDROGEN BAIK PADA LAKI2 (TESTOSTERON) \r\n(sehingga memperbaiki kualitas kesuburan\r\npada pria)\r\n\r\n- MENINGKATKAN IMUN TUBUH (sehingga kekebalan tubuh kuat tidak gampang sakit, badan terasa segar dan bugar )\r\n\r\n- MENINGKATKAN konstruksi otot\r\n\r\n- SUDAH TERUJI/TERDAFTAR POM RI :\r\nBPOMRI : 867009039323\r\n\r\nBENTRAP bukan dalam kategori obat, namun minuman kesehatan fungsional bukan hanya nutrisional saja, sehingga BAIK di konsumsi bagi penderita DIABETES, HIPERTENSI,\r\nKOLESTEROL, OBESITAS, PENDERITA JANTUNG .\r\n\r\nAturan pakai \r\n(hanya cukup satu (1) sachet/minggu )\r\n\r\nSatu (1) sachet BENTRAP bisa memberikan manfaat hingga 3 - 5 hari lamanya, tergantung kondisi tubuh masing2 .\r\n\r\nanjurkan mengonsumsi BENTRAP\r\nrutin minimal :\r\nseminggu sekali untuk menjaga\r\ntubuh tetap SEHAT dan KUAT agar terhindar dari penyakit2 kroni dan mencegah terjadinya komplikasi bagi yang sudah ada penyakit.\r\n\r\nIsi : 1 box (5 sachet)\r\nRASA seperti kopi + apel","rating":0}
{"no":0,"title":"Angkung Anggong Asli Import Obat Stroke ampuh dan Herbal Jantung","price":"350.000","seller":"Cv Raja Suplemen","sellerPlace":"Bandung","url":"https://www.bukalapak.com/p/kesehatan-2359/obat-suplemen/obat-obatan/1uf2i1j-jual-angkung-anggong-asli-import-obat-stroke-ampuh-dan-herbal-jantung?from=&product_owner=normal_seller","sold":42,"seen":833,"favorite":22,"updated":"2019-10-15 12:44:51","description":"\" CV RAJA SUPPLEMENTS \"\r\n\r\n\r\n\r\nKami menggaransi smua produk kami\r\n100% ORIGINAL IMPORT.\r\n\r\nGARANSI RETURE DAN UANG KEMBALI JIKA PRODUK TIDAK ASLI\r\n\r\nHATI-HATI!! Produk palsu di luaran sana dengan harga jauh lebih murah dan memutar balikan Fakta deskripsi produk palsu sebagai produk yang asli.\r\n\r\nPRODUK ASLI IMPORT PASTI HARGA MAHAL.\r\n\r\n\"YOUR BODY IS YOUR TEMPLE\"\r\n\r\nSAYANGI TUBUH ANDA,JANGAN SEMBARANG KOMSUMSI PRODUK MURAH DAN TIDAK JELAS YANG HANYA AKAN MEMPERBURUK KEADAAN TUBUH ANDA.\r\n\r\nBARANG ORIGINAL IMPORT USA DAN BERCODE ORIGINAL!!\r\n\r\nPROMO BELI 3 BONUS 1 BOTOL,JADI KAMI AKAN KIRIM 4 BOTOL\r\nJAMINAN BONUS ASLI JUGA!!\r\n\r\nREADY STOK!!\r\nORDER MASUK LANGSNG DIKIRIM.\r\nPAKET DIJAMIN PRIVASI DAN RAHASIA.\r\n\r\nANGKUNG dahulu adalah obat bagi para Kaisar dan orang-orang tertentu di daratan China, makanya dahulu rakyat biasa tdk bisa memperolehnya karena harganya yg mahal.\r\n\r\nKhasiat &amp;amp;amp;amp; Kegunaan :\r\n-Untuk penyembuhan stroke ringan/sedang dan stroke berat\r\n-Merangsang dan memulihkan kesadaran yg hilang (koma) dengan cepat yg disebabkan karena panas tinggi dan stroke.\r\n-Menurunkan panas tinggi dan kejang pada anak-anak maupun dewasa akibat demam dan radang selaput otak.\r\n-Membantu menghancurkan gumpalan darah atau bekuan darah yg diakibatkan oleh luka jatuh atau benturan (kecelakaan) atau karena stroke.\r\n\r\nKomposisi :\r\nKomposisi obat herbal ini masih sedikit orang yg mengetahui dengan pasti, karena bahasa komposisi menggunakan bahasa botani (rahasia produsen), kabarnya tanaman obat herbal yg digunakan utk produk ini hanya bisa tumbuh di negeri China khususnya di dataran tinggi China, dan tdk bisa tumbuh di tempat lain.\r\n\r\nKomposisi :\r\nCalculus Bovis, Moschus, Margarita, Rhizoma Coptidis, Radix Scutellariae, Fructus Gardeniae, Radix Curcumae, Borneolum Syntheticum, Mei.\r\n\r\nDiproduksi oleh :\r\nBeijing Tong Ren Tang Ltd. Co.\r\nTong Ren Tang Pharmaceutical Factory\r\nBeijing China\r\n\r\nAturan Pakai :\r\n-Lepaskan segel pengaman, buka kotak kain Angong Niuhuang Wan\r\n-Keluarkan bola lilinnya dan pecahkan (hati-hati pilnya agak lunak)\r\n-Keluarkan pil Angong Niuhuang Wan yg berwarna kuning emas dari dalam bola lilin (lilinnya dibuang)\r\n-Lapisan warna kuning emas jangan dibuang karena merupakan bagian dari obat\r\n-Pil Angong Niuhuang Wan yg berwarna kuning emas larutkan dengan air putih hangat +/- 150 cc.\r\n\r\nDosis minum utk pengobatan :\r\n-Dewasa &amp;amp;amp;amp; Anak 7 Th keatas sehari 1x 1 pil (siang 30 menit sesudah makan)\r\n-Setelah minum selama 3 hari berturut-turut berhenti dulu 1 hari, dst.\r\n-Stroke rin/sedang biasanya cukup 2-8x minum\r\n-Stroke berat bisa sampai 20x minum","rating":0}
{"no":0,"title":"Capsul herbal pembe-sar dan pe-manjan-ng al-at vi-tal pri-a","price":"250.000","seller":"AgenHerbalis","sellerPlace":"Jakarta Selatan","url":"https://www.bukalapak.com/p/kesehatan-2359/obat-suplemen/obat-obatan/kmxr6n-jual-capsul-herbal-pembe-sar-dan-pe-manjan-ng-al-at-vi-tal-pri-a?from=&product_owner=normal_seller","sold":358,"seen":25278,"favorite":539,"updated":"2019-10-15 11:06:25","description":"BELI 2 BONUS 1\r\n\r\nSTOK READY .....!!!! \r\n\r\n\" O-BAT HERBAL GOLD NUTRITION TRIBULUS TERRESTRIS AMPUH 100% HERBAL INI SUDAH TERBUKTI TERUJI SECARA KLINIES MENGOBATI L3MAH 5YAHW4T, 3JAKULAS! D!N! SECARA ALAMI SEMBUH TOTAL TANPA EFEK SAMPING \" \r\n\r\nGOLD NUTRITION TRIBULUS TERRESTRIS Sebagai Solusi Alami Untuk Mengembalikan Stamina Dan V!tal!tas Anda. Hindarilah Ragam Obat Ku=at Berbahaya Yang Bisa Merusak Organ Dalam Tubuh Serta Dapat Mengganggu Dan Melemahkan Jantung. Selain Untuk Menjaga Dan Meningkatkan Stamina Pria, \r\nOB4T GOLD NUTRITION TRIBULUS TERRESTRIS. Suplemen Pembesar Mr. Pria Alami Juga Mampu Bekerja Ganda Dengan Cara Memperbaiki Dan Meningkatkan Kesehatan Seluruh Fungsi Tubuh, Serta Menguatkan Jantung, Ginjal, Dan Limpa. \r\nBERBAGAI MACAM KHASIAT DAN MANFAAT SERTA FUNGSI OB4T GOLD NUTRITION TRIBULUS TERRESTRIS ORIGINAL .\r\n- Memperbesar Dan Memperpanjang MR. Pria\r\n- Memaperlama Hubungan 5ek5ual!tas . - Mengobati 3jakulasi D!n! .\r\n- Mengobati L3mah 5yahwat.\r\n- Memperlancar Sirkulasi Darah. \r\n- Memperbaiki Sistem L!b!do.\r\n- Mengembalikan Stamina 3reks!. \r\n- Memaksimalkan Daya 3reks! Mr. pria. \r\n- Memperlama Keluarnya 5perma. \r\n\r\nPASTIKAN ANDA MENDAPATKAN OBAT ASLI HANYA DI TEMPAT KAMI DEMI KESEHATAN\r\nHATI - HATI DENGAN OBAT PALSU YANG BEREDAR, JANGAN ANDA TERGIUR DENGAN HARGA MURAH YANG NANTI AKAN MEMBAHAYAKAN KESEHATAN ANDA, JADILAH KONSUMEN YANG PINTAR \"","rating":0}
{"no":0,"title":"Obat Telat Bulan - Paket 1 Kompliet","price":"750.000","seller":"Alficy Store by Alenna Farma","sellerPlace":"Indramayu","url":"https://www.bukalapak.com/p/kesehatan-2359/obat-suplemen/obat-obatan/29j2tkd-jual-obat-telat-bulan-paket-1-kompliet?from=&product_owner=normal_seller","sold":23,"seen":1300,"favorite":18,"updated":"2019-10-15 13:51:27","description":"PENTING!!! Mohon agar Deskripsi Di baca sampai selesai.\r\n\r\nSelamat datang di lapak kami Alficy Store, Kami menawarkan solusi tepat untuk Anda, tentang cara menuntaskan masalah yg sedang Anda hadapi saat ini.Jaminan produk berkualitas baik, di sajikan sudah dengan Resep dokter, Sangat Aman untuk di konsumsi,Pemakaian mudah, Bisa di lakukan sendiri, Resiko dan Efek samping yg Minim.Selamat berbelanja, Semoga Bermanfaat.\r\n\r\nPaket 1 Terdiri dari : 4 tablet Cytotex,6 Kapsul pembersih rahim,4 Pereda nyeri saat kontraksi,4 tablet Antibiotik untuk mencegah infeksi pada rahim.\r\n\r\nUntuk aturan pakainya kami informasikan setelah barang sampai ke tangan Anda.\r\n\r\nPenting!!! Sebelum melakukan pemesanan,Kami sangat sarankan agar Anda konsultasi terlebih dahulu.\r\n\r\nCatatan : Produk Asli dan Deskripsi barang sesuai foto.\r\n\r\nUntuk pengiriman melalui J&T Senin-Minggu batas kirim pukul 19:30.\r\nUNTUK PENGIRIMAN MELALUI Expedisi J&T,AGAR TIDAK MENGGUNAKAN RESI OTOMATIS,AGAR KETERANGAN BARANG BISA kasih.\r\n\r\nTips : Hindari pembelian dengan mengalihkan transaksi pembelian melalui WA,SMS,Telp.Transaksi Aman dan nyaman hanya melalui BukaLapak.Terima kasih.\r\n\r\nAlenna Farma tidak membuka toko lain, selain rekan mitra : Alficy Store, All Farmacy, & Mitra Sehat.\r\n\r\nStop!!! Menggunakan foto tanpa izin, Alenna Farma sangat Wellcome Menerima Dropship.","rating":0}
{"no":0,"title":"Obat Telat Bulan - Paket 2 Kompliet","price":"1.150.000","seller":"Alficy Store by Alenna Farma","sellerPlace":"Indramayu","url":"https://www.bukalapak.com/p/kesehatan-2359/obat-suplemen/obat-obatan/29jjmki-jual-obat-telat-bulan-paket-2-kompliet?from=&product_owner=normal_seller","sold":29,"seen":1516,"favorite":18,"updated":"2019-10-14 18:18:53","description":"PENTING!!! Mohon agar Deskripsi Di baca sampai selesai.\r\n\r\n\r\n\r\nSelamat datang di lapak kami Alficy Store, Kami menawarkan solusi tepat untuk Anda, tentang cara menuntaskan masalah yg sedang Anda hadapi saat ini.Jaminan produk berkualitas baik, di sajikan sudah dengan Resep dokter, Sangat Aman untuk di konsumsi,Pemakaian mudah, Bisa di lakukan sendiri, Resiko dan Efek samping yg Minim.Selamat berbelanja, Semoga Bermanfaat.\r\n\r\n\r\n\r\nPaket 2 Terdiri dari :\r\n\r\n\r\n\r\n6 tablet Cytotex,\r\n\r\n\r\n\r\n8 Kapsul pembersih rahim,\r\n\r\n\r\n\r\n4 Pereda nyeri saat kontraksi,\r\n\r\n\r\n\r\n6 tablet Antibiotik untuk mencegah infeksi pada rahim.\r\n\r\n\r\n\r\nUntuk aturan pakainya kami informasikan setelah barang sampai ke tangan Anda.\r\n\r\n\r\n\r\nPenting!!! Sebelum melakukan pemesanan,Kami sangat sarankan agar Anda konsultasi terlebih dahulu.\r\n\r\n\r\n\r\nCatatan : Produk dan Deskripsi barang sesuai foto.\r\n\r\n\r\n\r\nUntuk pengiriman melalui J&T Senin-Minggu batas kirim pukul 19:30\r\n\r\n\r\n\r\nUNTUK PENGIRIMAN MELALUI Expedisi J&T,AGAR TIDAK MENGGUNAKAN RESI OTOMATIS,AGAR KETERANGAN BARANG BISA DI kasih.\r\n\r\n\r\n\r\nTips : Hindari pembelian dengan mengalihkan transaksi pembelian melalui WA,SMS,Telp.Transaksi Aman dan nyaman hanya melalui BukaLapak.Terima kasih.\r\n\r\n\r\n\r\nAlenna Farma tidak membuka toko lain, selain rekan mitra : Alficy Store, All Farmacy, & Mitra Sehat.\r\n\r\nStop!!! Menggunakan foto tanpa izin, Alenna Farma sangat Wellcome Menerima Dropship.","rating":0}
{"no":0,"title":"Obat Telat Bulan - Paket 3 Kompliet","price":"1.300.000","seller":"Alficy Store by Alenna Farma","sellerPlace":"Indramayu","url":"https://www.bukalapak.com/p/kesehatan-2359/obat-suplemen/obat-obatan/29jka18-jual-obat-telat-bulan-paket-3-kompliet?from=&product_owner=normal_seller","sold":10,"seen":682,"favorite":13,"updated":"2019-10-15 08:04:01","description":"PENTING!!! Mohon agar Deskripsi Di baca sampai selesai.\r\n\r\n\r\n\r\nSelamat datang di lapak kami Alficy Store, Kami menawarkan solusi tepat untuk Anda, tentang cara menuntaskan masalah yg sedang Anda hadapi saat ini.Jaminan produk berkualitas baik, di sajikan sudah dengan Resep dokter, Sangat Aman untuk di konsumsi,Pemakaian mudah, Bisa di lakukan sendiri, Resiko dan Efek samping yg Minim.Selamat berbelanja, Semoga Bermanfaat.\r\n\r\n\r\n\r\nPaket 3 Terdiri dari :\r\n\r\n\r\n\r\n8 tablet Cytotex,\r\n\r\n\r\n\r\n8 Kapsul pembersih rahim,\r\n\r\n\r\n\r\n6 Pereda nyeri saat kontraksi,\r\n\r\n\r\n\r\n6 tablet Antibiotik untuk mencegah infeksi pada rahim.\r\n\r\n\r\n\r\nUntuk aturan pakainya kami informasikan setelah barang sampai ke tangan Anda.\r\n\r\n\r\n\r\nPenting!!! Sebelum melakukan pemesanan,Kami sangat sarankan agar Anda konsultasi terlebih dahulu.\r\n\r\n\r\n\r\nCatatan : Produk dan Deskripsi barang sesuai foto.\r\n\r\n\r\n\r\nUntuk pengiriman melalui J&T Senin-Minggu batas kirim pukul 19:30\r\n\r\n\r\n\r\nUNTUK PENGIRIMAN MELALUI Expedisi J&T,AGAR TIDAK MENGGUNAKAN RESI OTOMATIS,AGAR KETERANGAN BARANG BISA DI kasih.\r\n\r\n\r\n\r\nTips : Hindari pembelian dengan mengalihkan transaksi pembelian melalui WA,SMS,Telp.Transaksi Aman dan nyaman hanya melalui BukaLapak.Terima kasih.\r\n\r\n\r\n\r\nAlenna Farma tidak membuka toko lain, selain rekan mitra : Alficy Store, All Farmacy, & Mitra Sehat.\r\n\r\nStop!!! Menggunakan foto tanpa izin, Alenna Farma sangat Wellcome Menerima Dropship.","rating":0}
{"no":0,"title":"Obat Telat Bulan - Paket 4 Kompliet","price":"1.500.000","seller":"Alficy Store by Alenna Farma","sellerPlace":"Indramayu","url":"https://www.bukalapak.com/p/kesehatan-2359/obat-suplemen/obat-obatan/2c09zqd-jual-obat-telat-bulan-paket-4-kompliet?from=&product_owner=normal_seller","sold":0,"seen":135,"favorite":0,"updated":"2019-10-10 22:17:50","description":"PENTING!!! Mohon agar Deskripsi Di baca sampai selesai.\r\n\r\n\r\n\r\nSelamat datang di lapak kami Alficy Store, Kami menawarkan solusi tepat untuk Anda, tentang cara menuntaskan masalah yg sedang Anda hadapi saat ini.Jaminan produk berkualitas baik, di sajikan sudah dengan Resep dokter, Sangat Aman untuk di konsumsi,Pemakaian mudah, Bisa di lakukan sendiri, Resiko dan Efek samping yg Minim.Selamat berbelanja, Semoga Bermanfaat.\r\n\r\n\r\n\r\nPaket 4 Terdiri dari :\r\n\r\n\r\n\r\n10 tablet Cytotex,\r\n\r\n\r\n\r\n10 Kapsul pembersih rahim,\r\n\r\n\r\n\r\n8 Pereda nyeri saat kontraksi,\r\n\r\n\r\n\r\n8 tablet Antibiotik untuk mencegah infeksi pada rahim.\r\n\r\n\r\n\r\nUntuk aturan pakainya kami informasikan setelah barang sampai ke tangan Anda.\r\n\r\n\r\n\r\nPenting!!! Sebelum melakukan pemesanan,Kami sangat sarankan agar Anda konsultasi terlebih dahulu.\r\n\r\n\r\n\r\nCatatan : Produk dan Deskripsi barang sesuai foto.\r\n\r\n\r\n\r\nUntuk pengiriman melalui J&T Senin-Minggu batas kirim pukul 19:30\r\n\r\n\r\n\r\nUNTUK PENGIRIMAN MELALUI Expedisi J&T,AGAR TIDAK MENGGUNAKAN RESI OTOMATIS,AGAR KETERANGAN BARANG BISA DI kasih.\r\n\r\n\r\n\r\nTips : Hindari pembelian dengan mengalihkan transaksi pembelian melalui WA,SMS,Telp.Transaksi Aman dan nyaman hanya melalui BukaLapak.Terima kasih.\r\n\r\n\r\n\r\nAlenna Farma tidak membuka toko lain, selain rekan mitra : Alficy Store, All Farmacy, & Mitra Sehat.\r\n\r\nStop!!! Menggunakan foto tanpa izin, Alenna Farma sangat Wellcome Menerima Dropship.","rating":0}
{"no":0,"title":"Obat Telat Bulan - Paket 5 Kompliet","price":"2.100.000","seller":"Alficy Store by Alenna Farma","sellerPlace":"Indramayu","url":"https://www.bukalapak.com/p/kesehatan-2359/obat-suplemen/obat-obatan/2c0aq0d-jual-obat-telat-bulan-paket-5-kompliet?from=&product_owner=normal_seller","sold":3,"seen":170,"favorite":2,"updated":"2019-10-15 00:36:41","description":"&lt;p>PENTING!!! Mohon 