{"no":0,"title":"yunnan baiyao kapsul obat sipilis raja singa kencing bernanah dan antibiotik isi 16 kapsul - AMPUH","price":"135.000","seller":"Rembulan88","sellerPlace":"Jakarta Selatan","url":"https://www.bukalapak.com/p/kesehatan-2359/obat-suplemen/obat-obatan/at1vwo-jual-yunnan-baiyao-kapsul-obat-sipilis-raja-singa-kencing-bernanah-dan-antibiotik-isi-16-kapsul-ampuh?from=&product_owner=normal_seller","sold":21,"seen":1036,"favorite":8,"updated":"2019-09-27 13:03:38","description":"Obat Sipilis-raja Singa-kencing Nanah-ampuh Herbal alami\r\nready 24 jam nonstop\r\n\r\nNFO WAJIB DI BACA..................!!!\r\n\r\nUntuk anda yang mengidap Penyakit Sipilis/Raja Singa, Segera obati Penyakit anda dengan Produk Herbal Kami,.... sebelum penyakit bertambah parah.\r\n\r\n================================================\r\n\r\nObat Sipilis ini merupakan obat herbal Ampuh yang diracik khusus untuk mengobati penyakit Sipilis.\r\n\r\nMencari Obat Sipilis , Obat Sipilis herbal mungkin menjadi jawaban Anda. Obat ini telah dipercaya oleh ratusan orang bahkan ribuan orang yang telah membuktikan ke ampuhannya. Penyebab Sipilis adalah virus yang biasa disebut Human Papiloma Virus atau disingkat menjadi HPV.\r\n\r\nVirus ini menghinfeksi lapisan permukaan kulit sehingga kutil bisa berada pada kulit. Ada lebih dari 100 jenis virus HPV, tetapi hanya beberapa yang dapat menyebabkan Sipilis.\r\n\r\nSipilis ini perlu Anda waspadai, karena penyakit Sipilis merupakan penyakit menular. Sebaiknya segera melakukan pengobatan Sipilis Anda dan jangan biarkan penyakit Sipilis Anda terus tumbuh dan membesar dibagian kelamin.\r\n\r\nGEJALA PENYAKIT SIPILIS / KENCING NANAH:\r\n~ Perasa' an nyeri seperti terbakar waktu buang air kecil\r\n~ sering buang air kecil dengan warna urine kekuning-kuningan/ kehijau2an\r\n~ pada pria ujung zakar merah / bengkak sedangkan pada wanita kelenjar2 disekitar lubang terasa panas dan membengkak\r\n~ pengeluaran getah yang menahun bisa terjadi pada laki2 maupun wanita\r\n~ selama taraf akut, perasa' an tidak enak dan nyeri terasa sekali.\r\n\r\nATURAN MINUM: \r\n2 X sehari 4 2 dan malam sebelum tidur 2\r\n\r\nBPOM TI.074 325 421\r\nisi: 18 kapsul\r\nEXPIRED 2019","rating":0}
{"no":0,"title":"obat nyeri otot dan nyeri sendi flex amove","price":"215.000","seller":"dina","sellerPlace":"Jakarta Pusat","url":"https://www.bukalapak.com/p/kesehatan-2359/obat-suplemen/obat-obatan/2cvcb79-jual-obat-nyeri-otot-dan-nyeri-sendi-flex-amove?from=&product_owner=normal_seller","sold":1,"seen":58,"favorite":3,"updated":"2019-10-15 06:08:35","description":"Flexamove Adalah Obat Sendi Terbaik Dan Alami Yang Mampu Menjadikan Sendi. Kembali Kuat Dan Normal Kembali.\r\n\r\nTERBUAT DARI BAHAN ALAMI !!!\r\n\r\nMengandung vitamin A dan E yang sangat tinggi, namun sepenuhnya aman, mempercepat proses regenerasi tulang dan sendi.\r\n\r\nProporsi ekstrak bahan yang sesuai - secara teratur dikirim ke tubuh - memberi makan sel tulang dan meningkatkan produksi cairan sinovial yang mengisi ruang di antara tulang-tulang di sendi. Jumlah pelumas yang tepat menghilangkan rasa sakit pada persendian, dan selanjutnya melindungi dan merawat terhadap kerusakan mikro lebih lanjut.\r\n\r\nPemakaian secara teratur menghilangkan rasa sakit yang menyiksa, memperkuat tulang dan membuat tubuh itu sendiri mulai memproduksi tulang rawan artikular. Ini adalah resep untuk kesehatan dan sendi yang kuat untuk orang-orang dari segala umur - terlepas dari tingkat aktivitas fisik (juga untuk atlet).\r\n\r\nFungsi FlexaMove :\r\n- Memelihara kesehatan fungsi tulang dan persendian\r\n- Mengobati rasa kaku dan nyeri sendi dan tulang\r\n- Menurunkan kolesterol\r\n- Mengobati sakit maag\r\n- Mempercepat penyembuhan luka\r\n- Memelihara kesehatan kulit\r\n\r\n\r\nAturan Pakai : 2 Kapsul / Hari Setelah Makan\r\n\r\nGunakan Rutin.\r\nDan Rasakan Hasilnya...!!","rating":0}
{"no":0,"title":"flex amove obat nyeri sendi dan tulang bukan imove","price":"200.000","seller":"nita","sellerPlace":"Jakarta Selatan","url":"https://www.bukalapak.com/p/kesehatan-2359/obat-suplemen/obat-obatan/2cvdc0h-jual-flex-amove-obat-nyeri-sendi-dan-tulang-bukan-imove?from=&product_owner=normal_seller","sold":0,"seen":18,"favorite":0,"updated":"2019-10-14 07:04:46","description":"Flexamove Adalah Obat Sendi Terbaik Dan Alami Yang Mampu Menjadikan Sendi. Kembali Kuat Dan Normal Kembali.\r\n\r\nTERBUAT DARI BAHAN ALAMI !!!\r\n\r\nMengandung vitamin A dan E yang sangat tinggi, namun sepenuhnya aman, mempercepat proses regenerasi tulang dan sendi.\r\n\r\nProporsi ekstrak bahan yang sesuai - secara teratur dikirim ke tubuh - memberi makan sel tulang dan meningkatkan produksi cairan sinovial yang mengisi ruang di antara tulang-tulang di sendi. Jumlah pelumas yang tepat menghilangkan rasa sakit pada persendian, dan selanjutnya melindungi dan merawat terhadap kerusakan mikro lebih lanjut.\r\n\r\nPemakaian secara teratur menghilangkan rasa sakit yang menyiksa, memperkuat tulang dan membuat tubuh itu sendiri mulai memproduksi tulang rawan artikular. Ini adalah resep untuk kesehatan dan sendi yang kuat untuk orang-orang dari segala umur - terlepas dari tingkat aktivitas fisik (juga untuk atlet).\r\n\r\nFungsi FlexaMove :\r\n- Memelihara kesehatan fungsi tulang dan persendian\r\n- Mengobati rasa kaku dan nyeri sendi dan tulang\r\n- Menurunkan kolesterol\r\n- Mengobati sakit maag\r\n- Mempercepat penyembuhan luka\r\n- Memelihara kesehatan kulit\r\n\r\n\r\nAturan Pakai : 2 Kapsul / Hari Setelah Makan\r\n\r\nGunakan Rutin.\r\nDan Rasakan Hasilnya...!!","rating":0}
{"no":0,"title":"Royal Honey Etumax VIP","price":"350.000","seller":"Royal Honey Center","sellerPlace":"Jakarta Selatan","url":"https://www.bukalapak.com/p/kesehatan-2359/obat-suplemen/obat-obatan/ws45ec-jual-royal-honey-etumax-vip?from=&product_owner=normal_seller","sold":14,"seen":733,"favorite":7,"updated":"2019-10-15 14:19:23","description":"Hati-hati terhadap barang palsu atau oplosan, garansi/jaminan keaslian hanya di Royal Honey Center. jaminan uang kembali jika palsu. \r\n\r\n\r\nRoyal Honey Vip adalah sumber energi instan untuk meningkatkan vitalitas pria. Madu murni diperkaya dengan campuran rempah-rempah hutan hujan pilihan (Tongkat Ali dan Ginseng). Madu bergizi yang diperkaya dengan biomolekul vital dalam larva lebah. Campuran madu ini adalah sumber energi yang luas untuk pembentukan tubuh yang tepat dan keajaiban dalam pengobatan impotensi dan sterilitas seksual. \r\n\r\nFITUR PRODUK:\r\nMerek: Royal \r\nUkuran: 10g/sachet\r\nKemasan: kotak/box\r\nJumlah isi: 12 sachet/box \r\nGender: Pria \r\n\r\nDETAIL:\r\nMembantu aktivitas seksual yang istimewa \r\nMengobati ejakulasi dini dan hubungan seksual yang singkat \r\nSumber energi instan yang kaya protein, asam amino, vitamin, enzim pencernaan dan metabolisme \r\nMeningkatkan penyerapan nutrisi dan metabolisme \r\nMendukung sistem kekebalan tubuh \r\nMeningkatkan sirkulasi darah\r\nMeningkatkan fungsi memori dan otak\r\n\r\nselamat berbelanja","rating":0}
{"no":0,"title":"Obat Kuat Penambah Stamina Dewasa Muncord Tiens Strongman","price":"470.000","seller":"Zhafira","sellerPlace":"Jakarta Timur","url":"https://www.bukalapak.com/p/kesehatan-2359/obat-suplemen/obat-obatan/1zjeq0x-jual-obat-kuat-penambah-stamina-dewasa-muncord-tiens-strongman?from=&product_owner=normal_seller","sold":0,"seen":90,"favorite":1,"updated":"2019-10-15 14:08:38","description":"Isi dalam Paket:\r\n1 botol Muncord Capsules (Cordyceps Tiens) isi 100 kapsul.\r\n\r\nCara pakai:\r\n* Muncord diminum 2x4 kapsul setelah makan.\r\n* Zinc diminum 2x3 kapsul sebelum makan.\r\nPerlu diperhatikan :\r\nBerikan jarak 3-4 jam ketika konsumsi ke 2 produk tersebut (ex: minum muncord terlebih dahulu kemudian 3-4jam berikutnya baru minum zinc atau sebaliknya) begitu juga jika sedang mengkonsumsi obat2an lain atau dokter.\r\n\r\n-&amp;amp;gt; Cordyceps Micellium (MUNCORD Capsules Tiens) adalah cendawan yang tumbuh di dataran tinggi, mengandung 7% cordyceps sinensis, 25% protein, 8,4% lemak (diantaranya 82,2% merupakan asam lemak tak jenuh), 20 jenis asam amino, vitamin, mineral, oegesterol, hexoserol, dan berbagai enzim biologis lainnya.\r\nCordyceps Mycellium memiliki rasa hambar, bersifat hangat, berfungsi sama seperti ginseng, meningkatkan energi, baik untuk paru-paru dan ginjal, menghentikan pendarahan, menghilangkan radang. Dapat digunakan untuk mengatasi batuk kronis, asma, keringat berlebihan, lemah syahwat, mempercepat pemulihan dari sakit, memperkuat daya imunitas tubuh.\r\n\r\n-&amp;amp;gt; Zinc Laktat adalah jenis garam zinc yang larut dalam air. Zinc laktat dikenal sebagai bahan baku supplemen zinc yang terbaik karena memiliki daya serap sangat tinggi, tidak terpengaruh oleh garam dan asam nabati.\r\nBubuk protein telur (Egg protein powder) berguna untuk meningkatkan penyerapan zinc.\r\nGlukosa berfungsi sebagai pembawa supplemen zinc.\r\nZinc erat kaitannya dengan kerja dan fungsi sistem reproduksi. Zinc mempengaruhi metabolisme, aktivitas sperma, dan perkembangan kelenjar seksuaI. Defisiensi zinc akan menyebabkan fungsi otak terpengaruh dan mengurangi sekresi hormon seksuaI, mengganggu perkembangan kelenjar seksuaI, dan pada akhirnya akan menghambat sekresi kelenjar seksuaI.\r\nZinc juga turut serta dalam pembentukan 80 enzim di dalam tubuh\r\n\r\nTIDAK ADA EFEK SAMPING!! 100% SUPPLEMENT HERBAL.....\r\n\r\n**Disclaimer : hasil setiap orang berbeda tergantung metabolisme tubuhnya.\r\n\r\n1. No. BPOM Zinc : SL.112.300.711\r\nNo. BPOM Muncord : TL.. Sertifikat HALAL MUI untuk semua produk Tiens Syariah dan sistem produksinya.","rating":0}
{"no":0,"title":"MADU RANDU MURNI","price":"74.900","seller":"BELANJA VIRTUAL","sellerPlace":"Semarang","url":"https://www.bukalapak.com/p/kesehatan-2359/obat-suplemen/obat-obatan/1dtz27-jual-madu-randu-murni?from=&product_owner=normal_seller","sold":228,"seen":14965,"favorite":1549,"updated":"2019-10-15 12:05:56","description":"PRODUK READY STOK RATUSAN BOTOL\r\n\r\n\r\nmaduasli\r\n\r\nmadu asli\r\n\r\n\r\nmadu asli\r\n\r\n\r\nmadumurni\r\n\r\nmadu murni\r\n\r\n\r\nDapatkan harga promo dengan menjadikan produk dalam daftar favorit kamu\r\n\r\n\r\nkandungan air sekitar 23% sehingga mungkin agak encer bagi anda penikmat madu yang biasa kental\r\n\r\n\r\nmadu murni 100%\r\n\r\n\r\nMADU MURNI BUNGA RANDU\r\n\r\n\r\nNetto: 1kg\r\n\r\n\r\nMadu Asli,\r\n\r\n\r\ndari perut lebah itu keluar minuman (madu) yang bermacam-macam warnanya, di dalamnya terdapat obat yang menyembuhkan bagi manusia. Sesungguhnya yang demikian itu benar-benar terdapat tanda (kebesaran Alloh) bagi orang-orang yang memikirkan. (QS. An-Nahl: 69)\r\n\r\n\r\nBerbagai penelitian di banyak belahan dunia yang dilakukan oleh para ilmuwan dan akademisi untuk menguak kandungan dan khasiat-khasiat madu telah membuktikan kebenaran itu secara ilmiah. Madu adalah sumber makanan terbaik untuk kesehatan. Hampir semua zat yang dibutuhkan oleh tubuh manusia terkandunng didalamnya. Tiap jenis madu mengandung prosentase zat yang berbeda sesuai dengan sari bunga yang dihisapnya.\r\n\r\n\r\nMadu murni MABRUUK:\r\n\r\n\r\n\r\nBenar-benar Aseli tanpa campuran.\r\n\r\nMelewati beberapa tahap pengecekan sebelum dikemas.\r\n\r\nTanpa proses pemanasan sehingga kandungan khasiatnya terjaga.\r\n\r\nTerdaftar di DINKES P-IRT No.: 209331101288.\r\n\r\nTerdaftar di LP POM MUI No.: 12130000650609.\r\n\r\nLebih layak untuk diutamakan.\r\n\r\n\r\n","rating":0}
{"no":0,"title":"Bai Feng Wan - Pak Fung Pills ( Obat Penyubur Kandungan )","price":"250.000","seller":"Sehat Abadi","sellerPlace":"Jakarta Timur","url":"https://www.bukalapak.com/p/kesehatan-2359/obat-suplemen/obat-obatan/1ri4hg-jual-bai-feng-wan-pak-fung-pills-obat-penyubur-kandungan?from=&product_owner=normal_seller","sold":22,"seen":2073,"favorite":43,"updated":"2019-10-15 12:04:15","description":"Bai Feng Wan - Pak Fung Pills .\r\n\r\n# Produk dijamin 100% Original Asli\r\n# Produk Ready Stock.\r\n# Pengiriman Cepat &amp;amp;amp;amp;amp;amp;amp; Packing Rapih.\r\n\r\nKhasiat Dan Kegunaan :\r\n* Cocok untuk wanita segala usia.\r\n* Membantu melancarkan mensturasi\r\n* Menyuburkan Kandungan\r\n* Meredakan sakit pada Saat mensturasi\r\n* Mengatasi Keputihan\r\n* Mengobati Anemia, Pusing Dan Badan lemah.\r\n\r\nDosis :\r\n* Dilarutkan dalam air hangat atau sup ayam sesuai dengan Dosis yang dianjurkan :\r\n\r\n# Gangguang Haid : 1 pil setiap 2 Hari sekali selama 8-10 Hari sebelum Dan sesudah haid.\r\n\r\n# Keputihan : 1 pil setiap 2 Hari sekali, 10 pil untuk 1 Seri pengobatan.\r\n\r\n# Pemulihan setelah melahirkan : 1 pil setiap 2 Hari sekali, dianjurkan diminum bersama sup ayam (ayam kampung) hingga 20 Hari setelah melahirkan.\r\n\r\n# Kelemahan umum : 1 pil setiap 2 Hari sekali selama 2 bulan .\r\n\r\n# Kecantikan Dan Kesehatan : 1 pil , 2- 3 Kali setiap minggu.\r\n\r\nPERHATIAN :\r\n1. Jangan diminum Saat flu, Demam, Disentri.\r\n2. Selama minum obat inI Jangan makan makanan yang bersifat dingin Dan mentah.\r\n3. Jangan diminum Saat haid\r\n4. Dianjurkan banyak makan sayur Dan minum air selama pengobatan.\r\n\r\nKemasan :\r\n*Kaleng berisi 1 butir bola lilin 1 butir pil @ 16,9 gram\r\n\r\nPenyimpanan :\r\n* Simpan di tempat sejuk Dan kering. Bola lilin harus dalam kondisi baik untuk menjamin kemurnian Dan kesegarannya .\r\n\r\nAgen : PT. Intra Aries Jakarta\r\n\r\nMade in HONG KONG\r\n\r\nPOM TI 034 407 181","rating":0}
{"no":0,"title":"ALBUMIN KAPSUL KUTUK PREMIUM BERBPOM MUI SARI EKSTRAK IKAN GABUS OBAT LUKA PASCA OPERASI LUKA CEPAT KERING NYERI HILANG HERBAL BOOSTER ASI KOLAGEN","price":"230.000","seller":"HALAL HERBAL OFFICIAL","sellerPlace":"Cilacap","url":"https://www.bukalapak.com/p/kesehatan-2359/obat-suplemen/obat-obatan/15orn1f-jual-albumin-kapsul-kutuk-premium-berbpom-mui-sari-ekstrak-ikan-gabus-obat-luka-pasca-operasi-luka-cepat-kering-nyeri-hilang-herbal-booster-asi-kolagen?from=&product_owner=normal_seller","sold":1357,"seen":780,"favorite":21,"updated":"2019-10-15 10:36:05","description":"Bagi yang tidak sesuai pesan jumlah botol dan variasi harganya, mohon maaf pesanan anda tidak akan kami proses \r\n\r\n\r\n\r\nKapsul Kutuk Premium\r\n\r\n(Albumin Ikan Gabus Kualitas Premium)\r\n\r\n\r\n\r\n\r\n\r\nAlternatif untuk pengganti infus albumin yang sangat mahal\r\n\r\nPOM TR. 143 380 041\r\n\r\nHALLAL LP POM MUI\r\n\r\n\r\n\r\nDi produksi dengan perbandingan 20:1 dari 20kg ikan gabis, dibuat menjadi 1kg ekstrak albumin. \r\n\r\n\r\n\r\n\r\n\r\nMeningkatkan kadar albumin dan Daya Tahan Tubuh\r\n\r\nMempercepat proses penyembuhan pasca operasi\r\n\r\nMempercepat penyembuhan luka dalam / luka luar\r\n\r\nMembantu proses penyembuhan pada penyakit: Hepatitis, TBC/Infeksi paru, Nephotric Syindrome, Tonsilitis, Thypus, Diabetes, patah tulang Gasiritis, ITP, HIV, Sepsis, Stroke, Thalasemia minor.\r\n\r\nMembantu menghilangkan Oedem (pembengkakan)\r\n\r\nMemperbaiki gizi buruk pada bayi, anak dan ibu hamil\r\n\r\n~perlancar ASI\r\n\r\n\r\n\r\nCocok dikonsumsi bagi orang SEHAT agar LEBIH SEHAT (untuk menjaga kadar albumin dalam tubuh)\r\n\r\n\r\n\r\n1 botol = 1/2 Infus Albumin Rumah Sakit\r\n\r\nCukup 230.000 saja, daripada anda harus merogoh kocek sampai JUTAAN\r\n\r\n\r\n\r\nAturan Minum :\r\n\r\nDewasa : 3x sehari 2 kapsul\r\n\r\nAnak-anak : 2x sehari 1-2 kapsul\r\n\r\nDi minum 1 jam sebelum akan atau 2 jam sesudah makan\r\n\r\n\r\n\r\nAMAN DIKONSUMSI IBU HAMIL DAN MENYUSUI ;)\r\n\r\n\r\n\r\n#kapsulkutuk #protabumin #obatpascaoperasi #obatalbumin #albumin #kutuk #obatlukaoperasi #obatlukacaesar #pelancarasi #obatpelancarasi #asibooster","rating":0}
{"no":0,"title":"Penis-Pembesar-Minyak-Obat-Ajib","price":"240.000","seller":"HERBA SHOP","sellerPlace":"Jakarta Selatan","url":"https://www.bukalapak.com/p/kesehatan-2359/obat-suplemen/obat-obatan/1sudhmu-jual-penis-pembesar-minyak-obat-ajib?from=&product_owner=normal_seller","sold":184,"seen":746,"favorite":26,"updated":"2019-10-15 12:10:03","description":"................................... BARANG READY STOK ..........................\r\n\r\n# PRODUK DIJAMIN ORIGINAL 100 Ber-HOLOGRAM \r\n# PRIVASI DIJAMIN AMAN DAN TERJAGA KERAHASIAANNYA \r\n# PENGIRIMAN CEPAT\r\n# SUPLAIER TANGAN PERTAMA, DIJAMIN ORI DAN HARGA LEBIH TERJANGKAU\r\n\r\n..... FUNGSI UTAMA ....\r\n\r\nMEMBANTU MEMBUAT ALATVITALL PRIA MAKIN BESAR DAN BERTENAGA\r\n\r\n...... CARA PAKAI .......\r\n\r\nCUKUP DIOLES RATA KE BAGIAN BATANGNYA SAJA. JANGAN SAMPAI KE KEPALANYA\r\n\r\nTIITANGEL ORIGINAL 100\r\nISI: 50ML\r\nPOM NA: 18171600027\r\nDIPRODUKSI: PT. SJAGLOBAL COSMINDO, BOGOR\r\n\r\nPRIVASI KAMI JAGA AMAN\r\nNama barang tidak kami cantumkan. hanya nama dan alamat penerima saja","rating":0}
{"no":0,"title":"KOSAGI SUPLEMEN MINUMAN KUAT DIRANJANG SAMPAI PAGI","price":"199.000","seller":"Gelang Kopi Jogja","sellerPlace":"Tangerang Selatan","url":"https://www.bukalapak.com/p/kesehatan-2359/obat-suplemen/obat-obatan/23abnu9-jual-kosagi-suplemen-minuman-kuat-diranjang-sampai-pagi?from=&product_owner=normal_seller","sold":31,"seen":1268,"favorite":35,"updated":"2019-10-15 12:05:33","description":"READY STOCK\r\n============\r\n\r\nAnda punya masalah diranjang ? \r\nBelum waktunya udah kelar duluan ..\r\nIstri gak terpuaskan ....\r\n\r\nIni saya kenalin produk herbal demi keharmonisan anda diranjang , namanya KOSAGI (K0nak Sampe Pagi)\r\nSuplemen herbal ini terbuat dari bahan alami yang komposisinya dari :\r\n\r\nTongkat ali\r\nPanax gingseng\r\nExtract madu hutan\r\n\r\nSuplemen kami beda dengan madu2 lain nya yg lebih mengutamakan harga mahal.\r\nSilahkan di coba dan buktikan sendiri. \r\n\r\n1 BOX Isi 5 Sashet\r\n\r\nDiminum 2-3 Jam sebelum Berhubungan supaya hasil maksimal\r\n\r\nDiproduksi Oleh : PT SUMBER ALAM TROPIS\r\nSert Ketahanan Pangan : 1108.33.055.15\r\nIzin Produksi : 3305.08.48.2017\r\nIzin Industri : 1093305091052 22\r\nSertifikat HALAL : HA5B1606/82018/AMK\r\n\r\n\r\n*Penderita hipertensi dan jantung tidak dianjurkan*","rating":0}
{"no":0,"title":"herbal kuat .","price":"330.000","seller":"OBAT KUAT 99","sellerPlace":"Jakarta Utara","url":"https://www.bukalapak.com/p/kesehatan-2359/obat-suplemen/obat-obatan/22dwsr9-jual-herbal-kuat?from=&product_owner=normal_seller","sold":41,"seen":186,"favorite":47,"updated":"2019-10-07 15:20:21","description":"Ready stok Happy Shoping,.......................\r\nisi 30 butir\r\nKami suplyer obat herbal Terpercaya....!!! Welcome Reseller dan Dropshiper. Cocok untuk Anda yg mau jual lagi...\r\nKami akan respon secepat mungkin, Langsung Order Saja...!! Barang semua READY,,, LANGSUNG KIRIM TANPA LAMA...!!!\r\n\r\nTerimakasih, Kepercayaanya Anda amanah Bagi kami, SMART BUYER..!!","rating":0}
{"no":0,"title":"Detoxic Obat Herbal Russia Original Guarantee","price":"315.000","seller":"Max Energy","sellerPlace":"Jakarta Selatan","url":"https://www.bukalapak.com/p/kesehatan-2359/obat-suplemen/obat-obatan/1mu3m16-jual-detoxic-obat-herbal-russia-original-guarantee?from=&product_owner=normal_seller","sold":93,"seen":2343,"favorite":39,"updated":"2019-10-15 10:00:37","description":"SEMUA STOCK READY. JIKA TIDAK READY AKAN HILANG DR ETALASE. MOHON TIDAK TANYAKAN STOK SELAMA TOKO MSH ADA.\r\nDan Pasti dikirim Hari Ini\r\n\r\nBELI 3 OTOMATIS KIRIM 4\r\nTANPA PERLU DITANYAKAN\r\n\r\nGejala pertama yang menunjukkan adanya parasit di dalam tubuh:\r\n\r\nBau mulut;Reaksi alergi (ruam, mata berair, hidung meler);Ruam dan kemerahan pada kulit;Sering pilek, sakit tenggorokan, hidung tersumbat;Keletihan kronis (Anda cepat lelah melakukan sesuatu);Sering sakit kepala;Sembelit atau diare;Nyeri pada persendian dan otot;Sering merasa gugup, gangguan tidur, dan makan;Lingkaran hitam di bawah mata dan kantung mata.\r\n\r\nJika Anda merasakan setidaknya salah satu dari gejala yang tercantum di atas - dengan kemungkinan 99 persen dapat kita katakan bahwa ada parasit dalam tubuh Anda. Dan sangat penting bagi Anda untuk menyingkirkan parasit itu segera!\r\n\r\nDetoxicterbuat dari ekstrak Artemia, perpaduan unik dari empedu beruang, ekstrak Ferrule Junggar, jus buah sumak dan 20 bahan tambahan lainnya. Dalam proses pembuatan dan pengujian, produk ini terbukti sangat efektif. \r\n\r\nDetoxic adalah produk efektif yang bekerja dengan membantu kita menghilangkan semua parasit yang mungkin kita miliki dalam sistem kita dalam tiga puluh hari penggunaan sehari-hari atau kurang. \r\n\r\nDETOXIC ORIGINAL \r\n\r\nKemasan baru\r\nIsi 30 kapsul.\r\n\r\nCara pakai\r\n2x Sehari sesudah Makan","rating":0}
{"no":0,"title":"S lutena Obat Mata Minus Katarak S Lutein naturraly plus suplemen obat herbal Original Jepang","price":"765.000","seller":"Klinik Obat herbal","sellerPlace":"Jakarta Barat","url":"https://www.bukalapak.com/p/kesehatan-2359/obat-suplemen/obat-obatan/29o3s58-jual-s-lutena-obat-mata-minus-katarak-s-lutein-naturraly-plus-suplemen-obat-herbal-original-jepang?from=&product_owner=normal_seller","sold":163,"seen":87,"favorite":8,"updated":"2019-10-15 03:10:28","description":"Ready stok. obat kesehatan tubuh khususnya untuk mengobati penyakit mata minus, katarak, Dll.\r\n\r\n\r\n\r\nProduk jaminan asli. expired 08-01-2021/ epired terbaru. jika dalam kondisi sakit, maag. Disarankan mengkonsumsi 5-6 kapsul / hari.\r\n\r\n\r\n\r\n3 kapsul diminum sebelum tidur, dapat diselingi 1,5 jam dari makan malam, misal makan malam jam 19.00, maka konsumsi l u t e n a jam 20.30. Tujuannya supaya penyerapannya maksimal, karena perut kosong.\r\n\r\n\r\n\r\n2 atau 3 kapsul diminum setelah bangun tidur sebelum sarapan.\r\n\r\n\r\n\r\nUtk penderita kanker / penyakit kritis, disarankan konsumsi dlm jumlah yg lebih besar, misalnya 2 sampai 3 kali sehari, masing-masing 5 kapsul (total: 10-15 kapsul/hari). Setelah kondisi menunjukkan perbaikan, dosis boleh diturunkan secara bertahap, namun jangan terlalu cepat.\r\n\r\n\r\nUtk penderita penyakit yg sdh sangat kritis, boleh diberikan konsumsi hingga2-3 kapsul per 1-2 jam.\r\n\r\n\r\njika dalam keadaan sehat (utk menjaga kesehatan / mencegah penyakit), atau selama dalam proses pemulihan kesehatan.\r\n\r\n\r\n\r\nDisarankan konsumsi minimal 3-4 kapsul/hari. Sebaiknya dikonsumsi sebelum tidur.\r\n\r\n\r\nSebaiknya mengkonsumsi secara rutin, tidak putus dan selalu teratur waktu.\r\n\r\n\r\n1 botol isi 100 capsul.\r\n\r\n\r\n\r\n#slutein #slutena #obatmata","rating":0}
{"no":0,"title":"Imove obat herbal joint cure special mengatasi nyeri sendi tulang","price":"135.000","seller":"Klinik Obat herbal","sellerPlace":"Jakarta Barat","url":"https://www.bukalapak.com/p/kesehatan-2359/obat-suplemen/obat-obatan/29njwu9-jual-imove-obat-herbal-joint-cure-special-mengatasi-nyeri-sendi-tulang?from=&product_owner=normal_seller","sold":251,"seen":45,"favorite":9,"updated":"2019-10-15 03:10:25","description":"Original %\r\n\r\nTERBUAT DARI BAHAN ALAMI !!!\r\n\r\nMengandung vitamin A dan E yang sangat tinggi, namun sepenuhnya aman, mempercepat proses regenerasi tulang dan sendi. \r\nProporsi ekstrak bahan yang sesuai - secara teratur dikirim ke tubuh - memberi makan sel tulang dan meningkatkan produksi cairan sinovial yang mengisi ruang di antara tulang-tulang di sendi.\r\nJumlah pelumas yang tepat menghilangkan rasa sakit pada persendian, dan selanjutnya melindungi dan merawat terhadap kerusakan mikro lebih lanjut. Pemakaian secara teratur menghilangkan rasa sakit yang menyiksa, memperkuat tulang dan membuat tubuh itu sendiri mulai memproduksi tulang rawan artikular. \r\n\r\nIni adalah resep untuk kesehatan dan sendi yang kuat untuk orang-orang dari segala umur - terlepas dari tingkat aktivitas fisik (juga untuk atlet). \r\n\r\nFungsi iMove : \r\n- Memelihara kesehatan fungsi tulang dan persendian \r\n- Mengobati rasa kaku dan nyeri sendi dan tulang \r\n- Menurunkan kolesterol \r\n- Mengobati sakit maag \r\n- Mempercepat penyembuhan luka \r\n- Memelihara kesehatan kulit \r\n\r\nAturan pakai : 2 kapsul / hari setelah makan \r\nExpired date : 1 August 2021 \r\n\r\n#imove #imoveherbal#obatimove","rating":0}
{"no":0,"title":"obat penghilang tahi lalat kutil swiss paris lotion ORIGINAL","price":"51.900","seller":"megastand","sellerPlace":"Jakarta Pusat","url":"https://www.bukalapak.com/p/kesehatan-2359/obat-suplemen/obat-obatan/1dzna6x-jual-obat-penghilang-tahi-lalat-kutil-swiss-paris-lotion-original?from=&product_owner=normal_seller","sold":157,"seen":458,"favorite":14,"updated":"2019-10-12 20:04:18","description":"ORIGINAL yxbc7k7o\r\nKami distributor, produk selalu baru, order silakan via saja, atc bubble biar aman, no complain no return,\r\nresi super cepat, dropship super aman, bisa pakai pos.\r\n\r\nPERHATIAN! penggunaan obat ini untuk menghilangkan kutil/ mata ikan/ tahilalat yg menonjol atau timbul yang datar /skin tag TIDAK BISA\r\n\r\nADD BUBBLE dan KARDUS agar lebih aman , \r\npecah tidak ada penggantian loh !\r\n\r\nsegel terbaru ya lihat segel di botol nya gold tulisan swiss paris plg anyar \r\nswiss paris ready...monggo lgsg atc aja ya ga perlu ragu ex date 2022 ready stok\r\n\r\nSwiss paris memiliki ijin Dep. Kes. RI No. CD \r\n\r\nB. CARA PEMAKAIAN\r\n\r\nKocok / aduk terlebih dahulu, lalu gunakan tusuk gigi untuk dioleskan ke tahi lalat/ kutil yang akan dihilangkan. (jangan terlalu banyak & pelan-pelan agar tidak mengenai kulit sekitarnya)\r\n\r\nTunggu +- 15 menit jika perih tak tertahankan boleh dilap dangan kapas basah, lalu oleskan sekali lagi, biarkan semalaman.\r\n\r\njika keesokan hari belum copot, maka diulangi lagi pada malam berikutnya hingga copot. sekitar 1 s. d 10 harian, maka tahi lalat/kutil akan mengelupas dengan sendirinya.\r\n\r\nPerhatian!\r\nJangan mengoles dengan jari tangan, gunakan tusuk gigi agar olesan rapi & tidak mengenai kulit sekitar selain tahi lalat/kutil, jika saran saya diabaikan bisa berakibat meninggalkan bekas luka tambahan, alhasil bekas luka semakin terlihat walaupun nanti akan hilang dengan sendirinya.\r\n\r\nSiapkan obat anti infeksi (obat luka) Betadin atau obat luka bakar seperti Bioplacenton bisa dibeli juga di toko ini ya efek samping : meninggalkan bekas luka bisa diatasi dengan meilibahenling bisa beli disini ya \r\njika luka sudah sembuh dan meninggalkan bekas luka bisa order juga gan meilibahenling salep penghilang bekas luka nya di klik aja ini ya barang tersedia boss , langsung dipesan , akan segera kami proses","rating":0}
{"no":0,"title":"Saridon Obat Sakit Kepala 4 Tablet x 5 Unit","price":"19.000","seller":"Bayer Health","sellerPlace":"Jakarta Timur","url":"https://www.bukalapak.com/p/kesehatan-2359/obat-suplemen/obat-obatan/198kn5a-jual-saridon-obat-sakit-kepala-4-tablet-x-5-unit?from=&product_owner=seller_brand","sold":24,"seen":4935,"favorite":3,"updated":"2019-10-14 16:19:08","description":"Saridon Obat Sakit Kepala 4 Tablet x 5 Unit\r\n\r\nSaridon Obat Sakit Kepala\r\n\r\nKomposisi: \r\n1 tablet mengandung 250mg parasetamol, 150mg propifenason, 50mg kofein.\r\n\r\nIndikasi: \r\nMeringankan sakit kepala, sakit gigi. \r\n\r\nCara kerja obat: Analgesik\r\n\r\nDosis: \r\nDewasa dan anak-anak diatas 12 tahun: 1 tablet 3-4 kali sehari. \r\nAnak 6-12 tahun:1/2 - 1 tablet, 3-4 kali sehari. \r\nAtau sesuai petunjuk dokter. Sebaiknya diminum setelah makan, dengan air secukupnya. \r\n\r\nPerhatian: \r\nBila setelah 5 hari rasa sakit tidak berkurang segera hubungi dokter. Penggunaan obat ini pada penderita yang mengkonsumsi alkohol dapat meningkatkan resiko kerusakan fungsi hati. Hati-hati penggunaan obat ini pada penderita ginjal. \r\n\r\nEXP\r\n\r\n.\r\n.","rating":0}
{"no":0,"title":"jamu anak anak","price":"1.000","seller":"Capunk9466","sellerPlace":"Surabaya","url":"https://www.bukalapak.com/p/kesehatan-2359/obat-suplemen/obat-obatan/1qyym0y-jual-jamu-anak-anak?from=&product_owner=normal_seller","sold":1747,"seen":123,"favorite":0,"updated":"2019-09-18 08:45:19","description":"jamu anak anak buat kesehatan dan nafsu makan","rating":0}
{"no":0,"title":"Muscletech Nitrotech Whey 5lbs BPOM Nitro Tech Whey Protein","price":"830.000","seller":"INDO SUPLEMEN","sellerPlace":"Jakarta Pusat","url":"https://www.bukalapak.com/p/kesehatan-2359/obat-suplemen/obat-obatan/249skgt-jual-muscletech-nitrotech-whey-5lbs-bpom-nitro-tech-whey-protein?from=&product_owner=normal_seller","sold":57,"seen":30,"favorite":20,"updated":"2019-10-11 14:36:11","description":"EXP 2021 \r\nRASA CHOCO / POM MI 262331009648\r\n\r\nGratis ongkir untuk seluruh wilayah Jakarta dengan cara pilih Kurir Toko saat memilih pengiriman\r\n\r\nMuscletech Nitrotech adalah whey isolate yang dikhususkan untuk meningkatkan massa otot kering dan perform latihan, Nitrotech juga mengandung 3g Creatine dalam setiap sajiannya. Kombinasi 30 gram protein isolate dan creatine telah terbukti oleh studi yang dilakukan muscletech dapat meningkatkan massa otot kering 70% lebih banyak dibanding whey protein lain. Nitrotech juga mengandung 6.8 g BCAA dan 5 g glutamine dan prekursornya.\r\n\r\nKEUNGGULAN :\r\n\r\nMengandung 30 gram protein dan 3 gram creatine\r\nMengandung 6.9 gram BCAA dan 5.3 gram glutamine\r\nMenggunakan Whey Isolate dan peptida sebagai sumber protein utama\r\nMembangun massa otot bebas lemak 70% lebih banyak daripada whey biasa\r\nFormula yang lebih superior dibanding whey lainnya\r\nMeningkatkan recovery, performa dan kekuatan\r\n\r\nCARA PENGGUNAAN :\r\nCampurkan satu sendok Muscletech Nitrotech Performance kedalam 4 sampi 6 oz air atau susu. Sangat baik diminum sebelum makan siang dan setelah melakukan latihan fitness. \r\n\r\nMohon di baca dulu ya gan sebelum order, agar tidak terjadi kesalahpahaman.\r\n*GOJEK/GRAB/NINJA\r\nSenin - Sabtu\r\nMohon untuk melakukan transaksi sebelum pukul 13.00 jika ingin di pickup di hari yg sama, di atas jam 13.00 akan di pickup di hari berikutnya.\r\n\r\n*JNE/J&T/WAHANA\r\nSenin-Sabtu\r\nMohon untuk melakukan transaksi sebelum pukul 14.00 jika ingin di proses di hari yg sama, di atas jam 13.00 akan di proses di hari berikutnya.\r\n\r\nMINGGU LIBUR\r\n\r\nNOTE : Jika kalian butuh barang-nya segera di hari yg sama, mohon untuk menggunakan jasa pengiriman INSTANT (3jam).\r\nWalalupun ada SAMEDAY (6jam), terkadang driver sering menunda/cancel order karena alasan mereka sendiri. Kami tidak menerima komplain jika anda pesan menggunakan SAMEDAY namun barangnya di kirim keesokan harinya oleh driver bersangkutan, terima kasih.\r\n\r\nMembeli berarti setuju dengan jadwal pickup Suplemenfactory.","rating":0}
{"no":0,"title":"haj-ar jahana m murah grosir","price":"4.400","seller":"USMAN HERBAL","sellerPlace":"Kab. Bekasi","url":"https://www.bukalapak.com/p/kesehatan-2359/obat-suplemen/obat-obatan/14e08jz-jual-haj-ar-jahana-m-murah-grosir?from=&product_owner=normal_seller","sold":2625,"seen":2752,"favorite":69,"updated":"2019-10-15 15:37:20","description":"HAJAR-JAHANAM ORIGINAL isi 5ml BERKHASIAT!!\r\n\r\nREADY STOK!! LANGSUNG ORDER JURAGAN!!\r\nDISINI HARGA LEBIH MURAH NGAPAIN BELI YANG MAHAL??\r\n\r\nLAPAK LAIN KALAH HARGA, TERUS NGAKU ORI??\r\n LEBIH MAHAL DIKIT SERIBU / DUA RIBU NGAKU ORI?? \r\n\r\nKITA JUGA JUAL ORI BOSS!! LEBIH MURAH, dan BERKHASIAT!!\r\nBUKAN KW atau KW SUPER!! GARANSI UANG KEMBALI KALO TIDAK ORI!!\r\n\r\nCEK DAN BUKTIKAN SENDIRI KHASIATNYA!!\r\n\r\nBE A SMART BUYER, MURAH DAN BERKUALITAS.\r\n\r\nSIAP RETUR KALO TIDAK ORIGINAL.\r\n\r\nIsi 5ml\r\nPACKING AMAN PRIVASI AMAN.\r\n\r\n1kg MUAT 36pcs\r\n\r\n\"Hanya untuk PASUTRl\"","rating":0}
{"no":0,"title":"OBAT - KU AT OLES","price":"150.000","seller":"PEMBESAR PENIS HERBAL","sellerPlace":"Jakarta Timur","url":"https://www.bukalapak.com/p/kesehatan-2359/obat-suplemen/obat-obatan/14xo397-jual-obat-ku-at-oles?from=&product_owner=normal_seller","sold":24,"seen":149,"favorite":28,"updated":"2019-10-11 10:08:18","description":"Obat herbal Pembesar organ vital pria MAGICVET\r\n\r\nH3rbal alami yang dicipt4kan khusus bagi Anda yang ingin men4mbah ukuran Mr.P sehingga membuatnya menjadi lebih besar, panjang dan berurat. Terbuat dari c4mpuran minyak herbal dan ekstrak tanaman herbal pilihan 100 aman, efektif tanpa efek samping dan hasilnya sudah teruji secara Laboratorium.\r\n&amp;amp;amp;gt; Khasiat obat herbal pembesar organ vital pria MAGICVET :\r\n\r\n1. Memperbesar Mr.P secara alami\r\n2. Memperpanjang Mr.P secara alami\r\n3. Mempertebal kulit Mr.P secara alami\r\n4. Memperjelas urat dalam Mr.P\r\n5. Membuat erreksi menjadi lebih kencang dan kuat\r\n6. Meningkatkan kekuatan er3ksi\r\n7. Meningkatkan libido dan gairah s3ksual\r\n8. Mengobati dissfungsi erreksi atau impootensi secara alami\r\nDETAIL PRODUK\r\nMAGICVET\r\n-Isi 20 ml","rating":0}
{"no":0,"title":"Promo Terbaru Obat Kuat Herbal - OBAT KUAT Diabetes X Cure","price":"260.000","seller":"Coffee Top","sellerPlace":"Jakarta Pusat","url":"https://www.bukalapak.com/p/kesehatan-2359/obat-suplemen/obat-obatan/1y3xsah-jual-promo-terbaru-obat-kuat-herbal-obat-kuat-diabetes-x-cure?from=&product_owner=normal_seller","sold":19,"seen":28,"favorite":8,"updated":"2019-08-27 15:05:02","description":"OBAT HERBAL KUAT DIABETES \"XCURE\"\r\nKHUSUS PRIA DIABETES\r\nAMAN BPOM, HALAL, ALAMI\r\n\r\nXCURE adalah obat herbal yang diformulasikan untuk membantu memelihara stamina pria diabetes (kencing manis). Dengan rutin mengonsumsi XCURE, kesehatan dan stamina pria diabetes dapat selalu terjaga.\r\n\r\nKomposisi: Prwcng, Ginseng, Pasak Bumi/Tongkat Ali, Jahe, Sirsak, dan Manggis.\r\n\r\nKhasiat\r\n- Mengatasi berbagai masalah seksual akibat diabetes, seperti disfungsi ereksi, ejakulasi dini, loyo, dan yang lainnya.\r\n- Menjaga dan meningkatkan stamina pria diabetes.\r\n- Meningkatkan gairah seks pria diabetes.\r\n- Meningkatkan kontrol otot polos pada alat vital, sehingga mampu mencapai ereksi dengan sempurna.\r\n- Melancarkan aliran darah ke organ seksual, sehingga ereksi bisa lebih kencang dan tahan lama.\r\n- Merileksasikan otot sehingga mampu mencapai kenikmatan saat bercinta.\r\n- Membantu menyehatkan dan menjaga sistem kekebalan tubuh pria diabetes.\r\n- Bekerja secara sistematis dan konstruktif untuk menyembuhkan diabetes secara bertahap.\r\n\r\nAturan Minum: 2 x 1 kapsul sehari, diminum sesudah makan.\r\n\r\nEfek Samping: Asal mengikuti petunjuk konsumsi dengan benar, maka aman dikonsumsi jangka panjang dan tidak membahayakan kesehatan tubuh.\r\n\r\nDetil Produk\r\n- Nama: XCURE\r\n- Kemasan: Botol\r\n- Bentuk: Kapsul\r\n- Isi: 50 kapsul @500mg\r\n- Nomor registrasi BPOM: POM TR163398121\r\n- Catatan: Simpan di tempat sejuk dan kering.","rating":0}
{"no":0,"title":"Bi Yan Tuan Biyan Tuan Bi Yantuan Biyantuan Obat Pilek Flu Batuk Alergi Infeksi Hidung Chronic Rhintis Sinusitis Sinus Asma Pernafasan Pernapasan","price":"140.000","seller":"Kans Shop","sellerPlace":"Jakarta Timur","url":"https://www.bukalapak.com/p/kesehatan-2359/obat-suplemen/obat-obatan/1o2hhn6-jual-bi-yan-tuan-biyan-tuan-bi-yantuan-biyantuan-obat-pilek-flu-batuk-alergi-infeksi-hidung-chronic-rhintis-sinusitis-sinus-asma-pernafasan-pernapasan?from=&product_owner=normal_seller","sold":55,"seen":503,"favorite":41,"updated":"2019-10-15 09:22:43","description":"Bi Yan Tuan terbukti dapat menyembuhkan penyakit chronic rhintis (peradangan pada selaput lendir dalam hidung) yang disebabkan oleh alergi, virus, bakteri atau iritasi. Peradangan tersebut membuat produksi lendir berlebih yang menyebabkan hidung meler, pilek, dan hidung tersumbat.\r\n\r\nChronic Rintis yang disebabkan oleh alergi memberikan gejala tambahan seperti bersin - bersin, hidung gatal, batuk, pusing, dan lelah, bisa disembuhkan dengan obat ini.\r\n\r\nManfaat :\r\n- Melancarkan saluran pernafasan\r\n- Mengobati Chronic rhintis dan Sinusitis\r\n- Mengobati infeksi pada hidung dan alergi\r\n- Mengobati batuk berdahak akibat sinus\r\n- Mengobati asma dan bronchitis\r\n\r\nCara minum : 3 x sehari 2 kapsul.","rating":0}
{"no":0,"title":"Enervon C Vitamin","price":"100.000","seller":"Toko Ibong","sellerPlace":"Palembang","url":"https://www.bukalapak.com/p/kesehatan-2359/obat-suplemen/obat-obatan/iombh8-jual-enervon-c-vitamin?from=&product_owner=normal_seller","sold":0,"seen":0,"favorite":0,"updated":null,"description":"Brand yang terpercaya dalam kategori multivitamin daya tahan tubuh.","rating":0}
{"no":0,"title":"New-soloco-au Asli Terjamin Original","price":"470.000","seller":"Outlet Kesehatan Tubuh","sellerPlace":"Jakarta Timur","url":"https://www.bukalapak.com/p/kesehatan-2359/obat-suplemen/obat-obatan/21f47iv-jual-new-soloco-au-asli-terjamin-original?from=&product_owner=normal_seller","sold":9987,"seen":700,"favorite":4,"updated":"2019-10-11 22:12:04","description":"Barang ready stock silakan order langsung","rating":0}
{"no":0,"title":"Vitamale-Vita male Azli-Kualitaz-Iztimewwa","price":"290.000","seller":"Obat Supremasi","sellerPlace":"Jakarta Timur","url":"https://www.bukalapak.com/p/kesehatan-2359/obat-suplemen/obat-obatan/232ejvc-jual-vitamale-vita-male-azli-kualitaz-iztimewwa?from=&product_owner=normal_seller","sold":9056,"seen":425,"favorite":57,"updated":"2019-10-15 01:19:28","description":"Obat vitamale asli HWI merupakan obat herbal yang sudah berizin BPOM memiliki berbagai khasiat di antaranya menambah ukuran, jadi ekstra kuat dan juga tahan lama berhubungan dan yang pastinya herbal aman tanpa efek samping.\r\n\r\nBIASAKAN BACA DULU FEEDBACK, TESTIMONI ATAU ULASAN KONSUMEN SEBELUM BELI\r\n\r\nTOKO ONLINE SHOP TERPERCAYA ( apabila ragu bisa Anda lihat di bagian foto dan ulasan konsumen sudah ada beberapa pengiriman dan hasilnya )\r\nVitamale Asli Original By HWi\r\n1 Botol isi 30 Kapsul\r\nExp. 4 / 2022\r\n\r\nBeli 2 BONUS 1\r\nGARANSi KUALiTAS BAGUS\r\n\r\nDi JAMiN PRODUK ASLi ORiGiNAL\r\nSalam sehat LUAR BIASA!! Konon katanya satu dari tiga pria di dunia tidak mampu mengontrol ejakulasi saat berhubungan intim. OMG !! HeLowwwww pria-pria zaman now\r\nVITAMALE is COMING Solusi tepat membantu masalah seksual pria-pria zaman NOW\r\nMau tahu apa itu VITAMALE?\r\nVitamale adalah kapsul herbal alami khusus pria dewasa yang diekstrak dari gingseng panax dan tongkat ali yang dapat membantu meningkatkan Stamina,Energi dan Vitalitas Pria.\r\n\r\nMANFAAT :\r\n*Memperpanjang ukuran\r\n*Memperbesar ukuran lingkaran\r\n*Menjadikan kuat, keras dan kencang\r\n*Membantu meningkatkan vitalitas dan gairah s*ksual pria\r\n*Membantu meningkatkan stamina tubuh\r\n*Membantu meningkatkan kadar hormon testoteron\r\n*Membantu meningkatkan kualitas ereks* dan tahan lama\r\n*Membantu meningkatkan produksi sperma dan mengatasi masalah kesuburan\r\n*Membantu keharmonisan suami istri\r\n*Membantu menenangkan pikiran dan meredakan kelelahan.\r\n\r\nCara konsumsi : minum 1 kapsul v1tamale 1 jam sebelum berhubungan.\r\nProduk Asli Original Gan\r\n1 Botol isi 30 Kapsul\r\n\r\nSISTEM PENGIRIMAN KAMI :\r\n*Prodak Original\r\n*Packing Rapi\r\n*Pengiriman Tepat Waktu\r\n*Privasi Aman\r\n*Amanah\r\n\r\nSilahkan Di ORDER Gan\r\n\r\nSelalu Stock Ready\r\n\r\nPromo minggu ini beli 2 bonus 1. yuk di order sebelum promo berakhir.\r\nklik beli segera lanjut pembayaran\r\n\r\nPERHATIAN\r\n\r\nJANGAN MUDAH TERGIUR DENGAN HARGA MURAH. MANA ADA PRODUK IMPORT DENGAN HARGA MURAH ??!!! JADILAH PEMBELI YANG PINTAR.\r\n\r\n( MOHON TELITI SEBELUM MEMBELI ).\r\n\r\nBARANG YANG KAMI KIRIM 100% ORIGINAL KHASIATNYA BISA DI BUKTIKAN !!\r\n\r\nJaminan mutu kualitas international. Kepuasan customer adalah kebanggaan kami.\r\nCiri - ciri keasliannya sesuai foto diatas\r\n\r\nHappy Shopping","rating":0}
{"no":0,"title":"Obat- Kuat Pria Obat Oles Pembesar Pria Asli BPOM","price":"170.000","seller":"Pusat Herbal Indonesia","sellerPlace":"Jakarta Barat","url":"https://www.bukalapak.com/p/kesehatan-2359/obat-suplemen/obat-obatan/1rsorzt-jual-obat-kuat-pria-obat-oles-pembesar-pria-asli-bpom?from=&product_owner=normal_seller","sold":52,"seen":929,"favorite":38,"updated":"2019-10-15 15:37:19","description":"STOCK SELALU READY dan BARU.... BISA LANGSUNG ORDER YA...\r\n\r\n# PRODUK DIJAMIN ORIGINAL 100% \r\n# PRIVASI DIJAMIN AMAN DAN TERJAGA KERAHASIAANNYA \r\n# PENGIRIMAN CEPAT &amp; FAST RESPOND\r\n# SUPLIER TANGAN PERTAMA, DIJAMIN ORI DAN HARGA LEBIH TERJANGKAU\r\n\r\nT I T A N Gel -\r\n#Khusus-alat-vital-pria\r\n#Obat pembesar\r\n#Obat pemanjang\r\n\r\nTitan Gel Indonesia sudah terdaftar di BPOM. Titan Gel adalah produk luar namun sudah diproduksi di Indonesia, maka dari itu ijinnya adalah POM NA.\r\n\r\nAnda bisa cek Titan Gel di www(.)pom(.)go(.)id, dan akan menemukan bahwa Titan Gel sudah dapat ijin di Indonesia sbb:\r\n# NA18171600027\r\n# Tanggal Terbit: 10-04-2017\r\n# Diterbitkan Oleh: Notifikasi Kosmetika Direktorat Registrasi Obat Tradisional, # Suplemen Kesehatan, dan Kosmetik\r\n# Produk: Kosmetika\r\n# Nama Produk: For Hygiene Intimate\r\n# Bentuk Sediaan: Gel\r\n# Merk: TITAN GEL\r\n# Kemasan: Tube 100 gram, Tube 30 gram, Tube 50 gram\r\n# Pendaftar: SJA GLOBAL COSMINDO, PT - Kab Bogor, Jawa Barat\r\n# Diproduksi Oleh: SJA Global Cosmindo, PT - Kab Bogor\r\n\r\n#titan-gel\r\n#obatkuat\r\n#obatpembesarvital","rating":0}
{"no":0,"title":"OBAT - KU AT OLES","price":"150.000","seller":"OBAT KUAT HERBAL","sellerPlace":"Jakarta Barat","url":"https://www.bukalapak.com/p/kesehatan-2359/obat-suplemen/obat-obatan/14x1wby-jual-obat-ku-at-oles?from=&product_owner=normal_seller","sold":21,"seen":58,"favorite":22,"updated":"2019-10-11 10:25:03","description":"Obat herbal Pembesar organ vital pria MAGICVET\r\n\r\nH3rbal alami yang dicipt4kan khusus bagi Anda yang ingin men4mbah ukuran Mr.P sehingga membuatnya menjadi lebih besar, panjang dan berurat. Terbuat dari c4mpuran minyak herbal dan ekstrak tanaman herbal pilihan 100 aman, efektif tanpa efek samping dan hasilnya sudah teruji secara Laboratorium.\r\n&amp;amp;amp;gt; Khasiat obat herbal pembesar organ vital pria MAGICVET :\r\n\r\n1. Memperbesar Mr.P secara alami\r\n2. Memperpanjang Mr.P secara alami\r\n3. Mempertebal kulit Mr.P secara alami\r\n4. Memperjelas urat dalam Mr.P\r\n5. Membuat erreksi menjadi lebih kencang dan kuat\r\n6. Meningkatkan kekuatan er3ksi\r\n7. Meningkatkan libido dan gairah s3ksual\r\n8. Mengobati dissfungsi erreksi atau impootensi secara alami\r\nDETAIL PRODUK\r\nMAGICVET\r\n-Isi 20 ml","rating":0}
{"no":0,"title":"PROMO Triple L - Obat Pembesar Peni S-Ori Bpom","price":"150.000","seller":"OBAT KUAT HERBAL","sellerPlace":"Jakarta Barat","url":"https://www.bukalapak.com/p/kesehatan-2359/obat-suplemen/obat-obatan/23lnbrg-jual-promo-triple-l-obat-pembesar-peni-s-ori-bpom?from=&product_owner=normal_seller","sold":21,"seen":43,"favorite":22,"updated":"2019-10-11 10:28:51","description":"Obat herbal Pembesar organ vital pria M4XIMEN OIL\r\n\r\nH3rbal alami yang dicipt4kan khusus bagi Anda yang ingin men4mbah ukuran Mr.P sehingga membuatnya menjadi lebih besar, panjang dan berurat. Terbuat dari c4mpuran minyak herbal dan ekstrak tanaman herbal pilihan 100 aman, efektif tanpa efek samping dan hasilnya sudah teruji secara Laboratorium.\r\n&amp;amp;amp;gt; Khasiat obat herbal pembesar organ vital pria MAXIMEN OIL :\r\n1. Memperbesar Mr.P secara alami\r\n2. Memperpanjang Mr.P secara alami\r\n3. Mempertebal kulit Mr.P secara alami\r\n4. Memperjelas urat dalam Mr.P\r\n5. Membuat erreksi menjadi lebih kencang dan kuat\r\n6. Meningkatkan kekuatan er3ksi\r\n7. Meningkatkan libido dan gairah s3ksual\r\n8. Mengobati dissfungsi erreksi atau impootensi secara alami\r\n&amp;amp;amp;gt;\r\n\r\nDETAIL PRODUK\r\nMAXIMEN OIL\r\n-Isi 20 ml","rating":0}
{"no":0,"title":"Obat Oles Pembesar Peni S","price":"250.000","seller":"OBAT KUAT HERBAL","sellerPlace":"Jakarta Barat","url":"https://www.bukalapak.com/p/kesehatan-2359/obat-suplemen/obat-obatan/23x8mhd-jual-obat-oles-pembesar-peni-s?from=&product_owner=normal_seller","sold":21,"seen":60,"favorite":23,"updated":"2019-10-11 10:33:00","description":"Obat herbal Pembesar organ vital&PENAMBAH ST4MINA PRIA DUREXPLUS\r\n\r\nDemi menjaga keharmonisan rumah tangga setiap suami tentunya akan selalu\r\nberusaha melakukan yang terbaik untuk kesenangan dan kebahagiaan istri.\r\nKesenangan dan kebahagiaan tersebut bukan hanya di nafkahi lahir batin saja\r\ntanpa memperdulikan kualitas nafkah tersebut. Yang dimaksud kualitas nafkah\r\ndalam hal nafkah batin adalah kepuasan istri saat berhubungan dengan suami. Dan\r\ntentunya sudah menjadi rahasia umum bahwa kepuasan istri saat berhubungan intim\r\nadalah sangat di dukung oleh seberapa besar ukuran Mr. P.\r\n\r\nDalam dunia rumah tangga ukuran Mr. P sangat berpengaruh sangat berpengaruh\r\nterhadap kepuasan istri saat berhubungan intim. Lantas ukuran yang bagaimana\r\nyang bisa menjadi patokan kepuasan istri.\r\n\r\nTentunya pembaca sudah pasti punya bayangan yang bagaimanakah ukuran tersebut.\r\nYap!!! benar sekali. Ukuran di sini yang dimaksud adalah yang mana semakin besar\r\nukuran Mr. P maka semakin berkualitas pula hubungan intim yang dilakukan karena\r\nsemakin besar ukuran Mr. P maka akan semakin terpuaskan pula birahi sang istri.\r\n\r\nBermodalkan pengetahuan tersebut maka KAMI berinisiatif dan\r\nbereksperimen menemukan racikan yang pas untuk membesarkan Mr. P.\r\n\r\nMemperkenalkan produk dari KAMI yaitu DUREXPLUS yang berkhasiat untuk\r\nmemperbesar ukuran Mr. P.\r\n\r\nDUREXPLUS adalah ramuan yang terbuat dari 100% bahan herbal alami untuk\r\nmemperbesar ukuran Mr. P. Karena terbuat dari 100% bahan herbal alami maka\r\nPowerMax tidak akan menimbulkan efek samping negatif apapun, ditambah lagi\r\ndengan digunakannya DUREXPLUS hanya untuk pengobatan luar saja maka nilai\r\nkeamananpun akan semakin terjaga.\r\n\r\nApa Saja Khasiat DUREXPLUS ?\r\n\r\nMembantu memperbesar ukuran penis\r\nMelancarkan peredaran yang berada di sekitar Mr. P\r\nMembantu membersihkan Mr. P dari kotoran-kotoran yang menempel pada Mr. P\r\nMembantu mengencangkan kulit pada area Mr. P\r\nMenjaga kelembaban kulit di area Mr. P\r\nMenambah ereksi penis semakin kencang dan kuat\r\nDan lain-lain\r\n\r\npesan sekarang juga, puaskan istri anda. jangan tunggu dia kecewa.....\r\n\r\ncara pemakaian tertera dalam brosur\r\n\r\nH3rbal alami yang dicipt4kan khusus bagi Anda yang ingin men4mbah ukuran Mr.P sehingga membuatnya menjadi lebih besar, panjang dan berurat. Terbuat dari c4mpuran minyak herbal dan ekstrak tanaman herbal pilihan 100 aman, efektif tanpa efek samping dan hasilnya sudah teruji secara Laboratorium.\r\n&amp;amp;amp;gt; Khasiat obat herbal pembesar organ vital pria DUREXPLUS :\r\n\r\n1. Memperbesar Mr.P secara alami\r\n2. Memperpanjang Mr.P secara alami\r\n3. Mempertebal kulit Mr.P secara alami\r\n4. Memperjelas urat dalam Mr.P\r\n5. Membuat erreksi menjadi lebih kencang dan kuat\r\n6. Meningkatkan kekuatan er3ksi\r\n7. Meningkatkan libido dan gairah s3ksual\r\n8. Mengobati dissfungsi erreksi atau impootensi secara alami\r\nDETAIL PRODUK\r\nDUREXPLUS\r\n-Isi 20 ml","rating":0}
{"no":0,"title":"OBAT PEMBESAR ALAMI PENIS-ORIGINAL1","price":"250.000","seller":"OBAT KUAT HERBAL","sellerPlace":"Jakarta Barat","url":"https://www.bukalapak.com/p/kesehatan-2359/obat-suplemen/obat-obatan/23x9p4r-jual-obat-pembesar-alami-penis-original1?from=&product_owner=normal_seller","sold":21,"seen":41,"favorite":22,"updated":"2019-10-11 10:32:49","description":"Obat herbal Pembesar organ vital&PENAMBAH ST4MINA PRIA DUREXPLUS\r\n\r\nDemi menjaga keharmonisan rumah tangga setiap suami tentunya akan selalu\r\nberusaha melakukan yang terbaik untuk kesenangan dan kebahagiaan istri.\r\nKesenangan dan kebahagiaan tersebut bukan hanya di nafkahi lahir batin saja\r\ntanpa memperdulikan kualitas nafkah tersebut. Yang dimaksud kualitas nafkah\r\ndalam hal nafkah batin adalah kepuasan istri saat berhubungan dengan suami. Dan\r\ntentunya sudah menjadi rahasia umum bahwa kepuasan istri saat berhubungan intim\r\nadalah sangat di dukung oleh seberapa besar ukuran Mr. P.\r\n\r\nDalam dunia rumah tangga ukuran Mr. P sangat berpengaruh sangat berpengaruh\r\nterhadap kepuasan istri saat berhubungan intim. Lantas ukuran yang bagaimana\r\nyang bisa menjadi patokan kepuasan istri.\r\n\r\nTentunya pembaca sudah pasti punya bayangan yang bagaimanakah ukuran tersebut.\r\nYap!!! benar sekali. Ukuran di sini yang dimaksud adalah yang mana semakin besar\r\nukuran Mr. P maka semakin berkualitas pula hubungan intim yang dilakukan karena\r\nsemakin besar ukuran Mr. P maka akan semakin terpuaskan pula birahi sang istri.\r\n\r\nBermodalkan pengetahuan tersebut maka KAMI berinisiatif dan\r\nbereksperimen menemukan racikan yang pas untuk membesarkan Mr. P.\r\n\r\nMemperkenalkan produk dari KAMI yaitu DUREXPLUS yang berkhasiat untuk\r\nmemperbesar ukuran Mr. P.\r\n\r\nDUREXPLUS adalah ramuan yang terbuat dari 100% bahan herbal alami untuk\r\nmemperbesar ukuran Mr. P. Karena terbuat dari 100% bahan herbal alami maka\r\nPowerMax tidak akan menimbulkan efek samping negatif apapun, ditambah lagi\r\ndengan digunakannya DUREXPLUS hanya untuk pengobatan luar saja maka nilai\r\nkeamananpun akan semakin terjaga.\r\n\r\nApa Saja Khasiat DUREXPLUS ?\r\n\r\nMembantu memperbesar ukuran penis\r\nMelancarkan peredaran yang berada di sekitar Mr. P\r\nMembantu membersihkan Mr. P dari kotoran-kotoran yang menempel pada Mr. P\r\nMembantu mengencangkan kulit pada area Mr. P\r\nMenjaga kelembaban kulit di area Mr. P\r\nMenambah ereksi penis semakin kencang dan kuat\r\nDan lain-lain\r\n\r\npesan sekarang juga, puaskan istri anda. jangan tunggu dia kecewa.....\r\n\r\ncara pemakaian tertera dalam brosur\r\n\r\nH3rbal alami yang dicipt4kan khusus bagi Anda yang ingin men4mbah ukuran Mr.P sehingga membuatnya menjadi lebih besar, panjang dan berurat. Terbuat dari c4mpuran minyak herbal dan ekstrak tanaman herbal pilihan 100 aman, efektif tanpa efek samping dan hasilnya sudah teruji secara Laboratorium.\r\n&amp;amp;amp;gt; Khasiat obat herbal pembesar organ vital pria DUREXPLUS :\r\n\r\n1. Memperbesar Mr.P secara alami\r\n2. Memperpanjang Mr.P secara alami\r\n3. Mempertebal kulit Mr.P secara alami\r\n4. Memperjelas urat dalam Mr.P\r\n5. Membuat erreksi menjadi lebih kencang dan kuat\r\n6. Meningkatkan kekuatan er3ksi\r\n7. Meningkatkan libido dan gairah s3ksual\r\n8. Mengobati dissfungsi erreksi atau impootensi secara alami\r\nDETAIL PRODUK\r\nDUREXPLUS\r\n-Isi 20 ml","rating":0}
{"no":0,"title":"Alami Pembesar Peni S - Obat Herbal Alat Vital Pria","price":"150.000","seller":"OBAT KUAT HERBAL","sellerPlace":"Jakarta Barat","url":"https://www.bukalapak.com/p/kesehatan-2359/obat-suplemen/obat-obatan/23lo0lc-jual-alami-pembesar-peni-s-obat-herbal-alat-vital-pria?from=&product_owner=normal_seller","sold":21,"seen":57,"favorite":22,"updated":"2019-10-11 10:28:24","description":"Obat herbal Pembesar organ vital pria M4XIMEN OIL\r\n\r\nH3rbal alami yang dicipt4kan khusus bagi Anda yang ingin men4mbah ukuran Mr.P sehingga membuatnya menjadi lebih besar, panjang dan berurat. Terbuat dari c4mpuran minyak herbal dan ekstrak tanaman herbal pilihan 100 aman, efektif tanpa efek samping dan hasilnya sudah teruji secara Laboratorium.\r\n&amp;amp;amp;gt; Khasiat obat herbal pembesar organ vital pria MAXIMEN OIL :\r\n1. Memperbesar Mr.P secara alami\r\n2. Memperpanjang Mr.P secara alami\r\n3. Mempertebal kulit Mr.P secara alami\r\n4. Memperjelas urat dalam Mr.P\r\n5. Membuat erreksi menjadi lebih kencang dan kuat\r\n6. Meningkatkan kekuatan er3ksi\r\n7. Meningkatkan libido dan gairah s3ksual\r\n8. Mengobati dissfungsi erreksi atau impootensi secara alami\r\n&amp;amp;amp;gt;\r\n\r\nDETAIL PRODUK\r\nMAXIMEN OIL\r\n-Isi 20 ml","rating":0}
{"no":0,"title":"DISKON DUREXPLUS - Obat Pembesar Peni S Original Terbukti Permanen","price":"250.000","seller":"OBAT KUAT HERBAL","sellerPlace":"Jakarta Barat","url":"https://www.bukalapak.com/p/kesehatan-2359/obat-suplemen/obat-obatan/23xc67a-jual-diskon-durexplus-obat-pembesar-peni-s-original-terbukti-permanen?from=&product_owner=normal_seller","sold":21,"seen":51,"favorite":22,"updated":"2019-10-11 10:32:25","description":"Obat herbal Pembesar organ vital&PENAMBAH ST4MINA PRIA DUREXPLUS\r\n\r\nDemi menjaga keharmonisan rumah tangga setiap suami tentunya akan selalu\r\nberusaha melakukan yang terbaik untuk kesenangan dan kebahagiaan istri.\r\nKesenangan dan kebahagiaan tersebut bukan hanya di nafkahi lahir batin saja\r\ntanpa memperdulikan kualitas nafkah tersebut. Yang dimaksud kualitas nafkah\r\ndalam hal nafkah batin adalah kepuasan istri saat berhubungan dengan suami. Dan\r\ntentunya sudah menjadi rahasia umum bahwa kepuasan istri saat berhubungan intim\r\nadalah sangat di dukung oleh seberapa besar ukuran Mr. P.\r\n\r\nDalam dunia rumah tangga ukuran Mr. P sangat berpengaruh sangat berpengaruh\r\nterhadap kepuasan istri saat berhubungan intim. Lantas ukuran yang bagaimana\r\nyang bisa menjadi patokan kepuasan istri.\r\n\r\nTentunya pembaca sudah pasti punya bayangan yang bagaimanakah ukuran tersebut.\r\nYap!!! benar sekali. Ukuran di sini yang dimaksud adalah yang mana semakin besar\r\nukuran Mr. P maka semakin berkualitas pula hubungan intim yang dilakukan karena\r\nsemakin besar ukuran Mr. P maka akan semakin terpuaskan pula birahi sang istri.\r\n\r\nBermodalkan pengetahuan tersebut maka KAMI berinisiatif dan\r\nbereksperimen menemukan racikan yang pas untuk membesarkan Mr. P.\r\n\r\nMemperkenalkan produk dari KAMI yaitu DUREXPLUS yang berkhasiat untuk\r\nmemperbesar ukuran Mr. P.\r\n\r\nDUREXPLUS adalah ramuan yang terbuat dari 100% bahan herbal alami untuk\r\nmemperbesar ukuran Mr. P. Karena terbuat dari 100% bahan herbal alami maka\r\nPowerMax tidak akan menimbulkan efek samping negatif apapun, ditambah lagi\r\ndengan digunakannya DUREXPLUS hanya untuk pengobatan luar saja maka nilai\r\nkeamananpun akan semakin terjaga.\r\n\r\nApa Saja Khasiat DUREXPLUS ?\r\n\r\nMembantu memperbesar ukuran penis\r\nMelancarkan peredaran yang berada di sekitar Mr. P\r\nMembantu membersihkan Mr. P dari kotoran-kotoran yang menempel pada Mr. P\r\nMembantu mengencangkan kulit pada area Mr. P\r\nMenjaga kelembaban kulit di area Mr. P\r\nMenambah ereksi penis semakin kencang dan kuat\r\nDan lain-lain\r\n\r\npesan sekarang juga, puaskan istri anda. jangan tunggu dia kecewa.....\r\n\r\ncara pemakaian tertera dalam brosur\r\n\r\nH3rbal alami yang dicipt4kan khusus bagi Anda yang ingin men4mbah ukuran Mr.P sehingga membuatnya menjadi lebih besar, panjang dan berurat. Terbuat dari c4mpuran minyak herbal dan ekstrak tanaman herbal pilihan 100 aman, efektif tanpa efek samping dan hasilnya sudah teruji secara Laboratorium.\r\n&amp;amp;amp;gt; Khasiat obat herbal pembesar organ vital pria DUREXPLUS :\r\n\r\n1. Memperbesar Mr.P secara alami\r\n2. Memperpanjang Mr.P secara alami\r\n3. Mempertebal kulit Mr.P secara alami\r\n4. Memperjelas urat dalam Mr.P\r\n5. Membuat erreksi menjadi lebih kencang dan kuat\r\n6. Meningkatkan kekuatan er3ksi\r\n7. Meningkatkan libido dan gairah s3ksual\r\n8. Mengobati dissfungsi erreksi atau impootensi secara alami\r\nDETAIL PRODUK\r\nDUREXPLUS\r\n-Isi 20 ml","rating":0}
{"no":0,"title":"Jamu Obat Herbal Penambah Stamina Kuat Madu Phuceng Buat Pria Dewasa","price":"249.000","seller":"BELANJA AMAN","sellerPlace":"Jakarta Utara","url":"https://www.bukalapak.com/p/kesehatan-2359/obat-suplemen/obat-obatan/190zx17-jual-jamu-obat-herbal-penambah-stamina-kuat-madu-phuceng-buat-pria-dewasa?from=&product_owner=normal_seller","sold":7,"seen":670,"favorite":42,"updated":"2019-09-27 01:04:13","description":"MADU PRIA PHUCENG\r\nSpesialis: Kuat, Keras, tahan Lama\r\n\r\nKemasan Satuan isi 1 Botol\r\nPROMO Harga: Rp. 249.000\r\n2 botol hanya Rp. 400.000\r\n\r\nMadu Phuceng adalah bukan madu biasa tetapi Madu PLUS ramuan herbal alami yang merupakan suplemen yang di desain khusus sebagai penambah vitalitas untuk pria dewasa. Stamina akan ON terus sepanjang hari. Sehingga saat bercinta dengan pasangan di ranjang anda akan menjadi 100% lelaki perkasa.\r\n\r\nPasangan tidak hanya klimaks sekali atau dua kali tetapi bisa berkali-kali.\r\n\r\nHasil dari testimoni mengatakan bahwa Madu Phuceng ini sangat membantu pria lebih perkasa.\r\n\r\nTerbuat dari bahan-bahan herbal tradisional dari kekayaan alam indonesia yang di proses menggunakan peralatan yang canggih mengunakan resep rahasia.\r\n\r\nKomposisi bahan dan takaran yang tepat ini di dapatkan ramuan yang power full menjadikan anda lelaki perkasa di atas ranjang saat bercinta.\r\n\r\nTidak hanya sekali atau dua kali dalam memuaskan pasangan tetapi bisa berkali kali.\r\n\r\nMadu Phuceng adalah Madu Vitalitas &amp;amp;amp;amp;amp; Stamina Pria Dewasa yang terbuat dari Madu pilihan dan ekstrak herbal alami pilihan yaitu paasak bumi, phurwoceng, tribulus, jahe, lada hitam dan bahan-bahan alami berkhasiat lainnya. Khasiat Madu Phuceng adalah:\r\n\r\n1. Meningkatkan Tenaga &amp;amp;amp;amp;amp; kekuatan pria.\r\n2. Menambah kejantanan.\r\n3. Mencegah ejakuasi dini.\r\n4. Melancarkan peredaran darah.\r\n5. Membantu meredakan sakit pinggang.\r\n6. Mengatasi lemah syahwat, impotensi, pegal &amp;amp;amp;amp;amp; 4L (lemah, letih, lesu, lemas).\r\n\r\nUntuk mendapatkan manfaat yang maksimal, minum Madu Phuceng secara rutin 2 sendok makan pada pagi dan malam sebelum berhubungan.\r\n\r\nPhuceng sudah terdaftar BPOM dengan nomor TR. 183 610 431\r\n\r\nBuktikan Khasiatnya !!\r\n\r\nMadu Pria\r\nMadu Kuat\r\nMadu Kuat di Ranjang\r\nHerbal Alami\r\nKhusus Pria Dewasa\r\nTambah Stamina\r\nKuat Pria\r\nVitalitas Pria\r\nKuat Keras Tahan Lama","rating":0}
{"no":0,"title":"Obat Vitalitas Caliberlabs Pil Herbal tambah Stamina kuat","price":"390.000","seller":"Klinik Obat herbal","sellerPlace":"Jakarta Barat","url":"https://www.bukalapak.com/p/kesehatan-2359/obat-suplemen/obat-obatan/29ugdky-jual-obat-vitalitas-caliberlabs-pil-herbal-tambah-stamina-kuat?from=&product_owner=normal_seller","sold":175,"seen":41,"favorite":6,"updated":"2019-10-15 06:27:25","description":"Ready Stock !!! Barang jaminan asli no kw kw . Caliberlabs cocok untuk anda yang kurang jreng atau perkasa.\r\n\r\nMANFAAT PAKET CALIBERLABS Capsules : \r\n1. membantu meningkatkan frekuensi aktivitas fisik dan daya Tahan pada saat berhubungan serta bikin tahan lama.\r\n2. Memastikan erreksi yang lama dan stabil serta memperbaiki seluruh susunan syaraf organ intim.\r\n3. Dapat Merangsang terjadinya erreksi serta meningkatkan orgasmeee.\r\n4. meningkatkan libido.\r\n5. memperbesar dan memanjangkan Ukuran Mr-p dengan cepat dan stabil.\r\n\r\nPACKING DIJAMIN RAPI,AMAN KERAHASIAANNYA.\r\nTERJAMIN ASLI DAN KUALITAS IMPORT. Kepuasan pelanggan adalah prioritas utama kami.\r\n\r\nISI 30 CAPSUL.\r\nDiminum 1 capsul selang 30-60 menit saat mau hubungan.","rating":0}
{"no":0,"title":"Paket Pria Perkasa - Obat Kuat pria Ejakulasi Dini Herbal Tahan Lama atasi - Disfungsi Ereksi - Impotensi dan Lemah Syahwat Alami Original","price":"475.000","seller":"Medika Obat Herbal","sellerPlace":"Jakarta Selatan","url":"https://www.bukalapak.com/p/kesehatan-2359/obat-suplemen/obat-obatan/2bb7wqq-jual-paket-pria-perkasa-obat-kuat-pria-ejakulasi-dini-herbal-tahan-lama-atasi-disfungsi-ereksi-impotensi-dan-lemah-syahwat-alami-original?from=&product_owner=normal_seller","sold":14,"seen":18,"favorite":18,"updated":"2019-10-15 09:14:19","description":"PAKET MALAM PERTAMA Rahasia Obat Tahan Lama dan Perkasa saat MP\r\n\r\nPAKET MALAM PERTAMA ini ditunjukan untuk pria gagal pada malam pertamanya karena cepat keluar (ED), alat vital tidak bisa berdiri dan sperma yang kurang sehat membuat hubungan para pengantin baru tidak memuaskan. Hilangnya gairah pada pasangan wanita juga menjadi kendala yang menganggu hubungan pada saat bulan madu. Karena itulah kami menghadirkan Paket Malam Pertama yang terdiri dari:\r\n\r\nLHIFORMEN\r\nLHIFORMEN adalah obat herbal pria dewasa yang AMPUH mengatasi berbagai masalah seksual seperti gairah yang tiba-tiba hilang, alat vital tidak bisa berdiri dan cepat keluar (ED) yang disebabkan karena berbagai faktor.\r\n\r\nDUREVEL\r\nDUREVEL adalah obat herbal khusus pria dewasa yang cukup disemprotkan pada bagian-bagian paling sensitif pada alat vital, yaitu bagian kepala, leher serta bagian bawah. Durevel adalah solusi terbaik untuk menjadkan durasi penetrasi lebih lama dan tangguh, mampu melakukan manuver posisi seksual apapun yang Anda inginkan. Anda cukup menyemprotkan 3 kali dan tunggu 45 menit. Anda akan merasakan bagian-bagian yang sensitif menjadi kebas, tahan terhadap rangsangan seksual.\r\n\r\nFUNGSI PAKET MALAM PERTAMA:\r\n* Menjadikan malam pertama menjadi lebih nikmat.\r\n* Memberikan pengalaman luar biasa pada pasangan saat malam pertama.\r\n* Membuat pasangan Anda ketagihan untuk berhubungan dengan Anda.\r\n* Memberikan kejuatan tak terduga pada pada pasangan saat malam pertama.\r\n* Menjadikan Anda kuat dan tahan lama sampai pasangan Anda lelah.\r\n* Durasi saat berhubungan akan tambah lama.\r\n\r\nDETAIL PRODUK:\r\nNama: Lhiformen\r\nKemasan: Botol (lihat foto diatas)\r\nIsi: 50 kapsul @ 500 mg\r\nIjin BPOM: POM TR. 093 301 521\r\nHalal MUI 05\r\n\r\nNama : Durevel Spray\r\nKemasan : Botol (lihat foto diatas)\r\nIsi : 15 ml\r\nDepkes. RI: IKOT 442/00060/V-2","rating":0}
{"no":0,"title":"Best Seller Obat Herbal Kuat pria Tahan Lama atasi Ejakulasi Dini - Disfungsi Ereksi - Impotensi Alami Original Lhi Formen BPOM","price":"240.000","seller":"Medika Obat Herbal","sellerPlace":"Jakarta Selatan","url":"https://www.bukalapak.com/p/kesehatan-2359/obat-suplemen/obat-obatan/2bb6f82-jual-best-seller-obat-herbal-kuat-pria-tahan-lama-atasi-ejakulasi-dini-disfungsi-ereksi-impotensi-alami-original-lhi-formen-bpom?from=&product_owner=normal_seller","sold":14,"seen":19,"favorite":18,"updated":"2019-10-15 09:15:43","description":"STOCK READY BANYAK .. SILAHKAN DIORDER\r\n\r\nLHIFORMEN ASLI - ORIGINAL CV KARYA ABADI\r\nPOM TR: 093301521\r\nHALAL MUI: 01173000160905\r\n\r\nJANGAN TERTIPU DENGAN HARGA MURAH, PASTIKAN LHIFORMEN YANG ANDA BELI ASLI DARI CV KARYA ABADI\r\n\r\nCara Membedakan Lhiformen Asli dan Palsu:\r\n1. Lhiformen Asli HET nya Rp. 240.000, jika harga jauh dibawah HET perlu dicurigai jika Lhiformen tersebut adalah Palsu\r\n2. Lhiformen asli pasti tertera tanggal Exp Date\r\n3. Saat dibuka pada masing-masing kapsul lhiformen asli terdapat tulisan Lhi\r\n4. Lhiformen asli 100% alami tanpa campuran bahan kimia apapun\r\n5. Lhiformen asli resmi terdaftar di BPOM dengan no POM TR: . Lhiformen yang asli juga telah mendapatkan sertifikasi HALAL MUI: 01173000160905\r\n\r\n\r\nKhasiat Lhiformen Secara Keseluruhan adalah sbb:\r\n> Meningkatkan jumlah hormon testosteron\r\n> Membuat alat vital keras dan tahan lama\r\n> Mengatasi disfungsi seksual/impotensi pada pria\r\n> Meningkatkan stamina pria\r\n> Menyuburkan sperma/mani, sebagai terapi alternatif untuk melawan infertilitas (ketidaksuburan) pada pria\r\n> Membuat durasi hubungan intim/ML/bercinta tahan lama\r\n> Memperlancar aliran darah ke Mr.P.\r\n> Meningkatkan gairah seksual/libido\r\n> Mencegah dan mengatasi Andropouse\r\n> Mengatasi masalah Prostat.\r\n> Mengatur suhu tubuh untuk mendukung perkembangan fungsi-fungsi seksual yang normal\r\n> Sangat dianjurkan untuk Anda yang impoten dan kurang bergairah\r\n> Menjadikan orgasme lebih nikmat dan mengesankan\r\n> Aman dikonsumsi bagii Anda yang mempunyai masalah ginjal, jantung, hipertensi, kolesterol,diabetes dan penyakit lainnya.\r\nDetail Produk:\r\n> Nama: Lhiformen\r\n> Kemasan: Botol (lihat foto diatas)\r\n> Isi: 50 kapsul @ 500 mg\r\n> Ijin BPOM: POM TR.\r\n> Halal MUI 05\r\n\r\nProduced by : CV. Karya Abadi.\r\nNomor Regristrasi SIUP: 510/24/PK/VIII/2015","rating":0}
{"no":0,"title":"Terlaris Obat Herbal Kuat pria Penderita Diabetes Darah Tinggi Jantung Agar Kuat Tahan Lama anti Ejakulasi Dini - Kuat Pria Pro","price":"200.000","seller":"Medika Obat Herbal","sellerPlace":"Jakarta Selatan","url":"https://www.bukalapak.com/p/kesehatan-2359/obat-suplemen/obat-obatan/2bb9stp-jual-terlaris-obat-herbal-kuat-pria-penderita-diabetes-darah-tinggi-jantung-agar-kuat-tahan-lama-anti-ejakulasi-dini-kuat-pria-pro?from=&product_owner=normal_seller","sold":14,"seen":19,"favorite":18,"updated":"2019-10-15 09:15:27","description":"----------------- K U A T P R I A - P R O ----------------\r\n\r\nKUATPRIA PRO adalah obatkuat khusus pria diabetes yang sangat efektif membantu mengatasi masalah seksuall yang disebabkan oleh penyakit diabetes seperti disfungsi erexi, lmpotensii, dan gaiirah seksuaII berkurang.\r\nKUATPRIA PRO efektif dalam mengobati berbagai masalah seksuaII dengan meningkatkan gairah seksuall, meningkatkan kualitas sperma, dan meningkatkan kinerja seksuall Anda, sehingga Anda bisa kuat & bertahan lebih lama di ranjang.\r\n\r\nKhasiat :\r\n* Merileksasikan Otot\r\n* Membantu mengobati pusing kepala, cepat ngantuk, rasa lelah dan meningkatkan stamina\r\n* Membantu melancarkan sirkulasi darah ke sistem reproduksi Anda, sehingga ereksii bisa lebih kencang dan libidoo/gaiirah akan meningkat\r\n* Membantu meningkatkan kontrol otot polos pada alatvital, sehingga mampu mencapai ereksii dengan sempurna\r\n* Bekerja secara sistemasis dan konstruktif menyembuhkan diabetes secara bertahap.\r\n* Meningkatkan gairah dan aktivitas seksuaII 3x lebih baik\r\n\r\nKomposisi :\r\n1. Pimpinella Pruatjan\r\n2. Eurycoma Longifolia\r\n3. Zygophyllaceae\r\n4. Piper Albi Lin\r\n5. Annona Muricata L.\r\n6. Garcinia Mangostana L.\r\n\r\nAturan Pakai :\r\n1. Minum 1 atau 2 kapsul 2x sehari 15 menit sebelum makan\r\n2. Sebaiknya menggunakan air hangat untuk hasil lebih maksimal\r\nLegalitas KUATPRIA PRO IKOT 442/00060/V-2 & MUI 05","rating":0}
{"no":0,"title":"Rekomended - Obat Kuat pria Herbal Tahan Lama atasi Ejakulasi Dini - Disfungsi Ereksi - Impotensi Alami Original - Dure Vel","price":"280.000","seller":"Medika Obat Herbal","sellerPlace":"Jakarta Selatan","url":"https://www.bukalapak.com/p/kesehatan-2359/obat-suplemen/obat-obatan/2bb7hv1-jual-rekomended-obat-kuat-pria-herbal-tahan-lama-atasi-ejakulasi-dini-disfungsi-ereksi-impotensi-alami-original-dure-vel?from=&product_owner=normal_seller","sold":14,"seen":25,"favorite":18,"updated":"2019-10-15 09:17:06","description":"Buruaaaannnnnnnnn Karena Kuota Terbatas\r\n\r\n\r\nDurevel berbahan dasar air dan dikemas dalam botol kaca spray. cara penggunaan nya pun cukup disemprot dan silahkan mnunggu sekitar 45 menit . Durevel di racik oleh para herbalis yang ahli di bidang pengobatan herbal.\r\n\r\nManfaat DureVel dalam mengatasi masalah sekssual adalah:\r\n&gt; Errexsi tahan lebih lama\r\n&gt; Anda mampu melakukan penetrasi dalam durasi yang cukup lama\r\n&gt; Ejjaxulasi dini Anda berakhir\r\n&gt; Anda akan merasakan sensasi orrgasmie yang luar biasa\r\n&gt; Hubun\r\ngan sekss yang sangat memuaskan\r\n&gt; Istri Anda akan bahagia karena Anda bisa membuatnya orrgasme berkali-kali\r\n&gt; Keharmonisan Anda dan pasangan kembali terjalin\r\n\r\nDetail Produk:\r\n&gt; Nama : Durevel Spray\r\n&gt; Kemasan : Botol lihat foto diatas\r\n&gt; Isi : 15 ml\r\n&gt; Catatan: Simpan ditempat sejuk dan kering","rating":0}
{"no":0,"title":"Meningkatkan Stamina - Obat Kuat pria Ejakulasi Dini- Disfungsi Ereksi Herbal Tahan Lama atasi - Impotensi Alami Original","price":"220.000","seller":"Medika Obat Herbal","sellerPlace":"Jakarta Selatan","url":"https://www.bukalapak.com/p/kesehatan-2359/obat-suplemen/obat-obatan/2bb9caz-jual-meningkatkan-stamina-obat-kuat-pria-ejakulasi-dini-disfungsi-ereksi-herbal-tahan-lama-atasi-impotensi-alami-original?from=&product_owner=normal_seller","sold":14,"seen":19,"favorite":18,"updated":"2019-10-15 09:14:39","description":"\"BARANG SELALU READY\"\r\n\r\nLABEL PRODUK TERLAMA DAN TERBARU. NAMUN KAMI KIRIMKAN DENGAN LABEL TERBARU.\r\n\r\nObat pria dewasa, meningkatkan produksi hormon testosteron pria, meningkatkan gairah seksual, menjadikan Anda kuat, perkasa dan tahan lama hingga 10 kali lipat.\r\n\r\nKuatPria123 merupakan produk obat herbal kapsul yang terkandung di dalamnya 100% herbal alami yang tidak hanya mampu meningkatkan gairah seksual saja, tetapi juga berfungsi sebagai terapeutik. Ini adalah fungsi alami yang akan membantu merileksasikan jaringan di daerah alat vital Anda sehingga erexi lebih kuat dan tahan lama. Di samping itu, bahan-bahan herbal yang digunakan juga sangat aman bagi kesehatan tubuh tanpa efek samping.\r\n\r\nKasiat Kapsul KuatPria123\r\n> Memperbanyak produksi hormone pria yaitu testosteron\r\n> Memperlancar peredaran darah pada organ vital agar Anda mencapai erexi maksimal\r\n> Merileksasikan organ reproduksi Anda agar lebih bisa merasakan sensasi\r\n> Meningkatkan libido, kekuatan dan tahan lama\r\n> Meningkatkan performa seksual Anda\r\n> Erexi organik tanpa bahan kimia yang berbahaya\r\n> Meningkatkan ukuran testis sehingga produksi sperma lebih banyak\r\n> Mengatasi masalah disfungsi erexi dan ezakulasi dini\r\n> Membantu tekanan darah ke kondisi normal, sangat baik dikonsumsi untuk pria dengan hipotensi atau tekanan darah rendah.\r\n\r\nKomposisi Kuat Pria123\r\nDalam setiap kapsul Kuatpria123 (500 mg) mengandung:\r\n1. Pimpinella pruatjan extract 133 mg\r\n2. Eurycoma longifolia extract 110 mg\r\n3. Zygophyllaceae extract 105 mg\r\n4. Piper Albi Lin extract 57 mg\r\n5. Piper retrofractumextract 57 mg\r\n6. Zingiber officinale extract 38 mg\r\n\r\nDetail Produk:\r\n> Nama: KuatPria123\r\n> Kemasan: Botol (lihat foto diatas)\r\n> Isi: 60 kapsul @ 500 mg\r\n> Depkes. RI: IKOT 442/00060/V-2\r\n> Cara Pemakaian: minum 1 atau 2 kapsul 2 kali sehari 15 menit sebelum makan.","rating":0}
{"no":0,"title":"Obat Kanker Serviks","price":"1.021.000","seller":"ikumiku store","sellerPlace":"Jakarta Timur","url":"https://www.bukalapak.com/p/kesehatan-2359/obat-suplemen/obat-obatan/1rqs1bh-jual-obat-kanker-serviks?from=&product_owner=normal_seller","sold":90,"seen":60,"favorite":18,"updated":"2019-10-14 23:07:44","description":"OBATI KANKER SERVIKS SEDARI DINI\r\n\r\nWaspada! Kanker serviks (kanker leher Rahim) tidak menunjukkan gejala hingga tumor terbentuk. \r\n\r\nTumor kemudian bisa mendorong organ di sekitar dan mengganggu sel-sel sehat. \r\n\r\nGejala kanker serviks bisa ditandai dengan ciri-ciri berikut ini.\r\n\r\nPerdarahan yang tidak wajar dari v.a.g.i.n.a. Misalnya perdarahan padahal Anda tidak sedang haid, menstruasi yang lebih panjang, perdarahan setelah atau saat berhubungan s.e.k.s, setelah menopause, setelah buang air besar, atau setelah pemeriksaan panggul.\r\n\r\nSiklus menstruasi jadi tidak teratur.\r\n'\r\nNyeri pada panggul (di perut bagian bawah).\r\n\r\nNyeri saat berhubungan s.e.k.s\r\n\r\nNyeri di pinggang (punggung bawah) atau kaki.\r\n\r\nBadan lemas dan mudah lelah.\r\n\r\nBerat badan menurun padahal tidak sedang diet.\r\n\r\nKehilangan nafsu makan.\r\n\r\nCairan v.a.g.i.n.a yang tidak normal, seperti berbau menyengat atau disertai darah.\r\n\r\nSalah satu kaki membengkak.\r\n\r\nSolusi Kanker Serviks dari Maxi Health Herbal terdiri dari Noni Plus dan Spirulina Synergy\r\n\r\n\r\nCara Pakai:\r\n\r\nSPIRULINA (POM TI 044 309 871)\r\nDua kapsul dikonsumsi tiga kali sebelum dan sesudah makan\r\n\r\nNONI PLUS (POM TI 124 646 981)\r\n2 X 1 (1 takaran = 30ml)","rating":0}
{"no":0,"title":"BLUE WIZ4RD OBAT PER4NG S4NG WANITA","price":"120.000","seller":"Lamoda","sellerPlace":"Jakarta Pusat","url":"https://www.bukalapak.com/p/kesehatan-2359/obat-suplemen/obat-obatan/23u63at-jual-blue-wiz4rd-obat-per4ng-s4ng-wanita?from=&product_owner=normal_seller","sold":2,"seen":157,"favorite":4,"updated":"2019-10-15 07:34:37","description":"READY STOK……….\r\n\r\n\r\nSILAHKAN KLIK BELI DAN LANGSUNG DI ORDER.\r\n\r\n\r\nLAKUKAN PEMBAYARAN.\r\n\r\n\r\nPESAN HARI INI KIRIM HARI INI.\r\n\r\n\r\nCara Pe rang sang BW:\r\n\r\n\r\n*.Satu botol obat Pe rang sang BW bisa dipakai untuk berkali-kali, karena isi lebih banyak\r\n\r\n\r\n.Cukup 5-10 tetes obat Pe rang sang BW ditaruh di air minum apa saja, kecuali susu dan air kelapa muda. .Lebih baik diminum dengan minuman yang bersoda, seperti sprite, fanta, coca-cola dll.obat Pe rang sang BW juga dapat diminum tanpa campuran minuman lainnya. hanya dalam waktu 10-15 menit langsung bereaksi sendiri","rating":0}
{"no":0,"title":"SIWAK AL-KHAIR","price":"9.000","seller":"firman","sellerPlace":"Jakarta Timur","url":"https://www.bukalapak.com/p/kesehatan-2359/obat-suplemen/obat-obatan/ejry-jual-siwak-al-khair?from=&product_owner=normal_seller","sold":711,"seen":9433,"favorite":337,"updated":"2019-10-15 07:31:22","description":"SIWAK AL-KHAIR :\r\n\r\n siwak al-khair eceran dan grosir.\r\nSiwak al-khair merupakan siwak impor Pakistan yang telah dipacking dengan baik.\r\nKayu siwak berfungsi membersihkan gigi, gusi, dan mulut.\r\nBersiwak merupakan sunnah nabi dan memberikan banyak manfaat.\r\n\r\n# Terdapat rasa : Natural\r\n# Packing per bungkus satu batang dengan masing-masing rasa\r\n# Packing rapih & higienis\r\n# Pembelian lusinan atau 1 dus (60 batang) akan ada harga khusus","rating":0}
{"no":0,"title":"OBAT DIABETES","price":"173.900","seller":"Sehat Shop","sellerPlace":"Jakarta Timur","url":"https://www.bukalapak.com/p/kesehatan-2359/obat-suplemen/obat-obatan/1jf011o-jual-obat-diabetes?from=&product_owner=normal_seller","sold":794,"seen":393,"favorite":18,"updated":"2019-10-14 23:21:29","description":"Pertanyaan yang sering ditanyakan :\r\n\r\n\r\n\r\n1: apakah ready? = PRODUK muncul artinya READY. PRODUK ORIGINAL Stok terbatas, karna perputaran begitu cepat di toko OFFLINE kami. PASTIKAN kamu gak kehabisan.\r\n\r\n\r\n\r\n2: apakah original? = produk kami dijamin ke ASLIAN Nya. jika terbukti palsu dengan bukti identifikasi LAB resmi, UANG KEMBALI 3X lipat + biaya ganti LABORATORIUM kami tanggung.\r\n\r\n\r\n\r\n3: Apakah bisa keep stok, besok atau lusa saya bayar? = No keep order, siapa cepat dia dapat !\r\n\r\n\r\n\r\n4: bisa gojek? = BISA ! Silahkan order produk di 'etalase' = khusus Go-send\r\n\r\n\r\n\r\n5: beneran free ongkir? = BENERAAAAN KAK !!!! masa promo terbatas !!!\r\n\r\n\r\n\r\n\r\n\r\n\r\n\r\ndeskripsi :\r\n\r\n\r\n\r\n\r\n\r\n\r\n\r\nizin BPOM TR. 142 680331\r\n\r\n\r\n\r\n\r\n\r\n\r\n\r\nAce Maxs banyak digunakan untuk pengobatan berbagai pe