{"no":0,"title":"FOREDI - GEL Pria Untuk lebih TAHAN LAMA, Mengatasi Ejakulasi Dini, Tidak menyebabkan Baal / Mati Rasa, Mengandung AntiSeptik Untuk Kesehatan. (100% ORIGINAL ASLI)","price":"225.000","seller":"Distributor Resmi OriginalAsli","sellerPlace":"Bandung","url":"https://www.bukalapak.com/p/kesehatan-2359/obat-suplemen/obat-obatan/43iw92-jual-foredi-gel-pria-untuk-lebih-tahan-lama-mengatasi-ejakulasi-dini-tidak-menyebabkan-baal-mati-rasa-mengandung-antiseptik-untuk-kesehatan-100-original-asli?from=&product_owner=normal_seller","sold":121,"seen":6523,"favorite":127,"updated":"2019-10-13 19:56:25","description":"** Bonus 1 Saset Setiap Pembelian.\r\n\r\nTERIMA ORDER Setiap HARI Termasuk SABTU Dan MINGGU Masih DIPROSES.\r\n\r\nTerima PESANAN 24 JAM FULL Walau Jam 3 Pagi Pun Akan Di Proses.\r\n\r\nProses JAMIN TERCEPAT, AMAN 100% ORIGINAL ASLI.\r\n\r\nFOREDI - Gel Pria Untuk Lebih Kuat Dan Tahan Lama, Mengatasi Ejakulasi Dini, Tidak Menyebabkan Baal / Mati Rasa, Mengandung ANTISEPTIK Untuk Kesehatan. (100% Original Asli Dan Satu-satunya PRODUK Di INDONESIA yang Mendapatkan REKOMENDASI Langsung dari Boyke Dian Nugraha Pakar Kesehatan Reproduksi No 1 Indonesia)\r\n\r\n( BARANG READY STOCK TINGGAL ORDER Ya)\r\n\r\nFOREDI Gel, SOLUSI DAHSYAT UNTUK PASUTRI\r\n\r\nAman & Legal Terdaftar di DEPKES & BPOM RI. TR 132 673 781 PERTAMA DI DUNIA!\r\n\r\nHERBAL ANTI SEPTIK PRIA + ATASI EJAKULASI DINI. REKOMENDASI : BOYKE DIAN NUGRAHA\r\n\r\n(Pakar Kesehatan Reproduksi)\r\n\r\n** Produk selalu baru.\r\n\r\nFOREDI adalah ramuan tradisional Menes Banten khusus untuk pria dewasa. Mengandung bahan alami yang terdiri dari rempah-rempah pilihan dan tidak mengandung bahan kimia.\r\n\r\nRempah-rempah tersebut diolah sedemikian rupa melalui teknologi farmasi yang baik, teruji, dan dapat diandalkan sehingga menjadi ramuan yang memberikan khasiat sebagai antiseptik lokal yang dapat memberikan keamanan, kenyamanan, dan kenikmatan dalam melakukan hubungan intim yang sehat sehingga pasangan menjadi harmonis dan percaya diri. Dengan demikian FOREDI dapat meningkatkan kualitas hubungan intim / tahan lama.\r\n\r\nFOREDI bermanfaat jika digunakan sebelum melakukan hubungan intim, karena dengan FOREDI dapat menjaga kebersihan organ intim pria dewasa, sehingga wanita sebagai lawan jenis dapat merasa aman, karena mulut rahim sangat rentan dan mudah terkontaminasi oleh benda-benda asing dan mikro organisme.\r\n\r\nAdapun kontaminasi diatas dapat menyebabkan:\r\n\r\n** Keputihan Patologis yang bersifat terus menerus dengan ciri-ciri cairan menjadi banyak, gatal, berbau, dan berwarna kuning coklat.\r\n** Keputihan Fisiologis karena adanya infeksi jamur Chlamidhia.\r\n** Infeksi saluran kelamin yang dapat merusak saluran indung telur.\r\n\r\nFOREDI dapat mengurangi ketiga faktor tersebut diatas dengan menjaga kebersihan organ intim pria sebelum melakukan hubungan intim.\r\n\r\nSelain bermanfaat sebagai antiseptik pria, FOREDI juga bermanfaat untuk mengatasi masalah bagi penderita EJAKULASI DINI karena FOREDI ini dapat memperpanjang waktu orgasme pria.\r\n\r\nCara pemakaian FOREDI :\r\n\r\nIngat: Kunci dari efektifitas foredi adalah beri waktu agar ramuan meresap sempurna, jadi saran kami : oleskan foredi minimal 1-2 jam sebelum hubungan.\r\n\r\nPada sebagian pria waktu yang dibutuhkan untuk meresap bisa lebih cepat.\r\n\r\n-- Oleskan tipis dari 1 sachet pada organ intim pria : bagian kepala (jangan kena lubang) & bagian bawah dari organ vital pria\r\n\r\n-- Biarkan 1 jam sampai herbal bereaksi dan terasa hangat.\r\n\r\n-- Kemudian cuci dengan air dan sabun sampai bersih.\r\n\r\n** Setelah dicuci bersih biarkan 1 jam lagi sampai rasa hangat mereda lalu siap untuk melakukan hubungan intim (rasa hangat menandakan ramuan bekerja sempurna)\r\n\r\nSetelah dioleskan dan dicuci bersih manfaat obat akan bertahan hingga 8 jam.\r\n\r\nApabila melakukan hubungan intim akan lebih baik bila dibiarkan terlebih dahulu hingga rasa hangat telah menjadi reda.\r\n\r\nKeunggulan FOREDI dibanding produk sejenis dipasaran :\r\n\r\n100% LEGAL :\r\n\r\nObat oles herbal anti ejakulasi dini yang terdaftar resmi di BPOM (Badan Pengawas Obat & Makanan) dengan Nomor registrasi POM : 132 673 781\r\n\r\n100% AMAN :\r\n\r\nDigunakan sebagai herbal oles luar, sehingga tidak memberikan efek samping negatif pada fungsi jantung, ginjal & otak seperti obat yang diminum.\r\n\r\n** Tidak mengandung bahan kimia LIDOCAINE\r\n\r\nForedi juga bekerja mengurangi sensitifitas namun tidak 100% kebas karena tidak mengandung bahan kimia pemati rasa seperti kebanyakan produk pemakaian luar di pasaran ilegal.\r\n\r\nSatu-satunya Produk RESMI & ASLI buatan Indonesia yang UNIK & bahkan satu-satunya herbal oles di dunia.\r\n\r\n** Memperlama durasi hubungan intim\r\n** TANPA menimbulkan mati rasa total (masih sensitif).\r\n** Tidak ada efek samping yang merugikan.\r\n** Melindungi kontaminasi kuman pada waktu hubungan intim.\r\n** Sekaligus sebagai ANTI SEPTIK melindungi organ vital pria dari jamur Chlamidhia, keputihan pasangan dll.\r\n\r\nSatu-satunya Rekomendasi PAKAR pasutri ternama : BOYKE DIAN NUGRAHA\r\n\r\n(bukan rekomendasi tukang jual obat/sales/member/distributor) Barang 100% ASLI ORIGINAL!.","rating":0}
{"no":0,"title":"obat anti parasit detoxic biru original ampuh","price":"99.000","seller":"RUMAH HERBAL GROSIR","sellerPlace":"Jakarta Selatan","url":"https://www.bukalapak.com/p/kesehatan-2359/obat-suplemen/obat-obatan/2cvttf5-jual-obat-anti-parasit-detoxic-biru-original-ampuh?from=&product_owner=normal_seller","sold":50,"seen":45,"favorite":4,"updated":"2019-10-14 16:22:08","description":"READY STOCK Kak !!!!\r\n\r\nGEJALA-GEJALA YANG MENUNJUKKAN ADANYA PARASIT DI DALAM TUBUH :\r\n\r\n*.Sering mengalami, hidung. tersumbat, masuk angin, dan sakit. tenggorokan.\r\n*.Alergi (mata, ruam, dan hidung berair)\r\n*.Sering mengalami sakit kepala, daiare atau konstipasi.\r\n*.Kelelahan kronis (Anda cepat merasa capek, tidak peduli apa saja yang sudah Anda lakukan)\r\n*.Mengalami kesulitan tidur, merasa gugup, dan gangguan nafsu makan\r\n*.Mengalami nyeri sendi &amp;amp; otot\r\n*.Lingkaran hitam di sekitar mata &amp;amp; kantungmata\r\n\r\n\r\nDosis yang disarankanDiminum 2 x 1 kapsul / hari &amp;gt; standarDiminum 2 x 2 kapsul /hari &amp;gt; maximalAnjuranDapat diminum sebelum/sesudah makan dan perbanyak minum air putihAnak usia 3 - 6 tahun disarankan untuk meminum obat ini 3x sehari, setengah jam sebelum usia 6 - 12 tahun disarankan untuk meminum obat ini 2x sehari, setengah jam sebelum dewasa sebaiknya meminum obat ini1x setiap hari, setengah jam sebelum makan","rating":0}
{"no":0,"title":"Jual Obat telat bulan Paket 4 Bulan-O bat-Ab orsi-Penggu gur-Kan dungan-Pel untur-Kan dungan","price":"1.500.000","seller":"Mitra Sehat","sellerPlace":"Bandung","url":"https://www.bukalapak.com/p/kesehatan-2359/obat-suplemen/obat-obatan/2c030t5-jual-jual-obat-telat-bulan-paket-4-bulan-o-bat-ab-orsi-penggu-gur-kan-dungan-pel-untur-kan-dungan?from=&product_owner=normal_seller","sold":1,"seen":256,"favorite":2,"updated":"2019-10-15 13:09:38","description":"Deskripsi :\r\n\r\n\r\n\r\n\r\n\r\nPaket 4bln Tuntas\r\n\r\n\r\n\r\n\r\n\r\n10 tablet cyttotex,\r\n\r\n\r\n\r\n\r\n\r\n10 kapsul pembersih rahim,\r\n\r\n\r\n\r\n\r\n\r\n8 tablet pereda nyeri,\r\n\r\n\r\n\r\n\r\n\r\n6 tablet meredakan demam,\r\n\r\n\r\n\r\n\r\n\r\n8 tablet antibiotik.\r\n\r\n\r\n\r\n\r\n\r\nEfek Samping :\r\n\r\n\r\n\r\n\r\n\r\nDiare,demam & menggigil,mual & muntah,pendarahan vagina,nyeri perut bagian bawah (Dismenore).\r\n\r\n\r\n\r\n\r\n\r\nSudah terjamin Produk Asli Kualitas di konsumsi dengan anjuran dan Resep dokter.\r\n\r\n\r\n\r\n\r\n\r\nBerhati-hatilah!!! Jangan menggunakan obat yang bukan resep menyebabkan efek yang berbahaya untuk kesehatan tubuh Anda.\r\n\r\n\r\n\r\n\r\n\r\nYuk..Langsung order aja Mitra sehat,Transaksi aman hanya melalui BukaLapak.Selamat Berbelanja Mitra kasih atas Kunjunganya.","rating":0}
{"no":0,"title":"erogan-berkualitaz top","price":"130.000","seller":"Titan gel","sellerPlace":"Jakarta Utara","url":"https://www.bukalapak.com/p/kesehatan-2359/obat-suplemen/obat-obatan/2c3dfhy-jual-erogan-berkualitaz-top?from=&product_owner=normal_seller","sold":1,"seen":28,"favorite":0,"updated":"2019-10-08 09:46:03","description":"READY STOCK ,,,,!!\r\n\r\n\r\n*PENTING!!! DI BACA SEBELUM ORDER..\r\n\r\n\r\nJangan Tergiur Harga Murah\r\n\r\n\r\nJadilah pembeli atau Buyer yang pandai, cerdas, jeli dan cermat\r\n\r\n\r\nAnda Cepat Kami Cepat Pengiriman Expedisi 24Jam..\r\n\r\n\r\n*Barang yang kami jual di jamin Asli dan Berkhasiat Nyata. Jangan Ragu Bertransaksi Dengan solusi sukses, langsung clear, langsung tuntass.\r\n\r\n\r\nPesanan anda Adalah Amanah untuk kami.\r\n\r\n\r\nDAN BARANG BERKUALITAS INTERNASIONAL TERBAIK.\r\n\r\n\r\nminat bisa order klik beli atau lewat kami langsung ()\r\n\r\n\r\nSistem pengiriman toko jamin\r\n\r\n\r\n<ul>\r\n<li>\r\nPRODAK ORIGINAL\r\n</li>\r\n<li>\r\nPENGKING RAPI\r\n</li>\r\n<li>\r\nPENGIRIMAN CEPAT\r\n</li>\r\n<li>\r\nBARANG DI JAMIN Original\r\n</li>\r\n<li>\r\nAMAN\r\n</li>\r\n</ul>\r\n\r\n\r\n**MOHON MAAF UNTUK YANG ORDER SILAKAN LANGSUNG KLIK BELI DAN LANGSUNG LANJUT PEMBAYARAN KARENA PRODUK DEWASA MUDAH TERHAPUS. MOHON PENGERTIAN DAN KERJASAMANYA.\r\n\r\n\r\n<ul>\r\n<li>TERIMAKSIH ATAS KUNJUNGANYA DI TOKO KAMI . SALAM HANGAT DARI SAYA. TERIMAKASIH.,,,,,,,,</li>\r\n</ul>","rating":0}
{"no":0,"title":"Imove Asli Obat Herbal Nyeri Sendi Dan Tulang Herbal Original","price":"140.000","seller":"QUEEN HERBAL","sellerPlace":"Jakarta Pusat","url":"https://www.bukalapak.com/p/kesehatan-2359/obat-suplemen/obat-obatan/1ws2gq1-jual-imove-asli-obat-herbal-nyeri-sendi-dan-tulang-herbal-original?from=&product_owner=normal_seller","sold":2184,"seen":4190,"favorite":108,"updated":"2019-10-14 06:45:41","description":"Ready Stok Ya Kak\r\nProduk Jaminan 100% Original\r\nAwas Produk Palsu Di Bawah Harga Kami...!!! \r\n\r\nTERBUAT DARI BAHAN ALAMI !!!\r\n\r\nMengandung vitamin A dan E yang sangat tinggi, namun sepenuhnya aman, mempercepat proses regenerasi tulang dan sendi.\r\n\r\nProporsi ekstrak bahan yang sesuai - secara teratur dikirim ke tubuh - memberi makan sel tulang dan meningkatkan produksi cairan sinovial yang mengisi ruang di antara tulang-tulang di sendi. Jumlah pelumas yang tepat menghilangkan rasa sakit pada persendian, dan selanjutnya melindungi dan merawat terhadap kerusakan mikro lebih lanjut.\r\n\r\nPemakaian secara teratur menghilangkan rasa sakit yang menyiksa, memperkuat tulang dan membuat tubuh itu sendiri mulai memproduksi tulang rawan artikular. Ini adalah resep untuk kesehatan dan sendi yang kuat untuk orang-orang dari segala umur - terlepas dari tingkat aktivitas fisik (juga untuk atlet).\r\n\r\nFungsi iMove :\r\n- Memelihara kesehatan fungsi tulang dan persendian\r\n- Mengobati rasa kaku dan nyeri sendi dan tulang\r\n- Menurunkan kolesterol\r\n- Mengobati sakit maag\r\n- Mempercepat penyembuhan luka\r\n- Memelihara kesehatan kulit\r\n\r\n1 Botol Isi 30 Kapsul\r\nAturan pakai : 2 kapsul / hari setelah makan\r\n\r\nHati Hati Jika Anda Menemukan Produk Di Bawah Harga Lapak Kami\r\nKami Pastikan Produk Tersebut Palsu.\r\nSayangi Kesehatan Anda","rating":0}
{"no":0,"title":"TERLARIS KUTUS KUTUS ORIGINAL","price":"230.000","seller":"sehatherbalshop","sellerPlace":"Kab. Bogor","url":"https://www.bukalapak.com/p/kesehatan-2359/obat-suplemen/obat-obatan/1n863i6-jual-terlaris-kutus-kutus-original?from=&product_owner=normal_seller","sold":10,"seen":705,"favorite":4,"updated":"2019-10-11 18:20:05","description":"Kutus Kutus Original\r\nSearch \r\nMinyak Kutus Kutus adalah minyak herbal yang terbuat dari campuran 69 tanaman obat yang diolah secara khusus dengan cara tradisional. Sehingga menghasilkan Minyak Obat Herbal yang membantu proses penyembuhan serta aman dan nyaman untuk dipakai sehari-hari.\r\n\r\nCara Pemakaiannya cukup sederhana hanya dengan membalurkan Minyak Kutus Kutus di anggota tubuh tertentu sesuai dengan sakit yang diderita.\r\n\r\nMinyak Kutus Kutus dipercaya mampu mengaktifkan Energi tubuh yang sering disebut Chi sehingga secara otomatis menjaga keseimbangan dan kesehatan tubuh.\r\n\r\nEnergi Chi adalah energi Inti kehidupan, yang mengalir pada jalur jalur meridian pada tubuh kita. Energi yang membuat manusia hidup dan semua organ berfungsi dengan baik. Apabila ada gangguan pada Chi maka akan ada gangguan pada organ tubuh.\r\n\r\nBahan Minyak Kutus Kutus\r\nTerbuat dari 100% bahan-bahan alami/organik. Tidak ada bahan kimia dalam komposisi minyak ini. Selain itu juga tidak menggunakan minyak dari hewan. Landasan formula yang dipaki ini mulai dari unsur akar, batang, daun, bunga, buah, minyak kelapa murni serta minyak essential yang merupakan satu unsur perpaduan.\r\n\r\nTerbuat dari 69 jenis tanaman obat yang sudah terbukti khasiatnya mampu membantu menyembuhkan berbagai macam penyakit. Sehingga minyak herbal kutus-kutus memiliki berbagai khasiat untuk membantu penyembuhan berbagai macam penyakit.\r\n\r\nManfaat Minyak Kutus Kutus\r\nSemua Jenis Alergi (Makanan, Debu, Aroma, Lingkungan, Dingin, Dsb)\r\nSemua Jenis Alergi (Makanan, Debu,Aroma, Lingkungan, Dingin, Dsb)\r\nSemua Jenis Luka (Luka Bakar, Knalpot, Berdarah, Borok, Tersiram Air Panas / Minyak Luka Diabetes)\r\nMenghilangkan Segala Jenis Gatal (Digigit Nyamuk, Binatang, Dan Akibat Jamuran)\r\nBisul\r\nKutil\r\nGelisah\r\nStrees\r\nPerasaan Tidak Enak\r\nGangguan Psikis\r\nMembantu Menyembuhkan Penyakit Degeneratif seperti (Diabetes, Stroke, Asma, Tensi Tinggi, Jantung, Parkinson)\r\nNyeri Otot\r\nSembelit\r\nPenyembuhan Pasca Operasi\r\nTumor\r\nKanker\r\nAsam Urat\r\nRematik\r\nKesemutan\r\nNyeri Sendi\r\nPegal Linu\r\nKeseleo\r\nSalah Tidur\r\nSakit Pinggang\r\nLeher Tegang\r\nSaraf Kejepit\r\nNyeri Arthritis\r\nPerut Kembung\r\nPanas Dalam\r\nBatuk\r\nWasir / Ambient\r\nMaag\r\ndll","rating":0}
{"no":0,"title":"KOYO ZHUANGGU SHEXIANG ZHITONGGAO (KOYO HARIMAU)","price":"55.000","seller":"May 89","sellerPlace":"Jakarta Utara","url":"https://www.bukalapak.com/p/kesehatan-2359/obat-suplemen/obat-obatan/2hp057-jual-koyo-zhuanggu-shexiang-zhitonggao-koyo-harimau?from=&product_owner=normal_seller","sold":6,"seen":940,"favorite":7,"updated":"2019-08-11 07:17:02","description":"Koyo Zhuanggu Shexiang Zhitonggao\r\n\r\nHarga / Kemasan Berisi 10 Plester\r\n\r\nKegunaan :\r\n1. Meredakan nyeri, rematik, pegal-pegal, keseleo\r\n2. Memperlancar peredaran darah\r\n\r\nCara pakai : \r\nTempelkan di tempat yang sakit\r\n\r\n\r\nPeringatan : Untuk yang alergi plester dan WANITA HAMIL harus hati-hati\r\n\r\nProdusen : Henan Lingrui Pharmaceutical Co Ltd\r\n\r\nImportir : PT. Purusa Bhakti\r\nPOM QI 054 801 051","rating":0}
{"no":0,"title":"JOINT CURE OBAT PERSENDIAN ORIGINAL","price":"400.000","seller":"toko HERBAL original","sellerPlace":"Jakarta Pusat","url":"https://www.bukalapak.com/p/kesehatan-2359/obat-suplemen/obat-obatan/28yf2ao-jual-joint-cure-obat-persendian-original?from=&product_owner=normal_seller","sold":0,"seen":19,"favorite":1,"updated":"2019-09-19 14:33:46","description":"Joint Cure adalah suplemen persendian yang langsung bekerja sejak pertama kali dikonsumsi. Setelah seminggu pemakaian, tubuh akan merasakan perbedaan yang cukup signifikan. Produk Joint Cure adalah produk yang sangat alami dan sangat membantu proses regenerasi tubuh, sehingga tubuh akan lebih bugar, kekuatan meningkat serta rasa percaya diri menjadi lebih meningkat.\r\nJaringan yang mengalami kerusakan akan pulih dengan cepat sebesar 80% pada minggu kedua sejak pertama kali suplemen ini dikonsumsi. Semua persendian Anda akan menjadi lebih kuat dan cedera akan lebih cepat tersembuhkan, sehingga vitalitas tubuh akan semakin meningkat. Anda tidak perlu lagi menjalani berbagai pengobatan atau terapi khusus persendian yang menyita banyak waktu dan uang Anda\r\n\r\nCara pemakaian Joint Curesangatlah mudah dan sederhana. Pada setiap kemasan sudah terdapat aturan pakai yang disediakan oleh produsennya. Oleh karena itu Anda tidak perlu lagi mencari petunjuk dokter untuk mengkonsumsinya. Produk Joint Cure dapat dikonsumsi setiap hari dengan disertai pola makan yang sehat serta banyak meminum air untuk memaksimalkan khasiatnya. Dosis pemakaiannya adalah 2x sehari, satu pil di pagi hari dan satu pil lagi di sore atau malam hari. Khasiat produk ini akan langsung bekerja sejak pertama kali dikonsumsi dan Anda akan merasakan perubahan pada tubuh Anda seiring waktu. Rentang waktu yang disarankan untuk mengkonsumsi Joint Cure adalah sekitar 30-60 hari.\r\n\r\n\r\nPROMO BELI 3 GRATIS 1","rating":0}
{"no":0,"title":"IVORY CAPS obat herbal pemutih badan asli original","price":"400.000","seller":"toko HERBAL original","sellerPlace":"Jakarta Pusat","url":"https://www.bukalapak.com/p/kesehatan-2359/obat-suplemen/obat-obatan/290b9ke-jual-ivory-caps-obat-herbal-pemutih-badan-asli-original?from=&product_owner=normal_seller","sold":0,"seen":94,"favorite":1,"updated":"2019-10-13 23:12:09","description":"IVORY CAPS REDUCED L-GLUTATHIONE KAPSUL PEMUTIH BADAN GLUTA ORIGINAL USA\r\n\r\nEXP TERBARU 2021\r\n\r\nKADAR GLUTATHIONE COMPLEX 1500MG (TERTINGGI!)\r\n\r\nISI BANYAK (60 CAPS)\r\n\r\n100% ORIGINAL USA\r\n\r\n100% VEGETARIAN\r\n\r\nGMP & FDA CERTIFIED\r\n\r\nPRIA & WANITA\r\n\r\nKandungan: 1500mg Glutathione Complex, KANDUNGAN PEMUTIH TIGA KALI LEBIH TINGGI dari produk di pasaran,\r\nisi per botol 60, DUA KALI LEBIH BANYAK dari produk di pasaran!\r\nIvory Caps adalah skin whitening glutathione pill dgn kandungan terbaik & maksimal untuk memutihkan kulit kamu.\r\nRahasianya ada di kandungan glutathione yg 3x lebih banyak dari whitening glutathione pills lain di pasaran.\r\nGlutathione pada umumnya digunakan sebagai suplemen anti oksidan. Sebagai suplemen kesehatan, kandungan glutathione dalam 1 pil berkisar antara 250-500 mg. Namun untuk skin whitening, diperlukan kadar yg lebih dari kisaran tersebut (diatas 500 mg) utk mencapai hasil yg maksimal. Karena itu pastikan utk memilih produk yg dosis perharinya lebih dari 500 mg\r\nIvory Caps menggunakan REDUCED glutathione. glutathione baru dapat bekerja maksimal jika digunakan dalam bentuk REDUCED.\r\nREDUCED artinya glutathione melalui proses pemurnian sehingga lebih mudah untuk diserap tubuh. banyak glutathione pills yg memiliki kadar glutathione lebih rendah & biasanya masih UNREDUCED, yg membuat efek glutathione tidak maksimal utk tubuh\r\nREDUCED glutathione adalah glutathione yg berkualitas tinggi. (REDUCED glutathione yg asli PASTI mencantumkan tulisan REDUCED di kemasannya.\r\nIvory Caps terdiri dari 60 pil. dosis minum adalah 2 pil dalam sehari. jika telah mencapai warna kulit yg diinginkan, dosis bisa dikurangi utk maintain warna kulit.\r\nPertanyaan Sering Ditanya:\r\nTanya: Bedanya apa IVORY dengan NIVIN?\r\nJawab: NIVIN merupakan pengembangan dari formula IVORY (yang sudah terkenal cocok dengan kulit orang Indonesia sejak 2007), dengan menambahkan Vitamin C Premium dalam setiap tabletnya sehingga customer tidak perlu mencari vitamin C berkualitas secara terpisah.\r\nHasilnya adalah produk dengan kandungan lebih lengkap, lebih tinggi, lebih praktis, dan ekonomis*.\r\n*Harga Vitamin C kualitas premium tidaklah murah sehingga walau NIVIN sekilas terlihat lebih mahal, namun bila dihitung maka NIVIN sebetulnya lebih murah\r\n\r\nPROMO BELI 3 GRATIS 1","rating":0}
{"no":0,"title":"Wei-yi-Ang Original Jaminan uang Kembali","price":"510.000","seller":"WeiYiWang","sellerPlace":"Bekasi","url":"https://www.bukalapak.com/p/kesehatan-2359/obat-suplemen/obat-obatan/241oy1h-jual-wei-yi-ang-original-jaminan-uang-kembali?from=&product_owner=normal_seller","sold":0,"seen":8,"favorite":0,"updated":"2019-09-01 23:28:38","description":"Barang Ready silahkan langsung dipesan aja\r\n\r\nKemasan berisi 4 kotak kecil.\r\n\r\nKhasiat dan manfaat Wei Yi Wang Kapsul:\r\n- Menurunkan kadar gula dalam darah dengan cepat dan aman.\r\n- Membantu menjaga/menstabilkan kadar gula dalam darah.\r\n- Memperbaiki sel-sel pankreas yang rusak dan merangsang pertumbuhan sel-sel pankreas yang baru.\r\n\r\nKarakteristik Wei Yi Wang Kapsul:\r\n- Herbal ini terdiri dari 2 warna kapsul yang mempunyai fungsi berbeda.\r\n- Kapsul berwarna hijau (Kapsul A) berfungsi untuk menurunkan kadar gula darah secara cepat dan aman.\r\n- Kapsul berwarna biru (Kapsul B) berfungsi untuk memperbaiki sel-sel pankreas dan merangsang pertumbuhan sel pankreas yang baru.\r\n\r\nDosis dan cara pakai Wei Yi Wang Kapsul:\r\n- Diminum secara bersamaan saat makan 3 kali sehari. Masing-masing 1 butir Kapsul A (Hijau) + 1 Kapsul B (Biru).\r\n- Untuk Perawatan.\r\nApabila kadar gula darah sudah turun mendekati normal, pemakaian kapsul A (Hijau) dapat dikurangi secara bertahap menjadi 2 kali atau bahkan 1 kali sehari.\r\nKapsul B (Biru) tetap diminum 3 kali sehari untuk memulihkan fungsi pankreas dalam memproduksi hormon insulin.","rating":0}
{"no":0,"title":"OBAT KUAT TAHAN LAMA HERBAL","price":"280.000","seller":"JAKARTA STORE","sellerPlace":"Jakarta Utara","url":"https://www.bukalapak.com/p/kesehatan-2359/obat-suplemen/obat-obatan/1whge1k-jual-obat-kuat-tahan-lama-herbal?from=&product_owner=normal_seller","sold":149,"seen":139,"favorite":0,"updated":"2019-10-15 11:56:05","description":"Stok selalu ready, PRODUK 100% ORIGINAL!\r\nPROMO TERBATAS !!! BELI 2 GRATIS 1 BOX VIREX \r\n\r\nTahan lama saat bercinta adalah satu dari sekian banyak hal yang para pria inginkan saat berhubungan. Sayangnya keinginan itu tidak selalu bisa tercapai, ada kalanya pria mengalami ejakulIasi yang terlalu cepat atau ejakuIlasi dini (alatvitallcepat loyo)\r\n\r\nMenurut penelitian yang dilakukan oleh dr. Alfred Kinsey, rata-rata pria hanya mampu bertahan sampai dua menit saja saat berhubungan ilntim. Sementara wanita butuh waktu sekitar 30 sampai 60 menit\r\nSaat itu terjadi maka perasaan jadi tidak nyaman & menimbulkan rasa malu yang pada akhirnya akan memperburuk situasi\r\n\r\nSekarang wanita tidak lagi menganggap sekkss sebagai kewajiban melayani suami,wanita juga menuntut dipuaskan sama seperti pria\r\nUntuk mengatasi masalah ini, DUREVEL bisa menjadi solusi bagi para pria...\r\nDurevel Herbal spray kusus pria dewasa yang praktis digunakan, cepat bekerja untuk mengatasi ejakulaxi dini, menjadikan erexi keras dan tahan lama.\r\n\r\nKenapa harus DUREVEL SPRAY?\r\n\r\nDurevel Spray adl formula herbal yang terbuat dari ekstrak tanaman herbal terbaik yang berkhasiat tinggi dalam membantu mengatasi ejakulasii dini secara nyata dan aman. Cukup semprotkan Durevel Spray 45 menit sebelum berhubungan maka Anda sudah bisa mendapatkan erekksii (alatvitalberdiri) lebih lama dan kuat meski telah keluar.\r\n\r\nKhasiat utama DUREVEL :\r\n* Membantu Anda untuk kuat dan tahan lebih lama berhubungan bersama pasangan\r\n* Durasi berhubungan lebih lama\r\n* Ejakulasii Dini Anda teratasi\r\n* Anda akan merasakan sensasi berhubungan yang luar biasa\r\n\r\n\r\n1 Botol DUREVEL SPRAY berisi 15ml gunakan hanya saat akan berhubungan saja\r\nbisa untuk 2 bulan pemakaian tergantung sedikit banyaknya pemakaian\r\n\r\nPenting: \r\n-Pengiriman maksimal jam 15:00 WIB\r\n-Produk 100% asli \r\n-Pengiriman langsung dari distributor resmi","rating":0}
{"no":0,"title":"ECER 4 PCS Permen Herbal Stamina Pria Obat SO. LOCO. AU Asli Kuat Herbal Pria","price":"210.000","seller":"NATURAL HERBAL","sellerPlace":"Jakarta Utara","url":"https://www.bukalapak.com/p/kesehatan-2359/obat-suplemen/obat-obatan/2bqad2g-jual-ecer-4-pcs-permen-herbal-stamina-pria-obat-so-loco-au-asli-kuat-herbal-pria?from=&product_owner=normal_seller","sold":123,"seen":149,"favorite":19,"updated":"2019-10-13 03:13:51","description":"Dijamin Asli 100%\r\n\r\n\r\nPALSU = UANG KEMBALI 1X LIPAT\r\n\r\n\r\nisi 4 permen\r\n\r\n\r\nsilahkan langsung di order ,\r\n\r\n\r\n1 permen tahan buat tempur 3 hari","rating":0}
{"no":0,"title":"Obat Pembesar Peni S Original","price":"170.000","seller":"RIZKY HERBAL","sellerPlace":"Jakarta Pusat","url":"https://www.bukalapak.com/p/kesehatan-2359/obat-suplemen/obat-obatan/1xeclvj-jual-obat-pembesar-peni-s-original?from=&product_owner=normal_seller","sold":120,"seen":233,"favorite":124,"updated":"2019-10-14 09:38:10","description":"READY STOCK, ORDER MASUK LANGSUNG DIKIRIM!!!!\r\n\r\nTITAN GEL HOLOGRAM RESMI TANTRA RUSSIA !!!\r\n\r\nDAN INGAT TITAN ASLI RUSSIA ITU ADA ANTIFAKE CODE NYA...\r\n\r\nAWAS PRODUK PALSU...!!! (JANGAN TERTIPU HARGA MURAH)\r\n\r\n\r\nMANFAAT:\r\n-Membantu meningkatkan volume alat vital hingga 60%.\r\n-Membantu memperpanjang ukuran Alat vital hingga 5 cm.\r\n-Membantu meningkatkan daya tahan pada saat-saat intim.\r\n-Membantu memperlama hubungan anda saat berhubungan.\r\n-Membantu memberikan tambahan stamina dan meningkatkan pengalaman bercinta.\r\n-Membantu efek positif pada daya tahan dan kesehatan libido.\r\n-Direkomendasikan, lebih baik, lebih aman, lebih kuat dan memperpanjang p*\r\n\r\n\r\nCARA PAKAI:\r\n-Gunakan setiap hari secara teratur dan rutin setelah setiap mandi / saat tubuh bersih. \r\n-Oleskan Titan Gel ke seluruh kemaluan secara merata lalu Pijatlah dengan gerakan searah mulai secara perlahan dari pangkal p* hingga ke ujung p* selama 10 menit.\r\n-Cream Titan gel ini cepat diserap & tidak meninggalkan bau yang tidak menyenangkan atau tanda.\r\n-Untuk hasil yang lebih menakjubkan,pakailah titan gel 1 jam sebelum melakukan hubungan intim dengan pasangan Anda.\r\n\r\n\r\n*JAMINAN MUTU & KUALITAS INTERNATIONAL\r\n*KEPUASAN CUSTOMER ADALAH PRIORITAS UTAMA KAMI","rating":0}
{"no":0,"title":"PEMBESAR P ENIS - OBAT - KUAT","price":"135.000","seller":"toko berkah herbal","sellerPlace":"Jakarta Pusat","url":"https://www.bukalapak.com/p/kesehatan-2359/obat-suplemen/obat-obatan/28lpjyl-jual-pembesar-p-enis-obat-kuat?from=&product_owner=normal_seller","sold":91,"seen":106,"favorite":92,"updated":"2019-10-13 05:35:01","description":"Packing rapi, rahasia terjamin!\r\nStock selalu ready\r\n===============\r\nMinyak Liintah Triple L \r\n\r\nKej4ntanan Anda kecil & Pendek? \r\nIstri tidak puas dengan senj4ta Anda?\r\n\r\nTidak sedikit pria yang merasa alt vitaIInya terlalu kecil sehingga merasa minder dan tidak bisa memuaskan istri. Misalpun bisa, kerap kali yang dialami istri ialah 0rgassmeee palsu untuk membuat senang suami. . Ketika istri tidak merasakan kepuasan, maka bisa jadi istri akan melirik laki-laki lain yang alat atau senj4tanya lebih besar dan tahan lama. Jika sudah demikian keharmonisan dalam rumah tangga pun jadi taruhan. \r\n\r\nSolusi yang tepat untuk masalah Anda ialah dengan memperbesar alat Anda agar bisa besar dan panjang serta kuat untuk memuaskan istri. Caranya sangat mudah dengan Minyak Liintah Super Triple L. \r\n\r\nTriple L terbuat dari minyak liintah murni kualitas super asli dari papua yang di rekomendasikan oleh para ahli karena zat aktif yang terkandung didalamnya telah teruji secara klinis dan terbukti mampu menambah ukuran pada alt vitaII. Selain berkhasiat juga aman di pakai tidak mengakibatkan iritasi maupun efek samping buruk bagi kesehatan. Khasiat Triple L sendiri sudah banyak dibuktikan hasilnya. \r\n\r\nManfaat Triple L\r\n- Menaikan masa otot dan panjang ukuran alat pria punya hingga 40%\r\n- Meningkatkan ukuran dan kekuatan vitall pria punya \r\n- Mengobati l3mah syhwat\r\n- Mengatasi ejak*lasi din*\r\n- memperpanjang sesi 0rgasmee pria\r\n\r\nDeskripsi produk: Triple L\r\nKemasan : Botol (lihat gambar)\r\nIsi : 15 ml\r\nDepkes. RI: IKOT 442/00060/V-2\r\nHarga : Rp.135.000,-\r\n\r\n1 Botol biasanya cukup untuk 3-4 minggu penggunaan rutin...\r\n\r\n----------------------PENTING-----------------------\r\nHATI-HATI PRODUK PALSU! PRODUK PALSU TIDAK MEMILIKI KHASIAT DAN BERBAHAYA BAGI KESEHATAN ORGAN VITAI.\r\nPRODUK PALSU DIJUAL DENGAN HARGA DIBAWAH HET (135.000/PRODUK) ATAU HARGA ECERAN TERENDAH!!! \r\nHATI-HATI !!! Jika Ada yng menjual dibawah harga HET dipastikan adalah produk palsu, karena harga bahan baku TRIPLE L tidak semurah yang produk palsu tawarkan!!!\r\nJANGAN TERGODA DENGAN IMING-IMING HARGA MURAH! PASTIKAN UNTUK SELALU MEMBELI PRODUK ASLI! SAYANGI KESEHATAN ORGAN VITAI ANDA !!!","rating":0}
{"no":0,"title":"MINYAK OBAT PEMBESAR PENIS---PRIA","price":"135.000","seller":"toko berkah herbal","sellerPlace":"Jakarta Pusat","url":"https://www.bukalapak.com/p/kesehatan-2359/obat-suplemen/obat-obatan/28m7lle-jual-minyak-obat-pembesar-penis-pria?from=&product_owner=normal_seller","sold":92,"seen":117,"favorite":94,"updated":"2019-10-13 16:49:46","description":"PACKING RAPI, RAHASIA TERJAMIN!\r\nSTOCK SELALU READY\r\n===============\r\n\r\nMinyak Liintah Triple L \r\n\r\nKej4ntanan Anda kecil & Pendek? \r\nIstri tidak puas dengan senj4ta Anda?\r\n\r\nTidak sedikit pria yang merasa alt vitaIInya terlalu kecil sehingga merasa minder dan tidak bisa memuaskan istri. Misalpun bisa, kerap kali yang dialami istri ialah 0rgassmeee palsu untuk membuat senang suami. . Ketika istri tidak merasakan kepuasan, maka bisa jadi istri akan melirik laki-laki lain yang alat atau senj4tanya lebih besar dan tahan lama. Jika sudah demikian keharmonisan dalam rumah tangga pun jadi taruhan. \r\n\r\nSolusi yang tepat untuk masalah Anda ialah dengan memperbesar alat Anda agar bisa besar dan panjang serta kuat untuk memuaskan istri. Caranya sangat mudah dengan Minyak Liintah Super Triple L. \r\n\r\nTriple L terbuat dari minyak liintah murni kualitas super asli dari papua yang di rekomendasikan oleh para ahli karena zat aktif yang terkandung didalamnya telah teruji secara klinis dan terbukti mampu menambah ukuran pada alt vitaII. Selain berkhasiat juga aman di pakai tidak mengakibatkan iritasi maupun efek samping buruk bagi kesehatan. Khasiat Triple L sendiri sudah banyak dibuktikan hasilnya. \r\n\r\nManfaat Triple L\r\n- Menaikan masa otot dan panjang ukuran alat pria punya hingga 40%\r\n- Meningkatkan ukuran dan kekuatan vitall pria punya \r\n- Mengobati l3mah syhwat\r\n- Mengatasi ejak*lasi din*\r\n- memperpanjang sesi 0rgasmee pria\r\n\r\nDeskripsi produk: Triple L\r\nKemasan : Botol (lihat gambar)\r\nIsi : 15 ml\r\nDepkes. RI: IKOT 442/00060/V-2\r\nHarga : Rp.135.000,-\r\n\r\n1 Botol biasanya cukup untuk 3-4 minggu penggunaan rutin...\r\n\r\n----------------------PENTING-----------------------\r\nHATI-HATI PRODUK PALSU! PRODUK PALSU TIDAK MEMILIKI KHASIAT DAN BERBAHAYA BAGI KESEHATAN ORGAN VITAI.\r\nPRODUK PALSU DIJUAL DENGAN HARGA DIBAWAH HET (135.000/PRODUK) ATAU HARGA ECERAN TERENDAH!!! \r\nHATI-HATI !!! Jika Ada yng menjual dibawah harga HET dipastikan adalah produk palsu, karena harga bahan baku TRIPLE L tidak semurah yang produk palsu tawarkan!!!\r\nJANGAN TERGODA DENGAN IMING-IMING HARGA MURAH! PASTIKAN UNTUK SELALU MEMBELI PRODUK ASLI! SAYANGI KESEHATAN ORGAN VITAI ANDA !!!","rating":0}
{"no":0,"title":"OBAT PEMBESAR PENIS-TRIIPLE L","price":"135.000","seller":"toko berkah herbal","sellerPlace":"Jakarta Pusat","url":"https://www.bukalapak.com/p/kesehatan-2359/obat-suplemen/obat-obatan/28m5p2b-jual-obat-pembesar-penis-triiple-l?from=&product_owner=normal_seller","sold":92,"seen":108,"favorite":90,"updated":"2019-10-13 09:48:08","description":"PACKING RAPI, RAHASIA TERJAMIN!\r\nSTOCK SELALU READY\r\n===============\r\n\r\nMinyak Liintah Triple L \r\n\r\nKej4ntanan Anda kecil & Pendek? \r\nIstri tidak puas dengan senj4ta Anda?\r\n\r\nTidak sedikit pria yang merasa alt vitaIInya terlalu kecil sehingga merasa minder dan tidak bisa memuaskan istri. Misalpun bisa, kerap kali yang dialami istri ialah 0rgassmeee palsu untuk membuat senang suami. . Ketika istri tidak merasakan kepuasan, maka bisa jadi istri akan melirik laki-laki lain yang alat atau senj4tanya lebih besar dan tahan lama. Jika sudah demikian keharmonisan dalam rumah tangga pun jadi taruhan. \r\n\r\nSolusi yang tepat untuk masalah Anda ialah dengan memperbesar alat Anda agar bisa besar dan panjang serta kuat untuk memuaskan istri. Caranya sangat mudah dengan Minyak Liintah Super Triple L. \r\n\r\nTriple L terbuat dari minyak liintah murni kualitas super asli dari papua yang di rekomendasikan oleh para ahli karena zat aktif yang terkandung didalamnya telah teruji secara klinis dan terbukti mampu menambah ukuran pada alt vitaII. Selain berkhasiat juga aman di pakai tidak mengakibatkan iritasi maupun efek samping buruk bagi kesehatan. Khasiat Triple L sendiri sudah banyak dibuktikan hasilnya. \r\n\r\nManfaat Triple L\r\n- Menaikan masa otot dan panjang ukuran alat pria punya hingga 40%\r\n- Meningkatkan ukuran dan kekuatan vitall pria punya \r\n- Mengobati l3mah syhwat\r\n- Mengatasi ejak*lasi din*\r\n- memperpanjang sesi 0rgasmee pria\r\n\r\nDeskripsi produk: Triple L\r\nKemasan : Botol (lihat gambar)\r\nIsi : 15 ml\r\nDepkes. RI: IKOT 442/00060/V-2\r\nHarga : Rp.135.000,-\r\n\r\n1 Botol biasanya cukup untuk 3-4 minggu penggunaan rutin...\r\n\r\n----------------------PENTING-----------------------\r\nHATI-HATI PRODUK PALSU! PRODUK PALSU TIDAK MEMILIKI KHASIAT DAN BERBAHAYA BAGI KESEHATAN ORGAN VITAI.\r\nPRODUK PALSU DIJUAL DENGAN HARGA DIBAWAH HET (135.000/PRODUK) ATAU HARGA ECERAN TERENDAH!!! \r\nHATI-HATI !!! Jika Ada yng menjual dibawah harga HET dipastikan adalah produk palsu, karena harga bahan baku TRIPLE L tidak semurah yang produk palsu tawarkan!!!\r\nJANGAN TERGODA DENGAN IMING-IMING HARGA MURAH! PASTIKAN UNTUK SELALU MEMBELI PRODUK ASLI! SAYANGI KESEHATAN ORGAN VITAI ANDA !!!","rating":0}
{"no":0,"title":"OBAT MINYAK PEMBESAR PENIS-ORIGINAL","price":"130.000","seller":"toko berkah herbal","sellerPlace":"Jakarta Pusat","url":"https://www.bukalapak.com/p/kesehatan-2359/obat-suplemen/obat-obatan/28m97k7-jual-obat-minyak-pembesar-penis-original?from=&product_owner=normal_seller","sold":91,"seen":104,"favorite":91,"updated":"2019-10-14 07:37:42","description":"RECOMENDED SELLER TELAH DIBUKTIKAN LEBIH DARI 500rb PELANGGAN!!!!\r\n\r\nSENJATA KECIL & LEMBEK?\r\n\r\nAlatvitall yang kecil, kurang panjang & lembek bisa jadi pemicu ketidakpuasan istri saat berhubungan. Jangan puas hanya karena istri orgasssme, BISA JADI ORGAssSME PALSU DAN ISTRI TAK PUAS!\r\nPuaskan istri dengan senjjata yang lebih besar, kuat & panjang!\r\n\r\nDengan Zhang Power, Anda bisa membesarkan senjata (alatvitall) Anda hingga 40% lebih besar, panjang & berurat. Tidak lembek dan loyo. \r\nZhang Power aman & alami, terbuat dari herbal piIihan terbukti memperbesar dan memperpanjang kejanntannan (alatvitalI) dengan aman & hasil permanen!\r\n\r\nKhasiat :\r\n* Mempertebal alatvitaIl pria secara alami\r\n* Menambah ereksii semakin kencang & kuat\r\n* Menambah gairah seksuaIl / libidoo pria\r\n* Mengobati disfungsi ereksii (impotensii) secara alami\r\n* Mengatasi ejakulasii dini\r\n* Memaksimalkan kekuatan ereksii hingga 10 kali lipat.\r\n\r\nAturan Pakai :\r\n1. Lakukan pengukuran alatvital anda sebelum memulainya dihari pertama.\r\n2. Oleskan Zhang Power tiga sampai lima tetes pada alatvitaIl, ratakan dari pangkal sampai ke ujung.\r\n3. Lakukan rangsangan pada alatvitaI Anda agar sedikit kencang.\r\n4. Lakukan pengurutan dari pangkal ke ujung.\r\n\r\n#HATI-HATI Produk TIRUAN! Zhang Power asli menggunakan bahan baku berkualitas tinggi yg telah teruji. Harga Produk HET ZHang Power Asli Rp.130.000. Jika Ada yng menjual dibawah harga HET dipastikan adalah produk palsu, karena harga bahan baku zhang power tidak semurah yang produk palsu tawarkan!!!\r\nKami tidak menerima klaim GARASI UANG KEMBALI 100% jika yg Anda beli bukan dari toko kami! \r\n\r\nLegalitas ZHANG POWER IKOT 442/00060/V-2 & MUI 05\r\n\r\nJADWAL PENGIRIMAN\r\nSENIN s/d JUMAT : pengiriman sampai jam 3 sore\r\nSABTU : pengiriman sampai jam 12 siang\r\n) ORDER yg diterima SETELAHNYA / hari LIBUR NASIONAL akan dikirim pada HARI KERJA BERIKUTNYA.\r\n) Paket DIKEMAS rapih TANPA MEREK/GAMBAR Produk RAHASIA TERJAMIN..","rating":0}
{"no":0,"title":"MINYAK. PEMBESAR. PENI S.","price":"130.000","seller":"JAKARTA STORE","sellerPlace":"Jakarta Utara","url":"https://www.bukalapak.com/p/kesehatan-2359/obat-suplemen/obat-obatan/1ro9xrp-jual-minyak-pembesar-peni-s?from=&product_owner=normal_seller","sold":163,"seen":799,"favorite":22,"updated":"2019-10-15 14:27:37","description":"STOK READY BANYAK, PRIVASI TERJAMIN 100% !!!!!!!!!!\r\n\r\nkhasiat Zhang Power:\r\n* Memperbesar dan memperpanjang ukuran alat vital pria 1-7 cm secara alami dan dalam waktu yang relatif singkat.\r\n* Mempertebal kulit alat vital secara alami.\r\n* Erexi semakin kencang dan kuat.\r\n* Manambah gairah seksual atau libido pria.\r\n* Mengobati disfungsi erexi (impotensi) secara alami.\r\n* Mengatasi ezakulasi dini.\r\n* Manambah kekuatan erekx hingga 10 kali lipat\r\n\r\nCARA PAKAI\r\n-Panjang dan besarnya alat vi tal hanya bisa bertambah secara normal sekitar 30 -40 %. Jika ukuran panjang sebelumnya 15 cm, maka setelah menggunakan maxxman oil, ukuran panjang maksimal mencapai sekitar 20 cm.\r\n-Agar tidak lekas bosan, luangkan waktu kusus dan tempat kusus untuk melakukannya. Misalnya tiap pagi hari dikamar mandi ketika mandi.\r\n-Jangan lekas puas jika Anda mendapatkan hasil yang cepat. Jika Anda langsung menghentikan ketika telah melihat hasil yang cepat ini, maka ukurannya kembali lagi keukuran normal.\r\n-Oleskan Zhang Power tiga tetes, ratakan dari pangkal sampai ke ujung.\r\n-Sedikit lakukan rangsangan kegenital Anda agar setengah ere xi.\r\n-Lakukan pengurutan dari pangkal ke ujung, dan tarik lebih keras ketika sampai diujung.\r\n-Dengan bantuan Zhang Power , Anda hanya perlu melakukan teknik ini selama 6 -8 menit saja dan dengan cepat melihat hasilnya\r\n\r\nProduced by : CV. Karya Abadi.\r\nNomor Regristrasi SIUP: 510/24/PK/VIII/2015\r\n\r\nKelebihan belanja di toko kami :\r\n1. Terjamin keamanan produknya 100% herbal\r\n2. legalitas resmi\r\n3. Original Brand\r\n4. Pelayanan maksimal . pengiriman dihari yang sama pembayaran sebelum pukul 15:00 WIB\r\n5. packing rapih aman dan terjamin kerahasiaannya\r\n6. Stock Selalu Ready","rating":0}
{"no":0,"title":"Obat Herbal Kuat Oles Tahan Lama Perkasa-Magic Oil","price":"210.000","seller":"RIZKY HERBAL","sellerPlace":"Jakarta Pusat","url":"https://www.bukalapak.com/p/kesehatan-2359/obat-suplemen/obat-obatan/1xeei2e-jual-obat-herbal-kuat-oles-tahan-lama-perkasa-magic-oil?from=&product_owner=normal_seller","sold":121,"seen":164,"favorite":120,"updated":"2019-10-14 09:37:43","description":"Dijamin 100% Original dari CV. KARYA ABADI !!!\r\nHarga untuk 1 Botol (15 ml)\r\nBarang selalu READY Stok gan, langsung klik BELI dan kami kirim hari ini juga \r\n\r\n----------------- P E N T I N G ----------------\r\n\r\nJADWAL PENGIRIMAN\r\n===================\r\nSENIN s/d JUMAT : pengiriman sampai jam 3 sore\r\nSABTU : pengiriman sampai jam 12 siang\r\n\r\n*) ORDER yang kami terima SETELAHNYA atau hari LIBUR NASIONAL akan dikirim pada HARI KERJA BERIKUTNYA.\r\n\r\n**) Paket DIKEMAS rapih TANPA MEREK/GAMBAR Produk... RAHASIA TERJAMIN..\r\n\r\n----------------- M A G I C - O I L ----------------\r\n\r\nMagic Oil merupakan produk berbahan herbal termutakhir hasil dari penelitian anggota Perhimpunan Herbalis Indonesia. Tidak seperti obatkuat pada umumnya, yang cara pemakaiannya dengan diminum, Magic Oil berbentuk oles, yaitu cairan yang dioleskan pada alatvital pria. Formula yang unik ini dirancang untuk memungkinkan konsumen menikmati ereksii dengan kualitas, fungsi dan kontrol yang kuat.\r\n\r\nKhasiat :\r\n* Membangun pelepasan hormone adrenalin yang dapat memperlebar pembuluh darah, sehingga tubuh menjadi hangat, darah mengalir lebih lancar dan tekanan darah menurun\r\n* Mengatasi masalah ejakulasii dini\r\n* Membangun ereksii, mencegah kemandulan dan memperkuat daya tahan sperma\r\n* Dapat meningkatkan ukuran alatvital pria serta membuatnya kencang\r\n* Meningkatkan libidoo.\r\n\r\nAturan Pakai :\r\n1. Oleskan Magic Oil satu atau dua kali sehari\r\n2. Pastikan alatvital Anda dalam keadaan bersih. \r\n3. Teteskan Magic Oil pada alatvital, cukup 3-5 tetes.\r\n4. Untuk aturan pakai selanjutnya ada dalam kemasan\r\n\r\n1 Botol MAGIC OIL berisi 15ml gunakan 1 atau maksimal 2 sehari\r\nbisa untuk 1 bulan pemakaian tergantung jumlah dan seringnya pemakaian","rating":0}
{"no":0,"title":"OBAT PEMBESAR PE-NIS-1","price":"130.000","seller":"toko berkah herbal","sellerPlace":"Jakarta Pusat","url":"https://www.bukalapak.com/p/kesehatan-2359/obat-suplemen/obat-obatan/28m7wqi-jual-obat-pembesar-pe-nis-1?from=&product_owner=normal_seller","sold":91,"seen":105,"favorite":92,"updated":"2019-10-12 14:28:18","description":"RECOMENDED SELLER TELAH DIBUKTIKAN LEBIH DARI 500rb PELANGGAN!!!!\r\n\r\nSENJATA KECIL & LEMBEK?\r\n\r\nAlatvitall yang kecil, kurang panjang & lembek bisa jadi pemicu ketidakpuasan istri saat berhubungan. Jangan puas hanya karena istri orgasssme, BISA JADI ORGAssSME PALSU DAN ISTRI TAK PUAS!\r\nPuaskan istri dengan senjjata yang lebih besar, kuat & panjang!\r\n\r\nDengan Zhang Power, Anda bisa membesarkan senjata (alatvitall) Anda hingga 40% lebih besar, panjang & berurat. Tidak lembek dan loyo. \r\nZhang Power aman & alami, terbuat dari herbal piIihan terbukti memperbesar dan memperpanjang kejanntannan (alatvitalI) dengan aman & hasil permanen!\r\n\r\nKhasiat :\r\n* Mempertebal alatvitaIl pria secara alami\r\n* Menambah ereksii semakin kencang & kuat\r\n* Menambah gairah seksuaIl / libidoo pria\r\n* Mengobati disfungsi ereksii (impotensii) secara alami\r\n* Mengatasi ejakulasii dini\r\n* Memaksimalkan kekuatan ereksii hingga 10 kali lipat.\r\n\r\nAturan Pakai :\r\n1. Lakukan pengukuran alatvital anda sebelum memulainya dihari pertama.\r\n2. Oleskan Zhang Power tiga sampai lima tetes pada alatvitaIl, ratakan dari pangkal sampai ke ujung.\r\n3. Lakukan rangsangan pada alatvitaI Anda agar sedikit kencang.\r\n4. Lakukan pengurutan dari pangkal ke ujung.\r\n\r\n#HATI-HATI Produk TIRUAN! Zhang Power asli menggunakan bahan baku berkualitas tinggi yg telah teruji. Harga Produk HET ZHang Power Asli Rp.130.000. Jika Ada yng menjual dibawah harga HET dipastikan adalah produk palsu, karena harga bahan baku zhang power tidak semurah yang produk palsu tawarkan!!!\r\nKami tidak menerima klaim GARASI UANG KEMBALI 100% jika yg Anda beli bukan dari toko kami! \r\n\r\nLegalitas ZHANG POWER IKOT 442/00060/V-2 & MUI 05\r\n\r\nJADWAL PENGIRIMAN\r\nSENIN s/d JUMAT : pengiriman sampai jam 3 sore\r\nSABTU : pengiriman sampai jam 12 siang\r\n) ORDER yg diterima SETELAHNYA / hari LIBUR NASIONAL akan dikirim pada HARI KERJA BERIKUTNYA.\r\n) Paket DIKEMAS rapih TANPA MEREK/GAMBAR Produk RAHASIA TERJAMIN..","rating":0}
{"no":0,"title":"OBAT HERBAL PENYUBUR PENAMBAH SPERMA","price":"200.000","seller":"Vitpro Herbal","sellerPlace":"Jakarta Timur","url":"https://www.bukalapak.com/p/kesehatan-2359/obat-suplemen/obat-obatan/1ll3k4t-jual-obat-herbal-penyubur-penambah-sperma?from=&product_owner=normal_seller","sold":139,"seen":708,"favorite":188,"updated":"2019-10-12 00:06:46","description":"Produk Selalu Ready, Silahkan Langsung diorder.\r\n\r\n\r\n“JAMINAN PRODUK ORIGINAL”\r\n\r\n\r\nPRIVASI TERJAGA - PACKING RAPI\r\n\r\n\r\nVertymale merupakan suplemen herbal yang berfungsi untuk meningkatkan kesuburan pria.\r\n\r\n\r\nVertymale terbuat dari 100% herbal alami berkhasiat yang terbukti mampu meningkatkan kualitas sperma, mengentalkan, memperbanyak sperma sekaligus meningkatkan kesuburan pria.\r\n\r\n\r\nKhasiat:\r\n\r\n\r\n*meningkatkan fertilitas dan kesuburan pria\r\n\r\n\r\n*memperbesar peluang untuk memiliki keturunan\r\n\r\n\r\n*meningkatkan kualitas sperma\r\n\r\n\r\n*meningkatkan liibido pria\r\n\r\n\r\n*memperbanyak air mani\r\n\r\n\r\n*mengentalkan sperma atau air mani\r\n\r\n\r\n*meningkatkan kepuasan saat berhubungan karena sperma yang dikeluarkan lebih banyak\r\n\r\n\r\n*mengobati mani encer karena membuat mani lebih kental\r\n\r\n\r\n*meningkatkan produksi hormon testosteron\r\n\r\n\r\n*meningkatkan stamina dan vitalitass pria\r\n\r\n\r\n*memperbaiki fungsi reproduksi pria\r\n\r\n\r\n*lebih kencang, kuat dan tahan lama\r\n\r\n\r\n*meningkatkan imunitas\r\n\r\n\r\n*meningkatkan volume enjakulasi\r\n\r\n\r\n*mencegah sekaligus menhgatasi enjakulasi dini\r\n\r\n\r\n*Jumlah kapsul & Aturan minum :\r\n\r\n\r\n\r\nPer botol isi 50 kapsul\r\n\r\nAturan minum 3x2 kapsul/hari.\r\n\r\n\r\n\r\n\r\nNB : simpan ditempat yang sejuk serta terhindar dari sinar matahari secara langsung.","rating":0}
{"no":0,"title":"MINYAK PEMBESAR PENI S.2","price":"170.000","seller":"RIZKY HERBAL","sellerPlace":"Jakarta Pusat","url":"https://www.bukalapak.com/p/kesehatan-2359/obat-suplemen/obat-obatan/1x6z0oc-jual-minyak-pembesar-peni-s-2?from=&product_owner=normal_seller","sold":119,"seen":271,"favorite":129,"updated":"2019-10-15 12:36:49","description":"READY STOCK, ORDER MASUK LANGSUNG DIKIRIM!!!!\r\n\r\nTITAN GEL HOLOGRAM RESMI TANTRA RUSSIA !!!\r\n\r\nDAN INGAT TITAN ASLI RUSSIA ITU ADA ANTIFAKE CODE NYA...\r\n\r\nAWAS PRODUK PALSU...!!! (JANGAN TERTIPU HARGA MURAH)\r\n\r\n\r\nMANFAAT:\r\n-Membantu meningkatkan volume alat vital hingga 60%.\r\n-Membantu memperpanjang ukuran Alat vital hingga 5 cm.\r\n-Membantu meningkatkan daya tahan pada saat-saat intim.\r\n-Membantu memperlama hubungan anda saat berhubungan.\r\n-Membantu memberikan tambahan stamina dan meningkatkan pengalaman bercinta.\r\n-Membantu efek positif pada daya tahan dan kesehatan libido.\r\n-Direkomendasikan, lebih baik, lebih aman, lebih kuat dan memperpanjang p*\r\n\r\n\r\nCARA PAKAI:\r\n-Gunakan setiap hari secara teratur dan rutin setelah setiap mandi / saat tubuh bersih. \r\n-Oleskan Titan Gel ke seluruh kemaluan secara merata lalu Pijatlah dengan gerakan searah mulai secara perlahan dari pangkal p* hingga ke ujung p* selama 10 menit.\r\n-Cream Titan gel ini cepat diserap & tidak meninggalkan bau yang tidak menyenangkan atau tanda.\r\n-Untuk hasil yang lebih menakjubkan,pakailah titan gel 1 jam sebelum melakukan hubungan intim dengan pasangan Anda.\r\n\r\n\r\n*JAMINAN MUTU & KUALITAS INTERNATIONAL\r\n*KEPUASAN CUSTOMER ADALAH PRIORITAS UTAMA KAMI","rating":0}
{"no":0,"title":"OBAT KESUBURAN PRIA","price":"260.000","seller":"FOOT HERBAL","sellerPlace":"Jakarta Pusat","url":"https://www.bukalapak.com/p/kesehatan-2359/obat-suplemen/obat-obatan/1t3ck6z-jual-obat-kesuburan-pria?from=&product_owner=normal_seller","sold":166,"seen":76,"favorite":0,"updated":"2019-10-13 17:15:48","description":"PUSAT SOLUSI MASALAH KESEHATAN: MENJUAL PRODUK ASLI 100% ORIGINAL dari CV. KARYA ABADI\r\n\r\n\r\n(S COUNT 100% SPERMA BERTAMBAH, KENTAL dan SUBUR ISI 50 Kapsul)\r\n\r\n\r\n(*) Berat volume yang tercantum dalam keterangan iklan 300 gram, itu merupakan berat barang dalam kondisi sudah di pack.\r\n\r\n\r\n(*) 1 kg ongkir muat 3 botol\r\n\r\n\r\nS COUNT merupakan produk herbal yg diolah dari 100% ekstrak herbal pilihan, menggunakan teknology modern dengan metode khusus yang menjamin kualitas dan kehigienisan produk. S COUNT ini sangat berbeda dari produk OBATKUAT KESUBURAN lainnya, dan dipastikan mempunyai khasiat dan kualitas yang paling unggul. Kualitas produk bisa terlihat setelah anda rutin minum Kapsul herbal S COUNT ini. Berbeda dengan produk lainnya yang menggunakan campuran bahan kimia yg berbahaya. Diproduksi oleh PT. LIZA HERBAL INTERNATIONAL dan Didistribusikan oleh CV. KARYA ABADI.\r\n\r\n\r\nKomposisi :\r\n\r\n\r\n1.\r\nPimpinella Pruatjan Radix Ekstrak 318 mg\r\n2.\r\nGingseng Radix Ekstrak 104 mg\r\n3.\r\nZingiber Officinale Rizoma Ekstrak 52 mg\r\n4.\r\nPiper retrofractum fructus Ekstrak 26 mg\r\n\r\n\r\n\r\nKhasiat :\r\n\r\n\r\n\r\nMemperbanyak jumlah sperma sampai 300%\r\n\r\nMeningkatkan kinerja seksuall Anda\r\n\r\nMeningkatkan kesuburan sperma\r\n\r\nMeningkatkan stamina pria\r\n\r\nMenjadikan durasi berhubungan lebih lama\r\n\r\nAnda selalu memiliki gairah sekss yang menggebu-gebu setiap saat\r\n\r\nMeningkatkan kualitas sperma\r\n\r\nMeningkatkan kesehatan pria secara keseluruhan, baik kesehatan seksuall dan tingkat kebugaran pria.\r\n\r\n\r\n\r\n\r\nDapat Dipakai :\r\n\r\n\r\nSemua Pria Dewasa yg Mempunyai Masalah Seputar Sperma Sedikit dan Tidak Subur\r\n\r\n\r\nAturan Pakai :\r\n\r\n\r\n1.\r\nMinum 1 atau 2 kapsul S COUNT 2x sehari 15 menit sebelum makan\r\n2.\r\nSebaiknya menggunakan air putih hangat untuk hasil yg lebih baik\r\n\r\n\r\n\r\n1 Botol S COUNT berisi 50 kapsul @500mg\r\n\r\n\r\nKeuntungan Belanja Di PUSAT SOLUSI MASALAH KESEHATAN\r\n\r\n\r\nPRODUK TERJAMIN ASLI 100% ORIGINAL\r\n\r\n\r\nBERGARANSI UANG KEMBALI 100% jika produk tidak sampai / rusak\r\n\r\n\r\nFREE PACKING\r\n\r\n\r\nMohon simak catatan lapak kami sebelum belanja :)","rating":0}
{"no":0,"title":"Obat Penyubur Sperma Alami","price":"200.000","seller":"Vitpro Herbal","sellerPlace":"Jakarta Timur","url":"https://www.bukalapak.com/p/kesehatan-2359/obat-suplemen/obat-obatan/1ll3k3z-jual-obat-penyubur-sperma-alami?from=&product_owner=normal_seller","sold":157,"seen":477,"favorite":191,"updated":"2019-10-05 07:02:38","description":"Produk Selalu Ready, Silahkan Langsung diorder.\r\n\r\n\r\n“JAMINAN PRODUK ORIGINAL”\r\n\r\n\r\nPRIVASI TERJAGA - PACKING RAPI\r\n\r\n\r\nVertymale merupakan suplemen herbal yang berfungsi untuk meningkatkan kesuburan pria.\r\n\r\n\r\nVertymale terbuat dari 100% herbal alami berkhasiat yang terbukti mampu meningkatkan kualitas sperma, mengentalkan, memperbanyak sperma sekaligus meningkatkan kesuburan pria.\r\n\r\n\r\nKhasiat:\r\n\r\n\r\n*meningkatkan fertilitas dan kesuburan pria\r\n\r\n\r\n*memperbesar peluang untuk memiliki keturunan\r\n\r\n\r\n*meningkatkan kualitas sperma\r\n\r\n\r\n*meningkatkan liibido pria\r\n\r\n\r\n*memperbanyak air mani\r\n\r\n\r\n*mengentalkan sperma atau air mani\r\n\r\n\r\n*meningkatkan kepuasan saat berhubungan karena sperma yang dikeluarkan lebih banyak\r\n\r\n\r\n*mengobati mani encer karena membuat mani lebih kental\r\n\r\n\r\n*meningkatkan produksi hormon testosteron\r\n\r\n\r\n*meningkatkan stamina dan vitalitass pria\r\n\r\n\r\n*memperbaiki fungsi reproduksi pria\r\n\r\n\r\n*lebih kencang, kuat dan tahan lama\r\n\r\n\r\n*meningkatkan imunitas\r\n\r\n\r\n*meningkatkan volume enjakulasi\r\n\r\n\r\n*mencegah sekaligus menhgatasi enjakulasi dini\r\n\r\n\r\n*Jumlah kapsul & Aturan minum :\r\n\r\n\r\n\r\nPer botol isi 50 kapsul\r\n\r\nAturan minum 3x2 kapsul/hari.\r\n\r\n\r\n\r\n\r\nNB : simpan ditempat yang sejuk serta terhindar dari sinar matahari secara langsung.","rating":0}
{"no":0,"title":"OBAT PEMBESAR PENIS---PRIA","price":"135.000","seller":"toko berkah herbal","sellerPlace":"Jakarta Pusat","url":"https://www.bukalapak.com/p/kesehatan-2359/obat-suplemen/obat-obatan/28m6l01-jual-obat-pembesar-penis-pria?from=&product_owner=normal_seller","sold":90,"seen":111,"favorite":93,"updated":"2019-10-12 14:33:58","description":"PACKING RAPI, RAHASIA TERJAMIN!\r\nSTOCK SELALU READY\r\n===============\r\n\r\nMinyak Liintah Triple L \r\n\r\nKej4ntanan Anda kecil & Pendek? \r\nIstri tidak puas dengan senj4ta Anda?\r\n\r\nTidak sedikit pria yang merasa alt vitaIInya terlalu kecil sehingga merasa minder dan tidak bisa memuaskan istri. Misalpun bisa, kerap kali yang dialami istri ialah 0rgassmeee palsu untuk membuat senang suami. . Ketika istri tidak merasakan kepuasan, maka bisa jadi istri akan melirik laki-laki lain yang alat atau senj4tanya lebih besar dan tahan lama. Jika sudah demikian keharmonisan dalam rumah tangga pun jadi taruhan. \r\n\r\nSolusi yang tepat untuk masalah Anda ialah dengan memperbesar alat Anda agar bisa besar dan panjang serta kuat untuk memuaskan istri. Caranya sangat mudah dengan Minyak Liintah Super Triple L. \r\n\r\nTriple L terbuat dari minyak liintah murni kualitas super asli dari papua yang di rekomendasikan oleh para ahli karena zat aktif yang terkandung didalamnya telah teruji secara klinis dan terbukti mampu menambah ukuran pada alt vitaII. Selain berkhasiat juga aman di pakai tidak mengakibatkan iritasi maupun efek samping buruk bagi kesehatan. Khasiat Triple L sendiri sudah banyak dibuktikan hasilnya. \r\n\r\nManfaat Triple L\r\n- Menaikan masa otot dan panjang ukuran alat pria punya hingga 40%\r\n- Meningkatkan ukuran dan kekuatan vitall pria punya \r\n- Mengobati l3mah syhwat\r\n- Mengatasi ejak*lasi din*\r\n- memperpanjang sesi 0rgasmee pria\r\n\r\nDeskripsi produk: Triple L\r\nKemasan : Botol (lihat gambar)\r\nIsi : 15 ml\r\nDepkes. RI: IKOT 442/00060/V-2\r\nHarga : Rp.135.000,-\r\n\r\n1 Botol biasanya cukup untuk 3-4 minggu penggunaan rutin...\r\n\r\n----------------------PENTING-----------------------\r\nHATI-HATI PRODUK PALSU! PRODUK PALSU TIDAK MEMILIKI KHASIAT DAN BERBAHAYA BAGI KESEHATAN ORGAN VITAI.\r\nPRODUK PALSU DIJUAL DENGAN HARGA DIBAWAH HET (135.000/PRODUK) ATAU HARGA ECERAN TERENDAH!!! \r\nHATI-HATI !!! Jika Ada yng menjual dibawah harga HET dipastikan adalah produk palsu, karena harga bahan baku TRIPLE L tidak semurah yang produk palsu tawarkan!!!\r\nJANGAN TERGODA DENGAN IMING-IMING HARGA MURAH! PASTIKAN UNTUK SELALU MEMBELI PRODUK ASLI! SAYANGI KESEHATAN ORGAN VITAI ANDA !!!","rating":0}
{"no":0,"title":"OBAT KUAT PRIA TAHAN LAMA BPOM.","price":"475.000","seller":"Toko Plus Plus","sellerPlace":"Jakarta Selatan","url":"https://www.bukalapak.com/p/kesehatan-2359/obat-suplemen/obat-obatan/1vprjvm-jual-obat-kuat-pria-tahan-lama-bpom?from=&product_owner=normal_seller","sold":188,"seen":326,"favorite":44,"updated":"2019-10-15 02:38:16","description":"PRODUK READY SILAHKAN LANGSUNG DIORDER..\r\nPROMO TERBATAS!!! BELI 1 PAKET DAPAT GRATIS 1 BOX VIREX\r\n\r\nPaket Obat Kusus Pria Dewasa Malam Pertama ini Berisi:\r\n\r\n1. Satu Botol obat kusus pria dewasa kapsul Lhiformen\r\n\r\nObat kusus pria Lhiformen adalah obat pria dewasa yang telah terdaftar di Badan POM dengan nomor regristrasi POM TR. 093 301 521 dan halal MUI 05 yang berkasiat agar errexsi lebih keras, meningkatkan libiddo dan menjaga stamina. Dengan menggunakan obat kusus pria dewasa Lhiformen anda akan mendapatkan keperkasaan layaknya paduan Arjuna dan Werkudara.\r\n\r\nLhifomen akan meningkatkan stamina pria hingga mencapai 10 kali sehingga pria akan mampu memuaskan istri, Anda tak perlu khawatir dengan efek samping konsumsi obat ini, karena Lhiformen terbuat dari 100% bahan herbal alami. Lhiformen adalah obat kusus pria dewasa BPOM pertama kali di Indonesa dengan jaminan keberhasilan. Anda bisa mengklaim uang kembali jika tidak berhasil.\r\n\r\n2. Satu Botol Obat Tahan Lama Semprot Durevel\r\n\r\nObat Semprot Durevel dengan ijin IKOT 442/00060/V-2 adalah obat herbal khusus pria dewasa yang cara pemakaiannya cukup disemprotkan pada bagian-bagian yang paling sensitif pada alat vital pria, yaitu bagian kepala, leher serta bagian bawah alat vital. Anda cukup menyemprotkan 3 kali dan tunggu 45 menit. Anda akan merasakan bagian-bagian alat vital yang sensitif menjadi kebas, atau tahan terhadap rangsangan seksual.\r\n\r\nDengan Paket Malam Pertama, hubungan suami istri Anda telalu terasa layaknya malam pertama!!! Ini adalah produk unggulan kami.\r\n\r\nToko Kami Sangat Recommended dan terpercaya karena terjamin legalitas dan keamanan produknya\r\nNama Perusahaan: CV. Karya Abadi\r\nSIUP :510/24/PK/VIII/2015","rating":0}
{"no":0,"title":"OBAT PEMBESAR PENI S","price":"240.000","seller":"ARUM HERBAL","sellerPlace":"Jakarta Pusat","url":"https://www.bukalapak.com/p/kesehatan-2359/obat-suplemen/obat-obatan/2a1dnxn-jual-obat-pembesar-peni-s?from=&product_owner=normal_seller","sold":89,"seen":133,"favorite":90,"updated":"2019-10-15 15:02:37","description":"READY STOCK, ORDER MASUK LANGSUNG DIKIRIM!!!!\r\n\r\nTITAN GOLD HOLOGRAM RESMI TANTRA RUSSIA !!!\r\n\r\nKUALITAS LEBIH BAGUS KETIMBANG TITAN GEL MERAH YA GAN!!!\r\n\r\nDAN INGAT TITAN GOLD ORIGINAL RUSSIA ITU ADA ANTIFAKE CODE NYA...\r\n\r\nAWAS PRODUK PALSU...!!! (JANGAN TERTIPU HARGA MURAH)\r\n\r\n\r\nMANFAAT MENGGUNAKAN TITAN GOLD ORIGINAL TANTRA RUSIA\r\n> Berfungsi untuk memperbesar dan memperpanjang alat vital\r\n> Menambah durasi tahan lama saat berhubungan intim\r\n> Menjadikan keras, kuat, kencang dan tahan lama\r\n> Mengatasi keluarnya sperma terlalu cepat\r\n> Meningkatkan Fungsi Ereksiy\r\n> Berfungsi untuk memperpanjang alat vital hingga 5 s/d 7 cm\r\n> Membantu meningkatkan volume alat vital hingga 65%\r\n> Merangsang pertumbuhan alat vital baik panjang dan lingkar\r\n> Membantu efek positif pada daya tahan dan kesehatan libido\r\n\r\n\r\nCARA PAKAI:\r\n-Gunakan setiap hari secara teratur dan rutin setelah setiap mandi / saat tubuh bersih. \r\n-Oleskan Titan Gel ke seluruh kemaluan secara merata lalu Pijatlah dengan gerakan searah mulai secara perlahan dari pangkal p* hingga ke ujung p* selama 10 menit.\r\n-Cream Titan gel ini cepat diserap & tidak meninggalkan bau yang tidak menyenangkan atau tanda.\r\n-Untuk hasil yang lebih menakjubkan,pakailah titan gel 1 jam sebelum melakukan hubungan intim dengan pasangan Anda.\r\n\r\n\r\n*JAMINAN MUTU & KUALITAS INTERNATIONAL\r\n*KEPUASAN CUSTOMER ADALAH PRIORITAS UTAMA KAMI","rating":0}
{"no":0,"title":"TOP -OBAT PEMBESAR PENI S","price":"240.000","seller":"ARUM HERBAL","sellerPlace":"Jakarta Pusat","url":"https://www.bukalapak.com/p/kesehatan-2359/obat-suplemen/obat-obatan/2a1ea7v-jual-top-obat-pembesar-peni-s?from=&product_owner=normal_seller","sold":91,"seen":123,"favorite":88,"updated":"2019-10-15 10:08:05","description":"READY STOCK, ORDER MASUK LANGSUNG DIKIRIM!!!!\r\n\r\nTITAN GOLD HOLOGRAM RESMI TANTRA RUSSIA !!!\r\n\r\nKUALITAS LEBIH BAGUS KETIMBANG TITAN GEL MERAH YA GAN!!!\r\n\r\nDAN INGAT TITAN GOLD ORIGINAL RUSSIA ITU ADA ANTIFAKE CODE NYA...\r\n\r\nAWAS PRODUK PALSU...!!! (JANGAN TERTIPU HARGA MURAH)\r\n\r\n\r\nMANFAAT MENGGUNAKAN TITAN GOLD ORIGINAL TANTRA RUSIA\r\n> Berfungsi untuk memperbesar dan memperpanjang alat vital\r\n> Menambah durasi tahan lama saat berhubungan intim\r\n> Menjadikan keras, kuat, kencang dan tahan lama\r\n> Mengatasi keluarnya sperma terlalu cepat\r\n> Meningkatkan Fungsi Ereksiy\r\n> Berfungsi untuk memperpanjang alat vital hingga 5 s/d 7 cm\r\n> Membantu meningkatkan volume alat vital hingga 65%\r\n> Merangsang pertumbuhan alat vital baik panjang dan lingkar\r\n> Membantu efek positif pada daya tahan dan kesehatan libido\r\n\r\n\r\nCARA PAKAI:\r\n-Gunakan setiap hari secara teratur dan rutin setelah setiap mandi / saat tubuh bersih. \r\n-Oleskan Titan Gel ke seluruh kemaluan secara merata lalu Pijatlah dengan gerakan searah mulai secara perlahan dari pangkal p* hingga ke ujung p* selama 10 menit.\r\n-Cream Titan gel ini cepat diserap & tidak meninggalkan bau yang tidak menyenangkan atau tanda.\r\n-Untuk hasil yang lebih menakjubkan,pakailah titan gel 1 jam sebelum melakukan hubungan intim dengan pasangan Anda.\r\n\r\n\r\n*JAMINAN MUTU & KUALITAS INTERNATIONAL\r\n*KEPUASAN CUSTOMER ADALAH PRIORITAS UTAMA KAMI","rating":0}
{"no":0,"title":"OBAT KUAT PRIA HERBAL TAHAN LAMA EJAKULASI DINI-Magic Oil","price":"210.000","seller":"toko herbal","sellerPlace":"Bekasi","url":"https://www.bukalapak.com/p/kesehatan-2359/obat-suplemen/obat-obatan/1wa9isn-jual-obat-kuat-pria-herbal-tahan-lama-ejakulasi-dini-magic-oil?from=&product_owner=normal_seller","sold":202,"seen":264,"favorite":92,"updated":"2019-10-14 23:17:20","description":"STOCK SELALU READY.... SILAHKAN DIORDER YA...\r\n\r\n# PRODUK DIJAMIN ORIGINAL 100% ( Ber-HOLOGRAM )\r\n# PRIVASI DIJAMIN AMAN DAN TERJAGA KERAHASIAANNYA \r\n# PENGIRIMAN CEPAT & FAST RESPOND\r\n# SUPALIER TANGAN PERTAMA, DIJAMIN ORI HAN HARGA LEBIH TERJANGKAU\r\n\r\nPROMO TERBATAS!!!\r\nBONUS KOPI VIREX 1 BOX ( RP.120.000 ) MINIMAL PEMBELIAN 2 PCS\r\n\r\nMagic Oil adalah obat oles herbal khusus bagi pria berbahan dasar minyak yang mampu meningkatkan erexi secara efektif. Obat Oles Magic Oil mampu memberikan hasil permanen, yang menjadikan erexi kuat serta keras. Tumbuh-tumbuhan herbal yang menjadi bahan dasar Magic Oil, menjamin Anda berada pada ZONA AMAN jika mempergunakannya dalam jangka panjang.\r\n\r\nMagic Oil bekerja untuk mengatasi masalah erexi kurang kuat, lembek, impotensi, disfungsi erexi, erxi tidak tahan lama, mani cepat keluar dll\r\n\r\nKasiat Magic Oil\r\n> Alat Vital Anda menjadi keras, kuat perkasa.\r\n> Anda merasakan sensasi yang luar biasa.\r\n> Kepercayaan diri meningkat - tidak malu pada performa kedewasaan Anda.\r\n> Memuaskan pasangan Anda\r\n> Pemakaian dalam jangka panjang, dapat memberikan hasil yang permanen dan akan mampu menambah (memperpanjang dan memperbesar) ukuran alat vital Anda.\r\n\r\nCara Penggunaan Magic Oil\r\n\r\nPemakaian Magic Oil adalah sehari satu kali dan maksimal dua kali. Sangat dianjurkan untuk menggunakan Magic Oil secara rutin tiap hari agar masalah alat vital Anda teratasi dan dan mendapatkan erexi yang kuat, kencang, keras dan tahan lama.\r\n\r\n> Pastikan alat vital Anda dalam keadaan bersih\r\n> Teteskan obat oles Magic Oil pada alat vital, cukup 3 - 5 tetes.\r\n> Ratakan menggunakan jari tangan atau telapak tangan hingga merata dari pangkal sampai ujung.\r\n> Gosokkan Magic Oil sampai benar-benar diserap kulit atau sampai sedikit bisa merasakan hangat, sekitar 30 detik.\r\n> Anda akan merasakan sedikit hangat sampai sekitar 5 menit setelah pemakaian.\r\n> Anda bisa berhubungan setelah 20 menit.\r\n\r\n\r\nDetail Produk :\r\n\r\nNama: Magic Oil\r\nIsi 15 ml\r\nDepkes. RI: IKOT 442/00060/V-2.","rating":0}
{"no":0,"title":"OBAT KUAT OLES HERBAL TAHAN LAMA","price":"475.000","seller":"FOOT HERBAL","sellerPlace":"Jakarta Pusat","url":"https://www.bukalapak.com/p/kesehatan-2359/obat-suplemen/obat-obatan/274u5cz-jual-obat-kuat-oles-herbal-tahan-lama?from=&product_owner=normal_seller","sold":136,"seen":321,"favorite":4,"updated":"2019-10-14 23:00:49","description":"Dijamin 100% Original dari CV. KARYA ABADI !!!\r\nHarga untuk 1 Botol (15 ml)\r\nBarang selalu READY Stok gan, langsung klik BELI dan kami kirim hari ini juga \r\n\r\n----------------- P E N T I N G ----------------\r\n\r\nJADWAL PENGIRIMAN\r\n===================\r\nSENIN s/d JUMAT : pengiriman sampai jam 3 sore\r\nSABTU : pengiriman sampai jam 12 siang\r\n\r\n*) ORDER yang kami terima SETELAHNYA atau hari LIBUR NASIONAL akan dikirim pada HARI KERJA BERIKUTNYA.\r\n\r\n**) Paket DIKEMAS rapih TANPA MEREK/GAMBAR Produk... RAHASIA TERJAMIN..\r\n\r\n\r\n----------------- DUREVEL ----------------\r\n\r\n\r\nManfaat DureVel dalam mengatasi masalah sekssual adalah:\r\n> Erreksi tahan lebih lama\r\n> Anda mampu melakukan penetrasi dalam durasi yang cukup lama\r\n> Ejjakulasi dini Anda berakhir\r\n> Anda akan merasakan sensasi orrgasme yang luar biasa\r\n> Hubungan sekss yang sangat memuaskan\r\n> Istri Anda akan bahagia karena Anda bisa membuatnya orrgasme berkali-kali\r\n> Keharmonisan Anda dan pasangan kembali terjalin\r\n\r\nDetail Produk:\r\n> Nama : Durevel Spray\r\n> Kemasan : Botol (lihat foto diatas)\r\n> Isi : 15 ml\r\n> Catatan: Simpan ditempat sejuk dan kering\r\n\r\nToko Kami Sangat Recommended dan terpercaya karena terjamin legalitas dan keamanan produknya\r\n\r\n\r\n----------------- M A G I C - O I L ----------------\r\n\r\nMagic Oil merupakan produk berbahan herbal termutakhir hasil dari penelitian anggota Perhimpunan Herbalis Indonesia. Tidak seperti obatkuat pada umumnya, yang cara pemakaiannya dengan diminum, Magic Oil berbentuk oles, yaitu cairan yang dioleskan pada alatvital pria. Formula yang unik ini dirancang untuk memungkinkan konsumen menikmati ereksii dengan kualitas, fungsi dan kontrol yang kuat.\r\n\r\nKhasiat :\r\n* Membangun pelepasan hormone adrenalin yang dapat memperlebar pembuluh darah, sehingga tubuh menjadi hangat, darah mengalir lebih lancar dan tekanan darah menurun\r\n* Mengatasi masalah ejakulasii dini\r\n* Membangun ereksii, mencegah kemandulan dan memperkuat daya tahan sperma\r\n* Dapat meningkatkan ukuran alatvital pria serta membuatnya kencang\r\n* Meningkatkan libidoo.\r\n\r\nAturan Pakai :\r\n1. Oleskan Magic Oil satu atau dua kali sehari\r\n2. Pastikan alatvital Anda dalam keadaan bersih. \r\n3. Teteskan Magic Oil pada alatvital, cukup 3-5 tetes.\r\n4. Untuk aturan pakai selanjutnya ada dalam kemasan\r\n\r\n1 Botol MAGIC OIL berisi 15ml gunakan 1 atau maksimal 2 sehari\r\nbisa untuk 1 bulan pemakaian tergantung jumlah dan seringnya pemakaian","rating":0}
{"no":0,"title":"OBAT KUAT- OBAT KUAT","price":"210.000","seller":"ARUM HERBAL","sellerPlace":"Jakarta Pusat","url":"https://www.bukalapak.com/p/kesehatan-2359/obat-suplemen/obat-obatan/2a1b2ea-jual-obat-kuat-obat-kuat?from=&product_owner=normal_seller","sold":89,"seen":128,"favorite":87,"updated":"2019-10-14 13:34:02","description":"Dijamin 100% Original dari CV. KARYA ABADI !!!\r\nHarga untuk 1 Botol (15 ml)\r\nBarang selalu READY Stok gan, langsung klik BELI dan kami kirim hari ini juga \r\n\r\n----------------- P E N T I N G ----------------\r\n\r\nJADWAL PENGIRIMAN\r\n===================\r\nSENIN s/d JUMAT : pengiriman sampai jam 3 sore\r\nSABTU : pengiriman sampai jam 12 siang\r\n\r\n*) ORDER yang kami terima SETELAHNYA atau hari LIBUR NASIONAL akan dikirim pada HARI KERJA BERIKUTNYA.\r\n\r\n**) Paket DIKEMAS rapih TANPA MEREK/GAMBAR Produk... RAHASIA TERJAMIN..\r\n\r\n----------------- M A G I C - O I L ----------------\r\n\r\nMagic Oil merupakan produk berbahan herbal termutakhir hasil dari penelitian anggota Perhimpunan Herbalis Indonesia. Tidak seperti obatkuat pada umumnya, yang cara pemakaiannya dengan diminum, Magic Oil berbentuk oles, yaitu cairan yang dioleskan pada alatvital pria. Formula yang unik ini dirancang untuk memungkinkan konsumen menikmati ereksii dengan kualitas, fungsi dan kontrol yang kuat.\r\n\r\nKhasiat :\r\n* Membangun pelepasan hormone adrenalin yang dapat memperlebar pembuluh darah, sehingga tubuh menjadi hangat, darah mengalir lebih lancar dan tekanan darah menurun\r\n* Mengatasi masalah ejakulasii dini\r\n* Membangun ereksii, mencegah kemandulan dan memperkuat daya tahan sperma\r\n* Dapat meningkatkan ukuran alatvital pria serta membuatnya kencang\r\n* Meningkatkan libidoo.\r\n\r\nAturan Pakai :\r\n1. Oleskan Magic Oil satu atau dua kali sehari\r\n2. Pastikan alatvital Anda dalam keadaan bersih. \r\n3. Teteskan Magic Oil pada alatvital, cukup 3-5 tetes.\r\n4. Untuk aturan pakai selanjutnya ada dalam kemasan\r\n\r\n1 Botol MAGIC OIL berisi 15ml gunakan 1 atau maksimal 2 sehari\r\nbisa untuk 1 bulan pemakaian tergantung jumlah dan seringnya pemakaian","rating":0}
{"no":0,"title":"JAMU KUAT PRIA","price":"125.000","seller":"ARUM HERBAL","sellerPlace":"Jakarta Pusat","url":"https://www.bukalapak.com/p/kesehatan-2359/obat-suplemen/obat-obatan/2a1bqku-jual-jamu-kuat-pria?from=&product_owner=normal_seller","sold":89,"seen":155,"favorite":88,"updated":"2019-10-14 13:34:20","description":"Dijamin 100% Original dari CV. KARYA ABADI !!!\r\nHarga untuk 1 Box isi 6 sachet kopi\r\nBarang selalu READY Stok gan, langsung klik BELI dan kami kirim hari ini juga\r\n\r\nJADWAL PENGIRIMAN\r\n===================\r\nSENIN s/d JUMAT : pengiriman sampai jam 3 sore\r\nSABTU : pengiriman sampai jam 12 siang\r\n\r\n*) ORDER yang kami terima SETELAHNYA atau hari LIBUR NASIONAL akan dikirim pada HARI KERJA BERIKUTNYA.\r\n**) Paket DIKEMAS rapih TANPA MEREK/GAMBAR Produk... RAHASIA TERJAMIN..\r\n\r\nKopi virex adl kopi yang mempunyai citarasa khas perpaduan kopi arabica dan herbal pilihan yang berkhasiat tinggi meningkatkan stamina, gairah dan keperkasaan pria. Dengan minum 1 sachet kopi virex anda akan merasakan gairah dan stamina Anda yang meningkat. Selanjutnya Anda akan merasakan dorongan sekzuaI meningkat. Sangat cocok diminum disore hari untuk menghilangkan rasa lelah kan lesu karena seharian bekerja, dan selanjutnya Anda dapat memuaskan istri anda ketika hendak tidur.\r\n\r\nKhasiat Kopi Virex\r\n'' Meningkatkan stamina pria\r\n'' Meningkatkan keperkasaan pria\r\n'' Membuat erexsi keras dan tahan lama\r\n'' Mengatasi masalah 3jakulassi dini\r\n'' Mengatasi disfungsi erexsi/impotensi pada pria\r\n'' Memperlancar aliran darah ke alat vtal\r\n'' Meningkatkan gairah seksual\r\n'' Mencegah dan mengatasi Andropouse\r\n'' Mengatasi masalah Prostat.\r\n\r\nKomposisi Kopi Virex\r\n- Kopi Arabica (Coffea arabica)\r\n- Maca Root, akar maca (Lepidium meyenii)\r\n- Tribullus (Tribullus Terrestris)\r\n- Buah Plum (Prunus domestica)\r\n- Gula\r\n\r\nDetail Produk\r\n~ Nama: Kopi Virex\r\n~ Harga Rp 125.000 \r\n~ Kemasan: 1 Box isi 6 Sachet @ 25 g.\r\n~ P-ITR No: 5103 5243 50805-23\r\n\r\nAturan Pakai Virex Coffee\r\nTuangkan air mendidih 180ml pada 1sachet Virex Coffee lalu aduk.\r\nMinum 1 sachet setiap 3hari sekali (1 sachet kopi virex khasiatnya akan terasa sampai 3 hari). Sangat direkomendasikan dikonsumsi 2 sampai 4 jam sebelum berhubungan suami istri. Aman & cocok di konsumsi pria dan wanita","rating":0}
{"no":0,"title":"OBAT HERBAL KUAT PRIA DIABETES - DISFUNGSI EREKSI - IMPOTENSI - XCURE","price":"260.000","seller":"toko berkah herbal","sellerPlace":"Jakarta Pusat","url":"https://www.bukalapak.com/p/kesehatan-2359/obat-suplemen/obat-obatan/28lot47-jual-obat-herbal-kuat-pria-diabetes-disfungsi-ereksi-impotensi-xcure?from=&product_owner=normal_seller","sold":90,"seen":201,"favorite":94,"updated":"2019-10-14 02:59:34","description":"SELAMAT DATANG DI TOKO ONLINE KAMI.\r\nPacking rapi, rahasia terjamin!\r\nStock selalu ready\r\n\r\nGARANSI PRODUK ASLI ATAU UANG Anda KEMBALI 100%\r\nNomor Regristrasi SIUP: 510/24/PK/VIII/2015\r\n\r\nTOKO KAMI SELALU :\r\n1. Terjamin keamanan produknya 100% herbal\r\n2. legalitas resmi / Original Brand/No KW/No abal2\r\n3. Pelayanan maksimal (pengiriman dihari yang sama via jne jika sebelum pukul 15:00 WIB )\r\n5. Stock Selalu Ready , silahkan langsung bisa diorder .\r\nTENANG SAJA..!!! PACKING RAPI RAHASIA TERJAMIN AMAN .!\r\n\r\n.-----------------------XCURE----------------------\r\n\r\nEfek buruk diabetes tidak hanya mengakibatkan luka sulit sembuh, obesitas, gangguan ginjal dan fungsi jaringan. Tetapi juga dapat berakibat fatal bagi kehidupan sekzuaI bersama pasangan. Diabetes dapat merusak jaringan pada organ-organ sekzuaI sehingga mengakibatkan lmpotensl (altvitaI susah berdiri), ejjakuIasi dinni (cepat keluar) dan fungsi reprodukksi (mengakibatkan kemanduIan).\r\n\r\nJika sudah mengganggu fungsi sekzuaI tentunya akan berdampak juga pada keharmonisan rumah tangga. Untuk itu, penanganan yang tepat dengan obat yang sesuai dengan menggunakan XCURE adalah pilihan bijak.\r\n\r\nXCURE merupakan obat herbal untuk mengobati lmpotensl dan gangguan sekzuaI lainnya yang diakibatkan oleh penyakit diabetes. XCURE bekerja cepat dan aman dengan memperbaiki fungsi dan jaringan organ sekzuaI dan reprodukssi yang rusak akibat diabetes. Sehingga kehidupan sekzuaI dapat kembali harmonis.\r\n\r\nSelain itu XCURE juga bekerja secara efektif membantu menetralkan gula darah sehingga diabetes dapat terobati.\r\n\r\nBahan-bahan yg digunakan dalam pembuatan X CURE 100% alami tanpa campuran bahan kimia apapun, terbuat dari herbal pilihan yg aman dikonsumsi rutin dan tanpa efek samping.\r\nKomposisi X CURE :\r\n1. Pimpinella Pruatjan Radic\r\n2. Gingseng Radix\r\n3. Eurycoma Longifolia\r\n4. Zygophyllaceae\r\n5. Annona Muricata L.\r\n6. Garcinia Mangostana L.\r\n\r\nKhasiat X CURE :\r\n> Merileksasikan Otot.\r\n> Membantu mengobati pusing kepala, cepat ngantuk, rasa lelah dan meningkatkan stamina.\r\n> Membantu melancarkan sirkulasi darah ke sistem reproduksi Anda, sehingga kekencangan kulit bisa lebih dan stamina akan meningkat\r\n> Membantu meningkatkan kontrol otot polos pada kulit, sehingga mampu mencapai penegangan kulit dengan sempurna.\r\n> Memperbaiki kerusakan jaringan pada organ sekzuaII yang rusak akibat diabetes secara cepat dan alami.\r\n> Bekerja secara sistemasis dan konstruktif menyembuhkan diabetes secara bertahap.\r\n\r\nAturan MINUM X CURE :\r\n1. Minum 1 atau 2 kapsul 2x sehari 15 menit sebelum makan\r\n2. Sebaiknya menggunakan air hangat untuk hasil lebih maksimal\r\n3. Perbanyak minum air putih, hindari rokok, alkohol dan narkoba.\r\n\r\nDetail Produk:\r\nNama: X CURE\r\nKemasan: Botol\r\nIsi: 50 kapsul @ 500 mg\r\nDepkes. RI: POM TR 163 398 121\r\n\r\nX CURE adalah obat herbal yg bersifat menyembuhkan permanen. Khasiat akan terasa secara bertahap tidak seperti obat kimia yg instan dan berbahaya.\r\nObat ini terbuat dari bahan herbal pilihan dan dijamin tidak menimbulkan efek samping berbahaya dan ketergantungan","rating":0}
{"no":0,"title":"MINYAK PEMBESAR PENIS-ORI","price":"130.000","seller":"toko berkah herbal","sellerPlace":"Jakarta Pusat","url":"https://www.bukalapak.com/p/kesehatan-2359/obat-suplemen/obat-obatan/28m9qhb-jual-minyak-pembesar-penis-ori?from=&product_owner=normal_seller","sold":90,"seen":108,"favorite":92,"updated":"2019-10-13 12:06:07","description":"RECOMENDED SELLER TELAH DIBUKTIKAN LEBIH DARI 500rb PELANGGAN!!!!\r\n\r\nSENJATA KECIL & LEMBEK?\r\n\r\nAlatvitall yang kecil, kurang panjang & lembek bisa jadi pemicu ketidakpuasan istri saat berhubungan. Jangan puas hanya karena istri orgasssme, BISA JADI ORGAssSME PALSU DAN ISTRI TAK PUAS!\r\nPuaskan istri dengan senjjata yang lebih besar, kuat & panjang!\r\n\r\nDengan Zhang Power, Anda bisa membesarkan senjata (alatvitall) Anda hingga 40% lebih besar, panjang & berurat. Tidak lembek dan loyo. \r\nZhang Power aman & alami, terbuat dari herbal piIihan terbukti memperbesar dan memperpanjang kejanntannan (alatvitalI) dengan aman & hasil permanen!\r\n\r\nKhasiat :\r\n* Mempertebal alatvitaIl pria secara alami\r\n* Menambah ereksii semakin kencang & kuat\r\n* Menambah gairah seksuaIl / libidoo pria\r\n* Mengobati disfungsi ereksii (impotensii) secara alami\r\n* Mengatasi ejakulasii dini\r\n* Memaksimalkan kekuatan ereksii hingga 10 kali lipat.\r\n\r\nAturan Pakai :\r\n1. Lakukan pengukuran alatvital anda sebelum memulainya dihari pertama.\r\n2. Oleskan Zhang Power tiga sampai lima tetes pada alatvitaIl, ratakan dari pangkal sampai ke ujung.\r\n3. Lakukan rangsangan pada alatvitaI Anda agar sedikit kencang.\r\n4. Lakukan pengurutan dari pangkal ke ujung.\r\n\r\n#HATI-HATI Produk TIRUAN! Zhang Power asli menggunakan bahan baku berkualitas tinggi yg telah teruji. Harga Produk HET ZHang Power Asli Rp.130.000. Jika Ada yng menjual dibawah harga HET dipastikan adalah produk palsu, karena harga bahan baku zhang power tidak semurah yang produk palsu tawarkan!!!\r\nKami tidak menerima klaim GARASI UANG KEMBALI 100% jika yg Anda beli bukan dari toko kami! \r\n\r\nLegalitas ZHANG POWER IKOT 442/00060/V-2 & MUI 05\r\n\r\nJADWAL PENGIRIMAN\r\nSENIN s/d JUMAT : pengiriman sampai jam 3 sore\r\nSABTU : pengiriman sampai jam 12 siang\r\n) ORDER yg diterima SETELAHNYA / hari LIBUR NASIONAL akan dikirim pada HARI KERJA BERIKUTNYA.\r\n) Paket DIKEMAS rapih TANPA MEREK/GAMBAR Produk RAHASIA TERJAMIN..","rating":0}
{"no":0,"title":"Obat kuat Tahan Lama Untuk Pria Atasi Eja kulasi Maupun disfungsi ereksi impotensi lemah syahwat penambah stamina pria","price":"240.000","seller":"toko herbal","sellerPlace":"Bekasi","url":"https://www.bukalapak.com/p/kesehatan-2359/obat-suplemen/obat-obatan/26l987k-jual-obat-kuat-tahan-lama-untuk-pria-atasi-eja-kulasi-maupun-disfungsi-ereksi-impotensi-lemah-syahwat-penambah-stamina-pria?from=&product_owner=normal_seller","sold":2021,"seen":176,"favorite":53,"updated":"2019-10-15 13:59:36","description":"READY BANYAK.. BISA LANGSUNG DIORDER \r\nPROMO TERBATAS !!! HANYA BELI 2 PCS LANGSUNG DAPAT GRATIS 1 BOX VITEX\r\n\r\nObat Suplemen Khusus Pria Kuat Perkasa Tahan Lama LHIFORMEN Ijin BPOM\r\n\r\nLHIFORMEN adalah obat herbal pria dewasa yang AMPUH mengatasi berbagai masalah seksual seperti gairah yang tiba-tiba hilang, alat vital tidak bisa berdiri dan cepat keluar (ED) yang disebabkan karena berbagai faktor.\r\n\r\nLhifomen juga dikenal sebagai jamu kuat serba guna yang sangat berpengalaman dalam mengatasi masalah gangguan seksual Anda. Jika Anda mengalami gangguan seksual seperti halnya sering mengalami ejakula5i, terkena disfungsi 3r3ksi, 3r3ksi p3ni5 kurang kuat dan kencang, lemah syahwat, kurang bertenaga, tidak tahan lama di ranjang, serta kurang bergairah dalam melakukan hubungan dengan istri Anda kami sangat sarankan untuk memakai obat pria tahan lama LHIFORMEN.\r\n\r\nObat herbal pria dewasa ini sangat cocok mengatasi masalah seksual yang dituliskan diatas, obat ini juga sudah teruji dan terbukti aman.\r\n\r\nFUNGSI OBAT TAHAN LAMA LHIFORMEN:\r\n* Meningkatkan daya tahan tubuh.\r\n* Memelihara stamina pria dewasa.\r\n* Mengatasi alat vital yang tidak bisa berdiri.\r\n* Mengatasi letih, lesu dan loyo.\r\n* Alat vital berdiri lebih kuat, keras dan tahan lama.\r\n* Durasi saat berhubungan akan tambah lama.\r\n\r\nATURAN MINUM:\r\nSehari 1x2 kapsul dengan menggunakan air putih hangat (supaya cepat larut) , diminum pagi hari dan 1 jam sebelum tidur malam\r\n\r\nKOMPOSISI LHIFORMEN:\r\n1. Piperis nigri fructus ekstrak (lada hitam) 80 mg\r\n2. Ocinum sanctum folius ekstrak (kemangi) 89 mg\r\n3. Bee pollen 74 mg\r\n4. Pimpinella pruatjan radic ekstrak (purwo ceng) 81 mg\r\n5. Arecae semen ekstrak (buah pinang) 82 mg\r\n6. Piper retrofracti fructus ekstrak (cabai jawa) 89 mg\r\n\r\nDETAIL PRODUK:\r\nNama: Lhiformen\r\nKemasan: Botol\r\nIsi: 50 kapsul @ 500 mg\r\nIjin BPOM: POM TR. 093301521\r\nHalal MUI: 01173000160905","rating":0}
{"no":0,"title":"OBAT-KUAT","price":"480.000","seller":"toko berkah herbal","sellerPlace":"Jakarta Pusat","url":"https://www.bukalapak.com/p/kesehatan-2359/obat-suplemen/obat-obatan/28lizz6-jual-obat-kuat?from=&product_owner=normal_seller","sold":89,"seen":153,"favorite":92,"updated":"2019-10-13 13:19:01","description":"Dijamin 100% Original dari CV. KARYA ABADI !!!\r\nHarga untuk 1 Paket (Lhiformen & Durevel)\r\nBarang selalu READY Stok gan, langsung klik BELI dan kami kirim hari ini juga\r\n\r\n----------------- P E N T I N G ----------------\r\n\r\nJADWAL PENGIRIMAN\r\n===================\r\nSENIN s/d JUMAT : pengiriman sampai jam 3 sore\r\nSABTU : pengiriman sampai jam 12 siang\r\n\r\n*) ORDER yang kami terima SETELAHNYA atau hari LIBUR NASIONAL akan dikirim pada HARI KERJA BERIKUTNYA.\r\n\r\n**) Paket DIKEMAS rapih TANPA MEREK/GAMBAR Produk... RAHASIA TERJAMIN..\r\n\r\n----------------- PAKET - HONEYMOON ----------------\r\n\r\nPaket Malam Pertama adalah obat herbal khusus pria dewasa yang telah terdaftar di Badan POM POM TR. 093 301 521 dan mendapatkan sertifikasi halal dari MUI. Berisi 2 obatkuat, 1 botol LHIFORMEN isi 50 Kapsul dan 1 botol DUREVEL SPRAY isi 15ml. Zat aktif alami dari obat herbal ini sudah terbukti khasiatnya, sebagai pembangun stamina, dan sebagai \"therapeutik\", yaitu merileksasikan jaringan pembuluh darah di daerah genital sehingga Anda mampu mencapai ereksii yg maksimal. Bahan herbal yang diformulakan dalam obat ini terbukti diterima oleh tubuh dengan sangat baik. Dan yg paling penting Malam Pertama anda akan SUKSES.\r\n\r\nKhasiat :\r\n* Membuat ereksii keras dan tahan lama\r\n* Mengatasi ejakulasidini dan disfungsiereksi\r\n* Meningkatkan libidoo pria\r\n* Menyuburkan sperma\r\n* Membuat durasi hubungan tahan lama\r\n* Sangat dianjurkan untuk Anda yang mempunyai kamampuan seksuall menurun, tidak bergairah dan impotensii\r\n* Menjadikan orgasmee lebih nikmat dan mengesankan\r\n\r\nAturan Pakai :\r\nAda dalam kemasan","rating":0}
{"no":0,"title":"OBAT MINYAK KUAT OLES PEMBESAR PENI S","price":"135.000","seller":"toko berkah herbal","sellerPlace":"Jakarta Pusat","url":"https://www.bukalapak.com/p/kesehatan-2359/obat-suplemen/obat-obatan/28m501h-jual-obat-minyak-kuat-oles-pembesar-peni-s?from=&product_owner=normal_seller","sold":90,"seen":111,"favorite":91,"updated":"2019-10-14 03:28:04","description":"PACKING RAPI, RAHASIA TERJAMIN!\r\nSTOCK SELALU READY\r\n===============\r\n\r\nMinyak Liintah Triple L \r\n\r\nKej4ntanan Anda kecil & Pendek? \r\nIstri tidak puas dengan senj4ta Anda?\r\n\r\nTidak sedikit pria yang merasa alt vitaIInya terlalu kecil sehingga merasa minder dan tidak bisa memuaskan istri. Misalpun bisa, kerap kali yang dialami istri ialah 0rgassmeee palsu untuk membuat senang suami. . Ketika istri tidak merasakan kepuasan, maka bisa jadi istri akan melirik laki-laki lain yang alat atau senj4tanya lebih besar dan tahan lama. Jika sudah demikian keharmonisan dalam rumah tangga pun jadi taruhan. \r\n\r\nSolusi yang tepat untuk masalah Anda ialah dengan memperbesar alat Anda agar bisa besar dan panjang serta kuat untuk memuaskan istri. Caranya sangat mudah dengan Minyak Liintah Super Triple L. \r\n\r\nTriple L terbuat dari minyak liintah murni kualitas super asli dari papua yang di rekomendasikan oleh para ahli karena zat aktif yang terkandung didalamnya telah teruji secara klinis dan terbukti mampu menambah ukuran pada alt vitaII. Selain berkhasiat juga aman di pakai tidak mengakibatkan iritasi maupun efek samping buruk bagi kesehatan. Khasiat Triple L sendiri sudah banyak dibuktikan hasilnya. \r\n\r\nManfaat Triple L\r\n- Menaikan masa otot dan panjang ukuran alat pria punya hingga 40%\r\n- Meningkatkan ukuran dan kekuatan vitall pria punya \r\n- Mengobati l3mah syhwat\r\n- Mengatasi ejak*lasi din*\r\n- memperpanjang sesi 0rgasmee pria\r\n\r\nDeskripsi produk: Triple L\r\nKemasan : Botol (lihat gambar)\r\nIsi : 15 ml\r\nDepkes. RI: IKOT 442/00060/V-2\r\nHarga : Rp.135.000,-\r\n\r\n1 Botol biasanya cukup untuk 3-4 minggu penggunaan rutin...\r\n\r\n----------------------PENTING-----------------------\r\nHATI-HATI PRODUK PALSU! PRODUK PALSU TIDAK MEMILIKI KHASIAT DAN BERBAHAYA BAGI KESEHATAN ORGAN VITAI.\r\nPRODUK PALSU DIJUAL DENGAN HARGA DIBAWAH HET (135.000/PRODUK) ATAU HARGA ECERAN TERENDAH!!! \r\nHATI-HATI !!! Jika Ada yng menjual dibawah harga HET dipastikan adalah produk palsu, karena harga bahan baku TRIPLE L tidak semurah yang produk palsu tawarkan!!!\r\nJANGAN TERGODA DENGAN IMING-IMING HARGA MURAH! PASTIKAN UNTUK SELALU MEMBELI PRODUK ASLI! SAYANGI KESEHATAN ORGAN VITAI ANDA !!!","rating":0}
{"no":0,"title":"Obat Herbal Tahan Lama Penambah Stamina Pria-Obat Kuat Durevel","price":"280.000","seller":"RIZKY HERBAL","sellerPlace":"Jakarta Pusat","url":"https://www.bukalapak.com/p/kesehatan-2359/obat-suplemen/obat-obatan/1xefp76-jual-obat-herbal-tahan-lama-penambah-stamina-pria-obat-kuat-durevel?from=&product_owner=normal_seller","sold":117,"seen":198,"favorite":120,"updated":"2019-10-15 08:08:53","description":"Dijamin 100% Original dari CV. KARYA ABADI !!!\r\nHarga untuk 1 Botol (15 ml)\r\nBarang selalu READY Stok gan, \r\n\r\n----------------- P E N T I N G ----------------\r\n\r\nJADWAL PENGIRIMAN\r\n\r\nSENIN s/d JUMAT : pengiriman sampai jam 3 sore\r\nSABTU : pengiriman sampai jam 12 siang\r\n\r\n\r\n**) Paket DIKEMAS rapih TANPA MEREK/GAMBAR Produk... RAHASIA TERJAMIN..\r\n\r\n----------------- D U R E V E L - S P R A Y Obat Herbal Tahan Lama Pria Terbaik Di Indonesia-------------\r\n\r\nDurevel Spray adalah formula herbal yang terbuat dari ekstrak tanaman herbal terbaik yang berkhasiat tinggi dalam membantu mengatasi ejakulasii dini secara nyata dan aman.\r\nDurevel berbahan dasar air dan dikemas dalam botol kaca spray. \r\nHal ini menjadikan Anda sangat mudah menggunakannya, cukup disemprotkan dan tunggu hasilnya setelah 45 menit. \r\n\r\nKhasiat :\r\n* Membantu Anda untuk kuat dan tahan lebih lama berhubungan bersama pasangan\r\n* Durasi berhubungan lebih lama\r\n* Ejakulasii Dini Anda berakhir\r\n* Anda akan merasakan sensasi yang luar biasa\r\nAturan Pakai :\r\n1. Anda hanya perlu menyemprotkan Durevel ke alatvital Anda dengan sedikit pijatan untuk meratakannya.\r\n2. Alatvital Anda akan terasa hangat setelah 10 menit.\r\n3. Tunggu selama 45 menit.\r\n4. Durevel bisa berfungsi setelah 45 menit sampai 12 jam.\r\n5. Dan Anda siap untuk berhubungan selama mungkin.\r\n\r\n1 Botol DUREVEL SPRAY berisi 15ml gunakan hanya saat akan berhubungan saja\r\nbisa untuk 2 bulan pemakaian tergantung sedikit banyaknya pemakaian\r\n\r\nHATI-HATI produk palsu! Durevel Spray hanya dijual di jaringan CV Karya Abadi! Durevel Spray Asli tidak dijual dg harga dibawah HET (Rp,280.000)!\r\n#obatkuatpria #herbalkuatpria #obattahanlama #obatkuatpriaperkasa #obatkuattahanlama","rating":0}
{"no":0,"title":"OBAT- KUAT PRIA","price":"280.000","seller":"ARUM HERBAL","sellerPlace":"Jakarta Pusat","url":"https://www.bukalapak.com/p/kesehatan-2359/obat-suplemen/obat-obatan/2a1ajr6-jual-obat-kuat-pria?from=&product_owner=normal_seller","sold":89,"seen":128,"favorite":90,"updated":"2019-10-14 14:33:40","description":"Dijamin 100% Original dari CV. KARYA ABADI !!!\r\nHarga untuk 1 Botol (15 ml)\r\nBarang selalu READY Stok gan, \r\n\r\n----------------- P E N T I N G ----------------\r\n\r\nJADWAL PENGIRIMAN\r\n\r\nSENIN s/d JUMAT : pengiriman sampai jam 3 sore\r\nSABTU : pengiriman sampai jam 12 siang\r\n\r\n\r\n**) Paket DIKEMAS rapih TANPA MEREK/GAMBAR Produk... RAHASIA TERJAMIN..\r\n\r\n----------------- D U R E V E L - S P R A Y Obat Herbal Tahan Lama Pria Terbaik Di Indonesia-------------\r\n\r\nDurevel Spray adalah formula herbal yang terbuat dari ekstrak tanaman herbal terbaik yang berkhasiat tinggi dalam membantu mengatasi ejakulasii dini secara nyata dan aman.\r\nDurevel berbahan dasar air dan dikemas dalam botol kaca spray. \r\nHal ini menjadikan Anda sangat mudah menggunakannya, cukup disemprotkan dan tunggu hasilnya setelah 45 menit. \r\n\r\nKhasiat :\r\n* Membantu Anda untuk kuat dan tahan lebih lama berhubungan bersama pasangan\r\n* Durasi berhubungan lebih lama\r\n* Ejakulasii Dini Anda berakhir\r\n* Anda akan merasakan sensasi yang luar biasa\r\nAturan Pakai :\r\n1. Anda hanya perlu menyemprotkan Durevel ke alatvital Anda dengan sedikit pijatan untuk meratakannya.\r\n2. Alatvital Anda akan terasa hangat setelah 10 menit.\r\n3. Tunggu selama 45 menit.\r\n4. Durevel bisa berfungsi setelah 45 menit sampai 12 jam.\r\n5. Dan Anda siap untuk berhubungan selama mungkin.\r\n\r\n1 Botol DUREVEL SPRAY berisi 15ml gunakan hanya saat akan berhubungan saja\r\nbisa untuk 2 bulan pemakaian tergantung sedikit banyaknya pemakaian\r\n\r\nHATI-HATI produk palsu! Durevel Spray hanya dijual di jaringan CV Karya Abadi! Durevel Spray Asli tidak dijual dg harga dibawah HET (Rp,280.000)!\r\n#obatkuatpria #herbalkuatpria #obattahanlama #obatkuatpriaperkasa #obatkuattahanlama","rating":0}
{"no":0,"title":"Obat Sakit Maag Alami Yang Ampuh Madu Tripang Kunyit Obat Asam Lambung Mag Mah Tukak Lambung Akut Kronis Jeli Jely Gamat Emas Anak Ibu Hamil Menyusui","price":"300.000","seller":"Natural Stores","sellerPlace":"Tasikmalaya","url":"https://www.bukalapak.com/p/kesehatan-2359/obat-suplemen/obat-obatan/294b1fw-jual-obat-sakit-maag-alami-yang-ampuh-madu-tripang-kunyit-obat-asam-lambung-mag-mah-tukak-lambung-akut-kronis-jeli-jely-gamat-emas-anak-ibu-hamil-menyusui?from=&product_owner=normal_seller","sold":324,"seen":203,"favorite":10,"updated":"2019-10-14 09:53:13","description":"Madu Tripang Kunyit\r\nDINKES P-IRT NO. 2093205011152-23\r\nKemasana: 350gram / botol\r\n100% Halal\r\n\r\nMadu Tripang Kunyit Merupakan Solusi Ampuh mengatasi Maag (dispepsia) dan Asam Lambung. Herbal Kami Terbuat dari Bahan Alami Tanpa pengawet atau kimia lainnya > Madunya 100% ASLI tanpa campuran Gula atau air dan sangat baik untuk daya tahan tubuh juga kesehatan > dan apabila dikonsumsi terus menerus setiap hari aman Insya Allah karena Bahan-bahan nya ALAMI.\r\n\r\nKomposisi: \r\n1. Kunyit Curcuma\r\n2. Temulawak\r\n3. Madu Asli\r\n4. Zaitun\r\n5. Habbatusauda\r\n6. Tripang (Gamat)\r\n7. Propolis.\r\n\r\nManfaat: \r\n1. penyakit maag kronis\r\n2. Asam Lambung\r\n3. Gerd\r\n4. Sakit perut\r\n5. Mual\r\n6. Kanker Lambung \r\n7. Gangguan Pencernaan\r\n8. Berkurangnya Nafsu Makan\r\n9. Daya tahan tubuh\r\n10.dll\r\n\r\nAman dikonsumsi untuk anak - anak \r\nusia 3 Tahun - Lansia > Ibu hamil dan Ibu menyusui. \r\n\r\nAturan Minum: \r\n1 Sdm Diseduh secangkir air hangat. Diminum 2-3x Sehari sesudah makan.\r\nUntuk Hasil yang maksimal sebaiknya dikonsumsi secara teratur. \r\n\r\nKeuntungan Madu Tripang Kunyit adalah bisa dikonsumsi dengan obat dokter.\r\nObat Sakit Maag Alami Yang Ampuh Madu Tripang Kunyit Obat Asam Lambung Mag Mah Tukak Lambung Akut Kronis Jeli Jely Gamat Emas Anak Ibu Hamil Menyusui","rating":0}
{"no":0,"title":"Detoxic Obat Pembasmi Parasit Herbal Original","price":"150.000","seller":"QUEEN HERBAL","sellerPlace":"Jakarta Pusat","url":"https://www.bukalapak.com/p/kesehatan-2359/obat-suplemen/obat-obatan/1e5zolq-jual-detoxic-obat-pembasmi-parasit-herbal-original?from=&product_owner=normal_seller","sold":1450,"seen":7256,"favorite":231,"updated":"2019-10-15 11:24:40","description":"PRODUK READY\r\nLangsung bisa order gan...\r\n\r\nGejala pertama yang menunjukkan adanya parasit di dalam tubuh:\r\n\r\nBau mulut;Reaksi alergi (ruam, mata berair, hidung meler);Ruam dan kemerahan pada kulit;Sering pilek, sakit tenggorokan, hidung tersumbat;Keletihan kronis (Anda cepat lelah melakukan sesuatu);Sering sakit kepala;Sembelit atau diare;Nyeri pada persendian dan otot;Sering merasa gugup, gangguan tidur, dan makan;Lingkaran hitam di bawah mata dan kantung mata.\r\n\r\nJika Anda merasakan setidaknya salah satu dari gejala yang tercantum di atas - dengan kemungkinan 99 persen dapat kita katakan bahwa ada parasit dalam tubuh Anda. Dan sangat penting bagi Anda untuk menyingkirkan parasit itu segera!\r\n\r\nSituasi saat ini berkenaan dengan pengobatan untuk mengobati serangan parasit cukup rumit. Sampai saat ini, hanya ada satu obat di pasaran yang memungkinkan Anda menyingkirkan parasit secara tuntas.\r\n\r\nObat anti parasit yang disebutDetoxicini dikembangkan dengan kerja sama Institut Parasitologi dan sekelompok ilmuwan muda independen kami. Pada saat yang sama, kami meneliti lebih dari dua lusin obat lainnya. Namun dalam proses pengembangannya, diketahui bahwaDetoxicadalah yang paling efektif.\r\n\r\nDetoxicterbuat dari ekstrak Artemia, perpaduan unik dari empedu beruang, ekstrak Ferrule Junggar, jus buah sumak dan 20 bahan tambahan lainnya. Dalam proses pembuatan dan pengujian, produk ini terbukti sangat efektif. \r\n\r\nDetoxic adalah produk efektif yang bekerja dengan membantu kita menghilangkan semua parasit yang mungkin kita miliki dalam sistem kita dalam tiga puluh hari penggunaan sehari-hari atau kurang. \r\n\r\n\r\nDETOXIC ORIGINAL \r\n\r\nKemasan baru\r\nBotol Putih\r\nIsi 30 kapsul..","rating":0}
{"no":0,"title":"AgaricPro Obat Benjolan Di Bawah Telinga Paling Ampuh Tanpa Efeksamping","price":"200.000","seller":"asunah","sellerPlace":"Tasikmalaya","url":"https://www.bukalapak.com/p/kesehatan-2359/obat-suplemen/obat-obatan/5vlluz-jual-agaricpro-obat-benjolan-di-bawah-telinga-paling-ampuh-tanpa-efeksamping?from=&product_owner=normal_seller","sold":10,"seen":609,"favorite":7,"updated":"2019-10-06 11:59:01","description":"Obat Benjolan Di Bawah Telinga Ketahuilah penyebab benjolan di bawah telinga, dan segera atasi penyebabnya sebelum kondisi semakin memburuk.\r\n\r\nMendapati adanya perbedaan pada tubuh, seperti pembengkakan di bawah telinga memang menjadi kecemasan tersendiri, dimana banyak kemungkinan penyebabnya.\r\n\r\nJika kita mendapati benjolan di bawah telinga, sebaiknya anda memeriksakan diri untuk mengetahui apa penyebab pastinya. sehingga mudah untuk menentukan langkah pengobatannya.\r\n\r\nBaca Juga : Cara Mengobati Benjolan Di Ketiak Kanan\r\n\r\nBeberapa penyebab benjolan di bawah telinga diantaranya :\r\n\r\n Pembengkakan kelenjar getah bening\r\n Infeksi kelenjar ludah ( parotitis )\r\n Lipoma\r\n Abses, dan lain sebagainya.\r\n\r\nPenyebab benjolan di bawah leher diatas tentunya tidak bisa dianggap sepele, dan perlu ditangani dengan baik. Selain itu benjolan di bawah telinga juga akan terasa sakit, terutama saat menggerakan rahang.\r\nSolusi Obat Benjolan Di Bawah Telinga Yang Ampuh\r\n\r\nBagi anda yang menderita benjolan di bawah telinga, dan sedang mencari pengobatan yang aman dan ampuh, anda dapat mencoba obat benjolan di bawah telinga dari AGARICPRO.\r\n\r\nAgaricpro merupakan obat herbal multikhasiat yang memiliki manfaat yang luar biasa untuk kesehatan tubuh, dan membantu mengatasi banyak penyakit dalam tubuh.\r\n\r\nHerbal agaricpro sendiri dibuat dari 100% perpaduan bahan herbal pilihan yang telah banyak digunakan dalam berbagai pengobatan tradisional.\r\n\r\nPerpaduan bahan herbal tersebut antara lain :\r\n\r\n Ekstrak jamur agaricus blazei murill\r\n Madu fermentasi\r\n Ekstrak bunga rosella\r\n Ekstrak manggis\r\n Ekstrak sarang semut\r\n Gula aren, dan\r\n Propolis\r\n\r\nSemua bahan herbal diatas dipercaya memiliki ribuan manfaat, dan sejak dulu sudah sering dipakai untuk bermacam macam pengobatan tradisional. ( obat benjolan di bawah telinga )\r\n\r\nHerbal agaricpro memadukan banyak herbal berkhasiat, dan dengan perpaduan yang tepat yang dilakukan oleh para ahli dibidannya, sehingga menciptakan khasiat yang lebih disempurnakan.\r\n\r\nKandungan yang ada pada agaricpro obat benjolan di bawah leher ini seperti kandungan anti oksidan yang tinggi, yang bermanfaat untuk menangkal radikal bebas yang menjadi penyebab banyak masalah kesehatan. Kandungan anti infeksi, anti kanker, vitamin, serta masih banyak kandungan lainnya yang bermanfaat untuk tubuh.\r\n\r\n Baca Juga : Cara Menyembuhkan Benjolan Di Leher\r\n\r\nSudah banyak orang yang merasakan khasiat dari herbal agaricpro ini, dan dengan hasil yang memuaskan tanpa efek samping negatif, dan aman untuk dikonsumsi semua kalangan usia dari balita hingga dewasa. ( tidak dianjurkan untuk wanita hamil )\r\n\r\nNah, anda juga perlu mencoba mengkonsumsi obat benjolan di bawah telinga dari agaricpro ini untuk pengobatan penyakit anda, karena kita tidak tahu kapan dan dengan apa kesembuhan datang.\r\n\r\nPengobatan dengan obat herbal biasanya memberikan hasil yang berbeda tiap individunya, mulai dari lama pengobatannya, hingga hasilnya. Namun pastingyapengobatan dengan herbal ini aman selama dalam batasanya.\r\n\r\nCara Konsumsi Agaricpro\r\n\r\n Siapkan 200 cc air (boleh air dingin kulkas, air dingin netral, atau air es, disesuaikan dengan kondisi pasien) lalu campurkan/masukkan 1(satu) sachet AgaricPro aduk hingga rata dan minum 2 3 kali sehari.\r\n Untuk mempercepat proses penyembuhan bisa ditambahkan setiap malam sebelum tidur\r\n Berkumur pakai AgaricPro (satu sachet atau dua sendok makan) kemudian telan\r\n Untuk takaran anak 1/4 atau 1/2 sachet","rating":0}
{"no":0,"title":"Obat Wasir Stadium 1 2 3 4 Ampuh","price":"275.000","seller":"De Nature Center","sellerPlace":"Cilacap","url":"https://www.bukalapak.com/p/kesehatan-2359/obat-suplemen/obat-obatan/kh2tl-jual-obat-wasir-stadium-1-2-3-4-ampuh?from=&product_owner=normal_seller","sold":5,"seen":580,"favorite":8,"updated":"2019-07-27 09:42:16","description":"Produk obat de Nature selalu ready dan stock banyak, jd silakan langsung klik beli saja tanpa menanyakan stock.\r\n\r\nBoleh baca catatan kami terlebih dahulu dibawah.\r\n\r\nJangan lupa berdoa sesuai kepercayaan masing-masing sebelum minum obat.\r\n\r\nKami menyarankan agar sembuh maksimal, mengonsumsi 2x pengobatan/ beli 2buah langsung.\r\n\r\nObat sbg perantara, yg menyembuhkan adalah Yang Maha Kuasa. Selagi Anda mau berusaha, dan punya sugesti \"sembuh\", insyaaAllah sembuh tuntas.\r\n\r\nAlhamdulillah rata-rata yg mengonsumsi obat kami 95% berhasil dan membuahkan hasil yg baik.\r\n\r\nDalam menjalani pengobatan kuncinya 1 yaitu \"yakin\".\r\n\r\n~ Keep Strong ~","rating":0}
{"no":0,"title":"Obat Pelangsing De Nature ASLI 100%","price":"150.000","seller":"De Nature Center","sellerPlace":"Cilacap","url":"https://www.bukalapak.com/p/kesehatan-2359/obat-suplemen/obat-obatan/lpop6-jual-obat-pelangsing-de-nature-asli-100?from=&product_owner=normal_seller","sold":4,"seen":1020,"favorite":12,"updated":"2019-07-27 10:06:54","description":"Produk obat de Nature selalu ready dan stock banyak, jd silakan langsung klik beli saja tanpa menanyakan stock.\r\n\r\nBoleh baca catatan kami terlebih dahulu dibawah.\r\n\r\nJangan lupa berdoa sesuai kepercayaan masing-masing sebelum minum obat.\r\n\r\nObat sbg perantara, yg menyembuhkan/ membantu adalah Yang Maha Kuasa. Selagi Anda mau berusaha, dan punya sugesti \"sembuh\", insyaaAllah sembuh tuntas.\r\n\r\nAlhamdulillah rata-rata yg mengonsumsi obat kami 95% berhasil dan membuahkan hasil yg baik.\r\n\r\nDalam menjalani pengobatan kuncinya 1 yaitu \"yakin\".\r\n\r\n~ Keep Strong ~","rating":0}
{"no":0,"title":"Obat Rematik atau Asam Urat de Nature 100%","price":"295.000","seller":"De Nature Center","sellerPlace":"Cilacap","url":"https://www.bukalapak.com/p/kesehatan-2359/obat-suplemen/obat-obatan/lppvc-jual-obat-rematik-atau-asam-urat-de-nature-100?from=&product_owner=normal_seller","sold":1,"seen":631,"favorite":0,"updated":"2018-03-22 18:09:03","description":"Produk obat de Nature selalu ready dan stock banyak, jd silakan langsung klik beli saja tanpa menanyakan stock.\r\n\r\nBoleh baca catatan kami terlebih dahulu dibawah.\r\n\r\nJangan lupa berdoa sesuai kepercayaan masing-masing sebelum minum obat.\r\n\r\nKami menyarankan agar sembuh maksimal, mengonsumsi 2x pengobatan/ beli 2buah langsung.\r\n\r\nObat sbg perantara, yg menyembuhkan adalah Yang Maha Kuasa. Selagi Anda mau berusaha, dan punya sugesti \"sembuh\", insyaaAllah sembuh tuntas.\r\n\r\nAlhamdulillah rata-rata yg mengonsumsi obat kami 95% berhasil dan membuahkan hasil yg baik.\r\n\r\nDalam menjalani pengobatan kuncinya 1 yaitu \"yakin\".\r\n\r\n~ Keep Strong ~","rating":0}
{"no":0,"title":"Top Seller! Obat Maag de Nature Manjur","price":"295.000","seller":"De Nature Center","sellerPlace":"Cilacap","url":"https://www.bukalapak.com/p/kesehatan-2359/obat-suplemen/obat-obatan/wx6wq-jual-top-seller-obat-maag-de-nature-manjur?from=&product_owner=normal_seller","sold":1,"seen":632,"favorite":2,"updated":"2019-10-14 07:30:38","description":"Produk obat de Nature selalu ready dan stock banyak, jd silakan langsung klik beli saja tanpa menanyakan stock.\r\n\r\nBoleh baca catatan kami terlebih dahulu dibawah.\r\n\r\nJangan lupa berdoa sesuai kepercayaan masing-masing sebelum minum obat.\r\n\r\nKami menyarankan agar sembuh maksimal, mengonsumsi 2x pengobatan/ beli 2buah langsung.\r\n\r\nObat sbg perantara, yg menyembuhkan adalah Yang Maha Kuasa. Selagi Anda mau berusaha, dan punya sugesti \"sembuh\", insyaaAllah sembuh tuntas.\r\n\r\nAlhamdulillah rata-rata yg mengonsumsi obat kami 95% berhasil dan membuahkan hasil yg baik.\r\n\r\nDalam menjalani pengobatan kuncinya 1 yaitu \"yakin\".\r\n\r\n~ Keep Strong ~","rating":0}
{"no":0,"title":"Obat Kondiloma Akuminata Khusus Ibu Menyusui AMAN 100%","price":"595.000","seller":"De Nature Center","sellerPlace":"Cilacap","u