{"no":0,"title":"Celana Hernia New Butterfly + Obat Hernia Citrus Aurantium","price":"179.000","seller":"kick klick","sellerPlace":"Jakarta Barat","url":"https://www.bukalapak.com/p/kesehatan-2359/obat-suplemen/obat-obatan/1zqdjy-jual-celana-hernia-new-butterfly-obat-hernia-citrus-aurantium?from=&product_owner=normal_seller","sold":31,"seen":2545,"favorite":40,"updated":"2019-10-02 10:42:27","description":"NEW BUTTERFLY ( celana hernia magnetik ) + OBAT HERNIA UNTUK ANAK ANAK DAN DEWASA Hernia Merupakan Protusi / Penonjolan Isi Rongga Perut Melalui Defek/ Selaput Yang Melemah Dari Dinding Perut. Hernia Bisa Terjadi Karena Faktor Bawaan / Faktor Dapatan. Pada Umumnya Yang Kita Kenal Dengan Hernia Adalah Turunya Usus Ke Bagian Bawah Perut Atau Bahkan Sampai Pada Testis Yang Di Akibatkan Adanya Peninggian Tekanan Di Dalam Rongga Perut Dan Disertai Melemahnya Otot Dinding Perut. Gejala Dan Tanda Klinis Banyak Ditentukan Oleh Keadaan Isi Hernia, Misalnya Ada Benjolan Pada Lipatan Paha Atau Testis Yang Muncul Pada Waktu Berdiri, Batuk, Bersin, Mengangkat Beban Terlalu Berat. Kami Menawarkan Paket Pencegahan Dan Pengobatan Hernia Dengan Metode Obat Herbal Dan Celana Dalam Kusus Yang Di Ciptakan Untuk Pencegahan Dan Pengobatan Hernia. CITRUS AURANTIUM COMPOUND PILLS: Membantu Mengatasi Masalah Hernia Dan Radang Buah Pelir. Komposisi: -Semen Citri Reticulatae. -Fructus Toosendan. -Thallus Laminariae. -Thallus Sargassi. -Semen Persicae. -Cartex Magnoliae Officinalis. -Fruktus Aurantii. -Radix Aucklandiae. -Rhizoma Corydalis. -Cartex Cinnamomi. -Caulis Akebiae. Cara Pakai : Diminum 3X 5-8 PIL. Didalam 1botol Berisi : 200PIL. WAJIB DIBACA ! Tersedia Berbagai Macam Ukuran celana hernia magnetik: - Ukuran ( S) Lingkar Pinggang 65-72 cm. - Ukuran ( M) Lingkar Pinggang 73-80 cm. - Ukuran ( L) Lingkar Pinggang 81-88 cm. - Ukuran ( XL) Lingkar Pinggang 89-96 cm. Untuk ukuran anak-anak dan dewasa yang lingkar pinggangnya tidak tertera di atas bisa melakukan pemesanan terlebih dahulu. Tindakan terapi : lakukan reposisi isi hernia dengan cara trendelenburg atau posisi kepala lebih rendah dari pantat kemudian dorong isi hernia ke arah cincin hernia ( atas) . Pakailah celana hernia \" BUTTERFLY \" ini untuk mempertahankan isi hernia yang telah tereposisi. Pemakaian celana hernia sesering mungkin akan menghindarkan hernia bertambah besar dan parah serta kemungkinan sembuh menjadi lebih besar. Perhatian : - bisa dipakai di dalam / di luarnya celana dalam. - jangan di rendam / di cuci, cukup dilap memakai kain basah dan diangin-anginkan. SEMOGA ANDA CEPAT SEMBUH","rating":0}
{"no":0,"title":"Snake Itch Removing Pills ( Obat Gatal Cap Ular )","price":"34.000","seller":"Toko Obat Herbal Alami 5758","sellerPlace":"Jakarta Utara","url":"https://www.bukalapak.com/p/kesehatan-2359/obat-suplemen/obat-obatan/1ntz34-jual-snake-itch-removing-pills-obat-gatal-cap-ular?from=&product_owner=normal_seller","sold":160,"seen":3199,"favorite":53,"updated":"2019-10-05 16:53:53","description":"Khasiat Dan Kegunaan :\r\n\r\n\r\n*Mengobati penyakit kulit seperti alergi, gatal-gatal dan badan bentol - bentol yang disebabkan alergi makanan Dan alergi cuaca.\r\n\r\n\r\n*Membersihkan darah yang kotor\r\n\r\n\r\n*Mengobati gatal-gatal Dan koreng\r\n\r\n\r\nCara pemakain:\r\n\r\n\r\n*Diminum dengan air putih hangat\r\n\r\n\r\n*Diminum sehari 2 X 1-2 kapsul (tergantung kondisi sakitnya)\r\n\r\n\r\nKemasan :\r\n\r\n\r\n*Botol berisi 20 kapsul","rating":0}
{"no":0,"title":"Pilasir - Salep Wasir - Obat Oles Wasir - Ambeien","price":"43.500","seller":"Sehat Abadi","sellerPlace":"Jakarta Timur","url":"https://www.bukalapak.com/p/kesehatan-2359/obat-suplemen/obat-obatan/1vmuho1-jual-pilasir-salep-wasir-obat-oles-wasir-ambeien?from=&product_owner=normal_seller","sold":33,"seen":485,"favorite":18,"updated":"2019-10-15 05:51:24","description":"PIEN TZE HUANG Hemorrhoid Ointment (PILASIR) sangat ampuh mengobati gejala wasir dalam dan wasir luar bahkan wasir yang sudah lama maupun baru. \r\n\r\nPILASIR sudah terbukti mengurangi rasa gatal, menghentikan pendarahan, dan membantu menghilangkan wasir tanpa operasi.\r\n\r\nKhasiat : \r\nSecara tradisional digunakan untuk membantu meringankan gejala wasir\r\n- Mampu mengecilkan benjolan, mengurangi rasa nyeri, gatal dan pendarahan\r\n- Mengobati wasir tanpa operasi\r\n\r\nCara pemakaian : 2 kali sehari oleskan pada anus (pastikan dalam keadaan bersih)\r\n\r\nPada pengobatan wasir luar\r\n- Oleskan secara merata pada daerah yang terkena wasir.\r\n\r\nPada pengobatan wasir dalam, gunakan aplikator yang disediakan.\r\n- Ambil salep dan aplikator, pastikan aplikator dalam keadaan bersih \r\n- Kemudian pasangkan aplikator pada ujunng salep \r\n- Lalu masukan kedalam anus dan keluarkan jumlah salep sesuai kebutuhan ke dalam anus\r\n- Kemudian buang ujung aplikator yang digunakan.\r\n\r\nKomposisi \r\n-Tiap 10 g salep terdiri dari : Sophorae Fructus 1 g; Scutellariae Radix 0.5 g; Angelicae Sinensis Radix 1 g; Lonicerae Flos 1 g dll\r\n\r\nKemasan : Tube plastik isi 10g dan 4 aplikator tips\r\n\r\nImportir : \r\nPT. Sinar Herba Radix\r\nJakarta - Indonesia\r\nPOM TR. 112 729 301","rating":0}
{"no":0,"title":"Pi Kang Suang Original - Obat Salep Gatal - Alergi - Eksim - Jamur - Dermatitis","price":"12.000","seller":"Sehat Abadi","sellerPlace":"Jakarta Timur","url":"https://www.bukalapak.com/p/kesehatan-2359/obat-suplemen/obat-obatan/18jk7yw-jual-pi-kang-suang-original-obat-salep-gatal-alergi-eksim-jamur-dermatitis?from=&product_owner=normal_seller","sold":165,"seen":1173,"favorite":40,"updated":"2019-10-13 15:29:30","description":"Salep Pi Kang Shuang Hijau 100% Original Asli\r\n\r\n#Produk Pi Kang Shuang yang asli sekarang hanya dari PT. SANO GRATIA FARMA, kalo PT. SARAS SUBUR AYOE saat ini sudah tidak memproduksi salep Pi Kang Shuang Hijau lagi. \r\n\r\nKhasiat Dan Kegunaan :\r\n- Mengobati berbagai penyakit kulit seperti gatal-gatal yang disebabkan alergi Dan jamur seperti panu, kurap Dan kudis.\r\n- Dapat Mengobati gatal-gatal di daerah selangkangan yang di akibatkan jamur Dan lembab.\r\n\r\nCara pakai Dan Dosis :\r\n- Oleskan pada daerah yang Sakit, sehari 2 - 3 Kali.\r\n\r\nPerhatian :\r\n* Hanya untuk pemakain luar\r\n\r\nDiproduksi oleh : Guangzhou Baiyunshan Pharmaceutical Holdings Co., Ltd.\r\nBaiyunshan Hejigong Pharmaceutical Factory.\r\nGuangzhou-China\r\n\r\nDiimpor : PT. Sano Gratia Farma\r\nBekasi - Indonesia\r\n\r\nIsi : Krim 5 gram","rating":0}
{"no":0,"title":"Chuan Xin Lian - Obat Panas Dalam & Sakit Tenggorokan","price":"33.000","seller":"Sehat Abadi","sellerPlace":"Jakarta Timur","url":"https://www.bukalapak.com/p/kesehatan-2359/obat-suplemen/obat-obatan/1sxb57-jual-chuan-xin-lian-obat-panas-dalam-sakit-tenggorokan?from=&product_owner=normal_seller","sold":16,"seen":418,"favorite":17,"updated":"2019-10-01 10:19:16","description":"Chuan Xin Lian - Obat Panas Dalam, Demam dan Sakit Tenggorokan.\r\n\r\n# Produk Ready Stock\r\n# Produk Dijamin 100% Original Asli\r\n# Pengiriman Cepat dan Packing Rapih\r\n\r\nKhasiat dan kegunaan:\r\n- Membersihkan panas dan menawar racun\r\n- Meredakan rasa nyeri dan peradangan\r\n- Mengobati panas dalam\r\n- Membantu meredakan Demam / Panas dan Sakit Tenggorokan yang disertai Tenggorokan kering\r\n\r\nDigunakan pada radang tenggorokan, radang usus dan lambung, radang saluran kemih dan radang kandung kemih.\r\n\r\nCara pakai dan dosis :\r\n- Diminum dengan air hangat, sehari 3 X 2 - 3 tablet\r\n- Dosis Anak-anak dikurangi\r\n\r\nKemasan :\r\n- Botol berisi 100 tablet\r\n\r\nPOM TI. 164 550 471\r\n\r\nDiproduksi oleh:\r\nGuangzhou Baiyunshan Zhongyi\r\nPharmaceutical Co.,LTD\r\nChina\r\n\r\nDiimpor oleh:\r\nPT. Saras Subur Abadi\r\nJakarta - Indonesia","rating":0}
{"no":0,"title":"Weng Heng - Obat Sakit Gigi - Demam - Sakit Kepala & Sakit nyeri lainnya","price":"5.000","seller":"Sehat Abadi","sellerPlace":"Jakarta Timur","url":"https://www.bukalapak.com/p/kesehatan-2359/obat-suplemen/obat-obatan/kttkae-jual-weng-heng-obat-sakit-gigi-demam-sakit-kepala-sakit-nyeri-lainnya?from=&product_owner=normal_seller","sold":99,"seen":2195,"favorite":31,"updated":"2019-10-12 06:53:50","description":"Wemg Heng Tablet Berkhasiat untuk :\r\n- Meredakan sakit gigi\r\n- Sakit kepala\r\n- Demam dan Sakit Nyeri lainnya.\r\n\r\nHARGA JUAL Rp 5.000/lembar isi 2 tablet.\r\n\r\nCara minum : \r\n- Anak-anak diatas 12 tahun dan Dewasa : 3 X Sehari @ 1-2 tablet (tidak boleh melebihi 8 tablet dalam sehari)\r\n- Anak-anak 7 - 12 tahun : 3 X sehari @ 1/2 - 1tablet (tidak boleh melebihi 4 tablet dalam sehari)\r\n\r\nPerhatian :\r\n- Jika sakit berlanjut hubungi dokter\r\n- Obat mengandung paracetamol, jangan minum obat lain yang mengandung paracetamol dalam waktu yang sama.\r\n\r\nManufacturer and Product Registration Holder\r\nWINWA MEDICAL SDN. BHD\r\nPulau Pinang, Malaysia.","rating":0}
{"no":0,"title":"Obat Gatal Exim - Eksim","price":"295.000","seller":"Bagja De Nature","sellerPlace":"Cilacap","url":"https://www.bukalapak.com/p/kesehatan-2359/obat-suplemen/obat-obatan/10upodv-jual-obat-gatal-exim-eksim?from=&product_owner=normal_seller","sold":12,"seen":223,"favorite":21,"updated":"2019-10-13 22:42:24","description":"BARANG SELALU READY STOCK\r\n\r\nLANGSUNG DARI PABRIKNYA, PRODUK 100% ASLI, GARANSI\r\n\r\nPESAN SEKARANG, BARANG LANGSUNG DI KIRIM\r\n\r\nKeuntungan Belanja Di Sini:\r\n\r\nMendapat PRODUK ASLI 100% ORIGINAL, karena dikirim langsung dari perusahaan CV. De Nature Indonesia\r\n\r\nBERGARANSI UANG KEMBALI 1000% jika produk tidak sampai atau rusak\r\n\r\nFREE PACKING SAFETY\r\n\r\nPROSES CEPAT DAN AMAN\r\n\r\nPRIVACY TERJAGA\r\n\r\nKAMI AGEN PUSAT DE NATURE INDONESIA\r\n\r\nDi produksi CV. De Nature Indonesia\r\n\r\nKHASIAT :\r\n\r\nEksim basah\r\n\r\nEksim kering\r\n\r\nGatal menular\r\n\r\nGatal Alergi\r\n\r\nPanu\r\n\r\nKudis\r\n\r\nKurap dan lain sebagainya\r\n\r\nHATI-HATI BARANG TIRUAN/PALSU\r\n\r\nProduk Denature Indonesia Hanya Dikirim Dari Majenang, Cilacap, Jawa Tengah\r\n\r\nKemasan bersegel hologram\r\n\r\nProduk 100% Original Denature Indonesia\r\n\r\nPaket Rapi dan Rahasia 100% Aman.","rating":0}
{"no":0,"title":"Mo MenT Brazilian propolis.. segel isi 5botol","price":"195.000","seller":"Medika Herbal","sellerPlace":"Jakarta Timur","url":"https://www.bukalapak.com/p/kesehatan-2359/obat-suplemen/obat-obatan/kfs3u-jual-mo-ment-brazilian-propolis-segel-isi-5botol?from=&product_owner=normal_seller","sold":21,"seen":358,"favorite":4,"updated":"2019-09-29 08:06:10","description":"\"MOMENT PROPOLIS berfungsi sebagai Premium Antioksidan, yang sulit dicari bandingannya. Antioksidan sendiri yaitu sebutan untuk zat yang berfungsi melindungi tubuh dari serangan radikal bebas.\r\n\r\n\r\nMOMENT PROPOLIS adalah Propolis yang diambil dari lebah Hutan Amazon Brazil yang terkenal akan kemurnian dan kealamiannya, serta diformulasikan dengan Aroma Mint dan Nano Technology - yang sangat berguna untuk tubuh manusia, dimana bukan hanya ampuh untuk membunuh kuman, virus dan bakteri yang sudah masuk ke tubuh kita tapi bahkan mencegahnya terlebih dahulu.\r\n\r\nDengan takaran yang tepat, berikut dibawah adalah berbagai macam penyakit yang dapat dicegah dan diobati oleh MOMENT PROPOLIS - Yang kaya akan Vitamin, Protein, Mineral dan Bioflavonoids - diantaranya:\r\n\r\nDiabetes, Kanker, Stroke, Sakit jantung, Ginjal, Hepatitis, Thyphus, Diare, TBC dll\r\n\r\n\r\nTeteskan Propolis Mint kedalam 1/3 gelas air putih, kemudian diaduk (Jangan memakai sendok dari logam, karena propolis akan menempel ke logam tersebut) atau gelas digoyangkan beberapa saat agar bercampur, lalu diminum. Jangan menggunakan air putih terlalu panas, dan jangan yang terlalu dingin. Gunakanlah air hangat atau air putih biasa.\r\n\r\nAnak-anak : 3-4 tetes sekali minum, 2-3 kali sehari.\r\n\r\nDewasa : 5-9 tetes sekali minum, 3-4 kali sehari.\r\n\r\n\r\n1 Paket isi 5 botol\"","rating":0}
{"no":0,"title":"Obat Penurun Darah Tinggi Dan Kolesterol","price":"295.000","seller":"Bagja De Nature","sellerPlace":"Cilacap","url":"https://www.bukalapak.com/p/kesehatan-2359/obat-suplemen/obat-obatan/qtjeil-jual-obat-penurun-darah-tinggi-dan-kolesterol?from=&product_owner=normal_seller","sold":18,"seen":266,"favorite":14,"updated":"2019-10-13 23:08:00","description":"#Garansi asli de Nature (resmi)\r\n#Packing Rapih dan Aman, RAHASIA TERJAMIN 100%\r\n- bubble wrap untuk produk/ botol yg dengan kaca\r\n- dus putih (tidak tembus pandang), dibalut dengan karton warna (tidak tembus pandang), dan dilakban rapat bolak-balik. (tidak akan sobek apabila tidak disobek dengan cutter)\r\n- bagian luar hanya ada nama, alamat, dan nomer hp. (dikirim dengan nama personal (eko). bukan nama perusahaan/ kantor/ toko)\r\n- RAHASIA TERJAMIN bos\r\n\r\nHATI-HATI PRODUK PALSU...!!!\r\nProduk Asli de Nature hanya dikirim dari Majenang, Cilacap, Jawa Tengah..!!! Kemasan bersegel hologram..!!!\r\n\r\nMoringa De Nature Dan Habatop De Nature terbukti memiliki banyak khasiat diantranya :\r\n* Membantu menurunkan tekananan darah tinggi\r\n* Membantu menurunkan kolesterol\r\n* Membantu melancarkan peredaran darah\r\n\r\n1 paket harga Rp.295.000 Include:\r\n* 1 Botol Moringa De Nature\r\n* 1 Botol Habatop 3 in 1 De Nature\r\n\r\nTiap botol berisi 50 kapsul\r\nTiap paket untuk pengobatan 1 minggu\r\n\r\n* Komposisi Lihat pada gambar","rating":0}
{"no":0,"title":"MASTIN PLUS 100 Kapsul Ekstrak Kulit Manggis dan Daun Sirsak","price":"87.000","seller":"inayah","sellerPlace":"Jakarta Timur","url":"https://www.bukalapak.com/p/kesehatan-2359/obat-suplemen/obat-obatan/703etw-jual-mastin-plus-100-kapsul-ekstrak-kulit-manggis-dan-daun-sirsak?from=&product_owner=normal_seller","sold":8,"seen":265,"favorite":4,"updated":"2019-09-07 07:22:37","description":"Memelihara kesehatan tubuh dan meningkatkan daya tahan tubuh\r\n\r\nKegunaan lain :\r\n\r\nSebagai anti kaker\r\nSebagai antitumor\r\nMerawat kulit\r\nSebagai antiinflamasi\r\nSebagai penambah stamina\r\nMekanisme kerja :\r\n\r\nkandungan alpha mangosteen bersifat sebagai antioksidan kuat yang sangat potensial untuk melawan radikal bebas\r\nxanthon yang terkandung dalam kulit manggis bersifat sebagai antioksidan yang berpotensi untuk memelihara kesehatan system immune dan mendukung kesehatan mental\r\nacetogenins dalam daun sirsak mempunyai aktifitas in vitro yang berperan secara efektif sebagai penangkal radikal bebas dan anti tumor\r\n\r\nPOM TR 142 380 691\r\n\r\nMembantu memelihara daya tahan tubuh\r\n\r\nKomposisi :\r\n\r\nGarciniae Fructus Cortex Extract 330 mg\r\nAnnonae muricata Folium Extract 220 mg\r\nKhasiat dan kegunaan :\r\nMembantu memelihara daya tahan tubuh.\r\n\r\nCara pemakaian :\r\nMinumlah secara teratur 2 kali sehari @ 2 kapsul.","rating":0}
{"no":0,"title":"READY STOK!!! METCOVAZIN Salf REGULAR 25gr","price":"70.000","seller":"Perdana Alkes","sellerPlace":"Sukoharjo","url":"https://www.bukalapak.com/p/kesehatan-2359/obat-suplemen/obat-obatan/r71za-jual-ready-stok-metcovazin-salf-regular-25gr?from=&product_owner=normal_seller","sold":210,"seen":2151,"favorite":61,"updated":"2019-10-10 08:23:18","description":"Salf Metcovazin adalah Topikal therapy (obat luar yang dioleskan pada kulit). \r\nBentuk : Salep ointment berwarna putih. \r\nCara penggunaan : Oleskan salep pada daerah yang luka. \r\nFungsi : a. Berfungsi untuk support autolysis debridement (meluruhkan jaringan nekrosis / mempersiapkan dasar luka berwarna merah) \r\nb. Menghindari trauma saat membuka balutan. \r\nc. Mengurangi bau tidak sedap. \r\nd. Mempertahankan suasana lembab. \r\ne. Support granulasi (membantu membentuk jaringan granulasi) \r\nJenis : 1. Metcovazin Reguler untuk semua warna dasar luka yang tidak infeksi. \r\n2. Metcovazin Gold untuk warna dasar luka kuning menandakan infeksi. \r\n3. Metcovazin Red untuk warna dasar merah support granulasi.\r\n\r\nMetcovazin Reguler : salep luka untuk semua jenis luka secara umum\r\nAplikasi : Cuci luka. Oleskan Metcovazin Reguler pada luka. Beri balutan kasa, plester dengan rapi.\r\nBahan aktif : Metronidazole dan Zinc (metco regular)\r\n+ iodosorb (metco gold), + hidrokoloid (metco red)","rating":0}
{"no":0,"title":"Paket 10 Set Kinoki Foot Patch - Putih (Koyo Detox)","price":"134.000","seller":"Yangunik","sellerPlace":"Depok","url":"https://www.bukalapak.com/p/kesehatan-2359/obat-suplemen/obat-obatan/2yo1fr-jual-paket-10-set-kinoki-foot-patch-putih-koyo-detox?from=&product_owner=normal_seller","sold":68,"seen":2546,"favorite":56,"updated":"2019-10-03 16:15:07","description":"Note:\r\nDalam paket ini anda mendapat 10 set (10 box) Kinoki Foot Patch Putih.\r\n\r\nKinoki Putih adalah produk yang berbentuk koyok dan berfungsi untuk proses detoxifikasi dan pemulihan kesehatan untuk menghisap toksin, bahan kimia dan racun dari dalam tubuh serta memperkuat imunitas tubuh karna dapat memperlancar saluran darah.\r\n\r\nToxin yang menumpuk dalam tubuh akan menyebabkan disfungsi sistem tubuh dan menimbulkan berbagai macam penyakit.\r\n\r\nFungsi Kinoki Putih selain detoxifikasi atau pembuangan racun adalah: meningkatkan energi atau tenaga, mengurangi stress, menghilangkan rasa nyeri pada bagian tubuh, memperlancar peredaran darah, mengatasi sulit tidur (insomnia), meningkatkan konsentrasi dan meningkatkan fungsi metabolisme tubuh.\r\n\r\nCara Pemakaian:\r\n- Buka plester Kinoki Putih.\r\n- Kinoki Putih (berupa bantalan kecil warna emas) tempelkan bagian yang ada tulisan pada plester.\r\n- Tempelkan plester dengan posisi Kinoki Putih di tengah-tengah telapak kaki.\r\n- Gunakan sebelum tidur, dan biarkan 5-8 jam(selama Anda Tidur) agar racun dalam tubuh dapat di serap.\r\n- Kinoki Putih Foot dapat digunakan di bagian lain yang terasa sakit.\r\n\r\nSemakin banyak racun yang ada di tubuh anda, maka hasil pada kinoki pads akan semakin lebih gelap. Setelah memakai Kinoki Putih, kaki akan terasa lebih ringan.\r\n\r\nNote: 1 Box Kinoki Putih berisi 10bh plester dan 10bh Kinoki Putih Pads, artinya untuk 10 kali pemakaian.","rating":0}
{"no":0,"title":"Obat Batuk Cap Ibu dan Anak 300 ml (Nin Jiom)","price":"100.000","seller":"Nicendy","sellerPlace":"Tangerang","url":"https://www.bukalapak.com/p/kesehatan-2359/obat-suplemen/obat-obatan/65ar98-jual-obat-batuk-cap-ibu-dan-anak-300-ml-nin-jiom?from=&product_owner=normal_seller","sold":44,"seen":534,"favorite":17,"updated":"2019-10-12 16:06:32","description":"Produk dijamin 100% ORIGINAL!\r\n\r\nObat Batuk Cap Ibu dan Anak (Nin Jiom Pei Pa Koa) sudah terkenal mampu menyembuhkan batuk berdahak, sakit tenggorokan dan memelihara kesehatan paru-paru. \r\n\r\nAturan pakai: \r\nDewasa : 3 x sehari 1 sendok makan (15 ml) \r\nAnak usia 7-12 tahun : 3 x sehari 2/3 sendok makan (10 ml) \r\nAnak usia 3-6 tahun : 3 x sehari 1/3 sendok makan (5 ml) \r\n\r\nDiminum perlahan-lahan atau dicampur dengan air hangat. \r\n\r\nKemasan : botol isi 300 ml \r\n\r\nDiimport oleh: PT. Sinde Budi Sentosa Bekasi, Indonesia. \r\n\r\nPOM TI. 084 627 811 \r\n\r\nPERHATIAN: Bila sakit berlanjut, hubungi dokter. \r\n\r\nPesan segera di Nicendy. \r\nSemoga lekas sembuh :)","rating":0}
{"no":0,"title":"Pe Min Kan Wan (Nasal Clear)","price":"66.000","seller":"mandjur","sellerPlace":"Jakarta Pusat","url":"https://www.bukalapak.com/p/kesehatan-2359/obat-suplemen/obat-obatan/412kpk-jual-pe-min-kan-wan-nasal-clear?from=&product_owner=normal_seller","sold":57,"seen":1541,"favorite":28,"updated":"2019-10-15 17:02:53","description":"Pe Min Kan Wan dibuat dari 100% herbal alami yang berguna melancarkan saluran pernafasan pada hidung serta menjaga kesehatan rongga hidung dan sinus.\r\n\r\nPe Min Kan Wan terbukti dapat menyembuhkan penyakit chronic rhintis (peradangan pada selaput lendir dalam hidung) yang disebabkan oleh alergi, virus, bakteri atau iritasi. Peradangan tersebut membuat produksi lendir berlebih yang menyebabkan hidung meler, pilek, dan hidung tersumbat. Chronic Rintis yang disebabkan oleh alergi memberikan gejala tambahan seperti bersin - bersin, hidung gatal, batuk, pusing, dan lelah.\r\n\r\nPe Min Kan Wan juga terbukti dapat mengobati penyakit sinusitis (peradangan pada sinus) yang terjadi akibat infeksi dari virus, bakteri, atau jamur. Gejala Sinusitis seperti : pilek, batuk (terutama pada saat malam), nafas bau, kehilangan penciuman, demam, sakit kepala (sakit seperti ditekan pada bagian belakang mata), Hidung tersumbat, dan sakit tengorokan. Sinusitis dapat berubah dari akut menjadi kronis apa bila sudah mengalami gejala sinusitis akut lebih dari 4 bulan.\r\n\r\nSelain itu Pe Min Kan Wan juga efektif mengobati infeksi pada hidung, alergi pada saluran pernafasan, penyumbatan saluran pernafasan, batuk, asma, dan bronchitis.\r\n\r\nTerbukti:\r\nFormula obat Pe Min Kan Wan berdasarkan ilmu pengobatan tradisional yang telah dibuktikan bertahun - tahun lalu, yang sekarang telah dibuktikan melalui uji coba dan tes mengunakan metode medis modern. Berdasarkan hasil 1184 tes dan uji coba pada berbagai rumah sakit besar di China, diperkirakan keberhasilan Pe Min Kan Wan sampai dengan 95,18% dalam menyembuhkan penyumbatan pada saluran pernafasan sinusitis akut dan kronis.\r\n\r\nKhasiat : \r\n- Melancarkan saluran pernafasan\r\n- Mengobati Chronic rhintis dan Sinusitis\r\n- Mengobati infeksi pada hidung dan alergi\r\n- Mengobati batuk berdahak akibat sinus\r\n- Mengobati asma dan bronchitis\r\n\r\nCara Pakai : Diminum Sehari 3 kali sehari sekali minum 3 tablet\r\n\r\nPerhatian : Jauhkan dari jangkauan anak - anak\r\n\r\nKomposisi :\r\nRadix Scutellariae 26%\r\nFructus Xanthii 25%\r\nHerba Pogostemonis 25%\r\nHerba Centipedae 24%\r\n\r\nKemasan : 1 Botol isi 60 tablet @ 350mg\r\n\r\nDiproduksi Oleh : M & A Natural Healthcare Products Co., Ltd.\r\n\r\nDistributor : Intra Aries\r\n\r\nBPOM No : Tl 044 509 261","rating":0}
{"no":0,"title":"Hufagrip bp syrup 60 ml","price":"16.500","seller":"Toko Obat DIZA","sellerPlace":"Jakarta Timur","url":"https://www.bukalapak.com/p/kesehatan-2359/obat-suplemen/obat-obatan/bnmd9e-jual-hufagrip-bp-syrup-60-ml?from=&product_owner=normal_seller","sold":221,"seen":415,"favorite":11,"updated":"2019-10-12 12:44:37","description":"INDIKASI\r\nMeringankan pilek dan batuk tidak berdahak\r\n\r\nDOSIS\r\n&amp;amp;amp;amp;amp;amp;amp;amp;amp;gt; 12 th: sehari 3 x 2 sendok teh, anak 6-12 th: sehari 3 x 1 sendok teh, \r\nanak 2-6 th: sehari 3 x 1/2 sendok teh, anak di bawah 2 th: menurut petunjuk dokter\r\n\r\nPENYAJIAN\r\nSesudah makan","rating":0}
{"no":0,"title":"Minyak angin cap ikan mas","price":"47.000","seller":"Toko Dunia Usaha","sellerPlace":"Tarakan","url":"https://www.bukalapak.com/p/kesehatan-2359/obat-suplemen/obat-obatan/dz0ra-jual-minyak-angin-cap-ikan-mas?from=&product_owner=normal_seller","sold":333,"seen":2567,"favorite":63,"updated":"2019-10-12 23:52:16","description":"Minyak angin GOLD FISH BRAND mempunyai warna yang bening, cocok untuk yang hobi minyak panas &amp;amp;amp;amp;amp; aroma aromatik\r\nBerguna untuk mengurangi sakit kepala, hidung tersumbat nyeri otot &amp;amp;amp;amp;amp; sendi, gatal karena gigitan serangga atau nyamuk\r\nSetiap botol mengandung:\r\nMenthol 16%, Methy Salicylate 30% , Camphor serbuk 5%\r\nisi netto 52 ml","rating":0}
{"no":0,"title":"Monster Pro Extra Fooding Ayam Laga","price":"7.500","seller":"Guna Online Shop","sellerPlace":"Cilacap","url":"https://www.bukalapak.com/p/kesehatan-2359/obat-suplemen/obat-obatan/qlqh4c-jual-monster-pro-extra-fooding-ayam-laga?from=&product_owner=normal_seller","sold":348,"seen":511,"favorite":10,"updated":"2019-10-14 19:34:41","description":"Monster Pro SN terbuat dari bahan-bahan terbaik khusus ayam bangkok yang menginginkan kualitas terbaik. Menjadikan tulang ayam lebih kuat dan menjadikan pertumbuhan ayam lebih maksimal.\r\nUntuk persiapan ayam turun laga juga sangat cocok apalagi kalau dikombinasikan dengan Dragon SN atau di kombinasikan dengan Bima Power Sangat terlihat efek baiknya. Ayam menjadi lebih sehat, lebih agresif dan merah membara.\r\nBuktikan sekarang juga dengan Monster Pro SN.","rating":0}
{"no":0,"title":"sea quill z3 omega 3","price":"520.000","seller":"Toko Doraemon","sellerPlace":"Jakarta Barat","url":"https://www.bukalapak.com/p/kesehatan-2359/obat-suplemen/obat-obatan/d7h50w-jual-sea-quill-z3-omega-3?from=&product_owner=normal_seller","sold":47,"seen":952,"favorite":8,"updated":"2019-10-10 20:01:52","description":"Sea-Quill Z3 Pharmaceutical Grade Omega-3 merupakan generasi terbaru dari Omega-3 yang berbeda dengan produk-produk Omega-3 yang lainnya. Dimana pada produk lain hanya mengandung 30% Omega-3 dan 70% minyak ikan, sedangkan pada Sea-Quill Z3 mengandung lebih dari 85% Omega-3, yang dihasilkan dari teknologi molecular dan fractionated distilation untuk membuang lemak ikan dan meningkatkan kadar asam lemak Omega-3. Sehingga untuk Omega-3 yang ada dalam Sea-Quill Z3 Pharmaceutical Grade Omega-3 tingkat kemurniannya lebih besar, dengan karakteristik sebagai berikut:\r\n- Tidak mengandung lemak jenuh (setelah disimpan pada freezer).\r\n- Tidak mengandung polutan atau pengotor logam berat seperti merkuri.\r\n- Kadar Omega-3 (EPA, DHA, dan ALA) yang tinggi.\r\n- Perbandingan AA : EPA kurang dari 0,1 (efek klinis yang tinggi).\r\n- Dimana 1 kapsul Z3 setara dengan 10 kapsul Omega-3 biasa.\r\n\r\nCara Kerja :\r\nEPA (Eicosapentaenoic acid) merupakan asam lemak tak jenuh yang bertindak sebagai penghambat agregasi trombosit (penggumpalan trombosit), sehingga dapat mencegah terjadinya penyumbatan pembuluh darah dan melebarkan arteri. Kandungan EPA dan DHA pada Sea-Quill Z3 Pharmaceutical Grade Omega-3 memilki efek antiaritmia pada jantung, menghambat proses lipogenesis (pembentukan lemak), dan mempercepat oksidasi asam lemak sehingga dapat menurunkan produksi kolesterol dan menurunkan trigliserida. Selain itu, EPA dan DHA juga dapat menghambat pembentukan mediator peradangan seperti PG E2, LTB4, TNFa, dan IL-1, yang berhubungan dengan neurodegeneratif (kerusakan sel-sel saraf) serta penyakit autoimun (penyakit yang disebabkan oleh kesalaahn sistem kekbalan tubuh) . Ditambah dengan kandungan Vitamin E yang berperan sebagai antioksidan serta pengawet alami.\r\n\r\nManfaat :\r\n- Membantu memelihara kesehatan jantung, mencegah pembekuan darah, membantu menurunkan kadar lemak darah (seperti kolesterol dan trigliserida) serta membantu menormalkan tekanan darah tinggi.\r\n- Mengurangi reaksi peradangan, gangguan autoimun dan mengurangi nyeri.\r\n- Memperbaiki metabolisme tubuh secara keseluruhan.\r\n\r\nDianjurkan bagi :\r\n- Cocok digunakan bagi penderita dengan koleterol dan trigliserida tinggi, tekanan darah tinggi, penyumbatan pembuluh darah, infark miokard (MCI), dan paska serangan stroke.\r\n- Cocok digunakan bagi penderita rematik, radang usus, serta penyakit autoimun.\r\n- Disarankan bagi orang yang sering mengkonsumsi makanan yang mengandung lemak jenuh.\r\n- Sangat diajurkan bagi paruh baya untuk memelihara kesehatan jantung dan kesehatan secara keseluruhan.\r\n\r\nKhasiat : Memelihara kesehatan\r\n\r\nCara Pakai : 1 softgel setiap hari sesudah makan\r\n\r\nKomposisi :\r\nInformasi Nilai Gizi per 1 Kapsul Lunak\r\n- Vitamin E 4 IU\r\n- Fish Oil 1200 mg\r\n- EPA 360 mg\r\n- DHA 240 mg\r\n\r\nKandungan lainnya : Gelatin, Glycerin dan Water\r\n\r\nKemasan : 50 softgel @ 1427 mg\r\n\r\nBrand : Sea-Quill\r\n\r\nDiproduksi Oleh : Natures Products, Inc.\r\n\r\nDistributor : Abad Dua Satu Makmur\r\n\r\nBPOM No : SI 104 301 561\r\ndi jamin 100% barang asli no tipu tipu","rating":0}
{"no":0,"title":"Tusuk Jari Kapsul Original. Asam Urat, Rematik, DLL","price":"33.300","seller":"OmahJamu","sellerPlace":"Malang","url":"https://www.bukalapak.com/p/kesehatan-2359/obat-suplemen/obat-obatan/181j89-jual-tusuk-jari-kapsul-original-asam-urat-rematik-dll?from=&product_owner=normal_seller","sold":1678,"seen":3023,"favorite":98,"updated":"2019-10-12 06:50:01","description":"AWAS TUSUK JARI KAPSUL PALSU HARGA MURAH\r\n\r\nTusuk Jari Original 100%\r\nTusuk Jari kapsul adalah jamu herbal berbentuk kapsul yang dapat mengobati berbagai macam penyakit. Benar benar manjur untuk mengobati berbagai macam penyakit. Buktikan khasiatnya......\r\n\r\nKhasiat dan Kegunaan:\r\n- Mengobati asam urat\r\n- Pegel linu\r\n- Asam Urat\r\n- Rematik\r\n- Kolesterol\r\n- Stamina\r\n- Masuk angin\r\n\r\nIsi:\r\n1 renteng isi 20 sachet @ 2 Kapsul\r\n\r\nProduksi:\r\nUD AM JAYA","rating":0}
{"no":0,"title":"Amino Mutant 600 tabs","price":"370.000","seller":"rumahsuplement","sellerPlace":"Tangerang","url":"https://www.bukalapak.com/p/kesehatan-2359/obat-suplemen/obat-obatan/1wskq1-jual-amino-mutant-600-tabs?from=&product_owner=normal_seller","sold":51,"seen":1738,"favorite":104,"updated":"2019-10-14 15:56:48","description":"NOMOR BPOM : \r\n\r\nMUTANT AMINO 600 TABS 194510571\r\n\r\n100% BARANG ASLI BPOM\r\n\r\nNote : \r\n1. Langsung Pilih Salah Satu Bonusnya Dibawah Ini ya :\r\n- Free Shaker\r\n- Free Tas Backpack (sold out)\r\n- Free Aksesoris Headband\r\n- Free Aksesoris Wristband\r\n\r\n\r\n2. Harap Memberi Keterangan Pada Saat Order (Seperti Rasa,Ukuran,Warna ,Dll) Jika Barang Dikirim Random Maka Pembeli Dilarang Komplain DIkarenkan Tidak Menulis Dicatatan Pembeli Untuk Pilihannya.\r\n\r\nNote : Bonus Atau Free Tidak Berlaku Selama Harga Promo !!!\r\n\r\nMUTANT AMINO 600 TABS adalah sumber asam amino (BCAA) untuk perbaikan Otot, asam amino adalah bahan dasar penting untuk pembentukan , pertumbuhan otot dan pencegahan penyusutan otot.\r\n\r\nMUTANT AMINO terbuat dari campuran protein kualitas tinggi dihidrolisis whey, bentuk bebas dan asam amino rantai cabang. Setiap porsi menyediakan lebih dari 2.000 mg asam amino berkualitas yang akan membantu Anda efisien memperbaiki dan membangun kembali otot\r\n\r\nCara pakai MUTANT AMINO 600 TABS : pagi hari, sebelum latihan, sesudah latihan. Off latihan : pagi , siang, malam\r\n\r\nKomposisi MUTANT AMINO 600 TABS :\r\n\r\nContainer Size : 300 Caplets\r\nServing Size : 2 Caplets\r\nServings Per Container : 150\r\n\r\nAmount Per Serving :\r\n\r\nAmino Acids : (2g)\r\nFree Form, Di, Tri & Oligo Peptide Amino Acids from Hydrolysed Whey Protein Isolate, BCAAs (L-Leucine, L-Valine, L-Isoleucine), L-Arginine, L-Glycine, L-Ornithine.","rating":0}
{"no":0,"title":"BODREX PARACETAMOL CAFFEINE 1 STRIP ISI 10 TABLET","price":"3.500","seller":"vitaminmurahdotcom","sellerPlace":"Jakarta Selatan","url":"https://www.bukalapak.com/p/kesehatan-2359/obat-suplemen/obat-obatan/f1wdfn-jual-bodrex-paracetamol-caffeine-1-strip-isi-10-tablet?from=&product_owner=normal_seller","sold":121,"seen":297,"favorite":14,"updated":"2019-10-13 08:50:27","description":"BARANG ORIGINAL NON RETUR. EXP DATE : SEPT 2022","rating":0}
{"no":0,"title":"selang makan ngt fr.16 silikon","price":"50.000","seller":"sintia store","sellerPlace":"Jakarta Timur","url":"https://www.bukalapak.com/p/kesehatan-2359/obat-suplemen/obat-obatan/1d1tfp-jual-selang-makan-ngt-fr-16-silikon?from=&product_owner=normal_seller","sold":156,"seen":1404,"favorite":34,"updated":"2019-10-11 12:22:06","description":"selang makan ngt fr.16 silikon\r\nkemenkes RI akl 20805512023","rating":0}
{"no":0,"title":"Swisse Vitamin D 1000IU 400 caps","price":"369.000","seller":"vitaminoz","sellerPlace":"Jakarta Barat","url":"https://www.bukalapak.com/p/kesehatan-2359/obat-suplemen/obat-obatan/jpvq0-jual-swisse-vitamin-d-1000iu-400-caps?from=&product_owner=normal_seller","sold":296,"seen":1262,"favorite":22,"updated":"2019-10-06 16:18:56","description":"Informasi Umum, expiry 7/2021\r\n\r\nSwisse Ultiboost Vitamin D adalah formula kualitas premium mengandung 1000 IU alami berasal vitamin D3 untuk mendukung tulang dan gigi kesehatan.\r\n\r\nTulang & Gigi Kesehatan: Mendukung pengembangan dan pemeliharaan kesehatan tulang dan gigi.\r\nPeningkatan Penyerapan: Vitamin D3 membantu penyerapan dan pemanfaatan kalsium, yang membantu mempertahankan kepadatan tulang yang sehat. Vitamin D3 dipertahankan dalam aliran darah lebih efektif bila dibandingkan dengan vitamin D2 (sintetis).\r\n\r\nKesehatan otot: Vitamin D membantu fungsi dukungan otot.\r\nKesehatan kekebalan: Mendukung sistem kekebalan tubuh yang sehat.\r\n\r\nKerangka manusia terdiri dari 206 tulang yang menyediakan kerangka kerja bagi tubuh untuk membantu mempertahankan bentuk, melindungi organ vital dan menyediakan tempat untuk otot untuk melampirkan. \r\n\r\nTulang juga berfungsi sebagai situs untuk penyimpanan mineral dan pembentukan sel darah. Sangat sedikit makanan alami mengandung jumlah vitamin D, sehingga paparan sinar matahari secara teratur untuk diperlukan bagi tubuh untuk memproduksi vitamin D3. Gaya hidup modern sering mengurangi waktu terkena sinar matahari, yang meningkatkan kebutuhan untuk mendapatkan vitamin D3 dari sumber lain.\r\n\r\nSwisse Ultiboost Vitamin D telah dirumuskan berdasarkan bukti ilmiah untuk menyediakan sumber alami berasal dari vitamin D3 dalam nyaman,\r\n\r\nDosis: 1 hari 1 tablet.","rating":0}
{"no":0,"title":"Obat Penyakit Kulit (Eksim,Dermatitis,Scabies)","price":"300.000","seller":"Kuple Olshop","sellerPlace":"Jakarta Utara","url":"https://www.bukalapak.com/p/kesehatan-2359/obat-suplemen/obat-obatan/2myj3e-jual-obat-penyakit-kulit-eksim-dermatitis-scabies?from=&product_owner=normal_seller","sold":74,"seen":4263,"favorite":110,"updated":"2019-10-06 14:02:18","description":"SkinSure merupakan sebuah Lotion Produk Kesehatan kulit impor dari Negara Maju United Kingdom (INGGRIS) yang multiguna.SkinSure telah terbukti mampu mengobati segala macam penyakit kulit,seperti EKSIM,DERMATITIS,SCABIES,SELULITIS,LEPRA,KELOID,LUPUS,IMPETIGO,PSORIASIS,PENYAKIT KULIT BANDEL/MENAHUN,JAMUR KULIT,SEBOROIK,IMPETIGO,ROSACEA,LUKA BAKAR,LUKA GORES,IRITASI,ALERGI,KADAS,KUDIS,KURAP,KAKI PECAH-PECAH/KAPALAN,KUTU AIR,CACAR,LUKA BEKAS OPERASI,GATAL DI SEKITAR AREA INTIM,GATAL DI BAGIAN KEPALA,DIABETES,BISULAN,KANKER KULIT,MAU PUN INFEKSI pada kulit.\r\n\r\nSelain itu SkinSure juga sangat bagus untuk perawatan kulit seperti Luluran/Treatment,karna SkinSure ini terbuat dari bahan-bahan alami seperti Aloe Vera dan Minyak Jojoba yang bisa melembabkan dan melembutkan kulit,serta kulit menjadi jauh lebih bersih dan sehat setelah menggunakan nya.\r\n\r\n# Keunggulan SkinSure di banding produk lainnya :\r\n\r\n- SkinSure mempunyai 3 Langkah Action,yaitu : 1.) Membunuh kuman/bakteri yg menyebabkan terjadinya luka 2.) Mengobati luka/penyakit kulit 3.) Melindungi/mencegah kulit dari bakteri/kuman yg akan datang lagi selama dalam proses penyembuhan\r\n- SkinSure mengandung bahan Anti Bakterial yang bisa membunuh kuman sekaligus melindungi kulit kita dari Bakteri selama 4 jam\r\n- SkinSure tidak mengandung Alkohol,Lanolin,Steroids,Pewarna atau pun Perfume,jadi memang benar-benar obat alami yang bagus untuk kulit dan tidak menyebabkan iritasi atau pun kulit kering\r\n- SkinSure merupakan satu-satunya Obat Antiseptik yang tidak mengandung Alkohol,dan SkinSure ini sudah mendapatkan sertifikat HALAL dari MUI\r\n- SkinSure juga tidak lengket dan cepat meresap ke dalam kulit,pori-pori kulit akan bernafas secara alami setelah menggunakan SkinSure\r\n- Di Luar Negeri sana khususnya Benua Eropa para Dokter atau Rumah Sakit/klinik kulit juga sudah banyak yang memakai untuk di rekomendasikan pada para pasien nya yang mempunyai berbagai macam keluhan penyakit kulit\r\n- SkinSure juga telah Lulus Uji Klinis Dermatologist,dan sudah mendapatkan sertifikat HACCP sehingga produk yang aman di pakai dan tidak mengandung bahan-bahan kimia yang berbahaya\r\n- SkinSure juga telah terdaftar di kementerian kesehatan dan juga sudah mempunyai no reg BPOM,sehingga sudah mempunyai izin edar resmi di indonesia ini\r\n\r\n\r\nCara Mengobati Penyakit Kulit Sampai Sembuh Total dan Tuntas dengan cepat adalah menggunakan ? SkinSure yang terbukti ampuh, manjur dan mujarab mengatasi penyakit kulit.\r\n\r\n\r\n# SkinSure ULTRA bisa mengobati segala macam penyakit/permasalahan kulit,GARANSI 1 minggu apabila sudah memakai SkinSure dengan rutin selama 1 minggu tapi tidak ada hasil,UANG KEMBALI\r\n\r\n\r\nPemakaian : oleskan setiap 4 jam sekali untuk hasil maksimal,dan minimal 3 kali sehari untuk luka ringan","rating":0}
{"no":0,"title":"BOLA DURI MAGNET UNTUK TERAPI KESEHATAN","price":"7.500","seller":"AKBAR MEDIKA","sellerPlace":"Bekasi","url":"https://www.bukalapak.com/p/kesehatan-2359/obat-suplemen/obat-obatan/31kk0-jual-bola-duri-magnet-untuk-terapi-kesehatan?from=&product_owner=normal_seller","sold":330,"seen":2872,"favorite":108,"updated":"2019-10-14 21:51:41","description":"BOLA DURI MAGNET TERAPI KESEHATAN Harga Promo Saat ini : Rp15.000 Pembelian RESELLER, Harga Bisa NEGO..!! CS : Special Harga utk Beli Grosir / Reseller). Melancarkan peredaran darah,Menghilangkan kantuk dan Menghilangkan sakit kepala, Menyembuhkan kesemutan, Menghangatkan tangan yang terasa dingin, Melatih otot tangan, Bola ini juga Mengandung Efek Gelombang Magnet yang Baik untuk Kesehatan.","rating":0}
{"no":0,"title":"Obat Herbal Pria Perkasa-Kuat-Tahan Lama|Terdaftar BPOM","price":"160.000","seller":"Apotek Kharisma","sellerPlace":"Jakarta Barat","url":"https://www.bukalapak.com/p/kesehatan-2359/obat-suplemen/obat-obatan/1ff6by-jual-obat-herbal-pria-perkasa-kuat-tahan-lama-terdaftar-bpom?from=&product_owner=normal_seller","sold":23,"seen":3602,"favorite":59,"updated":"2019-10-13 20:10:42","description":"Obat Tahan Lama Herbal yang berfungsi meningkatkan produksi hormon testosteron, mengatasi ezakulasi dini, meningkatkan libido/gairah seksual, menjadikan erexi keras dan tahan lama berhubungan, mengentalkan dan memperbanyak sperma.\r\n\r\nLHIFORVIT terdaftar BPOM dan Halal MUI\r\nObat Herbal Lhiforvit telah terdaftar di Badan POM dengan nomor regristrasi POM TR. 093 301 521 dan halal MUI 05 yang dikususkan untuk pria dewasa agar erexi lebih keras, meningkatkan libido dan menjaga stamina. Lhiforvit memiliki banyak keunggulan dibanding obat kejantanan lainnya, sehingga Lhiforvit adalah solusi yang sangat tepat bagi Anda yang ingin meningkatkan gairah seksual.\r\n\r\nLhiforvit adalah solusi tepat untuk masalah sbb:\r\n&amp;amp;gt; Durasi berhubungan intim terlalu singkat, hanya beberapa menit sudah keluar sperma.\r\n&amp;amp;gt; Erexi tidak keras/loyo.\r\n&amp;amp;gt; Performa seksual Anda kian menurun dengan bertambahnya usia.\r\n&amp;amp;gt; Sperma yang keluar encer dan kurang banyak.\r\n&amp;amp;gt; Stamina Anda mudah terkuras hanya beberapa menit berhubungan sehingga aktivitas kerja Anda tidak maksimal.\r\n&amp;amp;gt; Gairah seksual yang tidak menggebu-gebu seperti dulu.\r\n\r\nKomposisi obat LHIFORVIT\r\n&amp;amp;gt; Piperis nigri fructus ekstrak (lada hitam) 80 m\r\n&amp;amp;gt; Ocinum sanctum folius ekstrak (kemangi) 89 mg\r\n&amp;amp;gt; Bee pollen 74 mg\r\n&amp;amp;gt; Pimpinella pruatjan radic ekstrak (purwo ceng) 81 mg\r\n&amp;amp;gt; Arecae semen ekstrak (buah pinang) 82 mg\r\n&amp;amp;gt; Piper retrofracti fructus ekstrak (cabai jawa) 89 mg\r\n\r\nDosis &amp;amp;amp; Cara Penggunaan\r\nDiminum 1 kapsul setelah makan dan 1 kapsul diminum 1 jam sebelum berhubungan untuk menjadikan Anda lelaki perkasa.\r\n\r\nDetail Produk:\r\nNama : Lhiforvit\r\nTampilan : Lihat foto di atas\r\nIsi : 30 Kapsul @500mg\r\nNo. Reg : POM TR 093 301 511","rating":0}
{"no":0,"title":"Madu Kuat Indrajit","price":"65.000","seller":"Hudzai","sellerPlace":"Bekasi","url":"https://www.bukalapak.com/p/kesehatan-2359/obat-suplemen/obat-obatan/2193a4-jual-madu-kuat-indrajit?from=&product_owner=normal_seller","sold":236,"seen":5587,"favorite":183,"updated":"2019-10-10 03:51:05","description":"stok ready\r\n\r\nMadu Indrajit, madu kuat yang menambah kegantengan Anda di ranjang\r\nBermain di ranjang dengan istri tercinta tentu membutuhkan kekuatan stamina. Tentu istri sangat menginginkan kepuasan dan rasa kasih sayang dari sang suami. Stamina yang prima tentu bisa memuaskan sang istri, dengan begitu istri pun makin sayang kepada suami.\r\n\r\nMadu kuat Indrajit terbuat dari madu murni dengan tambahan rempah seperti pas*k bumi dan lada hitam serta herbal lainnya yang berfungsi menambah kekuatan kejantanan Anda. Madu kuat ini 100% herbal alami tanpa efek samping, melainkan efek ke depan.\r\n\r\nLaki Banget\r\n-Minum madu Indrajit 1 jam sebelum bertanding untuk memunculkan efek laki banget.\r\n-Tidak ada efek samping\r\n-Terbuat dari bahan alami, tidak menimbulkan jantung deg-degan, hanya efek ke depan.\r\n-menambah keharmonisan\r\n\r\nIstri bisa memberikan madu Indrajit sebagai hadiah untuk suami agar makin harmonis.\r\n-Banyak manfaat\r\n-Aman bagi penderita diabetes, dapat mengentalkan sperma, menjaga daya tahan tubuh.\r\n\r\nManfaat madu kuat Indrajit\r\nInsya Allah bermanfaat untuk:\r\n- Mengobati badan letih dan loyo serta menjaga tubuh tetap segar setelah berhubungan suami istri\r\n- Mengentalkan sperma\r\n- Membantu awet muda\r\n- Penting untuk keharmonisan rumah tangga\r\n\r\nKomposisi :\r\n- Madu\r\n- Bawang Putih\r\n- Lada Hitam\r\n- P*s*k Bumi\r\n\r\nAturan minum:\r\n- Kocok terlebih dahulu\r\n- Pagi bangun tidur dan malam 1 jam sebelum berhubungan (pagi dan malam @ 2 sendok makan)\r\n- Baik dikonsumsi setiap hari untuk menjaga stamina dan kebugaran tanpa efek samping","rating":0}
{"no":0,"title":"Kuramo THO Kunyit","price":"170.000","seller":"Kuramo Herbal Store Sukabumi","sellerPlace":"Kab. Sukabumi","url":"https://www.bukalapak.com/p/kesehatan-2359/obat-suplemen/obat-obatan/1iplia-jual-kuramo-tho-kunyit?from=&product_owner=normal_seller","sold":246,"seen":3104,"favorite":64,"updated":"2019-10-14 06:25:43","description":"Kuramo Kunyit Mas adalah Obat Herbal asli Indonesia yang terbuat dari bahan kunyit organik yang diramu bersama rempah-rempah organik lainnya. BEBAS BAHAN KIMIA.\r\n\r\n\r\n\r\nKuramo Kunyit Mas sangat di rekomendasikan bagi Anda yang menderita masalah pencernaan, seperti gangguan asam lambung dan maag kronis, serta masalah kesehatan lainnya.\r\n\r\n\r\n\r\nKuramo Kunyit Mas Sudah Mendapatkan Izin Dari DEPKES PIRT Dengan No. 213320201820 Dan Bersetifikat HALAL MUI-JB 01121067881211 sehingga khsiat &amp; keamanannya tidak bisa di ragukan lagi. \r\n\r\n\r\n\r\nManfaat &amp; Khasiat Kuramo Kunyit Mas :\r\n\r\n\r\n\r\n1. Mengatasi Sembelit, \r\n\r\n2. Mengatasi mual, \r\n\r\n3. Mengatasi mulas, \r\n\r\n4. Mengatasi perih, \r\n\r\n5. Mengatasi kembung, \r\n\r\n6. Mengatasi gastritis, \r\n\r\n7. Mengatasi perut begah, \r\n\r\n8. Mengatasi radang usus, serta\r\n\r\n9. Meningkatkan kualitas ASI\r\n\r\n10. Mencegah kanker dan tumor\r\n\r\n11. berfungsi sebagai antibiotik alami\r\n\r\n\r\n\r\nKuramo Kunyit Mas sudah terbukti berdasarkan testimoni dapat mengobati berbagai macam masalah kesehatan salah satunya seperti penyakit Maag Kronis &amp; Asam Lambung\r\n\r\n\r\n\r\nCara Konsumsi :\r\n\r\n\r\n\r\nSeduh 1 Sendok untuk 1 Gelas - 3 Kali dalam 1 hari - Pagi, Siang, Malam","rating":0}
{"no":0,"title":"Minyak Kayu Putih Cap Lang 30 ml","price":"12.000","seller":"Apotik Kosmetik Bintang Jaya","sellerPlace":"Jakarta Timur","url":"https://www.bukalapak.com/p/kesehatan-2359/obat-suplemen/obat-obatan/uhe2z-jual-minyak-kayu-putih-cap-lang-30-ml?from=&product_owner=normal_seller","sold":42,"seen":848,"favorite":6,"updated":"2019-10-14 14:51:18","description":"Minyak Kayu Putih Cap Lang adalah produk minyak kayu putih murni 100 % yg berkhasiat untuk membantu meringankan:\r\n1. Sakit perut\r\n2. Perut kembung.\r\n3. Rasa mual.\r\n4. Gatal-gatal akibat gigitan serangga atau nyamuk.\r\n\r\n1 botol berisi 30 ml.\r\nExpired date: Februari 2023.\r\nProduksi: PT. Eagle Indo Pharma, Indonesia.\r\nTerdaftar di BPOM TR 1.","rating":0}
{"no":0,"title":"Gaviscon Double Action - Solusi Maag Gerd AsamLambung - ReadyStock","price":"225.000","seller":"JamuGendong","sellerPlace":"Tangerang Selatan","url":"https://www.bukalapak.com/p/kesehatan-2359/obat-suplemen/obat-obatan/cmvmam-jual-gaviscon-double-action-solusi-maag-gerd-asamlambung-readystock?from=&product_owner=normal_seller","sold":34,"seen":791,"favorite":9,"updated":"2019-09-20 12:13:10","description":"|| Selama Barang Terpajang || Ready Stock ya... || Langsung Order Aja\r\nPasti Aman Pasti Asli Pasti Berkualitass \r\n\r\nGaviscon Double Action\r\n150ml\r\nExp Date 2020 \r\n\r\n100% Original Produk Impor-Money Back Guarantee \r\n\r\nSolusi Ampuh Maag, HeartBurn &amp; AsamLambung \r\n\r\n|| Ready GoSend &amp; Grab || \r\n\r\n==============================\r\nKESEHATAN anda adalah KEBAHAGIAAN kami\r\n==============================\r\n/ Be a smart Buyer\\ produk Original langsung dari importir /\\\r\n------------------------------------------------------------------------------\r\nDilarang Crop / Copy Gambar / Deskripsi Tanpa Ijin = Mencuri HakCipta\r\n--------------------------------------------------------------------------------------","rating":0}
{"no":0,"title":"permen hamer ginseng coffee candy","price":"500.000","seller":"syarul","sellerPlace":"Jakarta Timur","url":"https://www.bukalapak.com/p/kesehatan-2359/obat-suplemen/obat-obatan/lukuvz-jual-permen-hamer-ginseng-coffee-candy?from=&product_owner=normal_seller","sold":43,"seen":1249,"favorite":20,"updated":"2019-10-14 20:01:24","description":"melayani eceran dan grosiran exp terbaru","rating":0}
{"no":0,"title":"ROCHE Softclik Lancet Accu-check 200pcs","price":"1.200","seller":"EKO Medika","sellerPlace":"Jakarta Timur","url":"https://www.bukalapak.com/p/kesehatan-2359/obat-suplemen/obat-obatan/i1ga3-jual-roche-softclik-lancet-accu-check-200pcs?from=&product_owner=normal_seller","sold":1081,"seen":786,"favorite":19,"updated":"2019-09-15 09:56:21","description":"300.ROC.01141\r\n=============\r\nDeskripsi Produk\r\n\r\nSteril-R.\r\n0,4 mm, 28g.\r\nLancets.\r\nAccu-Chek Softclix.\r\nAccu-Chek Softclix plus.\r\nAccu-Chek Softclix klasik.\r\nAccu-Chek dan Softclix adalah merek dagang dari Roche.\r\n\r\nHARGA DIATAS PER PCS\r\n\r\nminimal order 25strip","rating":0}
{"no":0,"title":"Obat kuat oles hajar saadah herbal oles kuat pria original","price":"21.500","seller":"Dalyta_herbal","sellerPlace":"Bekasi","url":"https://www.bukalapak.com/p/kesehatan-2359/obat-suplemen/obat-obatan/1cnm2me-jual-obat-kuat-oles-hajar-saadah-herbal-oles-kuat-pria-original?from=&product_owner=normal_seller","sold":37,"seen":1463,"favorite":14,"updated":"2019-10-11 15:12:40","description":"==(BARANG READY STOCK)==\r\n\r\n*Jika ingin privasi silahkan pilih expedisi JNE / TIKI, kalau J&T / SICEPAT pakai resi otomatis dan nama barang akan terlihat.\r\n\r\n*Jika ingin menggunakan expedisi J&T untuk barang cair harap chat terlebih dahulu karena J&T untuk barang cair hanya pengiriman pulau jawa.\r\n\r\n*Terima pesanan Full 24jam, lebih cepat diproses untuk jam 7.00 sampai jam 19.00.\r\n\r\n*Terima order setiap hari (order dihari minggu via tiki dikirim hari senin atau diganti JNE).\r\n\r\n*Proses dijamin CEPAT, AMAN 100% dan ASLI.\r\n\r\n\r\nAsli 100%!!!\r\nReady, langsung ATC!\r\nJika di estalase masih ada, berarti barang READY.\r\nBagi ya sudah terima barang, segera konfirmasi dan berikan review thanks :)\r\n\r\nHAJAR SA'ADAH CAIR\r\nHJ MESIR SA'ADAH ORI 100% IMPORT MESIR\r\n\r\nTEKNOLOGI PENGAWETAN MODERN &amp;amp; AMAN dengan MASA KADALUARSA yang lama\r\n\r\nSebuah ramuan tradisional yg konon digunakan sebagai anestesi sementara telah ditemukan pada zaman firaun,berasal dari getah getahan tumbuhan yang hanya ada di mesir.\r\n\r\nCOCOK BUAT BERCINTA DIATAS RANJANG BIKIN LELAKI TANGGUH DAN PERCAYA DIRI\r\nBikin ranjang bergoyang istri puas suami makin di sayang.\r\n\r\nSensasi bercinta anda akan semakin dahsyat ranjang bergoyang.\r\n\r\nCARA PAKAI:\r\nProduk dioleskan pada saat tidak tegang,obat akan meresap dan memperbesar pembuluh darah sehingga rongga pembuluh darah akan menekan ureter. Oleskan secara meratan dibatang bagian bawah. Rasa hangat yg timbul menandakan obat meresap secara optimal. Setelah dioleskan tunggu 30 menit ketika rasa hangat sudah hilang terus dicuci dengan sabun. Lama hubungan minimal bisa 15 hingga 30 menit lebih lama tergantung sensitifitas setiap orang. Manfaat produk bisa bertahan hingga 2 hari\r\n\r\nStop penggunaan obat obatan yang membahayakan tubuh anda. Pilih hanya yang aman","rating":0}
{"no":0,"title":"Zheng Gu Shui 60 ml","price":"52.000","seller":"Murni Jaya","sellerPlace":"Jakarta Barat","url":"https://www.bukalapak.com/p/kesehatan-2359/obat-suplemen/obat-obatan/6bm9dq-jual-zheng-gu-shui-60-ml?from=&product_owner=normal_seller","sold":46,"seen":691,"favorite":18,"updated":"2019-10-14 14:45:43","description":"Barang Dijamin Asli Herbal 100%!!\r\nPengiriman Barang Cepat!!\r\nBarang Dipacking Dengan Rapih!!\r\n\r\n\"Semprot\" Zheng Gu Sui' 60ml \r\n(Obat Luar)\r\n\r\nKhasiat &amp;amp;amp;amp;amp;amp;amp;amp;amp;amp;amp;amp;amp;amp;amp;amp;amp;amp;amp;amp;amp;amp; Kegunaan :\r\n* Membantu penyembuhan retak tulang dan keseleo\r\n* Meringankan rasa sakit rematik\r\n* Meredakan bengkak\r\n* Melancarkan sirkulasi darah\r\n* Meredakan kelelahan sebelum dan setelah berolahraga dan aktivititas fisik\r\n\r\nCara Pakai &amp;amp;amp;amp;amp;amp;amp;amp;amp;amp;amp;amp;amp;amp;amp;amp;amp;amp;amp;amp;amp;amp; Dosis :\r\n* Oles atau semprotkan pada bagian yang sakit beberapa kali sehari\r\n* Patah tulang atau dislokasi harus dikembalikan ke posisi yang benar sebelum pemakaian obat\r\n* Jika luka berdarah, hentikan perdarahan dan gosokkan obat di sekitar luka. Jangan gosokkan pada luka terbuka\r\n* Jangan diperban setelah pemakaian obat untuk menghindari kulit melepuh karena hambatan darah\r\n\r\nKomposisi : \r\nCrotonis Fructus \r\nCinnamomi Cassiae Cortex\r\nAngelicae Dahuricae Radix\r\nPseudoginseng Radix\r\nPiperis Kadsurae Caulis\r\nCynanchi Paniculati Radix\r\nCurcumae Rhizoma\r\nPolygoni Cuspidati Rhizoma\r\nZanthoxyli Radix\r\nGleditsiae Sinensis Fructus\r\n\r\nDIIMPORT OLEH :\r\nPT. SARAS SUBUR ABADI\r\nPOM TI. 164 650 651","rating":0}
{"no":0,"title":"Geranium Salep Kulit'10gr-Wilfordii Ointment SOHC","price":"11.000","seller":"Murni Jaya","sellerPlace":"Jakarta Barat","url":"https://www.bukalapak.com/p/kesehatan-2359/obat-suplemen/obat-obatan/7rs3r9-jual-geranium-salep-kulit-10gr-wilfordii-ointment-sohc?from=&product_owner=normal_seller","sold":103,"seen":333,"favorite":11,"updated":"2019-10-02 17:27:13","description":"Barang Dijamin Asli Herbal 100%!!\r\nPengiriman Barang Cepat!!\r\nBarang Dipacking dengan Rapih!!\r\n\r\nSalep Kulit Geranium'10gr\r\n Wilfordii Ointment SOHC\r\n\r\nKhasiat & Kegunaan : \r\n-. Untuk gatal-gatal eksim\r\n-. Tersiram air panas/luka bakar\r\n-. Bengkak gigitan serangga\r\n-. Alergi kulit \r\n-. Meremajakan kulit\r\n\r\nBentuk : Salep & berwarna coklat\r\n\r\nPakai & Dosis : \r\nOleskan pada daerah yang gatal/luka,2-3 x sehari\r\n\r\nKemasan : Kotak berisi tube @10gr\r\n\r\nKomposisi : Geranium Wilfordii\r\n\r\nDIIMPORT OLEH : \r\nSOHC\r\nPT. SKY ONE HEALTH CARE\r\nPOM TI. 104 743 051","rating":0}
{"no":0,"title":"Muscle Juice 4.96 Lbs (5 Lbs) Ultimate Nutrition","price":"492.500","seller":"IvanZ Supplement","sellerPlace":"Jakarta Barat","url":"https://www.bukalapak.com/p/kesehatan-2359/obat-suplemen/obat-obatan/1kz0f7-jual-muscle-juice-4-96-lbs-5-lbs-ultimate-nutrition?from=&product_owner=normal_seller","sold":80,"seen":4087,"favorite":60,"updated":"2019-10-15 11:19:43","description":"PROMO\r\n\r\n''FREE RANDOM COLOR SHAKER''\r\nTersedia rasa chocolate, strawberry & vanila (apabila tidak tulis rasa, dikirim random) Muscle Juice 4.96 Lbs (5 Lbs) Ultimate Nutrition promo ultimate nutrition","rating":0}
{"no":0,"title":"jelly Gamat GOLD G 500ml","price":"130.000","seller":"Herbal ORIGINAL","sellerPlace":"Depok","url":"https://www.bukalapak.com/p/kesehatan-2359/obat-suplemen/obat-obatan/c8l7jk-jual-jelly-gamat-gold-g-500ml?from=&product_owner=normal_seller","sold":480,"seen":3663,"favorite":78,"updated":"2019-10-15 09:26:46","description":"Banyak jenis penyakit yang terobati dengan lebih cepat melalui konsumsi rutin jelly gamat gold G atau see cucumber dan berikut adalah beberapa gangguan kesehatan yang herba tripang ini sanggup menjadi obatnya yaitu:\r\n\r\nStroke.\r\nJantung.\r\nKencing manis, luka ganggren.\r\nPenyakit kanker.\r\nTumor.\r\nKelemahan ginjal ( gagal ginjal ).\r\nSirosis hepatis.\r\nRadang sendi, asam urat dan rematik.\r\nWasir atau ambeien.\r\nTulang keropos ( osteoporosis).\r\nISPA, flus, radang, sinusitis.\r\nPenyakit asma.\r\nAlergi kulit. Seperti aksim, gatal, kadas dan kudis.\r\nMenurunkan tekanan darah tinggi /hipertensi.\r\nMengatasi darah rendah.\r\nMenurunkan kadar kolesterol jahat yang tinggi.\r\nPenyumbatan dan penyempitan pembuluh darah.\r\nPenurunan fungsi lever.\r\nMembantu mengatasi kerontokan rambut.\r\nMasalah prostat ( susah buang air kecil ).\r\nBagus di minum orang sehat untuk meningkatkan kekebalan tubuh.\r\n\r\nKenapa JELLY GAMAT GOLD G merk paling di rekomendasikan.\r\n\r\nKehebatan akan khasiat dan manaaf tripang emas atau sea cucumber membuat banyak produsen obat herbal tradisional berloma menggunakan gamat gold sebagai bahan pembuat produk obat yang paling banyak di gunakan, salah satunya adalah merk Jelly gama gold G , merupakan produk hasil olah tripang emas paling populer dan paling di cari saat ini karena banyak testimoni positif dari konsumen penggunanya, hal ini karena beberapa faktor pendukung seperti:\r\n\r\nGamat atau tripang yang di gunakan adala varietas terbaik atau sticophus varie.\r\nKonsentrasi tripang yang di gunakan menggunakan sistemolah modern dan higienis.\r\nBanyak testimoni konsumen yang tersebar dan banyak di posting di berbagai situs web dan blog.\r\nBanyak agen dan penjula jelly gamat golg G memasang iklan online khususnya di google, ini membuktikan jelly gamat banyak pencarinya.\r\nDi dukung oleh perusahaan besar yang memiliki agenda dan komitmen tinggi membudidayakan tripang emas.\r\n\r\nNB: info ini saya dapatkan dari berbagai sumber di internet.\r\nDosis aturan minum/konsumsi jelly gamat gold G.\r\n\r\nUntuk memperoleh hasil penyembuhan yang maksimal maka. Cobalah ikuti beberapa saran dosis aturan minum atau konsumsinya berikut ini:\r\n\r\nTujuan menjaga kesehatan.\r\n\r\n2~3 sendok, 1 atau 2 kali sehari.\r\n\r\nTujuan terapi penyakit ringan.\r\n\r\n3 sendok makan 2 kali sehari ( pagi~sore/malam ).\r\n\r\nTujuan terapi penyakit berat/kronis.\r\n\r\n3~4 sendok makan perhari. Setiap 4 jam sekali.\r\n\r\nada 2 jenis bentuk botol GOLD G 500ml, ada yg bulat gemuk seperti gambar no 1,atau botol langsing seperti gambar no 2..\r\ndan kami kirim sesuai stok yg tersedia.","rating":0}
{"no":0,"title":"Gom / borax glycerine 10% / obat sariawan","price":"3.500","seller":"Aneka Lapak 77","sellerPlace":"Jakarta Barat","url":"https://www.bukalapak.com/p/kesehatan-2359/obat-suplemen/obat-obatan/1d97dj-jual-gom-borax-glycerine-10-obat-sariawan?from=&product_owner=normal_seller","sold":805,"seen":4173,"favorite":181,"updated":"2019-10-15 15:45:27","description":"GOM \r\n\r\nBorax Glycerine 10 % \r\n\r\nkegunanaan :\r\n- obat sariawan yang efektif \r\n- untuk membuat slime \r\n\r\nisi 8ml","rating":0}
{"no":0,"title":"OMEGA SQUA K-LINK","price":"138.000","seller":"Herbal ORIGINAL","sellerPlace":"Depok","url":"https://www.bukalapak.com/p/kesehatan-2359/obat-suplemen/obat-obatan/8axbrw-jual-omega-squa-k-link?from=&product_owner=normal_seller","sold":62,"seen":30859,"favorite":49,"updated":"2019-10-11 16:09:16","description":"K-OmegaSqua merupakan suplemen yang sangat bermanfaat untuk membantu menjaga kesehatan jantung, kulit dan otak manusia.\r\nK-OmegaSqua mengandung tiga unsur yang bekerja secara maksimal dan sinergis untuk menjaga kesehatan jantung, kulit dan otak.\r\n\r\nOMEGA 3 (EPA &amp; DHA)\r\nBersumber dari ikan Salmon Norwegia yang mempunyai kandungan Omega 3 yang paling tinggi yaitu 70% dengan perbandingan EPA 40% dan DHA 30%.\r\n\r\nSQUALENE\r\nSangat bermanfaat untuk meningkatkan kadar oksigen dalam sel dan menjaga kesehatan kulit. Merupakan minyak ikan hiu putih yang hidup di samudera Pasifik dengan kedalaman 600-1000 meter dengan kondisi lingkungan tanpa cahaya matahari, tekanan tinggi dan miskin akan oksigen.\r\n\r\nVITAMIN E\r\nMerupakan vitamin E natural yang bermanfaat sebagai antioksidan yang mampu mencegah terbentuknya plak pada dinding pembuluh darah, menjaga kelembaban kulit dan lain-lain.\r\n\r\nMANFAAT K-OMEGASQUA MEMBANTU :\r\n\r\nMenurunkan kadar kolesterol dan trigliserida dalam darah.\r\nMengatasi rasa sakit dan radang pada penderita rematik, osteoarthritis, psoriasis, eksim, dll.\r\nMenjaga kelenturan pembuluh darah dan menurunkan tekanan darah tinggi.\r\nMenjaga kelenturan pembuluh darah dan menurunkan tekanan darah tinggi.\r\nMencegah terjadinya penyumbatan pada pembuluh darah.\r\nMencegah terjadinya kanker.\r\nMenjaga kesehatan kulit dari terinfeksi bakteri dan jamur.\r\nMengatur denyut jantung sehingga mencegah serangan jantung.\r\nMeningkatkan sistem pertahanan tubuh.\r\nMencegah terserang penyakit influenza dan batuk.\r\nMempercepat penyembuhan luka, jerawat dan penyakit kulit lainnya.\r\nPada ibu hamil, mencegah terjadinya peningkatan tekanan darah yang berlebihan selama hamil, membantu perkembangan otak dan meningkatkan berat badan janin serta mencegah bayi lahir prematur.\r\nMembantu regenerasi sel saraf yang mati seperti pada penderita kencing manis dan orang tua.\r\nmencegah terjadinya serangan asma.","rating":0}
{"no":0,"title":"MADU HITAM RATU LEBAH","price":"35.000","seller":"Herbal ORIGINAL","sellerPlace":"Depok","url":"https://www.bukalapak.com/p/kesehatan-2359/obat-suplemen/obat-obatan/8sfp6f-jual-madu-hitam-ratu-lebah?from=&product_owner=normal_seller","sold":54,"seen":1142,"favorite":14,"updated":"2019-10-12 16:07:45","description":"madu hitam ratu lebah adalah madu hitam yg di kombinasikan dg propolis sehingga menimbulkan reaksi yg lebih di banding madu hitam biasa..\r\n\r\ndiantara khasiat madu ratu lebah adalah untuk mengobati penyakit seperti :\r\n\r\n- diabetes\r\n- kolestrol\r\n- hipertensi\r\n- kurang stamina\r\n- pegal linu\r\n- capek2\r\n- meningkatkan imunitas\r\n- menjaga stamina\r\n- multivitamin\r\n- dll","rating":0}
{"no":0,"title":"CANCERFIT Obat Kanker Alami","price":"65.000","seller":"inayah","sellerPlace":"Jakarta Timur","url":"https://www.bukalapak.com/p/kesehatan-2359/obat-suplemen/obat-obatan/5ecugt-jual-cancerfit-obat-kanker-alami?from=&product_owner=normal_seller","sold":0,"seen":87,"favorite":0,"updated":"2019-08-30 09:13:46","description":"Cancer fit adalah herbal kanker, mioma ( miom) dan tumor. Herbal kanker ini merupakan suplemen kombinasi dari resep pengobatan islam dan pengobatan herbal yang mengandung zat-zat yang bersifat anti tonic, anti kanker ( neoplastik/ sitostatika) . Herbal ini juga meningkatkan daya tahan tubuh dan mengandung nutrisi yang sangat diperlukan oleh tubuh. Herbal ini insya Allah mampu mengobati gangguan dan kerusakan beragam jaringan, maupun organ tubuh yang diakibatkan oleh tumor atau kanker.\r\n\r\nKomposisi:\r\nNigella sativa, Pure Honey, Typonium flagelliforme, Meremmia mamosa, Scurrula oortiana, Curcuma alba dan kandungan herbal lain.\r\n\r\nManfaatnya :\r\n- Mematikan sel kanker\r\n- Memperbaiki jaringan organ yang rusak\r\n- Menghilangkan racun\r\n- Meningkatkan imunitas\r\n- Membersihkan darah\r\n- Mengobati tumor jinak/ ganas\r\n- kanker payudara, kanker usus besar, kanker rectum, kanker leher rahim, kanker paru-paru, kanker usus besar, liver, kanker prostat, kanker ginjal, kanker tenggorokan, kanker tulang, kanker otak, kanker limpa, leukimia, kanker empedu, kanker pankreas dan kanker hati.\r\n- Kista pada rahim dan payudara\r\n- Benjolan kelenjar dan lemak\r\n- dll\r\n\r\nisi:83 kapsul @ 500mg","rating":0}
{"no":0,"title":"XAMTHONE Plus Asli dan Original 100% Jus Kulit Manggis","price":"165.000","seller":"inayah","sellerPlace":"Jakarta Timur","url":"https://www.bukalapak.com/p/kesehatan-2359/obat-suplemen/obat-obatan/5h0pfb-jual-xamthone-plus-asli-dan-original-100-jus-kulit-manggis?from=&product_owner=normal_seller","sold":0,"seen":80,"favorite":0,"updated":"2019-08-30 09:13:44","description":"Harga jual Konsumen yang disarankan : 230.000/ botolJus yg diolah dan dibuat dari ekstrak kulit buah manggis, salah satu buah yg memiliki kandungan antioksidan tertinggi di dunia. Terbukti sebagai zat anti kanker, tumor, diabetes, stroke, menurunkan kadar kolestrol LDL, darah tinggi, menghilangkan jerawat, dan lain-lain.Product Details :Bahan : ekstrak kulit manggis, bunga rosella, apel, anggur, madu murniIsi : 350mLLegalitas : POM TR 083691231Manfaat :- Anti virus, anti jamur, anti parasit, anti alergi- Membantu menurunkan tekanan darah &amp; kolestrol- Mengatasi kelelahan- Melancarkan pencernaan- Meningkatkan kekebalan terhadap penyakit- Menjaga kesehatan jantung- Mengatasi diare- Mencegah perkembangan kanker &amp; tumor- Memperlambat proses penuaan- Meringankan peradanganAturan Pakai :- Untuk pencegahan, minum 30 mL malam hari sesudah makan/sebelum tidur- Untuk pengobatan, sehari minum 3x, 30 mL pada pagi, siang, dan malam hari","rating":0}
{"no":0,"title":"CNI NUTRIMOIST CREAM 50 GR KRIM LUKA BAKAR DLL","price":"275.000","seller":"inayah","sellerPlace":"Jakarta Timur","url":"https://www.bukalapak.com/p/kesehatan-2359/obat-suplemen/obat-obatan/83v8ga-jual-cni-nutrimoist-cream-50-gr-krim-luka-bakar-dll?from=&product_owner=normal_seller","sold":4,"seen":204,"favorite":2,"updated":"2019-08-30 09:13:37","description":"Exp : 03-2019.\r\n\r\nCNI Nutrimoist Cream sangat Efektif Mengatasi Luka Bakar\r\nKulit Anda melepuh tersiram air panas ? Luka terkena irisan benda tajam ? Memar karena terantuk meja ? Atau gatal-gatal karena digigit serangga ? Jangan khawatir, ada CNI Nutrimoist Cream yang siap menangani luka sekaligus merawat kesehatan kulit Anda.\r\n\r\nMengapa CNI Nutrimoist Cream ?\r\nCNI Nutrimoist Cream adalah produk perawatan kulit berbentuk krim yang terbukti secara efektif mampu membantu menyembuhkan luka bakar pada kulit. Bukan hanya itu, CNI Nutrimoist Cream juga dapat mempertahankan kelembaban kulit dan memenuhi zat-zat gizi yang diperlukan kulit. Jadi, jika sel kulit Anda rusak, proses pertumbuhan sel barunya bisa berlangsung cepat.\r\n\r\nCara Kerja CNI Nutrimoist Cream :\r\n\r\n* Menyerap panas pada kulit akibat luka bakar, melepuh atau bengkak karena sengatan serangga. Juga mencegah terjadinya pengelupasan kulit dan kulit terbakar.\r\n* Daya antiseptik Nutrimoist membunuh bakteri dan mencegah pengembangbiakannya.\r\n* Mempercepat peremajaan sel kulit sehingga penyembuhan luka menjadi lebih cepat.\r\n\r\n\r\nKehebatan CNI Nutrimoist Cream dalam merawat kulit disebabkan oleh kandungan bahan-bahan alaminya yang diramu dari ekstrak empat tanaman langka Cina, yaitu: Panax ginseng, Polygonum cuspidatum, Polyganum multiflori, dan Angelica sinensis. Aman untuk semua jenis kulit.\r\n\r\nUntuk menjaga dan merawat kulit, pastikan CNI Nutrimoist Cream selalu bersama Anda.\r\n\r\nKemasan :\r\nBotol isi 50 Gram.","rating":0}
{"no":0,"title":"Kapsul Daun Sukun Herbamedika Isi 120 Obat Ginjal Dan Jantung","price":"26.000","seller":"Ayo Sehat","sellerPlace":"Tangerang Selatan","url":"https://www.bukalapak.com/p/kesehatan-2359/obat-suplemen/obat-obatan/1v9bdyr-jual-kapsul-daun-sukun-herbamedika-isi-120-obat-ginjal-dan-jantung?from=&product_owner=normal_seller","sold":21,"seen":190,"favorite":5,"updated":"2019-10-14 15:25:48","description":"Kapsul daun sukun herbamedika isi 120 kapsul merupakan obat herbal jantung ginjal dll.\r\n\r\nSecara empiris, banyak orang memanfaatkan daun sukun untuk mengatasi berbagai gangguan kesehatan. Selain menurunkan kadar kolesterol darah dan gula darah, ada pula yang menjadikannya sebagai solusi untuk menyelamatkan ginjal, liver dan hepatitis karena daun sukun mengandung saponin, polifenol, asam hidrosianat, kalium, asetilkolin, tannin, riboflavin, dan phenol. Kalium membuat batu ginjal berupa Ca-oksalat tercerai-berai. Endapan batu ginjal akhirnya larut keluar bersama urine.\r\n\r\nDaun sukun juga bagus untuk terapi penderita penyakit ginjal, dengan adanya indikator perbaikan kondisi. Perbaikan kondisi tersebut berupa hilangnya pembengkakan dan berkurangnya kandungan protein dalam urine. Bahkan, kandungan protein dalam urine pada beberapa orang testimoni pengguna kapsul daun sukun menunjukkan nilai yang negatif.\r\n\r\nKHASIAT :\r\n- Mengobati hepatitis dan liver\r\n- Hipertensi (darah tinggi)\r\n- Penyakit jantung dan ginjal\r\n\r\nKOMPOSISI :\r\n- Ekstrak Daun Sukun (simplisia artocarpus altilis folium)\r\n\r\nAturan Pakai :\r\nPengobatan Diminum = 2 x sehari 3kapsul\r\npencegahan Diminum = 2 x sehari 2kapsul","rating":0}
{"no":0,"title":"Kapsul Herba Tempuyung HIU Obat Herbal Batu Ginjal","price":"43.000","seller":"inayah","sellerPlace":"Jakarta Timur","url":"https://www.bukalapak.com/p/kesehatan-2359/obat-suplemen/obat-obatan/5es9et-jual-kapsul-herba-tempuyung-hiu-obat-herbal-batu-ginjal?from=&product_owner=normal_seller","sold":1,"seen":70,"favorite":1,"updated":"2019-09-08 08:12:34","description":"Kapsul Tempuyung merupakan Obat Herbal Khusus untuk Mengatasi berbagai masalah kesehatan dari Herbal Indo Utama yang terbuat dari bahan herbal 100% Alami dan tanpa bahan kimia apapun. Kapsul Tempuyung sangat berkhasiat dalam mengatasi berbagai penyakit sepertiBatu Ginjal, Batu empedu, radang usus Buntu, dll. Kandungan yang ada didalamnya yang alami menjadikannya sangat aman dikonsumsi dan tidak menimbulkan efek samping.\r\n\r\nPOM TR 133 373 211\r\nIsi : 60 Kapsul\r\nProdusen : Herbal Indo Utama\r\n\r\nKomposisi :\r\n\r\nTiap kapsul mengandung Sonchus arvensis folium .400 mg\r\n\r\nKhasiat :\r\n\r\nMembantu meluruhkan batu urin di ginjal dan saluran kemih\r\nTerapi radang usus buntu ( apendisitis), radang payudara ( mastitis)\r\nTerapi di