{"no":0,"title":"Obat Pengental Penyubur Sperma Dan Penyubur Kandungan Wanita Semen Booster & Ovuma","price":"325.000","seller":"CV Karya Abadi Pusat","sellerPlace":"Jakarta Selatan","url":"https://www.bukalapak.com/p/kesehatan-2359/obat-suplemen/obat-obatan/27wt3tn-jual-obat-pengental-penyubur-sperma-dan-penyubur-kandungan-wanita-semen-booster-ovuma?from=&product_owner=normal_seller","sold":58,"seen":10,"favorite":0,"updated":"2019-10-01 05:42:02","description":"Jika anda adalah pasangan yang mendambakan kehadiran buah hati ditengah2 anda berdua paket herbal kesuburan ini menjadi solusi tepat untuk anda. paket kesuburan pria wanita ini terdiri dari :\r\n\r\n\r\n1. Obat herbal penyubur kandungan - Ovuma\r\n\r\n\r\n\r\nOvuma terbuat dari 100 herbal alami yang berkhasiat menyuburkan kandungan dan telah terbukti secara efektif mampu menyuburkan kandungan dan memperbesar peluang memperoleh kehamilan.\r\n\r\n\r\nKhasiat Ovuma:\r\n\r\n\r\n1.\r\nMenyuburkan kandungan\r\n2.\r\nMenyehatkan dan memperkuat kandungan\r\n3.\r\nMeningkatkan kinerja hormon estrogen dan progesteron\r\n4.\r\nMemicu proses ovulasi\r\n5.\r\nMengatasi berbagai masalah kewanitaan seperti keputihan dan infeksi jamur/bakteri\r\n6.\r\nMelancarkan haid\r\n7.\r\nMengatasi gangguan haid seperti mual, muntah, kram perut atau sakit perut tidak tertahan saat haid\r\n\r\n\r\n\r\nDetail Produk:\r\n\r\n\r\nNama: Ovuma\r\n\r\n\r\nKemasan: Botol lihat foto diatas\r\n\r\n\r\nIsi: 30 kapsul @ 500 mg\r\n\r\n\r\nHalal MUI 05\r\n\r\n\r\n1. Obat Herbal meningkatkan kesuburan pria - Semen Booster\r\n\r\n\r\n\r\nSemen Booster merupakan obat kapsul herbal alami yang diciptakan khusus oleh para pakar herbal yang bekerja sama dengan para dokter dan telah melalui uji laboratorium, sehingga kualitasnya sangat terjamin untuk Anda gunakan. Selain itu, obat kapsul herbal semen count juga telah berijin resmi dari BPOM dan MUI.\r\n\r\n\r\nKhasiat dan manfaat mengkonsumsi Sement Booster :\r\n\r\n\r\nMemperbanyak jumlah sperma sampai 300\r\n\r\n\r\nMeningkatkan fertilitas atau kesuburan pria\r\n\r\n\r\nMeningkatkan kualitas sperma\r\n\r\n\r\nMeningkatkan gairah seksual pria\r\n\r\n\r\nMeningkatkan stamina pria\r\n\r\n\r\nMeningkatkan kualitas hubungan seksual\r\n\r\n\r\nMemperlama durasi atau waktu bercinta\r\n\r\n\r\nMembuat hubungan seksual menjadi semakin nikmat\r\n\r\n\r\nMeningkatkan kesehatan pria secara keseluruhan, baik kesehatan seeksual maupun kebugaran Pria.\r\n\r\n\r\nDetail Produk:\r\n\r\n\r\nNama : Semen Booster\r\n\r\n\r\nIsi : 60 kapsul @ 500 mg\r\n\r\n\r\nDepkes. RI: IKOT 442/00060/V-2\r\n\r\n\r\npengentamani #penambahsperma #obatsperma #penyubur pria #Penyubur Kandungan","rating":0}
{"no":0,"title":"Obat OLES PEMBE SAR PENIS TG","price":"150.000","seller":"Queen Shop","sellerPlace":"Jakarta Barat","url":"https://www.bukalapak.com/p/kesehatan-2359/obat-suplemen/obat-obatan/28gmlm9-jual-obat-oles-pembe-sar-penis-tg?from=&product_owner=normal_seller","sold":0,"seen":44,"favorite":0,"updated":"2019-09-06 14:18:13","description":"<<<<<<<<<<<<<< BARANG READY STOK >>>>>>>>>>>\r\n\r\n# PRODUK DIJAMIN ORIGINAL 100% ( Ber-HOLOGRAM )\r\n# PRIVASI DIJAMIN AMAN DAN TERJAGA KERAHASIAANNYA \r\n# PENGIRIMAN CEPAT\r\n# SUPLAIER TANGAN PERTAMA, DIJAMIN ORI DAN HARGA LEBIH TERJANGKAU\r\n\r\n<<<<<< FUNGSI UTAMA >>>>>>\r\n\r\nMEMBANTU MEMBUAT ALATVITALL PRIA MAKIN BESAR DAN BERTENAGA\r\n\r\n<<<<<< CARA PAKAI >>>>>>>\r\n\r\nCUKUP DIOLES RATA KE BAGIAN BATANGNYA SAJA. JANGAN SAMPAI KE KEPALANYA\r\n\r\nPRIVASI KAMI JAGA AMAN\r\nNama barang tidak kami cantumkan. hanya nama dan alamat penerima saja","rating":0}
{"no":0,"title":"OBATKUAT PRIA DI APOTIK CV.KARYA ABADI OBAT KHUSUS PRIA","price":"240.000","seller":"Aura Herba","sellerPlace":"Jakarta Pusat","url":"https://www.bukalapak.com/p/kesehatan-2359/obat-suplemen/obat-obatan/1p8v9ow-jual-obatkuat-pria-di-apotik-cv-karya-abadi-obat-khusus-pria?from=&product_owner=normal_seller","sold":36,"seen":9,"favorite":0,"updated":"2019-10-02 15:21:12","description":"Pertama di Indonesia, Obat Kusus Pria Dewasa LHI FORMEN Terdaftar di BPOM dan halal MUI.\r\n Obat kusus pria dewasa terdaftar di BPOM dan halal MUI. Meningkatkan produksi hormon testosteron, mengatasi e jakulazi dini, meningkatkan li bido, menjadikan erekzi keras dan tahan lama, mengentalkan dan memperbanyak sperma.\r\n Zat atif alami yang terkandung dalam Lhi formen juga sudah dibuktikan kasiatnya sejak zaman nenek moyang manusia di bumi. Seperti Bee Pollen yang telah dibuktikan oleh nenek moyang kita sebagai pendongkrak li bido dan juga bahan herbal yang mendapat predikat via gra alami.\r\n Zat aktif dalam obat kapsul ini juga berfungsi sebagai \"terapeutik\", dimana mampu merileksasikan jaringan pembuluh darah di daerah genital sehingga Anda mampu mencapai erexi dengan kencang, kuat, keras dan tahan lama. Selain itu, Lhi formen juga kami formulakan untuk mengoptimalkan peredaran darah seluruh tubuh saat berhubungan. Ini memungkinkan Anda untuk merasakan rang sangan sekxual bukan hanya didaerah alat vi tal Anda, tapi seluruh bagian tubuh untuk membawa Anda menuju orgazme luar biasa yang belum pernah anda rasakan sebelumnya!!!\r\n Bayangkan pasangan Anda akan keheranan dan tak akan \"haus\" lagi karena masalah sekzual Anda sudah teratasi. Pastinya Anda lebih percaya diri untuk bisa menaklukkan pasangan Anda di atas rnjang.\r\n Karena terbuat dari 100% bahan alami, Anda tak perlu khawatir adanya efek samping yang ditimbulkan.\r\nDetail Produk:\r\n Nama : LH IFORMEN\r\n Kemasan: Botol (lihat foto di samping)\r\n Isi: 50 kapsul @ 500 mg\r\n Dinkes: POM TR. 093 301 521\r\n\"Telitilah Sebelum Berbelanja Pastikan Anda Bertransaksi Di Marketplace Resmi CV. Karya Abadi Untuk Mendapatkan Produk yang Original, Jangan tergiur harga murah karena kesehatan anda sangatlah berharga\"\r\n#obat #supplemen #vitamin #obatkuat #obatherbal #herbalalami #obatstaminapria #obatpriaperkasa #obatperkasa #obattahanlama #obatherbal #ejakulasidini","rating":0}
{"no":0,"title":"hy peril 2.5","price":"300.000","seller":"RIYAN MEDIKAL","sellerPlace":"Jakarta Timur","url":"https://www.bukalapak.com/p/kesehatan-2359/obat-suplemen/obat-obatan/2aijuqp-jual-hy-peril-2-5?from=&product_owner=normal_seller","sold":0,"seen":3,"favorite":0,"updated":"2019-09-20 20:45:39","description":"harga di atas perbox isi 10 strip @ 6 tablet // original box","rating":0}
{"no":0,"title":"Maxgars Cissus Extract Original Obat Herbal Tulang","price":"300.000","seller":"VlAGRA ASLI","sellerPlace":"Bekasi","url":"https://www.bukalapak.com/p/kesehatan-2359/obat-suplemen/obat-obatan/2avgyma-jual-maxgars-cissus-extract-original-obat-herbal-tulang?from=&product_owner=normal_seller","sold":0,"seen":2,"favorite":0,"updated":"2019-09-24 07:05:00","description":"Kapsul Ekstrak Maxgars\r\nCissus Maxgars Cissus Extract Capsule -membantu dalam pemulihan patah tulang dan penelitian awal telah menunjukkan bahwa mengambil Cissus quadrangularis sebagai ekstrak ramuan kering dapat mengurangi rasa sakit dan pembengkakan dan meningkatkan tingkat penyembuhan pada orang dengan berbagai jenis patah tulang.\r\n\r\nBahan utama:\r\nEkstrak Cissus Kunci Keuntungan: Membantu mengobati kehilangan jaringan yang disebabkan oleh penyakit\r\nsenjata Ini juga telah digunakan untuk patah tulang,\r\nasam urat,\r\nrheumatoid arthritis,\r\nalergi, dan kehilangan nafsu makan (anoreksia)\r\n-Membantu memperbaiki tulang lemah (osteoporosis),\r\n-penyakit kudis,\r\n-kanker,\r\n-sakit perut,\r\nwasir, dan penyakit tukak lambung (PUD) -Membantu mengurangi berat badan\r\n\r\npada beberapa orang yang mengalami obesitas dan kelebihan berat badan Mengurangi rasa sakit dan kekakuan pada tubuh dengan nyeri sendi yang disebabkan oleh olahraga\r\nPetunjuk penggunaan Minum\r\n2 kapsul setiap hari setelah makan atau seperti yang diarahkan oleh praktisi perawatan kesehatan.\r\n\r\nInformasi keselamatan: Baca label dengan cermat sebelum digunakan Simpan di tempat kering yang sejuk dan jauhkan dari sinar matahari langsung Jauhkan dari jangkauan anak-anak Jangan melebihi dosis yang disarankan.","rating":0}
{"no":0,"title":"mengatasi gangguan tidur herbal imsomnia","price":"80.000","seller":"GUNUNG JAYA88","sellerPlace":"Jakarta Barat","url":"https://www.bukalapak.com/p/kesehatan-2359/obat-suplemen/obat-obatan/29reu07-jual-mengatasi-gangguan-tidur-herbal-imsomnia?from=&product_owner=normal_seller","sold":0,"seen":6,"favorite":0,"updated":"2019-09-15 22:34:42","description":"Slipi 60 Kapsul : Mengatasi Gangguan Sulit Tidur/Herbal Insomnia\r\nselamat datangdi toko kami\r\nSebelum klik Beli, Mohon dapat dibaca dulu ya, karena kami tidak mau mengecewakan pelanggan. Selama barang kami masih terpajang berarti barang tersebut ready, jadi langsung bisa di order.\r\n\r\nMengatasi gangguan sulit tidur.\r\n\r\nKegunaan lain :\r\nMenurunkan tekanan darah tinggi, mengurangi rasa cemas, mengatasi stress.\r\n\r\nMekanisme kerja :\r\nZat aktif yang terkandung dalam ekstrak valerian yaitu Iridoid dan Valerenic acid bekerja untuk mengatur sistem saraf sehingga mempermudah seseorang untuk tidur.\r\n\r\nPOM TR 062 363 541\r\n\r\nMembantu meringankan gangguan sulit tidur.\r\n\r\nKomposisi :\r\n\r\nValerianae Radix Extract 550 mg\r\nKhasiat dan Kegunaan :\r\nMembantu meringankan gangguan sulit tidur.\r\n\r\nCara Pemakaian :\r\nMinumlah secara teratur 2 kapsul sebelum tidur malam.\r\n\r\nPERHATIAN :\r\nTidak boleh digunakan bersama alkohol atau sedatif lain. Tidak boleh digunakan pada wanita hamil (dan menyusui).\r\n\r\n\r\nNote : \r\nBARANG SELALU KAMI CHECK TERLEBIH DAHULU AGAR TIDAK ADA RUSAK PADA SAAT DI TERIMA OLEH ANDA .\r\n\r\nharap segera konfirmasi barang telah diterima. dan beri bintang 5 untuk membantu meningkatkan rating toko kami\r\n\r\n\r\nterimakasih sudah belanja Slipi 60 Kapsul : Mengatasi Gangguan Sulit Tidur/Herbal Insomnia\r\n==================================================\r\n[+] Welcome Reseller\r\n[+] Langsung di order aja ya sis :)\r\n[+] Semua Ready Stock\r\n[+] Kunjungi toko kami dan cek barang-barang keren lainnya\r\n[+] Terimakasih, Jangan Lupa Follow+\r\n=================","rating":0}
{"no":0,"title":"Nutrinext Kapsul","price":"250.000","seller":"Produk Bebas","sellerPlace":"Tasikmalaya","url":"https://www.bukalapak.com/p/kesehatan-2359/obat-suplemen/obat-obatan/2454s8m-jual-nutrinext-kapsul?from=&product_owner=normal_seller","sold":0,"seen":13,"favorite":0,"updated":"2019-08-29 10:33:17","description":"Nutrinext Kapsul merupakan jamu yang terbuat dari beras merah, biji kopi hijau (green coffee bean), dan buah apel dengan pengolahan menggunakan teknologi terbaru sehingga menghasilkan racikan yang sangat baik untuk kesehatan.","rating":0}
{"no":0,"title":"SALONPAS CREAM HOT - KRIM PEREDA NYERI MERAH - 15GR","price":"15.000","seller":"May 89","sellerPlace":"Jakarta Utara","url":"https://www.bukalapak.com/p/kesehatan-2359/obat-suplemen/obat-obatan/2br3arz-jual-salonpas-cream-hot-krim-pereda-nyeri-merah-15gr?from=&product_owner=normal_seller","sold":0,"seen":8,"favorite":0,"updated":"2019-10-15 11:22:49","description":"SALONPAS CREAM HOT ~ KRIM PEREDA NYERI MERAH (15GR)\r\n\r\n\r\nKHASIAT :\r\n\r\n\r\nMEMBANTU MEREDAKAN RASA NYERI YANG DISEBABKAN OLEH :\r\n\r\n\r\n\r\nNYERI OTOT\r\n\r\nSAKIT OTOT LEHER\r\n\r\nPUNGGUNG PEGAL\r\n\r\nMEMAR\r\n\r\nTERKILIR\r\n\r\nNYERI SENDI\r\n\r\n\r\n\r\n\r\nCARA PAKAI :\r\n\r\n\r\n\r\nOLESKAN PADA DAERAH YANG SAKIT\r\n\r\nDIPAKAI TIDAK LEBIH DARI 3 - 4 KALI SEHARI\r\n\r\n\r\n\r\n\r\nKEMASAN TUBE BERISI 15GR\r\n\r\n\r\nPRODUKSI :\r\n\r\n\r\nPT. HISAMITSU PHARMA INDONESIA\r\n\r\n\r\nPOM QL. 141 700 051\r\n\r\n\r\nEXP. DES/2021","rating":0}
{"no":0,"title":"Obat Herbal Tipes Tifus Typus Magh Asam Lambung Vitakap Ekstrak Cacing","price":"70.000","seller":"Hangabehi","sellerPlace":"Sleman","url":"https://www.bukalapak.com/p/kesehatan-2359/obat-suplemen/obat-obatan/2axn49y-jual-obat-herbal-tipes-tifus-typus-magh-asam-lambung-vitakap-ekstrak-cacing?from=&product_owner=normal_seller","sold":2,"seen":35,"favorite":1,"updated":"2019-10-11 20:48:35","description":"Vitakap Herbal\r\n\r\nVitakap Herbal merupakan obat tradisional yang berbentuk kapsul dibuat dari bahan-bahan alami berupa tumbuhan herbal dan ekstrak Lumbricus Rubellus. \r\n\r\nMenurut Prof.H.M. Hembing Wijaya Kusuma (Ahli obat tradisional):\r\nCacing Lumbricus Rubellus ( Vitakap ) mampu menurunkan demam dan dapat menyembuhkan Typus/Tipes/Tipus, Magh, Asam Lambung, DBD, hipertensi, Diabetes, Kolesterol tinggi, Rematik, Ashma, Bronchitis, Batu-batuk rejan, Bisul/borok, Radang kulit, Radang otak, Stroke, Batu ginjal, Kanker, Liver. (Majalah Peluang No. 47 Th. 1 Oktober 1999)\r\n\r\nHarga \r\n- Isi 50 Kapsul Rp. 70.000\r\n\r\n\r\nAlamat : \r\n1. Ruko Senuko (barat kecamatam godean)\r\n Jalan Godean km.8 Senuko, Sidoagung, Godean, Sleman, Yogyakarta\r\n2. Jalan Godean Km.14 Ngijon, Sendangarum, Minggir, Sleman, Yogyakarta\r\n\r\n#Dicari #Distributor #Agen dan #reseller untuk setiap Kota di seluruh Indonesia.","rating":0}
{"no":0,"title":"OBATKUAT PRIA Tahan Lama","price":"240.000","seller":"Aura Herba","sellerPlace":"Jakarta Pusat","url":"https://www.bukalapak.com/p/kesehatan-2359/obat-suplemen/obat-obatan/1p8v9w4-jual-obatkuat-pria-tahan-lama?from=&product_owner=normal_seller","sold":85,"seen":62,"favorite":1,"updated":"2019-10-05 05:48:17","description":"Pertama di Indonesia, Obat Khusus Pria Dewasa LHI FOR MEN Terdaftar di BPOM dan halal MUI.\r\nJaminan produk asli bukan KW.\r\nSolusi terbaik masalah vitalitas.\r\n\r\n\r\n Meningkatkan produksi hormon testosteron, mengatasi e jakulazi dini, meningkatkan li bido, menjadikan erekzi keras dan tahan lama, mengentalkan dan memperbanyak sperma.\r\n\r\n\r\n Zat atif alami yang terkandung dalam Lhi formen juga sudah dibuktikan kasiatnya sejak zaman nenek moyang manusia di bumi. Seperti Bee Pollen yang telah dibuktikan oleh nenek moyang kita sebagai pendongkrak li bido dan juga bahan herbal yang mendapat predikat via gra alami.\r\n\r\n\r\n Zat aktif dalam obat kapsul ini juga berfungsi sebagai \"terapeutik\", dimana mampu merileksasikan jaringan pembuluh darah di daerah genital sehingga Anda mampu mencapai erexi dengan kencang, kuat, keras dan tahan lama. Selain itu, Lhi formen juga kami formulakan untuk mengoptimalkan peredaran darah seluruh tubuh saat berhubungan. Ini memungkinkan Anda untuk merasakan rang sangan sekxual bukan hanya didaerah alat vi tal Anda, tapi seluruh bagian tubuh untuk membawa Anda menuju orgazme luar biasa yang belum pernah anda rasakan sebelumnya!!!\r\n\r\n\r\n Bayangkan pasangan Anda akan keheranan dan tak akan \"haus\" lagi karena masalah sekzual Anda sudah teratasi. Anda lebih percaya diri untuk bisa menaklukkan pasangan Anda di atas rnjang.\r\n\r\n\r\n Karena terbuat dari 100% bahan alami, Anda tak perlu khawatir adanya efek samping yang ditimbulkan.\r\n\r\n\r\nDetail Produk:\r\n Nama : LH IFORMEN\r\n Kemasan: Botol (lihat foto di samping)\r\n Isi: 50 kapsul @ 500 mg\r\n Dinkes: POM TR. 093 301 521\r\n\r\n\r\n\"Telitilah Sebelum Berbelanja Pastikan Anda Bertransaksi Di Marketplace Resmi CV. Karya Abadi Untuk Mendapatkan Produk yang Original, Jangan tergiur harga murah karena kesehatan anda sangatlah berharga\"\r\n\r\n#obat #supplemen #vitamin #obatkuat #obatherbal #herbalalami #obatstaminapria #obatpriaperkasa #obatperkasa #obattahanlama #obatherbal #antiejakulasidini","rating":0}
{"no":0,"title":"Kinoki","price":"800","seller":"ikioke","sellerPlace":"Bekasi","url":"https://www.bukalapak.com/p/kesehatan-2359/obat-suplemen/obat-obatan/enct4-jual-kinoki?from=&product_owner=normal_seller","sold":36490,"seen":10186,"favorite":526,"updated":"2019-10-15 12:05:38","description":"Kode Produk : ELG075\r\n\r\nPembelian Minimal 10pcs\r\nHarga di atas adalah harga per pcs\r\n1 kotak isi 10 pcs, Order Kelipatan 10pcs\r\n\r\nKinoki Detox Foot Pads adalah cara alami untuk membantu tubuh anda dalam mengeluarkan logam berat, sisa metabolik, racun, parasit mikroskopik, lendir, kimia, selulit, meningkatkan tenaga, mengurangI stres dan kecemasan, meningkatkan sirkulasi, menghilangkan rasa sakit dan nyeri. Detoksifikasi dengan Kinoki juga meningkatkan kualitas tidur anda, meredakan sakit kepala, meningkatkan kemampuan mental dan konsentrasi, meningkatkan metabolisme dan mengurangi keletihan. \r\n\r\nToxin yg menumpuk dlm tubuh akan menyebabkan disfungsi sistem tubuh dan menimbulkan berbagai Detox Foot Pads membantu imunitas dgn memperkuat system tubuh yg lemah dan memperbaharui fungsi tubuh yg tdk baik. Membuka saluran darah yg mampet dan memperbaiki sistem limpa (hati).KINOKI Detox Foot Pads dibuat berdasarkan bahan organic yg alami, yaitu: bamboo vinegar chitosan, dextrin, dokudami, loquat leaf, tourmaline, vegetable fiber, Vitamin C and wood vinegar, offer the highest pure Tourmaline of 30% (1.50g of 5). Para ilmuwan mengembangkan dan mengkombinasikan kesemuanya itu sehingga menghasilkan 100% formula detox alami yg bekerja dgn LUAR BIASA. \r\n\r\nKeuntungan penggunaan Kinoki yaitu membantu proses pengeluaran toxin/racun dr tubuh dan penyembuhan penyakit secara bertahap. \r\n\r\nCARA MENGGUNAKAN :\r\n\r\n1. Tempelkan bagian yang ada tulisan put adhesive sheet on this side ke plester yang telah disediakan, \r\n2. Lalu tempelkan plester tersebut, dengan posisi Detox Foot Patch berada di tengah-tengah telapak kaki. \r\n3. Gunakan sebelum tidur, dan biarkan 5-8 jam (selama Anda tidur) agar racun dalam tubuh dapat di keluarkan,\r\n4. Detox Foot Patch dapat digunakan di bagian lain yang terasa sakit. \r\nSemakin banyak racun yang ada di tubuh anda, detox foot patch akan berwarna lebih gelap setelah patch ditempelkan sewaktu Anda tidur","rating":0}
{"no":0,"title":"BEN RAPAT PREMIUM - Majakani Kanza Obat Herbal Miss V Keputihan Rekomendasi BPOM MUI","price":"35.000","seller":"Family Anin","sellerPlace":"Jakarta Selatan","url":"https://www.bukalapak.com/p/kesehatan-2359/obat-suplemen/obat-obatan/vvnp2y-jual-ben-rapat-premium-majakani-kanza-obat-herbal-miss-v-keputihan-rekomendasi-bpom-mui?from=&product_owner=normal_seller","sold":73,"seen":357,"favorite":46,"updated":"2019-10-14 17:37:35","description":"**Sudah Terdaftar BPOM &amp;amp;amp; MUI**\r\n***BPOM : 163 394 941***\r\n\r\nBen Rapat Premium Isi 60 kapsul + Bonus 10 serbuk atau ekstrak manjakani untuk membasuh Miss V.\r\n\r\n*Formula 3 in 1 \r\n-Majakani\r\n-Temulawak\r\n-Daun Sirih\r\n\r\nBen Rapat Premium merupakan perpaduan dari Majakani, Daun Sirih dan Temulawak. Ramuan tradisional ini sudah turun temurun dari jaman dahulu yang paling ampuh dan terbukti untuk :\r\n\r\n-Mengatasi lendir berlebih pada Miss V\r\n-Membersihkan dan menghilangkan bau pada Miss V\r\n-Mengatasi keputihan mulai dari yang ringan sampai yang parah\r\n-Menghilangkan dan mengurangi gatal pada Miss V\r\n-Mampu merapatkan Miss V\r\n\r\nFormulasi 2 in 1 ekstrak kapsul dari dalam dan bilasan dari luar lebih efektif, Ben Rapat Premium ini efektif mengatasi masalah kewanitaan dan tentunya menjadi herbal pertama yang memiliki manfaat mengobati ganda mulai dari dalam dan dari luar.\r\n\r\n**Dibuka juga Peluang KEAGENAN untuk seluruh wilayah Indonesia\r\n\r\nUntuk Menjadi Agen dan Reseller: Silahkan langsung chat ;)","rating":0}
{"no":0,"title":"Majakanza manjakani kanza obat keputihan dan perawatan miss v","price":"160.000","seller":"PASAR RAKYAT 45","sellerPlace":"Jakarta Selatan","url":"https://www.bukalapak.com/p/kesehatan-2359/obat-suplemen/obat-obatan/1jtrh9j-jual-majakanza-manjakani-kanza-obat-keputihan-dan-perawatan-miss-v?from=&product_owner=normal_seller","sold":162,"seen":498,"favorite":40,"updated":"2019-10-13 21:18:03","description":"Berikut ini Beberapa Khasiat MAJAKANZA / Manjakani KANZA :\r\n1. Memulihkan elastisitas organ intim kewanitaaan (kencangkan otot Miss V), Kembali Perawan :)\r\n2. Menghilangkan gatal-gatal, Keputihan dan bau yang kurang menyenangkan.\r\n3. Menstabilkan PH asam dan mengurangi cairan (basah) berlebihan (tidak kering).\r\n4. Mempertingkatkan daya alat kelamin.\r\n5.Membina rahim dan membersihkan (selepas bersalin / haid)\r\n6.Melancarkan pencernaan sehingga BAB lancar.\r\n7.Mencegah Kanker Serviks.\r\n8. Mengeluarkan kotoran dari miss V dan miss V akan terasa menyempit dan anda merasa kembali spti gadis lg\r\n9. membunuh kuman dan bakteri yang menimbulkan rasa gatal2 di miss v\r\n\r\nDosis dan cara pakai manjakani:\r\n1. Keputihan parah/kista/myom: masukkan ke miss V, seminggu 1-2 kali @ 2 butir sekaligus.\r\n2. keputihan biasa,untuk perawatan rutin,menghilangkan bakteri,infeksi saluran kencing,merapatkan,melancarkan haid,miss v yg bau/gatal: masukkan ke miss V,seminggu 1-2 kali @ 1 butir\r\n3. Tumor dinding rahim: masukkan ke miss V,seminggu 1-2 kali @ 2-3 butir sekaligus, serta minum 2 btr di pagi hari dan 2 butir di mlm hari setelah makan","rating":0}
{"no":0,"title":"HOT - panaflex panadol muscle and joint pain releif patch koyo nyeri otot","price":"250.000","seller":"Nilasafira","sellerPlace":"Kutai Kartanegara","url":"https://www.bukalapak.com/p/kesehatan-2359/obat-suplemen/obat-obatan/1hetl96-jual-hot-panaflex-panadol-muscle-and-joint-pain-releif-patch-koyo-nyeri-otot?from=&product_owner=normal_seller","sold":119,"seen":39,"favorite":0,"updated":"2019-09-20 10:11:47","description":"isi 4 patch\r\n==================================================\r\n\r\n[+] Welcome Reseller\r\n\r\n[+] Langsung di order aja ya kak :)\r\n\r\n[+] Semua Ready Stok\r\n\r\n[+] Kunjungi toko kami dan cek barang-barang keren lainnya\r\n\r\n[+] Terimakasih, Jangan Lupa Follow+\r\n\r\n==================================================\r\n\r\n\r\n\r\nSelamat Berbelanja#kesehatan #obatan #panadol #patch #obat #joint #panaflex\r\n#muscle #nyeri #koyo #releif #pain #otot","rating":0}
{"no":0,"title":"SEMEN COUNT - Obat Herbal Alami Memperbanyak & Menyuburkan Sperma","price":"100","seller":"Herbal Kuat Pria","sellerPlace":"Jakarta Pusat","url":"https://www.bukalapak.com/p/kesehatan-2359/obat-suplemen/obat-obatan/4f2zjt-jual-semen-count-obat-herbal-alami-memperbanyak-menyuburkan-sperma?from=&product_owner=normal_seller","sold":1249,"seen":2353,"favorite":28,"updated":"2019-10-15 15:52:10","description":"* GARANSI 100% UANG KEMBALI Jika yang kami kirim produk KW atau Abal-abal.\r\n* Stock Selalu Ready , silahkan langsung bisa diorder ...\r\n* TERIMA ORDER Setiap HARI Termasuk SABTU Dan MINGGU Masih DILAYANI, tapi pengiriman serentak pada hari kerja berikutnya.\r\n* TERIMA PESANAN 24 JAM FULL. Walau Dini Hari Pun Akan Di Proses.\r\n* Proses JAMIN TERCEPAT, AMAN, 100% ORIGINAL ASLI.\r\n* Stok BANYAK jadi silahkan langsung aja kalau mau order partai besar ^_^\r\n\r\n.\r\n.\r\nMemperbanyak dan mengentalkan sperma, meningkatkan kesuburan pria, dan meningkatkan libido.\r\n\r\nSemen Count membantu Anda mengatasi masalah-masalah seksual seperti masalah sperma yang sedikit dan bening, gairah rendah sehingga gak bernafsu berhubungan dan masalah kesuburan pada pria.\r\n\r\nSemen Count adalah kapsul herbal alami yang terbuat dari ekstrak purwo ceng, ginseng dan ekstrak tumbuhan herbal lain yang dipercaya memiliki khasiat untuk memperbanyak jumlah sperma, meningkatkan kesuburan dan menambah gairah seksual pria. Mengkonsumsi Semen Count dapat membantu kinerja seksual Anda.\r\n\r\nBagi Anda yang bermasalah dengan kesuburan sehingga belum juga diberi anak / keturunan, maka obat herbal ini sangat cocok untuk Anda. Karena, kandungan zat alami yang terdapat dalam Semen Count akan membantu Anda dalam meningkatkan kualitas sperma dengan baik. Dengan demikian, kemampuan sperma untuk berenang menuju sel telur juga lebih cepat, sehingga peluang untuk mendapatkan keturunan bisa segera terwujud.\r\nManfaat Semen Count Kapsul\r\n\r\nKapsul ini sangat efektif untuk membantu mengatasi masalah seksual. Berikut ini adalah beberapa manfaat mengkonsumsi kapsul ini :\r\n> Meningkatkan/memperbanyak jumlah sperma sampai 300%\r\n> Meningkatkan kinerja seksual Anda\r\n> Meningkatkan kesuburan sperma\r\n> Meningkatkan stamina pria\r\n> Menjadikan durasi berhubungan lebih lama\r\n> Anda selalu memiliki gairah LIBIDO yang menggebu-gebu setiap saat\r\n> Meningkatkan kualitas sperma\r\n> Meningkatkan kesehatan pria secara keseluruhan, baik kesehatan seksual dan tingkat kebugaran pria.\r\n\r\nKomposisi Semen Count\r\nDalam setiap kapsul Semen Count (500 mg) mengandung:\r\n> Pimpinella pruatjan extract 318 mg\r\n> Panax Gingseng extract 104 mg\r\n> Zingiber officinale extract 52 mg\r\n> Piper retrofractum extract 26 mg\r\n\r\nDetail Produk:\r\n> Nama : Semen Count\r\n> Kemasan : Botol (lihat foto diatas)\r\n> Isi : 60 kapsul @ 500 mg","rating":0}
{"no":0,"title":"pembersih telinga kartun lampu led earpick cartoon korek kuping karakter animal lucu","price":"7.500","seller":"pier collection","sellerPlace":"Surabaya","url":"https://www.bukalapak.com/p/kesehatan-2359/obat-suplemen/obat-obatan/1tnj8s-jual-pembersih-telinga-kartun-lampu-led-earpick-cartoon-korek-kuping-karakter-animal-lucu?from=&product_owner=normal_seller","sold":314,"seen":9501,"favorite":78,"updated":"2019-10-05 21:38:47","description":"pembersih telinga kartun lampu led earpick cartoon korek kuping karakter animal lucu\r\nMembersihkan telinga anak kecil walau kelihatannya sepele, bukanlah pekerjaan yang mudah. Lubang telinga yang kecil sering tertutup kotoran yang tidak kelihatan dari luar.\r\n\r\nModel korek kuping senter ini merupakan pengembangan dari model standar. Hanya dengan menekan satu tombol saja, kotoran sekecil dan sedalam apa pun bisa kelihatan, dan dikeluarkan dengan mudah. Selain memiliki fungsi utama sebagai korek kuping, produk ini memiliki bentuk yang unik (aneka kartun hewan), sehingga anak-anak akan menyukainya.\r\n\r\nUntuk menyalakan senter, dibutuhkan 3 baterai kecil (sudah termasuk saat membeli produk ini).\r\n\r\nUkuran produk: 10.8*1cm\r\n\r\nWarna: RANDOM (tergantung motif), tidak pilih , order = setuju, no complain\r\n\r\nBahan: Plastik + Komponen Elektronik","rating":0}
{"no":0,"title":"promag","price":"10.000","seller":"elli yulia","sellerPlace":"Ciamis","url":"https://www.bukalapak.com/p/kesehatan-2359/obat-suplemen/obat-obatan/1emxhln-jual-promag?from=&product_owner=normal_seller","sold":143,"seen":78,"favorite":0,"updated":"2019-10-08 14:57:40","description":"obat magg promag ,,mengatasi sakit magg. .","rating":0}
{"no":0,"title":"LAKI COFFEE - KOPI LAKI 5 SACHET (BOX)","price":"80.000","seller":"Coffee Lovers","sellerPlace":"Jakarta Barat","url":"https://www.bukalapak.com/p/kesehatan-2359/obat-suplemen/obat-obatan/14k4k6-jual-laki-coffee-kopi-laki-5-sachet-box?from=&product_owner=normal_seller","sold":2101,"seen":7816,"favorite":235,"updated":"2019-10-15 15:30:05","description":"HARGA INI UNTUK 5 SACHET /BOX YA…\r\n\r\n\r\nLAKI Coffee adalah minuman kopi herbal untuk menambah vitalitas dan stamina Pria dewasa.\r\n\r\n\r\nIngredients / Kandungan :\r\n\r\n\r\nKopi instan, Krimer nabati, Ekstrak malt, Glukosa, Panax Ginseng.\r\n\r\n\r\nPANAX GINSENG\r\n\r\n\r\n-Meningkatkan stamina\r\n\r\n\r\n-Mengurangi keletihan dan menguatkan sistem pencernaan, meningkatkan sistem kekebalan tubuh\r\n\r\n\r\n-karena mengandung polisakarida.\r\n\r\n\r\n-Memperlancar peredaran darah pada sistem saraf dan membantu mengencerkan darah dan\r\n\r\n\r\n-mengeluarkan racun.\r\n\r\n\r\nSaran Penyajian :\r\n\r\n\r\nTuangkan isi sachet ke dalam cangkir, dan campurkan dengan 150ml air panas atau air yang mendidih lalu aduk secara merata, dan siap untuk dinikmati.\r\n\r\n\r\nSertifikasi :\r\n\r\n\r\nBPOM RI MD 867009090323\r\n\r\n\r\nBerat Bersih : 25g (1 Sachet @ 25g)\r\n\r\n\r\nDiproduksi Oleh : PT. Anugrah Ori Bionature Indonesia\r\n\r\n\r\nDidistribusikan Oleh : PT. Java Sehat Utama","rating":0}
{"no":0,"title":"EASY TOUCH GCU ALAT TES GULA DARAH KOLESTEROL DAN ASAM URAT","price":"134.000","seller":"AKBAR MEDIKA","sellerPlace":"Bekasi","url":"https://www.bukalapak.com/p/kesehatan-2359/obat-suplemen/obat-obatan/yhhq-jual-easy-touch-gcu-alat-tes-gula-darah-kolesterol-dan-asam-urat?from=&product_owner=normal_seller","sold":1794,"seen":44025,"favorite":2226,"updated":"2019-10-14 21:44:23","description":"WAJIB DIBACA :\r\nDari Importir Alat Ini Masih Dalam Segel\r\nKami Selaku Penjual Tidak Bisa Melakukan Cek Fungsi Alat ini\r\nImportir/ Distributor Memberikan Jaminan Garansi Service Untuk Mesinnya Seumur Hidup Tanpa Biaya\r\nDari 1000 Unit Pasti Ada 1 Unit Yg Cacat Produksi\r\nBisa Dilakukan Tukar Mesin Tetapi Harus Melalui Proses yang Memakan Waktu 14 Hari Kerja Jadi Harap Maklum\r\nJika Klik Beli Berarti Setuju Dengan Aturan Diatas\r\n\r\n\r\nKami Merupakan Distributor Alat Kesehatan Terkemuka Dan Terpercaya\r\nMenyediakan Berbagai Alat Kedokteran Maupun Alat Kesehatan\r\nDengan Memberikan Pelayanan Terbaik Dan Produk-Produk Bergaransi Di antaranya :\r\nEASY TOUCH GCU 3 IN 1 UNTUK CEK GULA DARAH, KOLESTEROL DAN ASAM URAT\r\nHARGA GROSIR DI JUAL ECERAN\r\nTiap 1 kit terdiri dari :\r\n1 buah alat tes darah EasyTouch\r\n10 buah strip pengecekan gula darah\r\n10 buah strip pengecekan asam urat\r\n2 buah strip pengecekan kolesterol\r\nTas alat\r\nLancing device\r\nJarum lancet\r\n2 buah baterai AAA\r\nBuku cara penggunaan\r\nGaransi Service seumur hidup\r\nCara Penggunaan :\r\n1. Pasang Baterai ( Ganti Dengan Alkaline ataj ABC , karena baterai bonus kurang bagus dan Mudah Bocor ) Salam Akbar Medika\r\n2. Jika Ingin Cek Gula Darah Ambil Dan Buka Botol Warna Hijau, Pasang Chip/ Memory di pojok Belakang Mesin ( Chip yg ada didalam botol Warna Hijau ) Salam Akbar Medika\r\n3. Akan Muncul Format Tanggal Di Layar Dan Tampilan Akan Mati, Silahkan Masukan Strip Gula Warna Hijau DiBagian Atas Mesin\r\n4. Maka Akan Muncul Tampilan Kode kemudian Gambar Tetes Darah Berkedip nah saat itulah Darah dimasukan Ke samping Atas Strip sesuai Tanda Panahnya\r\n5. Dalam Hitungan 10 Detik Hasil Tes Gula Darah Akan Terlihat. Salam Akbar Medika\r\n6. Begitu Juga Untuk Cek Asam Urat warna Orange , dan Kolesterol warna Biru\r\n7. Jika ada semacam Chip Warna Orange Itu Tidak Usah Digunakan, Karena untuk Kalibrasi Aja\r\nSalam Akbar Medika\r\n\r\n* Wajib Dibaca :\r\nAlat Easy Touch Ini Dijual Dalam Kondisi Baru Dan Dalam Segel Plastik Dari Pabrik jadi jika sudah dibeli dan mengalami kerusakan atau Error maka Akan Dilakukan Perbaikan di Service Center Easy Touch, Bukan Diganti Baru\r\nYang dimaksud Garansi Seumur hidup adalah Garansi Servicenya seumur hidup dan tidak dikenakan biaya service\r\ntetapi ongkos kirim ditanggung Pembeli\r\nalat tes darah, jual alacek darah jual alat tes gula darah, jual alat cek gula darah, jual alat tes kolesterol darah, jual mesin tes darah\r\ndi\r\nMataram, Bima, Lombok, Sumbawa,Lombok Barat, Ambon, Maluku,Buru, Banjarmasin, Hulu Sungai, Kota Baru,Barito Kuala,Bnjar, Tanah laut, Tampin, murung Raya,Tanah bamboo, Sumedang, Cimahi, Tasikmalaya, Ciamis,Garut, Purwakarta, Bandung , Subang, Bekasi, Rejang Lebong, Bengkulu, Lebong, Muko-muko, Seluma, Bogor, Balik Papan, Paser, Berau, Bontang, Panajam, Kutai, Batam, Lingga, Natuna, Karimun, Banda Aceh, Langsa, Lhokseumawe, Aceh Besar, Bireuen, Pidie, Singkil, Gayo, lues, Nagan Raya, Simeuleu, Subulussalam, Cirebon, Indramayu, Kuningan, Majalengka, Cilegon, Pandeglang, Lebak, Serang, banten, Cilacap, Jambi, Tanjung Jabung, Merangin, Batang Hari, Bungo, erinci, Muaro jambi, Sarolangun, Tebo, jayapura, Biak, Merauke, Jayawijaya, Depok, Denpasar, Karangasem, Gianyar, Bangli, Jembrana, Klungkung, Buleleng, Tabanan, Badung, Gorontalo, Jember, Banyuwangi, Bondowoso, Sleman, Bantul Yogyakarta, Kulon Progo, Gunung Kidul, Kendari Bau-bau, kolaka, Muna, Konawe, Bombana, wakatobi, Kediri, Kupang, Sumba, Belu, Alor, Timor, Manggarai, ende, Ngada, Nagekeo, Rote, Kupang, Lembata, Karawang, Manado, Bolaang, Minahasa, Bitung, Tomohon, Madiun, Magetan, Ngawi, Pacitan, Ponorogo, Medan, Asahan, Tapanuli, Dairi, Binjai, Toba , Nias, Padang, Simalungun, Labuhan Batu, Karo, Langkat, Tapanuli, Humbang, Mandaling, Nias, Pakpak, Magelang, Kebumen, Wonosobo, Purworejo, Temanggung, Magelang, Mojokerto, Sidoarjo, Malang, Blitar, Nabire, Probolinggo, lumajang, Situbondo, Tanah datar, Bukit Tinggi, Pasaman, Pesisir Selatan, Pariaman, payakumbuh, sawahlunto, Solok, Mentawai, Pasuruan, Pangkal kanbaru, Dumai, Kampar, Bengkalis, Indragiri, Rokan hilir, Kuantan, Palalawan, Siak, Meranti, Palangkaraya, Katingan, Kapuas, Kotawaringin, Seruyan, Kapuas, Lamandau, Pulang pisau, Sukamara, Palembang, Musi Rawas, Ogan Komering, Lahat, Muara Enim, Pagar Alam, Banyuasin, Prabumulih, Empat lawang, Palu, Poso, Bangai, Buol, Donggala, Morowali, Parigi Moutong, Pontianak, Ketapang, sanggau, Singkawang, Sintang, Kapuas hulu, Melawi, Landak, Sambas , sakadau, Kubu Raya, Kayong, Samarinda. Kutai Sukabumi, Cianjur, Surakarta, Boyolali, Karanganyar, Klaten, Sragen, Sukoharjo, Wonogiri, Sorong Fak-fak, Kaimana, Raja ampat, Semarang, Jepara,Kudus, Banyu Mas, batang, Blora, Bojonegoro, Brebes, demak, Kendal, Pati, Pemalang, grobogan, rembang, Salatiga, Tegal, Purbalingga, banjarnegara, Pekalongan, Surabaya, Gresik, Lamongan, Bangkalan, Jombang, Nganjuk, Pamekasan, sampan, Sidoarjo, Sumenep, Tuban, Tulungagung, Trenggalek, Tanggerang, Belitung, Bandar Lampung, Mimika, metro, Tulang Bawang, Tanggamus, Pesawaran, Tanjung n, Malinau, Nunukan, Tana Tidung, Tidore, Makassar, Bulukamba, Barru, enrekang, janeponto, Mamuju, Maros, Pinrang, Bone, Selayang, soppeng, Di Jakarta Timur, di Jakarta Barat, di Jakarta Utara, Di Jakarta Pusat, di Menteng, di tanjung Priuk, Di Mangga dua, di Depok, di Bogor, di cikarang, di cibitung, di tambun, di bekasi barat, di pekayon, di pondok, di cipinang, di cimanggis, di kalibata, di pasar minggu, di kramat jati, di condet, di cawing, di sunter, di simper, di cilincing, di kampong melayu, di tebet, di grenvile, di taman anggrek, di cibinong, di cilegon, di kota, di kabupaten, di promatan, di harapan baru, di ciledug, di cibubur, di cipinang, di lebakbulus, di pamulang, di cinere, dijual jual di Serang, di Kelapa Gading, di Rawamangun, di Kayu putih, di perumahan, di mall, di pasar, di hotel, di terminal di stasiun, di kramat, di cempaka putih","rating":0}
{"no":0,"title":"PREMIUM Minyak Hajar ASLI - Jahanam Super Gold Premium Original HJ Black-Stone","price":"50.000","seller":"LYK Store","sellerPlace":"Bekasi","url":"https://www.bukalapak.com/p/kesehatan-2359/obat-suplemen/obat-obatan/20md0pv-jual-premium-minyak-hajar-asli-jahanam-super-gold-premium-original-hj-black-stone?from=&product_owner=normal_seller","sold":597,"seen":1364,"favorite":62,"updated":"2019-10-15 04:05:50","description":"Supaya dikirim Hari ini, order sebelum Jam 14:30 (Order diatas jam 14:30 dikirim esok hari)\r\n\r\nHATI-HATI BARANG PALSU, dengan Ciri-ciri :\r\n*Tidak ada hologram di BOX\r\n*Tidak ada BOX dan di wrapping plastik\r\n\r\nBARANG YANG KAMI JUAL LANGSUNG DARI PRODUSEN JAMINAN 100% ORIGINAL\r\nJIKA PALSU UANG ANDA KEMBALI 2X LIPAT\r\n\r\nKHASIAT:\r\n*Mengatasi Ejakulasi Dini\r\n*Menambah Durasi Hubungan suami istri\r\n*Menyebabkan istri orgasme berkali-kali\r\n*Menambah keharmonisan rumah tangga\r\n\r\nCARA PAKAI:\r\n1. Bersihkan Mr P dengan air bersih, lalu oleskan Hajar Jahanam secara merata di batang bagian bawah saat Mr P keadaan tidak ereksi/tegak.\r\nRasa hangat yang timbul menandakan obat meresap secara optimal.\r\n2. Setelah 45 menit, lalu bilas Mr P dengan air bersih (tanpa sabun)\r\nSilakan mulai berhubungan dengan istri..","rating":0}
{"no":0,"title":"Obat Kuat Ejakulasi Dini Herbal Tahan Lama Anti stamina Pria Magic Oil","price":"200.000","seller":"Mitra K.A official","sellerPlace":"Jakarta Pusat","url":"https://www.bukalapak.com/p/kesehatan-2359/obat-suplemen/obat-obatan/1xjcveq-jual-obat-kuat-ejakulasi-dini-herbal-tahan-lama-anti-stamina-pria-magic-oil?from=&product_owner=normal_seller","sold":51,"seen":1805,"favorite":31,"updated":"2019-10-01 11:05:16","description":"Magic Oil adalah obat oles herbal khusus bagi pria berbahan dasar minyak yang mampu meningkatkan erexi secara efektif. Obat Oles Magic Oil mampu memberikan hasil permanen, yang menjadikan erexi kuat serta keras. Tumbuh-tumbuhan herbal yang menjadi bahan dasar Magic Oil, menjamin Anda berada pada ZONA AMAN jika mempergunakannya dalam jangka panjang.\r\n\r\nMagic Oil bekerja untuk mengatasi masalah erexi kurang kuat, lembek, impotensi, disfungsi erexi, erxi tidak tahan lama, mani cepat keluar dll\r\n\r\nKasiat Magic Oil\r\n> Alat Vital Anda menjadi keras, kuat perkasa.\r\n> Anda merasakan sensasi yang luar biasa.\r\n> Kepercayaan diri meningkat - tidak malu pada performa kedewasaan Anda.\r\n> Memuaskan pasangan Anda\r\n> Pemakaian dalam jangka panjang, dapat memberikan hasil yang permanen dan akan mampu menambah (memperpanjang dan memperbesar) ukuran alat vital Anda.\r\n\r\nCara Penggunaan Magic Oil\r\n\r\nPemakaian Magic Oil adalah sehari satu kali dan maksimal dua kali. Sangat dianjurkan untuk menggunakan Magic Oil secara rutin tiap hari agar masalah alat vital Anda teratasi dan dan mendapatkan erexi yang kuat, kencang, keras dan tahan lama.\r\n\r\n> Pastikan alat vital Anda dalam keadaan bersih\r\n> Teteskan obat oles Magic Oil pada alat vital, cukup 3 - 5 tetes.\r\n> Ratakan menggunakan jari tangan atau telapak tangan hingga merata dari pangkal sampai ujung.\r\n> Gosokkan Magic Oil sampai benar-benar diserap kulit atau sampai sedikit bisa merasakan hangat, sekitar 30 detik.\r\n> Anda akan merasakan sedikit hangat sampai sekitar 5 menit setelah pemakaian.\r\n> Anda bisa berhubungan setelah 20 menit.\r\n\r\n\r\nDetail Produk :\r\n\r\nNama: Magic Oil\r\nIsi 15 ml\r\nDepkes. RI: IKOT 442/00060/V-2.","rating":0}
{"no":0,"title":"Plester Kutil / Mata Ikan / Obat Kutil","price":"20.000","seller":"Toko Obat Herbal Alami 5758","sellerPlace":"Jakarta Utara","url":"https://www.bukalapak.com/p/kesehatan-2359/obat-suplemen/obat-obatan/1sdky7-jual-plester-kutil-mata-ikan-obat-kutil?from=&product_owner=normal_seller","sold":1516,"seen":18004,"favorite":396,"updated":"2019-10-15 11:03:36","description":"Shuiyangsuan Benfen Tiegao - Plester Kutil / Mata Ikan / Caplak\r\n\r\n# Kami jamin produk 100% Original Asli\r\n# Produk Ready Stock.\r\n# Kirim Cepat &amp;amp;amp;amp;amp;amp; Packing Rapih.\r\n\r\nKhasiat dan Kegunaan :\r\n*Menyembuhkan kutil Dan mata Ikan\r\n\r\nCara pakai :\r\n*Bersihkan bagian yang Sakit kutil Atau mata Ikan dengan alkohol setelah Itu biarkan kering lalu tempelkan plester kutil.\r\n\r\n*Disarankan 1 (1X24jam) Hari sekali ganti plester kutil.\r\n\r\n*Setiap Kali ganti plester kutil diharuskan membersihkan bekas Obat plester kutil sebelumnya yg menempel pada kutil,setelah itu Baru ditempel dengan plester yang Baru.\r\n\r\n* Selesai pengobatan rendam dengan air hangat agar kulit mati dan kutil kering bisa lepas dengan sendirinya\r\n\r\n*Disarankan 1 Kali pengobatan memakai 6-12 plester tergantung kondisi kutil .\r\n\r\nSatu kotak isi 6 pcs\r\n\r\nDijamin kutil tidak balik lagi dan lepas dengan akarnya,ikuti petunjuk pemakaian di atas.","rating":0}
{"no":0,"title":"Kondom Sutra Merah Isi 12 - Alat Kontrasepsi","price":"18.500","seller":"Toko Obat Herbal Alami 5758","sellerPlace":"Jakarta Utara","url":"https://www.bukalapak.com/p/kesehatan-2359/obat-suplemen/obat-obatan/1lw0es-jual-kondom-sutra-merah-isi-12-alat-kontrasepsi?from=&product_owner=normal_seller","sold":2165,"seen":76803,"favorite":1063,"updated":"2019-10-15 11:02:02","description":"Kondom Sutra Merah Harga / Box isi 12 Pcs\r\n\r\n\r\nProduk Ready Stok\r\n\r\nPengiriman Cepat &amp;amp;amp;amp;amp; PRIVACY PACKING DIJAMIN AMAN\r\n\r\nGARANSI UANG KEMBALI jika barang yg kami kirim tidak sampai tujuan","rating":0}
{"no":0,"title":"Supre masi Azli Kualitaz Iztimewwa","price":"300.000","seller":"Obat Supremasi","sellerPlace":"Jakarta Timur","url":"https://www.bukalapak.com/p/kesehatan-2359/obat-suplemen/obat-obatan/25lnm0k-jual-supre-masi-azli-kualitaz-iztimewwa?from=&product_owner=normal_seller","sold":4945,"seen":1692,"favorite":96,"updated":"2019-10-14 22:27:15","description":"Selalu Stock Ready \r\nPromo minggu ini beli 2 bonus 1. yuk di order sebelum promo berakhir. \r\n\r\n***BIASAKAN BACA DULU FEEDBACK, TESTIMONI ATAU ULASAN KONSUMEN SEBELUM BELI***\r\n\r\nHarga dibawah 300rb terjamin palsu, Dan bila harga diatas 300rb atau nyampe 400rb di jamin mereka adalah dropshiep...disinilah agen resminya.. silahkan di order.\r\nPromo minggu ini beli 2 bonus 1. yuk di order sebelum promo berakhir.\r\n\r\nManfaat :\r\n*Menambah panjang siOtong(P) hingga 2cm.\r\n*Meningkatkan Volume siOtong (P) hingga 80%.\r\n*Menambah keras siOtong (P)\r\n*Mencegah ED secara efektif dan perlahan.\r\n*Menambah keinginan utk begituan, lagi dan lagi tanpa menguras staamina\r\n\r\n\r\nATURAN PAKAI :\r\n- Minum 1 kapsul 30 menit sebelum melakukan hubungaan.\r\n- Untuk terapi pembesaran Mr Otong minum 1 kapsul di pagi hari dan 1 kapsul di malam hari sebelum tidur.\r\n\r\nSpesifikasi :\r\n*Kemasan : botol\r\n*Isi : 30 kapsul\r\n*Asal : Italy\r\n\r\nSISTEM PENGIRIMAN KAMI :\r\n*Prodak Original\r\n*Packing Rapi\r\n*Pengiriman Tepat Waktu\r\n*Privasi Aman\r\n*Amanah\r\n\r\n***PERHATIAN***\r\nJANGAN MUDAH TERGIUR DENGAN HARGA MURAH. MANA ADA PRODUK IMPORT DENGAN HARGA MURAH ??!!! JADILAH PEMBELI YANG PINTAR\" ( MOHON TELITI SEBELUM MEMBELI ).\r\n\r\nJaminan mutu kualitas international. Kepuasan customer adalah kebanggaan kami.\r\n\r\nCiri - ciri keasliannya sesuai foto diatas\r\n\r\nHappy Shopping.","rating":0}
{"no":0,"title":"Obat Kanker Terlaris dan ORIginal","price":"315.000","seller":"de Nature Indonesia Official","sellerPlace":"Cilacap","url":"https://www.bukalapak.com/p/kesehatan-2359/obat-suplemen/obat-obatan/xea0k3-jual-obat-kanker-terlaris-dan-original?from=&product_owner=normal_seller","sold":111,"seen":88,"favorite":2,"updated":"2019-10-02 00:15:49","description":"* IZIN BPOM RI :\r\n- Ziirzax ( POM TR. 163 395 021 )\r\n- Typhogell ( POM TR. 173 399 941 )\r\n* IZIN UKOT DINKES RI No. 503/1259/2016/2\r\n* BERSERTIFIKAT HALAL DARI MUI\r\n\r\nDETAIL PRODUK :\r\n1 Botol Ziirzax perbotol isi 50 Kapsul\r\n1 Botol Typhogell perbotol Isi 50 Kapsul\r\n\r\nProduk kami di jamin ORIginal/ASLI\r\n\r\nSudah terdaftar di :\r\nMUI ( Majelis Ulama Indonesia )\r\nBPOM ( Badan Pengawas Obat dan Makanan )\r\nDINKES ( Dinas Kesehatan )\r\nISO ( Organisasi Internasional untuk Standardisasi )\r\n\r\nSTOCK SELALU ADA,\r\nSILAHKAN CHAT UNTUK TANYA2 STOCK ATAU KONSULTASI ( PELAYANAN 24 JAM )\r\n\r\nSegerakan penanganan untuk gejela penyakit yang anda derita supaya tidak bertambah parah\r\n\r\nATURAN PAKAI : \r\n- Ziirzax : Sehari 3 x 2 kapsul setiap 1 jam sebelum makan.\r\n- Typhogell : Sehari 3 x 2 kapsul setiap 1 jam sebelum makan.\r\n\r\nUntuk segala gejala kanker dan tumor :\r\n- Kanker Payudara\r\n- Kanker Serviks\r\n- Kanker Prostat\r\n- Kanker Darah Leukimia\r\n- Kanker Kelenjar Getah Bening\r\n- Kanker Ovarium\r\n- Kanker Otak\r\n- Kanker Rahim\r\n- Kanker Vagina\r\n- Kanker Lidah\r\n- Kanker Pankreas\r\n- Kanker Hati\r\n- Kanker Kulit Melanoma\r\n- Kanker Lambung\r\n- Kanker Mulut\r\n- Kanker Mata\r\n- Kanker Paruparu\r\n- Kanker Tenggorokan\r\n- Kanker Testis\r\n- Kanker Tulang\r\n- Kanker Ususbesar\r\n- Kanker Limfoma\r\n- Kanker Multiple Myeloma\r\n- Kanker Saluran Pencernaan\r\n- Kanker Kolon\r\n- Kanker Kandung Kemih\r\n- Kanker Esophageal\r\n- Kanker Perut\r\n- Kanker Buah Zakar\r\n- Kanker Mulut\r\n- dan gejala kanker lainnya\r\n\r\nUntuk pria dan wanita\r\n\r\nStock selalu ready. Jangan ragu apabila mau tanya stock bisa langsung chat ( Pelayanan 24 Jam )\r\nGaransi asli de Nature(resmi)\r\nPacking Rapih dan Aman\r\n- bubble wrap untuk produk/ botol yg dengan kaca\r\n- dus putih (tidak tembus pandang), dibalut dengan karton warna (tidak tembus pandang), dan dilakban rapat bolak-balik. \r\n- bagian luar hanya ada nama, alamat, dan nomer hp.\r\n\r\nProduk Asli de Nature hanya dikirim dari Majenang, Cilacap, Jawa Tengah..!!! Kemasan bersegel hologram..!!!\r\n=================================================================================================================================================================\r\n#freeongkir #gratisongkir #bebasongkir #diskon #obatherbal #denature #obatkanker #obattumor","rating":0}
{"no":0,"title":"Obat Penyakit Paru - Paru Terlaris","price":"295.000","seller":"de Nature Indonesia Official","sellerPlace":"Cilacap","url":"https://www.bukalapak.com/p/kesehatan-2359/obat-suplemen/obat-obatan/xebzzu-jual-obat-penyakit-paru-paru-terlaris?from=&product_owner=normal_seller","sold":128,"seen":159,"favorite":4,"updated":"2019-10-02 00:15:49","description":"DETAIL PRODUK :\r\n1 Botol Detopar isi 50 Kapsul\r\n1 Botol Pipeca Isi 50 Kapsul\r\n\r\nProduk kami di jamin ORIginal/ASLI\r\n\r\nSudah terdaftar di :\r\nMUI ( Majelis Ulama Indonesia )\r\nBPOM ( Badan Pengawas Obat dan Makanan )\r\nDINKES ( Dinas Kesehatan )\r\nISO ( Organisasi Internasional untuk Standardisasi )\r\n\r\n* IZIN BPOM RI :\r\n- DETOPAR : POM TR 163 394 651\r\n- PIPECA : POM TR 173 399 911\r\n* IZIN UKOT DINKES RI No. 503/1259/2016/2\r\n* BERSERTIFIKAT HALAL DARI MUI\r\n\r\nSTOCK SELALU ADA,\r\nSILAHKAN CHAT UNTUK TANYA2 STOCK ATAU KONSULTASI ( PELAYANAN 24 JAM )\r\n\r\nSegerakan penanganan untuk gejela penyakit yang anda derita supaya tidak bertambah parah\r\n\r\nATURAN PAKAI : \r\n- Detopar De Nature : diminum 3 x 2 kapsul perhari, setiap 1 jam sebelum makan\r\n- Pipeca De Nature : diminum 3 x 2 kapsul perhari, setiap 1 jam sebelum makan\r\n- Detopar & Pipeca diminum bersamaan\r\n\r\nUntuk:\r\n- Batuk Ringan\r\n- Batuk TBC\r\n- Batuk Berlendir\r\n- Batuk Berdahak\r\n- Batuk Berdarah\r\n- Batuk Menahun\r\n- Sesak Nafas\r\n- Sebagai Detox pembersih paru paru\r\n- Radang Paru Paru\r\n- Membersihkan paru paru dari polusi atau asap roko\r\n- dan gejala paru lainnya\r\n\r\nUntuk pria dan wanita\r\n\r\nStock selalu ready. Jangan ragu apabila mau tanya stock bisa langsung chat ( Pelayanan 24 Jam )\r\nGaransi asli de Nature(resmi)\r\nPacking Rapih dan Aman\r\n- bubble wrap untuk produk/ botol yg dengan kaca\r\n- dus putih (tidak tembus pandang), dibalut dengan karton warna (tidak tembus pandang), dan dilakban rapat bolak-balik. \r\n- bagian luar hanya ada nama, alamat, dan nomer hp.\r\n\r\nProduk Asli de Nature hanya dikirim dari Majenang, Cilacap, Jawa Tengah..!!! Kemasan bersegel hologram..!!!\r\n=================================================================================================================================================================\r\n#freeongkir #gratisongkir #bebasongkir #diskon #obatherbal #denature #obatparu #obattbc #obatbatuk # obatpernafasan","rating":0}
{"no":0,"title":"obat untuk gagal ginjal - akut - infeksi ginjal dan kandung kemih","price":"300.000","seller":"JAGAT SATRIA SADEWA","sellerPlace":"Banyuwangi","url":"https://www.bukalapak.com/p/kesehatan-2359/obat-suplemen/obat-obatan/26whnf3-jual-obat-untuk-gagal-ginjal-akut-infeksi-ginjal-dan-kandung-kemih?from=&product_owner=normal_seller","sold":32,"seen":78,"favorite":2,"updated":"2019-10-14 12:27:31","description":"Penyakit ginjal adalah gangguan yang terjadi pada organ ginjal, yaitu dua buah organ berbentuk seperti kacang merah yang berada di kedua sisi tubuh bagian punggung bawah, tepatnya di bawah tulang rusuk.\r\nKetika fungsi ginjal terganggu, zat sisa limbah tubuh dan cairan yang menumpuk di dalam tubuh akan menyebabkan gejala berupa pembengkakan pada pergelangan kaki, mual, muntah, lemas, dan sesak napas.\r\n\r\nPenyakit ginjal terdiri dari beberapa jenis, antara lain:\r\n\r\n- infeksi ginjal\r\n- batu ginjal\r\n- penyakit ginjal polikistik\r\n- gagal ginjal akut\r\n- penyakit ginjal kronis\r\n\r\nBeberapa jenis pengobatan yang mungkin dilakukan oleh dokter untuk mengatasi penyakit ginjal adalah:\r\n\r\n- obat-obatan\r\n- prosedur terapi batu ginjal\r\n- diet\r\n- Terapi pengganti ginjal\r\n- Cuci darah atau hemodialisis\r\n- Continuous ambulatory peritoneal dialysis (CAPD)\r\n- Cangkok ginjal atau transplantasi ginjal\r\n\r\nklinik pengobatan jagat satria mengobati segala penyakit baik medis maupun non medis insya Allah dg izin Allah sakit Anda sembuh\r\n\r\n\r\nBila Anda ingin mendapatkan obat untuk sakit ginjal silahkan bisa melalui bukalapak di sini. \r\nAtau bisa langsung datang ke tempat saya di alamat saya :\r\n\r\nPENGOBATAN ALTERNATIF JAGAT SATRIA \r\nalamat : desa bimorejo pesisir\r\nRT 02/ RW 04, kecamatan wongsorejo kabupaten banyuwangi , propinsi jawa timur\r\n\r\nSemoga anda mendapat manfaat darinya dan semoga saya bisa mengamalkan ilmu saya unt orang banyak. Terima kasih \r\n\r\nWassalamu'alaikum warahmatullah wabarakatuhu.","rating":0}
{"no":0,"title":"Obat Asam Urat Herbal","price":"295.000","seller":"de Nature Indonesia Official","sellerPlace":"Cilacap","url":"https://www.bukalapak.com/p/kesehatan-2359/obat-suplemen/obat-obatan/7maiu4-jual-obat-asam-urat-herbal?from=&product_owner=normal_seller","sold":28,"seen":516,"favorite":3,"updated":"2019-10-02 00:15:49","description":"Obat Samurago Dan Obat Habatop Berkhasiat untuk Membantu mengobati pegal linu dan nyeri akibat encok, menurunkan kadar asam urat, mengobati reumatik, mengobati radang sendi. Disamping itu dapat untuk memelihara daya tahan tubuh.\r\n\r\nTerdaftar di BPOM, DINKES, MUI jada sangat aman dan efektif untuk di konsumsi\r\n\r\nPOM TR. 173 300 321 \r\nPOM TR.1633970011\r\n\r\nUKOT DINKES 503/1259/2016/2\r\n\r\nIsi paketan\r\n1 kapsul samurago, isi 50 kapsul @150rb\r\n1 kapsul habatop, isi 50 kapsul @150rb\r\n\r\n2 botol diskon menjadi 295rb untuk obat asam urat, radang sendi, encok\r\n\r\n\r\nTips bagi penderita asam urat\r\n\r\nJangan minum aspirin.\r\nKonsumsi buah yang banyak mengandung vitamin C, seperti jeruk, pepaya dan stroberi.\r\nKurangi konsumsi karbohidrat sederhana jenis fruktosa seperti gula, permen, arum manis, gulali dan sirup.\r\nContoh buah dan sayuran untuk mengobati penyakit asam urat: buah naga, belimbing wuluh, jahe, labu kuning, sawi hijau, sawi putih, serai dan tomat.\r\nPerbanyak konsumsi karbohidrat kompleks seperti nasi, singkong/ubi dan roti.\r\nJangan bekerja terlalu keras/kelelahan.\r\nSesuaikan asupan energi dengan kebutuhan tubuh, berdasarkan tinggi dan berat badan.\r\nPada orang yang kegemukan (obesitas), biasanya kadar asam urat cepat naik tetapi pengeluaran sedikit, maka sebaiknya turunkan berat badan dengan olahraga yang cukup.\r\nKonsumsi makanan yang mengandung potasium tinggi seperti tomat, kentang, yogurt dan pisang.","rating":0}
{"no":0,"title":"MIZAR Minyak Zaitun Ruqyah 250 ML","price":"55.000","seller":"Gummy Store","sellerPlace":"Depok","url":"https://www.bukalapak.com/p/kesehatan-2359/obat-suplemen/obat-obatan/tzuzy-jual-mizar-minyak-zaitun-ruqyah-250-ml?from=&product_owner=normal_seller","sold":46,"seen":1439,"favorite":40,"updated":"2019-10-15 15:37:18","description":"Manfaat Mizar Minyak Zaitun Ruqyah 250 ml\r\nPenyakit Medis\r\nStroke\r\nDarah tinggi\r\nGangguan jantung\r\nKolesterol\r\nDiabetes\r\nAsam urat\r\nGangguan pada lambung\r\nPegal-pegal\r\nSakit pinggang\r\nNyeri otot\r\nMemperkuat rambut\r\nMenghaluskan kulit\r\nMembasmi kutu rambut\r\nMeningkatkan sistem kekebalan tubuh\r\nMencegah dan mengobati kanker\r\nAnti aging (penuaan)\r\nMelancarkan peredaran darah\r\nMencegah pikun\r\nMencegah keropos tulang\r\nMemperkuat tubuh melawan HIV\r\nPerawatan kecantikan\r\nPenyakit Non Medis\r\nSihir\r\nPelet\r\nGuna-guna\r\nRasa cemas/was-was\r\nMimpi buruk\r\nKesurupan\r\n\r\nKomposisi Mizar Minyak Zaitun Ruqyah\r\nMinyak Zaitun Extra Virgin 100%.\r\n\r\nIsi Kemasan Mizar Minyak Zaitun Ruqyah\r\n\r\nAturan Pakai Mizar Minyak Zaitun Ruqyah\r\nMedis\r\nDewasa : 1 sendok makan 2x sehari\r\nAnak-anak : 1 sendok teh 2x sehari\r\nNon Medis\r\nDewasa : 1 sendok makan 2x sehari, dan dibalur ditempat yang sakit.\r\nAnak-anak : 1 sendok teh 2x sehari, dan dibalur ditempat yang sakit (ubun-ubun, tulang belakang, dan dada).\r\n\r\nDiproduksi oleh :\r\nELBANUN NATURA FOOD BEKASI\r\n\r\nPIRT No. : 273275200621-23","rating":0}
{"no":0,"title":"Pembesar P enis - Obat","price":"200.000","seller":"sabar herba","sellerPlace":"Jakarta Pusat","url":"https://www.bukalapak.com/p/kesehatan-2359/obat-suplemen/obat-obatan/1xlrmu2-jual-pembesar-p-enis-obat?from=&product_owner=normal_seller","sold":208,"seen":412,"favorite":31,"updated":"2019-10-14 22:09:50","description":"* Barang ready stok\r\n\r\nPROMO: Bli 1 botol Triple dapat 1 sachet Kopi Virex kopi kejantanan pria sejati\r\n\r\nTriple L adalah penerus zhang power. Manfaatnya lebih maksimal dan luar biasa\r\n1. memperbesar mr.p lebih ceat, aman dan tidak menyebabkan ketergantungan\r\n2. Memanjangkan kelamin secara alami. secara bertahap akan bertambah 1-3 cm dalam waktu 1-3 bulan\r\n3. mempertebal kulit kelamin, sehingga akan lebih terlihat tebal\r\n\r\nSilahkann order sekarang, karena selama tahun ini akan ada promo triple l.\r\n\r\nDetail Produk:\r\nNama: Triple L \r\nKemasan: Botol\r\nBentuk: Cair\r\nIsi: 15 ml\r\nDepkes. RI: IKOT 442/00060/V-2\r\nDiproduksi oleh : CV. Karya Abadi\r\nNomor Regristrasi SIUP: 510/24/PK/VIII/2015\r\n\r\n#pembesarpenis #obatpembesarpenis #obatpembesarmrp #triplell","rating":0}
{"no":0,"title":"Obat Kuat Herbal durevel stamina Pria Tahan Lama Anti Ejakulasi Dini","price":"270.000","seller":"Mitra K.A official","sellerPlace":"Jakarta Pusat","url":"https://www.bukalapak.com/p/kesehatan-2359/obat-suplemen/obat-obatan/1s7osb7-jual-obat-kuat-herbal-durevel-stamina-pria-tahan-lama-anti-ejakulasi-dini?from=&product_owner=normal_seller","sold":65,"seen":1082,"favorite":32,"updated":"2019-10-13 14:07:56","description":"Ada banyak cara untuk mengatasi ezakulasi dini, namun ada satu obat yang bekerja dengan cara yang berbeda dari obat lainnya. DureVel, adalah obat herbal khusus pria dewasa yang cara pemakaiannya sangat praktis. Anda cukup menyemprotkan DureVel pada alat vital dan setelah 45 menit Anda siap bertempur di ranjang.\r\n\r\n\r\nDurevel adalah formula herbal yang terbuat dari ekstrak tanaman herbal terbaik yang berkhasiat tinggi dalam mengatasi ezakulasi dini secara nyata dan aman.\r\n\r\n\r\nManfaat DureVel dalam mengatasi masalah adalah :\r\n\r\n\r\nErexi tahan lebih lama\r\n\r\n\r\nAnda mampu melakukan penetrasi dalam durasi yang cukup lama\r\n\r\n\r\nTak ada takut lagi pada ezakulasi dini\r\n\r\n\r\nHubungan seksual yang sangat memuaskan\r\n\r\n\r\nIstri Anda akan bahagia karena Anda bisa membuatnya orgasme berkali-kali\r\n\r\n\r\nKeharmonisan Anda dan pasangan kembali terjalin\r\n\r\n\r\nAnda hanya perlu menyemprotkan Durevel ke kepala alat vital (glans) Anda dengan sedikit pijatan untuk meratakannya, setelah itu:\r\n\r\n\r\nAlat vital Anda akan terasa hangat setelah 10 menit.\r\n\r\n\r\nTunggu selama 45 menit.\r\n\r\n\r\nAda sedikit efek kebas atau mati rasa.\r\n\r\n\r\nDurevel bisa berfungsi setelah 45 menit sampai 12 jam.\r\n\r\n\r\nDan Anda siap untuk bertempur dengan pasangan Anda selama mungkin.\r\n\r\n\r\nDetail Produk:\r\n\r\n\r\nNama : Durevel Spray\r\n\r\n\r\nKemasan : Botol (lihat foto diatas)\r\n\r\n\r\nIsi : 15 ml\r\n\r\n\r\nDepkes. RI: IKOT 442/00060/V-2","rating":0}
{"no":0,"title":"Minyak oles bokashi isi 12 ml","price":"25.000","seller":"RA 490","sellerPlace":"Kab. Bogor","url":"https://www.bukalapak.com/p/kesehatan-2359/obat-suplemen/obat-obatan/16rwmn5-jual-minyak-oles-bokashi-isi-12-ml?from=&product_owner=normal_seller","sold":216,"seen":1277,"favorite":2,"updated":"2019-10-15 07:11:23","description":"Minya oles bokashi diproduksi oleh PT. Karya Pak Oles Tokcer.\r\n\r\nMinyak oles bokashi mempunyai khasiat :\r\n\r\n* Sebagai minyak oles untuk membantu meringankan pegal linu, membantu meringankan bisul, gatal dan bengkak akibat digigit serangga\r\n\r\n* Sebagai campuran mandi rempah untuk membantu mengurangi bau tidak enak\r\n\r\nIsi. 12 ml","rating":0}
{"no":0,"title":"pengobatan diabetes akut dan kronis basah maupun kering","price":"150.000","seller":"JAGAT SATRIA SADEWA","sellerPlace":"Banyuwangi","url":"https://www.bukalapak.com/p/kesehatan-2359/obat-suplemen/obat-obatan/1t96o0c-jual-pengobatan-diabetes-akut-dan-kronis-basah-maupun-kering?from=&product_owner=normal_seller","sold":0,"seen":0,"favorite":0,"updated":null,"description":"Hai Assalamualaikum wr..wb...\r\n\r\nMOHON MAAF, SAYA JAGAT SATRIA TIDAK BISA LOG-IN DI AKUN BUKALAPAK INI DI KARENAKAN LUPA PASWORD, \r\n\r\nTAPI TENANG, SAYA SUDAH BIKIN LAPAK YANG BARU KOK \r\n\r\nBAGI PELANGGAN JAGAT SATRIA YANG INGIN MENDAPATKAN OBAT UNTUK DIABETES KERING MAUPUN BASAH MAUPUN YG SDH KRONIS\r\n\r\nATAU INGIN BERKONSULTASI DENGAN SAYA \r\n\r\nSILAHKAN KUNJUNGI LAPAK JAGAT SATRIA YANG BARU YA... \r\n\r\nberikut link lapak baru jagat satria mhn maaf atas ketidak nyamannya..\r\n\r\n\r\nobat diabetes akut dan kronis baik basah maupun kering via @bukalapak https://www.bukalapak.com/p/hobi-koleksi/pet-food-stuff/vitamin-obat-obatan/25fkjh0-jual-obat-diabetea-akut-dan-kronis-baik-basah-maupun-kering?utm_source=apps","rating":0}
{"no":0,"title":"OBAT KUAT ---Kesuburan Pria-Pengental Sperma","price":"260.000","seller":"Herbal Tradisional Nusantara","sellerPlace":"Jakarta Selatan","url":"https://www.bukalapak.com/p/kesehatan-2359/obat-suplemen/obat-obatan/1en3trj-jual-obat-kuat-kesuburan-pria-pengental-sperma?from=&product_owner=normal_seller","sold":26,"seen":59,"favorite":14,"updated":"2019-06-21 13:02:03","description":"Scount Halal - Meningkatkan Kualitas Sperma Cocok Untuk Program Kehamilan\r\n\r\nScount membantu mengatasi masalah pada kualitas sperma yang kurang sehingga bisa mempercepat kehamilan. Obat herbal pria dewasa ini dikhususkan untuk mengatasi sperma yang kurang kental sehingga mengagalkan proses pembuahan yang akhirnya menunda kehamilan. Pria normal memproduksi paling tidak 30% sperma berbentuk normal.\r\n\r\nFUNGSI OBAT SScount\r\nMenambah kesuburan pria.\r\nMenambah dan mengentalkan sperma sehingga peluang kehamilan semakin besar.\r\nMemperbaiki kualitas sperma (menambah kental sperma dan kesempurnaan sel sperma).\r\nMenambah gairah dan kepuasan saat berhubungan.\r\nMenambah percaya diri dan penampilan pria.\r\n\r\nATURAN MINUM:\r\nSehari 1x2 kapsul dengan menggunakan air putih hangat (supaya cepat larut) , diminum pagi hari dan 1 jam sebelum tidur malam\r\n\r\nDETAIL PRODUK:\r\nNama: Semen Boosten\r\nKemasan: Botol (lihat foto diatas)\r\nIsi: 60 kapsul @ 500 mg\r\nDepkes. RI: IKOT 442/00060/V-2","rating":0}
{"no":0,"title":"Rivanol 100 ml","price":"7.700","seller":"Helmigs","sellerPlace":"Jakarta Timur","url":"https://www.bukalapak.com/p/kesehatan-2359/obat-suplemen/obat-obatan/f9j7vx-jual-rivanol-100-ml?from=&product_owner=seller_brand","sold":15,"seen":629,"favorite":24,"updated":"2019-10-14 22:40:54","description":"Rivanol merupakan salah satu jenis obat-obatan yang wajib ada di dalam kotak P3K anda\r\n\r\nRivanol merupakan salah satu produk kesehatan yang memiliki banyak manfaat, karena rivanol merupakan zat kimia yang memiliki sifat bakteriostatik (bahan kimia yang bersifat menghambat pertumbuhan kuman) Karena itu, Rivanol akan sangat efektif untuk menangani luka dan wajib ada di dalam kotak P3K anda untuk menangani kondisi darurat.\r\n\r\nRivanol tersedia dalam kemasan 100 ml dan 300 ml, sehingga praktis untuk dibawa kemanapun dan juga di simpan di dalam kotak obat dan juga kotak P3K anda.\r\n\r\n* Khusus GO-JEK/GO-SEND hanya melayani area JABODETABEK dan sekitarnya (<40km).\r\n* Order maksimal pada pukul 15.00 WIB akan diproses pada hari yang sama\r\n* Hari Minggu dan tangal Merah akan diproses pada hari berikutnya\r\n\r\nED: Oktober 2020\r\n\r\n#pembersihkuman #pim #rivanol #antiseptik #kesehatan # #p3k #alkohol #antibakteri #kesehatan # pembersihkulit","rating":0}
{"no":0,"title":"Kapsul Ekstrak Daun Bidara Arab","price":"62.000","seller":"Mamika Fashion","sellerPlace":"Jakarta Barat","url":"https://www.bukalapak.com/p/kesehatan-2359/obat-suplemen/obat-obatan/i3y818-jual-kapsul-ekstrak-daun-bidara-arab?from=&product_owner=normal_seller","sold":65,"seen":53,"favorite":0,"updated":"2019-06-16 12:25:30","description":"Selamat datang di Toko kami, Barang selalu ready.\r\n\r\nKapsul Ekstrak Daun Bidara Arab\r\n\r\nKhasiat :\r\n- Mengobati 'ain / mata jahat\r\n- Gangguan sihir\r\n- Penenang\r\n- Suami yg tercegah dari menggauli istrinya\r\n- Memperkuat fungsi hati dan empedu\r\n- Demam\r\n\r\nKomposisi : Ekstrak daun bidara arab 100%\r\n\r\nAturan Pakai :\r\nUntuk menjaga stamina 3 kapsul perhari\r\nDewasa :\r\nSakit ringan : 2 x 3 kapsul pehari\r\nSakit kronis : 3 x 3 kapsul perhari\r\nAnak-anak : 2 x 1 kapsul perhari\r\n\r\nDiproduksi oleh : Arabian Horse\r\n\r\nJika ada pertanyaan langsung chat aja ya kak :)","rating":0}
{"no":0,"title":"PIL KB POST INOR ORIGINAL","price":"30.000","seller":"LAPAK MURAH","sellerPlace":"Jakarta Timur","url":"https://www.bukalapak.com/p/kesehatan-2359/obat-suplemen/obat-obatan/1xd7e8a-jual-pil-kb-post-inor-original?from=&product_owner=normal_seller","sold":341,"seen":1875,"favorite":33,"updated":"2019-10-15 15:47:46","description":"HARGA PERBOX\r\n****************\r\nUNTUK PEMESANAN DALAM JUMLAH BANYAK SILAHKAN KONFIRMASI DULU\r\n**************************************","rating":0}
{"no":0,"title":"So loco-AU Asli Ajaib--Kualitass--Istimewwa","price":"470.000","seller":"forex hendel","sellerPlace":"Jakarta Barat","url":"https://www.bukalapak.com/p/kesehatan-2359/obat-suplemen/obat-obatan/2217kc9-jual-so-loco-au-asli-ajaib-kualitass-istimewwa?from=&product_owner=normal_seller","sold":3593,"seen":381,"favorite":86,"updated":"2019-10-14 15:57:44","description":"HARGA DIATAS UNTUK 1 BOX DENGAN HARGA PROMO\r\n\r\nProduk di Jamin ASLi Original 100%\r\n\r\nS0L0C0 100% buah tunjuk langit (Sky Fruit) adalah Produk Terbaru Import dari USA\r\n\r\n1 Box berisi 12 pcs SOLOC0\r\nS0L0C0 dimakan seperti Coklat, 1 pcs untuk mengembalikan keremajaan Anda selama 3 - 4 hari.\r\nKonsumsi minimal 2 box untuk hasil yang maksimal\r\n\r\nMengapa harga nya begitu MAHAL???!\r\nSoloc0 khasiatnya dibuat utk awet dalam 3-5 hari secara herbal. JADI..1 permen saja Anda bisa jadi kuat keras dan tahan lama dalam beberapa hari..jadi tetap oke dan oke setiap saat.\r\n\r\nS0L0C0, terbuat dari buah Mahoni (Sky Fruit/Tunjuk Langit) dari solomon island Australia dan komposisi herbal lainnya seperti Ginseng, Aweto, Dark Chocolate, Acai Berry, Damiana dan Madu. Buah Mahoni (Sky Fruit) sudah terkenal khasiatnya di dunia, menjaga ketahanan tubuh, meningkatan sistem kekebalan, mengurangi resiko prostat, mengurangi resiko penyakit jantung, mengurangi tekanan darah tinggi, menurunkan kadar kolestrol, memperlancar peredaran darah, juga mengatasi masalah Disfungsi Er*ksi / Ej*kulasi Dini, kuat tahan lama berhari-hari, kuat dan bertambah keras, merangsang tubuh lebih bertenaga, ketahanan lebih stabil, meningkatkan kesuburan dan hasil Sp*rma yg baik\r\nmeningkatkan kembali produksi hormon Testosteron\r\n\r\nCara pemakain agar lebih maksimal\r\n- Konsumsi 1 permen S0L0C0 candy 1 jam sebelum berhubungan\r\n- Banyak konsumsi air putih agar cepat di cerna dalam tubuh\r\n- Sebelum konsumsi candy, pastikan perut sudah terisi\r\n- Untuk lebih maksimal lagi pastikan badan \"FIT\"\r\n- Hindari minuman yg bersifat netral (kopi, soda, teh)\r\n\r\nAman bagi kesehatan dan tidak membuat jantung berdebar.\r\nKabar nyata khasiat lebih efektif di banding produk lainnya\r\n\r\nSISTEM PENGIRIMAN KAMI :\r\n*Prodak Original\r\n*Packing Rapi\r\n*Pengiriman Tepat Waktu\r\n*Privasi Aman\r\n*Amanah\r\n\r\nHappy Shopping....","rating":0}
{"no":0,"title":"Spirulina gold super green","price":"30.000","seller":"Elzen colection","sellerPlace":"Kab. Tangerang","url":"https://www.bukalapak.com/p/kesehatan-2359/obat-suplemen/obat-obatan/1vevfd-jual-spirulina-gold-super-green?from=&product_owner=normal_seller","sold":439,"seen":925,"favorite":16,"updated":"2019-10-12 19:36:26","description":"Spirulina merupakan tumbuhan air mikroalga (Cyanobacteria) berbentuk spiral, bersel satu yang telah ada sejak 3.5 milyar tahun yang lalu dan telah dikonsumsi oleh suku Aztec kuno di Mexico sejak 5 abad yang lalu. Terdapat 2000 jenis Spirulina di dunia, dari berbagai penelitian diketahui bahwa spirulina dari species platensis merupakan spirulina yang aman untuk dikonsumsi dan memiliki nilai gizi yang tinggi.\r\n\r\nKomposisi:\r\nSPIRULINA PLUS PROPOLIS 60 KAPSUL @700mg kapsul besar isi padat.\r\n\r\nAturan minum:\r\nAnak-anak 3 x 1 Kapsul\r\nDewasa 3 x 2 kapsul\r\nDimakan setengah jam sebelum makan.\r\n\r\n\r\nManfaat Spirulina menurut medis\r\n1. Sebagai anti Jamur, Virus dan Bakteri\r\n2. Anti Oksidan\r\n3. Sebagai Stimulator Sistem Imun (Imuno Stimulator)\r\n4. Atherosklerosis\r\n5. Anti Tumor\r\n6. Sebagai Anti Prostaglandin\r\n7. Membantu Proses Regenerasi Sel Hati\r\n8. Diabetes Melitus ( kencing manis )\r\n9. Gangguan Saluran Pencernaan\r\n10. Gangguan Saluran Pernafasan\r\n11. Penyakit jantung dan Pembuluh Darah\r\n12. Perawatan Luka\r\n13. Anti Stress","rating":0}
{"no":0,"title":"Kinoki Detox Foot Patch Putih","price":"9.500","seller":"GBU JAKARTA","sellerPlace":"Jakarta Utara","url":"https://www.bukalapak.com/p/kesehatan-2359/obat-suplemen/obat-obatan/ee0rfj-jual-kinoki-detox-foot-patch-putih?from=&product_owner=normal_seller","sold":1175,"seen":1475,"favorite":55,"updated":"2019-10-15 13:41:27","description":"harga sudah termasuk 1 set isi 10\r\n\r\nBUANG RACUN DALAM TUBUH Dengan Menyenangkan, Tanpa Rasa Sakit dan Menderita.. !!\r\nHanya dalam keadaan berbaring/tidur di malam hari, esok hari akan terasa lebih sehat dan segar...!!!.\r\n\r\nALAMI n Aman... Detox Foot Pads adalah cara alami untuk membantu tubuh dalam mengeluarkan logam berat, sisa metabolik, racun, parasit mikroskopik, lendir, kimia, selulit, meningkatkan tenaga, mengurangkan stres dan kecemasan, meningkatkan sirkulasi, dan menghilangkan rasa sakit dan nyeri.\r\n\r\nDetoksifikasi dengan Kinoki juga meningkatkan kualitas tidur anda, meredakan sakit kepala, meningkatkan kemampuan mental dan konsentrasi, ditambah meningkatkan metabolisme dan mengurangkan keletihan.\r\nToxin yg menumpuk dlm tubuh akan menyebabkan disfungsi sistem tubuh dan dapat menimbulkan berbagai penyakit.\r\nKINOKI Detox Foot Patch dapat melepaskan toxin2 dlm tubuh seperti bahan2 kimia, bahan logam berat, bakteri dll. Membantu imunitas dgn memperkuat system tubuh yg lemah dan memperbaharui fungsi tubuh yg tdk baik. Membuka saluran darah yg mampet dan memperbaiki sistem limpa (hati).\r\n\r\nCARA MENGGUNAKAN :\r\n1. Tempelkan bagian yang ada tulisan put adhesive sheet on this side ke plester yang telah disediakan,\r\n2. Lalu tempelkan plester tersebut, dengan posisi Detox Foot Patch berada di tengah-tengah telapak kaki.\r\n3. Gunakan sebelum tidur, dan biarkan 5-8 jam (selama Anda tidur) agar racun dalam tubuh dapat di keluarkan, untuk hasil terbaik gunakan hingga sekitar 8-10 jam supaya racun keluar maksimal.\r\n4. Detox Foot Patch dapat digunakan di bagian lain yang terasa sakit. Semakin banyak racun yang ada di tubuh anda, detox foot patch akan berwarna lebih gelap setelah patch ditempelkan sewaktu Anda tidur.","rating":0}
{"no":0,"title":"methyl inj","price":"15.000","seller":"al Hayat","sellerPlace":"Jakarta Timur","url":"https://www.bukalapak.com/p/kesehatan-2359/obat-suplemen/obat-obatan/21b6c7o-jual-methyl-inj?from=&product_owner=normal_seller","sold":50,"seen":28,"favorite":0,"updated":"2019-08-24 11:53:42","description":"harga per box silahkan order gan sis","rating":0}
{"no":0,"title":"Cengkeh - Batuk - Sakit Gigi - Radang Tenggorokan - Asam Urat - Asma - Sinus - ISPA - Flu - Pilek - Daun - Pria Wanita - RAW100 - Obat Herbal Jamu","price":"125.000","seller":"RAW100","sellerPlace":"Jakarta Utara","url":"https://www.bukalapak.com/p/kesehatan-2359/obat-suplemen/obat-obatan/29zljdb-jual-cengkeh-batuk-sakit-gigi-radang-tenggorokan-asam-urat-asma-sinus-ispa-flu-pilek-daun-pria-wanita-raw100-obat-herbal-jamu?from=&product_owner=normal_seller","sold":0,"seen":8,"favorite":0,"updated":"2019-10-11 13:54:40","description":"ASTHMA, BATUK, ASAM URAT, SINUS, SAKIT GIGI & SORE THROAT\r\n80 Capsules @ 500mg I Apotik Hidup\r\n\r\nCengkeh adalah kuntum bunga yang sudah dikenal sejak 200 tahun lalu, memiliki bahan aktif eugenol, sumber antioksidan tertinggi di dunia yang bermanfaat bagi kesehatan\r\n\r\n- Expectorants alami (Pengencer Dahak)\r\n- Meringankan pernafasan pada penderita Asthma\r\n- Mengatasi Sinus & Infeksi saluran pernafasan\r\n- Meredakan Asam Urat, Radang Tenggorokan, Flu & Batuk\r\n- Meredakan sariawan, peradangan gusi / saraf / otot\r\n- Menghangatkan tubuh & meningkatkan pencernaan\r\n- Untuk Sakit Gigi & Radang Tenggorokan (Buka kapsul)\r\n\r\nRECOMMENDED: 2 Kapsul pagi, siang, malam (buka 1 kapsul untuk sakit gigi & batuk)\r\n\"As good as drugs, without drug's side effects\"\r\n\r\n100% Tanpa campuran, Tanpa pengawet, Tanpa kimia, Tanpa pewarna, Tanpa sintetis, Tanpa alkohol, Tanpa aditif","rating":0}
{"no":0,"title":"moisturizing gel loveless","price":"250.000","seller":"Puri Herbal O3","sellerPlace":"Semarang","url":"https://www.bukalapak.com/p/kesehatan-2359/obat-suplemen/obat-obatan/2cn1z76-jual-moisturizing-gel-loveless?from=&product_owner=normal_seller","sold":0,"seen":23,"favorite":1,"updated":"2019-10-09 13:59:23","description":"ready stok..langsung order ya..\r\njaminan asli 100% original BPOM..\r\nPOM NA 18190100083\r\nbe smart be buyer..\r\n\r\n*LOVELES* adalah GEL herbal alami berbentuk geel yang terbuat dari butea superba. Yang bermanfaat untuk\r\nmengatasi impooteen\r\nlemah saaahwat\r\nserta dapat memperkeras dan memperkuat untuk bagian oorgan viiitaal.\r\nmerawat dan memaksimalkan fungsi oorgan vitaaliiitas\r\ntidak keeebas/baaal\r\nTidak ada efek samping yang merugikan\r\n\r\nApakah LOVELES ini aman?\r\nDijamin aman, karena proses pembuatan nya terbuat dari bahan alami yang sama sekali tidak menimbulkan efek samping beda dengan obat2 diluar sana yang kita tidak tau apakah aman atau tidak apakah mengandung kimia atau tidak. Kita juga sudah terdaftar di BPOM dan tersertifikasi halal secara resmi\r\n\r\n*Cara menggunakan* \r\nCuci terlebih dahulu untuk bagian orgal viiital menggunakan air hangat agar sel2 bisa terbuka dan cepat meresapnya setelah itu oleeeskan geeel LOVELES dari pangkal ke ujung tambahkan kembali untuk bagian sensitif dan lipata2 nya akan tetapi jangan sampai terkena lubang nya , setelah itu urut dan pijat kira 20-30 menit. \r\nDiamkan 30 mnt setelah itu baru dicuci sebelum melakukan berhubungan.","rating":0}
{"no":0,"title":"Obat-perangs ang-wanita-GEL PASTA","price":"85.000","seller":"SUMBER HERBAL","sellerPlace":"Sidoarjo","url":"https://www.bukalapak.com/p/kesehatan-2359/obat-suplemen/obat-obatan/28iyab7-jual-obat-perangs-ang-wanita-gel-pasta?from=&product_owner=normal_seller","sold":1,"seen":845,"favorite":17,"updated":"2019-10-15 12:59:19","description":"khasiat menambah gair4h wanita 25 ml..berbentuk gel\r\n\r\ncara pemakaian\r\n\r\ndioles ke mr.p atau ke v4g1na untuk menambah gair4h","rating":0}
{"no":0,"title":"POTENZHOLZ cair-perangs ang-original","price":"90.000","seller":"SUMBER HERBAL","sellerPlace":"Sidoarjo","url":"https://www.bukalapak.com/p/kesehatan-2359/obat-suplemen/obat-obatan/2cuefd5-jual-potenzholz-cair-perangs-ang-original?from=&product_owner=normal_seller","sold":0,"seen":42,"favorite":1,"updated":"2019-10-15 12:46:42","description":"khasiat menambah gair4h wanita dewasa....ukuran 15ml.....berbentuk cair\r\n\r\ncara pemakaian \r\n\r\ndicampur dg minuman yang bersodA","rating":0}
{"no":0,"title":"Suplemen Minyak Oil Herbal lisensi boyke Ga sa minyak","price":"270.000","seller":"Mariashopline","sellerPlace":"Jakarta Barat","url":"https://www.bukalapak.com/p/kesehatan-2359/obat-suplemen/obat-obatan/274ny2n-jual-suplemen-minyak-oil-herbal-lisensi-boyke-ga-sa-minyak?from=&product_owner=normal_seller","sold":0,"seen":20,"favorite":0,"updated":"2019-08-29 14:39:45","description":"PAPILUZ 60 CAPSULE\r\nExp. Date Mei 2020\r\nPOM TR 172308431\r\n\r\nPAPILUZ mengandung 100 % bahan alami :\r\n* Ekstrak daun lotus berperan sebagai (fat/carbo blocker) yang menghambat penyerapan lemak dan karbohidrat dari makanan yang masuk ke dalam usus dan lipid dengan melibatkan peran enzim alpha-amilase dan lipase untuk mencegah terjadinya proses adipogenesis yaitu pembentukan jaringan lemak.\r\n\r\n* L-Carnitine adalah asam amino yang merangsang tubuh menghasilkan carnitine palmitoytransferase (fat transporter), yaitu enzim yang mengangkut lemak ke dalam sel untuk diubah menjadi energi, memecahkan kalori dan meningkatkan kekuatan otot.\r\n\r\n* Conjugated Linoleic Acid (CLA) adalah asam lemak tak jenuh yang berfungsi sebagai api (fat burner) yang membantu meningkatkan kecepatan pembakaran lemak dan laju metabolisme bahkan ketika tubuh sedang beristirahat.\r\n\r\nCara konsumsi :\r\n* Untuk MENURUNKAN berat badan, konsumsi 1 x 2 kapsul/hari sesudah makan.\r\n* Untuk MENJAGA kestabilan berat badan, konsumsi 1 x 1 kapsul/hari sesudah makan.\r\n\r\nSiapa yang boleh mengkonsumsi PAPILUZ?\r\n* Mereka yang ingin menurunkan berat badan\r\n* Mereka yang ingin menjaga kestabilan berat badan\r\n* Mereka yang sedang berusaha menurunkan kadar lemak dalam tubuh\r\n* Mereka yang tengah membatasi asupan lemak dalam menu sehari-hari\r\n\r\nSiapa yang tidak direkomendasikan mengkonsumsi PAPILUZ?\r\n* Wanita hamil, menyusui dan anak dalam masa pertumbuhan dibawah 18 tahun yang membutuhkan asupan nutrisi.\r\n* Penderita gangguan ginjal, lever dan mereka yang sakit diare dan tengah mengkonsumsi obat-obatan tertentu untuk penyembuhan.\r\n\r\nTips pola konsumsi untuk hasil maksimal :\r\n* Makan tepat waktu.\r\n* Biasakan sarapan dengan buah/juice.\r\n* Tingkatkan konsumsi makanan tinggi serat.\r\n* Batasi asupan gula 4 sendok teh/hari.","rating":0}
{"no":0,"title":"Jahe - RAW 100 - Kesemutan - Mual Muntah - Kembung - Rematik - Sakit Kepala - Migren - Batuk - Masuk Angin - Pria Wanita - RAW100 