{"no":0,"title":"GNT FIBER original","price":"450.000","seller":"TIMUR JAYA","sellerPlace":"Jakarta Barat","url":"https://www.bukalapak.com/p/kesehatan-2359/obat-suplemen/obat-obatan/20w5bp-jual-gnt-fiber-original?from=&product_owner=normal_seller","sold":17,"seen":587,"favorite":2,"updated":"2019-09-26 21:12:35","description":"ISI 30 SACHET.\r\n\r\nGNT FIBER untuk membersihkan lemak dan kotoran yang menempel pada dinding usus, sehingga bisa merampingkan Tubuh serta mengusir perut buncit. Direkomendasikan oleh Dr. Deby (The Queen Of Anti-Aging Dunia) serta beberapa artis terkenal seperti FENY ROSE, SONY TULUNG, dan EDDIES ADELIA.\r\n\r\nGNT Fiber adalah serat larut dari bahan alami yg sangat baik utk usus manusia agar kesehatan pencernaan selalu terjaga. \r\n\r\nKOMPOSISI GNT FIBER :\r\n1. PSYLIUM HUSK\r\n2. SOLUBLE FIBER\r\n3. CHLOROPHYLL\r\n4. SPIRULINA\r\n5. PROBIOTIK\r\n6. PREBIOTIK\r\n\r\nGNT Fiber banyak memberikan manfaat bagi tubuh antara lain:\r\n1. Membentuk tubuh yang langsing ideal &amp;amp;amp;amp; kulit yang sehat (flek, keriput, penuaan dini)\r\n2. Membersihkan kotoran &amp;amp;amp;amp; minyak yang menyerap di usus (detoksifikasi)\r\n3. Menekan pertumbuhan sel kanker (senyawa karsinogen) dan bakteri jahat ( , salmonella)\r\n4. Menurunkan kadar kolesterol dan gula darah (diabetes)\r\n5. Membantu mengurangi potensi penyakit maag, liver, stroke, wasir, hypertensi, prostat, diabetes, empedu, perut buncit &amp;amp;amp;amp; jantung koroner.\r\n\r\n\r\nAturan Pemakaian :\r\n- Anak-anak diatas 5 tahun, larutkan setengah sachet GNT Fiber ke dalam 250 ml air.\r\n- Dewasa : Minum 2 kali sehari, dan diminum 30 menit sebelum sarapan, 30 menit sebelum makan malam.\r\n- Kemudian untuk hasil yang maksimal setelah minum GNT Fiber, minumlah segelas air putih setelah mengkonsumsi GNT Fiber.","rating":0}
{"no":0,"title":"Obat Herbal Penyakit Syaraf Kejepit - Sakit Saraf Terjepit - Nyeri Syaraf Kejepit Di Pinggang - Punggung - Tulang Belakang - Tulang Ekor - Di Leher","price":"200.000","seller":"Susi Fatmawati","sellerPlace":"Jakarta Barat","url":"https://www.bukalapak.com/p/kesehatan-2359/obat-suplemen/obat-obatan/229x2bj-jual-obat-herbal-penyakit-syaraf-kejepit-sakit-saraf-terjepit-nyeri-syaraf-kejepit-di-pinggang-punggung-tulang-belakang-tulang-ekor-di-leher?from=&product_owner=normal_seller","sold":0,"seen":24,"favorite":0,"updated":"2019-09-24 14:27:06","description":"*BARANG SELALU READY STOCK\r\n*LANGSUNG KLIK BELI SEKARANG, KAMI LANGSUNG PROSES DAN DI KIRIM HARI INI JUGA\r\n*KEASLIAN OBAT TERJAMIN\r\n*AMAN DAN TANPA EFEK SAMPING\r\n*BERGARANSI UANG KEMBALI 100%, JIKA BARANG TIDAK SAMPAI TUJUAN ATAUPUN RUSAK\r\n\r\n>Pengiriman dilakukan sampai jam 14.30 WIB\r\n>Hari minggu tidak melakukan pengiriman, tapi tetap menerima orderan dan dikirim pada hari senin\r\n\r\n**Keterangan Produk\r\nNama Produk : SAMULINPRO Sehat Sendi\r\nIsi : 100 kapsul\r\nDi Produksi : CV. JOGJA NATURAL HERBAL with NANO TECHNOLOGY\r\nLegalitas :\r\n- BPOM RI POM TR 173306941\r\n- Sertifikat HALAL dari MUI\r\n\r\nSAMULINPRO adalah KEMASAN BARU dari WALATRA SEHAT SENDI, HARGA dan KHASIAT TETAP SAMA.\r\n\r\nSAMULINPRO Sehat Sendi merupakan produk herbal yang berkhasiat untuk kesehatan serta untuk merawat, mencegah dari berbagai permasalahan yang menyerang sendi dan tulang. SAMULINPRO sehat sendi ini terbuat dari bahan-bahan alami pilihan, yang mana di dalamnya terdapat kandungan yang bagus untuk kesehatan sendi dan tulang.\r\n\r\n**Komposisi : Akar kuning, Brotowali dan Daun Salam\r\n\r\nSemua bahan-bahan tersebut 100% ALAMI tanpa adanya campuran bahan kimia yang berbahaya. SAMULINPRO Sehat Sendi ini di produksi langsung oleh CV. JOGJA NATURAL HERBAL menggunakan NANO TECHNOLOGY dalam proses pengolahannya, yang artinya kualitas produk lebih baik, lebih awet, lebih bersih, lebih aman, dan yang lebih penting lebih pintar dalam mengatasi keluhan pada sendi dan tulang, sehingga khasiatnya lebih cepat terasa oleh tubuh. Selain itu juga, SAMULINPRO Sehat Sendi ini sudah terdaptar di BPOM RI dengan nomor regestrasi POM. 173306941 serta telah memiliki sertifikakt HALAL dari MUI.\r\n\r\n**Khasiat dan Manfaat SAMULINPRO Sehat Sendi\r\no)Membantu merawat kesehatan tulang dan sendi secara menyeluruh\r\no)Sumber nutrisi pada sendi dan tulang\r\no)Membantu mengatasi nyeri sendi, cedera pada sendi\r\no)Membantu mengatasi tulang kaku\r\no)Membantu mengatasi asam urat\r\no)Membantu mengatasi pegal linu\r\no)Membantu mengatasi rematik\r\no)Membantu mengatasi Osteoporosis, Osteoarthritis\r\no)Membantu mengatasi peradangan jaringan tulang atau sendi\r\no)Membantu mengatasi pengapuran sendi\r\no)Membantu mempercepat proses pemulihan patah tulang\r\no)Mencegah dan mengatasi infeksi pada sendi yang bermasalah\r\no)Mengobati syaraf terjepit, dan masih banyak lagi yang lainnya\r\n\r\n**Cara Konsumsi : 2 kapsul 3 kali sehari\r\n\r\nDisclaimer : Reaksi/khasiat obat herbal ini setiap individu berbeda-beda, tergantung tingkat keparahan penyakitnya, respon tubuh, pola makan, faktor lingkungan dan usia.","rating":0}
{"no":0,"title":"GRATIS ONGKIR M biopro solusi MASALAH penyakit sudah BPOM & HALAL","price":"180.000","seller":"berkah herbal shop","sellerPlace":"Kab. Sukabumi","url":"https://www.bukalapak.com/p/kesehatan-2359/obat-suplemen/obat-obatan/27rl98q-jual-gratis-ongkir-m-biopro-solusi-masalah-penyakit-sudah-bpom-halal?from=&product_owner=normal_seller","sold":0,"seen":1,"favorite":0,"updated":"2019-09-02 20:15:32","description":"*M-BIOPRO*\r\n\r\nLEGALITAS:\r\nPOM : TR 193626221\r\nP.IRT : 209320933078320\r\nHalal MUI : 01121145580715\r\nIsi kemasan: 380 ml\r\n\r\nTerbuat Dari:\r\n\r\nAir Kelapa\r\nTumbuhan Sarang Semut\r\nAkar Pepaya\r\nDaun Ketepeng\r\nEkstrak Kulit Manggis\r\nMadu\r\nPropolis \r\n\r\nMinum M-BIOPRO akan langsung merasakan manfaatnya, baik dalam kondisi sehat ataupun sakit. Bakteri baik yang terkandung dalam M-BIOPRO akan langsung bekerja menjaga tubuh kita dari dalam, &amp;amp;amp;amp;amp;amp;amp; akan segera membunuh penyakit yang ada di tubuh kita.\r\n\r\nMANFAAT M-BIOPRO:\r\nMengobati penyakit disebabkan oleh virus &amp;amp;amp;amp;amp;amp;amp; bakteri jahat: Flu, TBC, Alergi, Hepatitis, infeksi, dll\r\nMeningkatkan sistem kekebalan tubuh manusia (imunitas)\r\nMembersihkan darah dari zatzat berbahaya, saluran pencernaan\r\nMengobati Asam Urat &amp;amp;amp;amp;amp;amp;amp; Reumatic, amandel, infeksi virus, typus, Hepatitis, Maag Kronis, Kanker, Tumor, Keputihan, Ambeien, penyakit kelamin, luka &amp;amp;amp;amp;amp;amp;amp; Infeksi\r\nMenyehatkan lambung &amp;amp;amp;amp;amp;amp;amp; usus\r\nMenormalkan Gula darah &amp;amp;amp;amp;amp;amp;amp; mengobati DIABETES, tekanan darah\r\nMencegah pertumbuhan sel kanker.\r\nDetoxifikasi Racun: membuang residu kimia &amp;amp;amp;amp;amp;amp;amp; zat berbahaya dari dalam tubuh melalui keringat, air seni &amp;amp;amp;amp;amp;amp;amp; BAB.\r\nMenyeimbangkan Hormon\r\nMemperbaiki sistem reproduksi\r\nMenangani Obesitas (kelebihan berat ba&amp;amp;amp;amp;amp;amp;amp;)\r\nMenurunkan kolesterol\r\nMembantu melawan virus HIV\r\nMenghaluskan kulit &amp;amp;amp;amp;amp;amp;amp; meregenerasi sel kulit \r\n\r\nAturan minum:\r\nDewasa: 2 sloki per hari\r\nAnak-anak: 1 sloki per hari\r\nDiminum setiap hari sebelum tidur.\r\n\r\nJika kondisi sakit bisa ditambahkan takarannya menjadi 3sloki,\r\natau diminum 2x 2 sloki sehari yaitu saat pagi hari &amp;amp;amp;amp;amp;amp;amp; sebelum tidur.\r\n\r\nUntuk penyembuhan luka luar bisa langsung dioleskan pada luka.\r\n\r\nPerhatian\r\nEndapan / butiran seperti lumut yang mengapung dalam M-BIOPRO bukan kotoran &amp;amp;amp;amp;amp;amp;amp; jangan dibuang, tapi SCOBY (Simbiotic Culture of Bacteria and Yeast) perpaduan antara Prebiotik &amp;amp;amp;amp;amp;amp;amp; Probiotik yang terjadi antara beberapa mikro organisme yang bermanfaat buat kesehatan &amp;amp;amp;amp;amp;amp;amp; bisa dikonsumsi.\r\n\r\nSimpan di tempat yang sejuk, hindari air panas &amp;amp;amp;amp;amp;amp;amp; suhu panas\r\n\r\nAYO SEGERA PUTUSKAN HUBUNGAN DENGAN PENYAKIT!!!","rating":0}
{"no":0,"title":"PERMEN MENTALK 1 BOX ISI 30 PCS ORIGINAL","price":"485.000","seller":"MULTI HERBAL JAYA.","sellerPlace":"Jakarta Barat","url":"https://www.bukalapak.com/p/kesehatan-2359/obat-suplemen/obat-obatan/11jal07-jual-permen-mentalk-1-box-isi-30-pcs-original?from=&product_owner=normal_seller","sold":0,"seen":68,"favorite":0,"updated":"2019-08-05 16:01:49","description":"Manfaat Mentalk :EXP:2021 BARU.\r\n- Memperbaiki sel sel tubuh yang mulai menua.\r\n- Mengobat berbagai penyakit (jantung, diabetes, hypertensi, kanker prostat, dll)\r\n- Memperbaiki sistem imum, metabolisma tubuh, otot jantung.\r\n- Meningkatkan sel darah merah.\r\n- Anti Oksidan.\r\n- Menjaga kulit, menambah nafsu makan.\r\n- Memperlancar pembuangan air seni.\r\n- Mengurangi rasa letih.\r\n- Memperbaiki vitalitas yang mulai melemah &amp;amp;amp;amp;amp; menambah stamina\r\n\r\nKandungan Utama Mentalk :\r\n- Ginseng\r\nMemperbaiki sistem kekebalan tubuh yang melemah , memperbaiki sistem metabolisme tubuh, cara kerja otot hati, mengurangi kelelahan, memperbaiki sel darah merah, membantu memperlambat penuaan.\r\n- Protein terhidrolisis\r\nMembantu dan menyerap secara langsung , memperbaiki sel dasar, merubah sel-sel menjadi yang baru .\r\n- Enzim\r\nMembantu memproduksi sel baru, mengurai toksin didalam tubuh, mengurai lemak dan membantu glycogen memproduksi energi.\r\n- Buah Delima\r\nbertenaga menjadi anti oksidant, mencegah perubahan genetik, menekan sel pertumbuhan yang berhubungan dengan kanker.\r\n- Malt Tulen\r\nMenjaga kulit, Meningkatan stamina","rating":0}
{"no":0,"title":"wish pro lq suplemen herbal pria rekomendasi dr Boyke","price":"215.000","seller":"toko obat senang","sellerPlace":"Jakarta Timur","url":"https://www.bukalapak.com/p/kesehatan-2359/obat-suplemen/obat-obatan/88axca-jual-wish-pro-lq-suplemen-herbal-pria-rekomendasi-dr-boyke?from=&product_owner=normal_seller","sold":34,"seen":2082,"favorite":16,"updated":"2019-10-15 06:56:19","description":"Rekomendasi .\r\n\r\nPro LQ adalah suplemen kesehatan khusus Pria yang diperuntukan untuk menjaga stamina tubuh maupun stamina sexx.\r\n\r\nTerbuat dari kombinasi ideal antara PasakBumi, Purwocengg, Cabe Jawa, Jahe Merah dan herbal lainnya.\r\n\r\nPro LQ adalah produk yang berkualitas tinggi, karena mulai dari proses bahan mentah sampai \r\ndengan pengkapsulan dilakukan pengawasan yang ketat dan sesuai standard nasional ( BPOM ) dan standard internasional. Semua bahan merupakan extract yang bermutu tinggi dan hasil akhirnya dilakukan sterilisasi terhadap bakteri dan jamur, Jadi aman untuk di konsumsi. \r\n\r\nManfaat Pro LQ antara lain : \r\n- Meningkatkan stamina tubuh.\r\n- Meningkatkan libido. \r\n- Meningkatan kekuatan dan size otot. \r\n- Menghilangkan bad mood.\r\n- Meningkatkan tenaga dan semangat kerja.\r\n- Menyegarkan badan. \r\n- Membuat tidur lebih nyenyak. \r\n- Menghilangkan rasa lelah dan pegal linu.\r\n- Menambah jumlah sperma.\r\n\r\nAturan minum :\r\n1 - 2 kapsul per hari ( Pagi dan malam )\r\n\r\nKemasan isi 30 kapsul.","rating":0}
{"no":0,"title":"Obat Herbal BAB Keluar Nanah - Obat Mengatasi BAB Berdarah - BAB Berlendir - Fistula Ani - Fisura Ani - Obat Oles QnC Jelly Gamat","price":"155.000","seller":"Susi Fatmawati","sellerPlace":"Jakarta Barat","url":"https://www.bukalapak.com/p/kesehatan-2359/obat-suplemen/obat-obatan/23omdyf-jual-obat-herbal-bab-keluar-nanah-obat-mengatasi-bab-berdarah-bab-berlendir-fistula-ani-fisura-ani-obat-oles-qnc-jelly-gamat?from=&product_owner=normal_seller","sold":0,"seen":4,"favorite":0,"updated":"2019-09-13 09:03:22","description":"*BARANG SELALU READY STOCK\r\n*LANGSUNG KLIK BELI SEKARANG, KAMI LANGSUNG PROSES DAN DI KIRIM HARI INI JUGA\r\n*KEASLIAN OBAT TERJAMIN\r\n*AMAN DAN TANPA EFEK SAMPING\r\n*BERGARANSI UANG KEMBALI 100%, JIKA BARANG TIDAK SAMPAI TUJUAN ATAUPUN RUSAK\r\n\r\n>Pengiriman dilakukan sampai jam 14.30 WIB\r\n>Hari minggu tidak melakukan pengiriman, tapi tetap menerima orderan dan dikirim pada hari senin\r\n\r\n**Keterangan Produk\r\nNama Produk : QnC Jelly Gamat\r\nIsi : 300 ml\r\nDi Produksi : CV. JOGJA NATURAL HERBAL\r\nLegalitas :\r\n- BPOM RI POM TR 173301471\r\n- Sertifikat HALAL dari MUI\r\n\r\nQnC Jelly Gamat merupakan obat herbal multikhasiat yang terbuat dari Ekstrak Teripang Emas ASLI (Golden Stichopus Hermani) dan Maldepuratum (Madu). Yang mana dalam Teripang Emas terdapat banyak kandungan nutrisi lengkap yang berkhasiat penting untuk kesehatan tubuh anda, terlebih lagi dipadukannya dengan bahan tambahan Maldepuratum (Madu), seperti yang ada ketahui sendiri madu merupakan salah satu cairan kental manis yang dibuat oleh lebah dengan mengambil nectar dari bunga-bunga. Selain rasanya yang enak dan menyegarkan madu banyak mengandung banyak nutrisi dan vitamin yang dibutuhkakn tubuh.\r\n\r\nKandungan aktif yang terdapat dalam teripang emas ini, diantaranya adalah : Asam amino, Antiseptik Alamiah, Lektin, Cell Growth Factor, Glucosamine, Kolagen 80,0 %, Omega (3, 6, dan 9), Chondroitin, GAMAPEPTIDE, Saponin, Glucosaminoglycans (GAGs), Docosahehexanat 3,69 (DHA), Protein 86,8 %, Mukopolisakarida, Mineral, dan Vitamin.\r\n\r\n**Khasiat Lengkap QnC Jelly Gamat\r\n\r\no)Mengobati berbagai jenis penyakit : Asma, Asam lambung, Asam urat, maag, paru-paru, ginjal, lambung, jantung, kanker, ginjal, tumor, stroke, kista, miom, berbagai jenis penyakit kulit, dan masih banyak lagi yang lainnya.\r\no)Menjaga kesehatan sehingga tidak mudah sakit\r\no)Menjaga kesehatan jantung\r\no)Membersihkan darah kotor\r\no)Membantu meregenerasi sel rusak, untuk mempercepat pengeringan luka 3x lebih cepat baik luka luar maupun dalam\r\no)Mengeluarkan dan menetralkan racun\r\no)Memiliki antioksidan tinggi, antivirus, antitumor, antibakteri\r\no)Sumber nutrisi lengkap bagi ibu hamil\r\no)Mencegah dan melawan pertumbuhan kanker\r\no)Memperlancar sistem pernafasan dan sistem pencernaan\r\no)Meningkatkan sistem kekebalan tubuh\r\no)Mengobati dan menormalkan darah tinggi\r\no)Memelihara sirkulasi darah agar tetap lancar\r\no)Meringankan sakit pada persendian akibat osteoartritis, pengeroposan tulang, rematik\r\no)Menghentikan pendarahan akibat luka, haid, atau keguguran\r\no)Menurunkan kadar kolestrol di dalam tubuh dan trigliserida\r\no)Membuat kulit menjadi lebih muda, sehat, dan masih banyak lagi yang lainnya.\r\n\r\n**Aturan Konsumsi\r\n\r\n-Bayi 1-5 tahun : 1-2 sdt/hari\r\n-Anak-anak : 2x1 sdm/hari\r\n-Dewasa 3x2-3 sdm/hari (bisa di tambah sesuai kebutuhan)\r\n-Untuk penyakit luar (penyakit kulit, benjolan dll) di oleskan 5 kali sehari\r\n\r\n*AMAN DI KONSUMSI SEMUA KALANGAN, TERMASUK ANAK-ANAK, WANITA HAMIL DAN IBU MENYUSUI*\r\n\r\nPENTING : Bagi penderita yang mempunyai alergi Sea-food (makan laut) tidak diajurkan mengkonsumsi nya.\r\n\r\nDisclaimer : Reaksi/khasiat obat herbal ini setiap individu berbeda-beda, tergantung tingkat keparahan penyakitnya, respon tubuh, pola makan, faktor lingkungan dan usia.\r\n\r\nNote \"QnC Jelly Gamat ada yang cair dan ada yang kental, dikarenakan pada bahan baku teripang emas setiap musim berubah. Dan juga QnC Jelly Gamat tidak memiliki zat pengental apalagi zat kimia sehingga dengan demikian 100% herbal. Baik yang cair maupun yang kental memiliki khasiat dan manfaat yang sama\"","rating":0}
{"no":0,"title":"Obat Herbal Propolis SM - Obat Mengatasi Gangguan Telinga - Telinga Berdarah - Bernanah - Berdengung - Congek Menahun - Radang Telinga","price":"75.000","seller":"Susi Fatmawati","sellerPlace":"Jakarta Barat","url":"https://www.bukalapak.com/p/kesehatan-2359/obat-suplemen/obat-obatan/23y8lnr-jual-obat-herbal-propolis-sm-obat-mengatasi-gangguan-telinga-telinga-berdarah-bernanah-berdengung-congek-menahun-radang-telinga?from=&product_owner=normal_seller","sold":0,"seen":6,"favorite":0,"updated":"2019-09-13 08:54:57","description":"*BARANG SELALU READY STOCK\r\n*LANGSUNG KLIK BELI SEKARANG, KAMI LANGSUNG PROSES DAN DI KIRIM HARI INI JUGA\r\n*KEASLIAN OBAT TERJAMIN\r\n*AMAN DAN TANPA EFEK SAMPING\r\n*BERGARANSI UANG KEMBALI 100%, JIKA BARANG TIDAK SAMPAI TUJUAN ATAUPUN RUSAK\r\n\r\n==PROMO HARI INI===\r\n\r\n*FREE ONGKIR pembelian 3 botol maksimal Ongkir 25.000 (semua wilayah)\r\n*FREE ONGKIR pembelian 7 botol (1Box) maksimal Ongkir 25,000+sarikurma 1 (Semua wilayah)\r\n\r\n\"7 Botol (1 Box) Rp. 490.000 (FREE ONGKIR)\"\r\n\"14 Botol (2 Box) Rp. 910.000 (FREE ONGKIR)\"\r\n\r\n:: DISKUSIKAN terlebih dulu untuk informasi selengkapnya, ONGKIR akan di kembalikan (transfer) ke rekening atau di ganti dengan pulsa ::\r\n\r\n===========================================\r\n\r\n**Keterangan Produk\r\nNama Produk : ProPolis SM\r\nIsi : 6 ML\r\nDi Produksi : CV. SAMI MANDJOER\r\nLegalitas :\r\n- BPOM RI POM TR 193624961\r\n- Sertifikat HALAL dari MUI\r\n\r\nPropolis SM Merupakan Produk ASLI Indonesia yang terbuat dari bahan herbal alami tanpa campuran bahan kimia yang berbahaya. Bahan yang digunakan dalam pembuatan Propolis SM yaitu 100% Ekstrak Propolis Brazilian.\r\n\r\nPropolis SM ini di produksi langsung oleh CV. SAMI MANDJOER menggunakan NANO TECHNOLOGY. Teknologi ini sangat bermanfaat untuk mempercepat proses penyerapan nutrisi di dalam tubuh. Ini dikarenakan ekstraksi diolah menjadi ukuran nano sehingga tubuh akan mudah menyerap nutrisi yang ada dalam obat herbal Propolis SM.\r\n\r\n**Khasiat Propolis SM\r\n\r\no)Menjaga kesehatan tubuh secara menyeluruh, sehingga tidak mudah sakit\r\no)Meningkatkan kekebalan tubuh\r\no)Mengatasi berbagai jenis gangguan pada telinga\r\no)Menjaga kesehatan tulang dan sendi\r\no)Melancarkan sistem pencernaan dan sistem pernafasan\r\no)Melancarkan peredaran darah\r\no)Memiliki antioksidan tinggi, antivirus, antitumor, antibakteri\r\no)Mencegah dan mengatasi segala bentuk peradangan\r\no)Membantu mengeluarkan racun dalam tubuh\r\no)Membantu menurunkan kadar gula darah, kolesterol tinggi\r\no)Mempercepat penyembuhan luka luar atau dalam\r\no)Memperbaik sel sel jaringan tubuh yangh rusak\r\no)Membantu mengatasi berbagai jenis penyakit.\r\n\r\n**Aturan Konsumsi\r\n\r\n-Untuk Menjaga Kesehatan : Larutkan 2-3 tetes kedalam 1/4 air putih\r\n-Untuk Pengobatan : Larutkan 4-8 tetes kedalam 1/4 air putih\r\n-Untuk keluhan telinga : Bisa langsung di teteskan 1-2 tetes, dan diamkan selama 30 detik lalu bersihkan\r\n-Untuk pengobatan luar (Kulit), bisa dioleskan langsung pada bagian kulit yang bermasalah.\r\n\r\n**CIRI PRODUK ASLI / PALSU\r\nSilakan teteskan walatra propolis ke dalam 1 botol air putih dan lihat, warnanya akan tetap bening tidak berubah menjadi keruh. Berbeda dengan propolis yang beredar di pasaran akan berubah warna saat dicampur. Produk yang asli memiliki aroma yang bisa tercium.\r\n\r\n>Pengiriman dilakukan sampai jam 14.30 WIB\r\n>Hari minggu tidak melakukan pengiriman, tapi tetap menerima orderan dan dikirim pada hari senin\r\n\r\nDisclaimer : Reaksi/khasiat obat herbal ini setiap individu berbeda-beda, tergantung tingkat keparahan penyakitnya, respon tubuh, pola makan, faktor lingkungan dan usia.","rating":0}
{"no":0,"title":"Obat Herbal Sakit Telinga Sebelah Kanan - Kiri - Telinga Bagian Tengah - Bagian Dalam - Obat Tetes Penyakit Telinga Othematoma - Meniere - Tinnitus","price":"75.000","seller":"Susi Fatmawati","sellerPlace":"Jakarta Barat","url":"https://www.bukalapak.com/p/kesehatan-2359/obat-suplemen/obat-obatan/2a6mkhd-jual-obat-herbal-sakit-telinga-sebelah-kanan-kiri-telinga-bagian-tengah-bagian-dalam-obat-tetes-penyakit-telinga-othematoma-meniere-tinnitus?from=&product_owner=normal_seller","sold":0,"seen":6,"favorite":0,"updated":"2019-10-09 13:11:09","description":"*BARANG SELALU READY STOCK\r\n*LANGSUNG KLIK BELI SEKARANG, KAMI LANGSUNG PROSES DAN DI KIRIM HARI INI JUGA\r\n*KEASLIAN OBAT TERJAMIN\r\n*AMAN DAN TANPA EFEK SAMPING\r\n*BERGARANSI UANG KEMBALI 100%, JIKA BARANG TIDAK SAMPAI TUJUAN ATAUPUN RUSAK\r\n\r\n==PROMO HARI INI===\r\n\r\n*FREE ONGKIR pembelian 3 botol maksimal Ongkir 25.000 (semua wilayah)\r\n*FREE ONGKIR pembelian 7 botol (1Box) maksimal Ongkir 25,000+sarikurma 1 (Semua wilayah)\r\n\r\n\"7 Botol (1 Box) Rp. 490.000 (FREE ONGKIR)\"\r\n\"14 Botol (2 Box) Rp. 910.000 (FREE ONGKIR)\"\r\n\r\n:: DISKUSIKAN terlebih dulu untuk informasi selengkapnya, ONGKIR akan di kembalikan (transfer) ke rekening atau di ganti dengan pulsa ::\r\n\r\n===========================================\r\n\r\n**Keterangan Produk\r\nNama Produk : ProPolis SM\r\nIsi : 6 ML\r\nDi Produksi : CV. SAMI MANDJOER\r\nLegalitas :\r\n- BPOM RI POM TR 193624961\r\n- Sertifikat HALAL dari MUI\r\n\r\nPropolis SM Merupakan Produk ASLI Indonesia yang terbuat dari bahan herbal alami tanpa campuran bahan kimia yang berbahaya. Bahan yang digunakan dalam pembuatan Propolis SM yaitu 100% Ekstrak Propolis Brazilian.\r\n\r\nPropolis SM ini di produksi langsung oleh CV. SAMI MANDJOER menggunakan NANO TECHNOLOGY. Teknologi ini sangat bermanfaat untuk mempercepat proses penyerapan nutrisi di dalam tubuh. Ini dikarenakan ekstraksi diolah menjadi ukuran nano sehingga tubuh akan mudah menyerap nutrisi yang ada dalam obat herbal Propolis SM.\r\n\r\n**Khasiat Propolis SM\r\n\r\no)Menjaga kesehatan tubuh secara menyeluruh, sehingga tidak mudah sakit\r\no)Meningkatkan kekebalan tubuh\r\no)Mengatasi berbagai jenis gangguan pada telinga\r\no)Menjaga kesehatan tulang dan sendi\r\no)Melancarkan sistem pencernaan dan sistem pernafasan\r\no)Melancarkan peredaran darah\r\no)Memiliki antioksidan tinggi, antivirus, antitumor, antibakteri\r\no)Mencegah dan mengatasi segala bentuk peradangan\r\no)Membantu mengeluarkan racun dalam tubuh\r\no)Membantu menurunkan kadar gula darah, kolesterol tinggi\r\no)Mempercepat penyembuhan luka luar atau dalam\r\no)Memperbaik sel sel jaringan tubuh yangh rusak\r\no)Membantu mengatasi berbagai jenis penyakit.\r\n\r\n**Aturan Konsumsi\r\n\r\n-Untuk Menjaga Kesehatan : Larutkan 2-3 tetes kedalam 1/4 air putih\r\n-Untuk Pengobatan : Larutkan 4-8 tetes kedalam 1/4 air putih\r\n-Untuk keluhan telinga : Bisa langsung di teteskan 1-2 tetes, dan diamkan selama 30 detik lalu bersihkan\r\n-Untuk pengobatan luar (Kulit), bisa dioleskan langsung pada bagian kulit yang bermasalah.\r\n\r\n**CIRI PRODUK ASLI / PALSU\r\nSilakan teteskan walatra propolis ke dalam 1 botol air putih dan lihat, warnanya akan tetap bening tidak berubah menjadi keruh. Berbeda dengan propolis yang beredar di pasaran akan berubah warna saat dicampur. Produk yang asli memiliki aroma yang bisa tercium.\r\n\r\n>Pengiriman dilakukan sampai jam 14.30 WIB\r\n>Hari minggu tidak melakukan pengiriman, tapi tetap menerima orderan dan dikirim pada hari senin\r\n\r\nDisclaimer : Reaksi/khasiat obat herbal ini setiap individu berbeda-beda, tergantung tingkat keparahan penyakitnya, respon tubuh, pola makan, faktor lingkungan dan usia.","rating":0}
{"no":0,"title":"Obat Herbal Pasca Operasi Patah Tulang - Penyembuhan Patah Tulang - Tulang Cedera - Tulang Patah Akibat Jatuh - Walatra Sehat Sendi ORIGINAL","price":"200.000","seller":"Susi Fatmawati","sellerPlace":"Jakarta Barat","url":"https://www.bukalapak.com/p/kesehatan-2359/obat-suplemen/obat-obatan/26vswue-jual-obat-herbal-pasca-operasi-patah-tulang-penyembuhan-patah-tulang-tulang-cedera-tulang-patah-akibat-jatuh-walatra-sehat-sendi-original?from=&product_owner=normal_seller","sold":0,"seen":0,"favorite":0,"updated":"2019-09-24 14:24:16","description":"*BARANG SELALU READY STOCK\r\n*LANGSUNG KLIK BELI SEKARANG, KAMI LANGSUNG PROSES DAN DI KIRIM HARI INI JUGA\r\n*KEASLIAN OBAT TERJAMIN\r\n*AMAN DAN TANPA EFEK SAMPING\r\n*BERGARANSI UANG KEMBALI 100%, JIKA BARANG TIDAK SAMPAI TUJUAN ATAUPUN RUSAK\r\n\r\n>Pengiriman dilakukan sampai jam 14.30 WIB\r\n>Hari minggu tidak melakukan pengiriman, tapi tetap menerima orderan dan dikirim pada hari senin\r\n\r\n**Keterangan Produk\r\nNama Produk : SAMULINPRO Sehat Sendi\r\nIsi : 100 kapsul\r\nDi Produksi : CV. JOGJA NATURAL HERBAL with NANO TECHNOLOGY\r\nLegalitas :\r\n- BPOM RI POM TR 173306941\r\n- Sertifikat HALAL dari MUI\r\n\r\nSAMULINPRO adalah KEMASAN BARU dari WALATRA SEHAT SENDI, HARGA dan KHASIAT TETAP SAMA.\r\n\r\nSAMULINPRO Sehat Sendi merupakan produk herbal yang berkhasiat untuk kesehatan serta untuk merawat, mencegah dari berbagai permasalahan yang menyerang sendi dan tulang. SAMULINPRO sehat sendi ini terbuat dari bahan-bahan alami pilihan, yang mana di dalamnya terdapat kandungan yang bagus untuk kesehatan sendi dan tulang.\r\n\r\n**Komposisi : Akar kuning, Brotowali dan Daun Salam\r\n\r\nSemua bahan-bahan tersebut 100% ALAMI tanpa adanya campuran bahan kimia yang berbahaya. SAMULINPRO Sehat Sendi ini di produksi langsung oleh CV. JOGJA NATURAL HERBAL menggunakan NANO TECHNOLOGY dalam proses pengolahannya, yang artinya kualitas produk lebih baik, lebih awet, lebih bersih, lebih aman, dan yang lebih penting lebih pintar dalam mengatasi keluhan pada sendi dan tulang, sehingga khasiatnya lebih cepat terasa oleh tubuh. Selain itu juga, SAMULINPRO Sehat Sendi ini sudah terdaptar di BPOM RI dengan nomor regestrasi POM. 173306941 serta telah memiliki sertifikakt HALAL dari MUI.\r\n\r\n**Khasiat dan Manfaat SAMULINPRO Sehat Sendi\r\no)Membantu merawat kesehatan tulang dan sendi secara menyeluruh\r\no)Sumber nutrisi pada sendi dan tulang\r\no)Membantu mengatasi nyeri sendi, cedera pada sendi\r\no)Membantu mengatasi tulang kaku\r\no)Membantu mengatasi asam urat\r\no)Membantu mengatasi pegal linu\r\no)Membantu mengatasi rematik\r\no)Membantu mengatasi Osteoporosis, Osteoarthritis\r\no)Membantu mengatasi peradangan jaringan tulang atau sendi\r\no)Membantu mengatasi pengapuran sendi\r\no)Membantu mempercepat proses pemulihan patah tulang\r\no)Mencegah dan mengatasi infeksi pada sendi yang bermasalah\r\no)Mengobati syaraf terjepit, dan masih banyak lagi yang lainnya\r\n\r\n**Cara Konsumsi : 2 kapsul 3 kali sehari\r\n\r\nDisclaimer : Reaksi/khasiat obat herbal ini setiap individu berbeda-beda, tergantung tingkat keparahan penyakitnya, respon tubuh, pola makan, faktor lingkungan dan usia.","rating":0}
{"no":0,"title":"Tahitian Noni - Jus Noni - Noni","price":"215.000","seller":"Tempat Jajan","sellerPlace":"Tangerang Selatan","url":"https://www.bukalapak.com/p/kesehatan-2359/obat-suplemen/obat-obatan/295s59s-jual-tahitian-noni-jus-noni-noni?from=&product_owner=normal_seller","sold":0,"seen":11,"favorite":0,"updated":"2019-10-08 14:34:52","description":"Tahitian NONI Jus buah mengkudu, banyak manfaat dan kaya akan nutrisi bagi kesehatan tubuh. Dibuat dengan tehknologi tinggi dari USA, dibawah standar pengawasan yang ketat memberikan jaminan keamana dan keampuhan produk tersebut. Tahitian noni berkhasiat: - Menurunkan gula darah bagi penderita diabetes. - Menurunkan kadar kolesterol. - Mengatasi badan sering pegal-pegal. - Mencegah dan mengobati kanker. - Sebagai minuman untuk menjaga kesehatan. 1 botol berisi 1000 mL\r\n\r\nPENTING!! packaging menggunakan botol kaca, kami packing menggunakan bubble wrap. kerusakan saat pengiriman bukan tanggung jawab penjual.\r\n\r\nEXP Maret 2021","rating":0}
{"no":0,"title":"OBAT HERBAL PENYUBUR KANDUNGAN","price":"155.000","seller":"GREEN HERBAL","sellerPlace":"Jakarta Selatan","url":"https://www.bukalapak.com/p/kesehatan-2359/obat-suplemen/obat-obatan/1nclo95-jual-obat-herbal-penyubur-kandungan?from=&product_owner=normal_seller","sold":0,"seen":0,"favorite":0,"updated":null,"description":"Toko Resmi (Head Office CV. Karya Abadi ) berpusat dijepara jateng.\r\nNomor Regristrasi SIUP: 510/24/PK/VIII/2015 \r\n\r\nKelebihan belanja disini:\r\n1. Terjamin keamanan produknya 100% herbal \r\n2. legalitas resmi / Original Brand/No KW/No abal2\r\n3. Pelayanan maksimal (pengiriman dihari yang sama via jne jika sebelum pukul 15:00 WIB ) \r\n4. packing rapi aman dan terjamin kerahasiaannya \r\n5. Stock Selalu Ready , silahkan langsung bisa diorder ...\r\n6. satu satunya toko terpercaya dengan feedback positif terbanyak diplatform BL\r\n\r\novuma - herbal penyubur kandungan\r\n100% herbal alami berkhasiat\r\nBerkhasiat:\r\n1. Menyuburkan kandungan\r\n2. Menyehatkan dan memperkuat kandungan\r\n3. Meningkatkan kinerja hormon estrogen dan progesteron\r\n4. Memicu proses ovulasi\r\n5. Mengatasi berbagai masalah kewanitaan seperti keputihan dan infeksi jamur/bakteri\r\n6. Melancarkan haid\r\n7. Mengatasi gangguan haid seperti mual, muntah, kram perut atau sakit perut tidak tertahan saat haid\r\n\r\n\r\nDetail Produk:\r\nNama: Ovuma\r\nKemasan: Botol (lihat foto diatas)\r\nIsi: 45 kapsul @ 500 mg\r\nIjin BPOM: POM TR. 093 301 521\r\nHalal MUI 05","rating":0}
{"no":0,"title":"Obat Kuat-Pria Herbal USA Kualitaz Iztimewah","price":"550.000","seller":"forex hendel","sellerPlace":"Jakarta Barat","url":"https://www.bukalapak.com/p/kesehatan-2359/obat-suplemen/obat-obatan/26o0px3-jual-obat-kuat-pria-herbal-usa-kualitaz-iztimewah?from=&product_owner=normal_seller","sold":134,"seen":46,"favorite":11,"updated":"2019-10-03 09:37:50","description":"ISI 30 Tablet. .\r\n\r\nStok Ready.. \r\n\r\n***BIASAKAN BACA DULU FEEDBACK, TESTIMONI ATAU ULASAN KONSUMEN SEBELUM BELI***\r\n\r\nHati - Hati Jangan Salah Pilih..Harga di bawah 550rb di jamin palsu dan apabila harga sampai 600rb bahkan 1jt di jamin mereka adalah penjual dropship, disinilah agen resminya..silahkan di buktikan.\r\n\r\nSayangilah tubuh Anda jangan sampai mengkonsumsi produk palsu karena kesehatan sangat lah mahal mahal harganya.\r\n\r\n-Kami Tak Berjanji tapi memberi Bukti.\r\n-Toko Online BuKa 24 jam Nonstop..\r\n\r\n-Pelayanan Oke, Siap Melayani Dengan Baik.\r\n\r\nStok Barang Ready dan Sesuai Di Gambar.\r\n\r\nTransfer hari ini kirim hari ini.\r\n\r\nPACKING DIJAMIN RAPI,AMAN KERAHASIAANNYA\r\nTERJAMIN ASLI DAN KUALITAS IMPORT..\r\n\r\nPromo minggu ini beli 3 bonus 1. yuk di order sebelum promo berakhir.\r\n\r\nSISTEM PENGIRIMAN KAMI :\r\n- *Prodak Originall\r\n- *Packing Rapi\r\n- *Pengiriman Tepat Waktu\r\n- *Privasi Aman\r\n- *Amanah\r\n\r\n***PERHATIAN***\r\n- JANGAN MUDAH TERGIUR DENGAN HARGA MURAH. MANA ADA PRODUK IMPORT DENGAN HARGA MURAH ??!!! JADILAH PEMBELI YANG PINTAR\" ( MOHON TELITI SEBELUM MEMBELI ).\r\n\r\n- Jaminan mutu kualitas international. Kepuasan customer adalah kebanggaan kami.\r\n\r\nCiri - ciri keasliannya sesuai foto diatas\r\n\r\nKepuasan pelanggan adalah prioritas utama kami..\r\n\r\n- ingat.. !! kalau barang sudah sampai tolong di konfirmasi ya..\r\n\r\nSemoga kami Bisa Membantu Keharmonisan Rumah Tangga Anda dan terimakasih...\r\n\r\nHAPPY SHOPPING..","rating":0}
{"no":0,"title":"Obat Kanker Kelenjar Getah Bening Herbal De Nature","price":"465.000","seller":"Halo Sehat","sellerPlace":"Cilacap","url":"https://www.bukalapak.com/p/kesehatan-2359/obat-suplemen/obat-obatan/oeuqwm-jual-obat-kanker-kelenjar-getah-bening-herbal-de-nature?from=&product_owner=normal_seller","sold":130,"seen":60,"favorite":0,"updated":"2019-10-15 13:08:43","description":"Paket obat kanker de nature indonesia berkhasiat untuk:\r\n-membantu mengobati kanker rahim\r\n-kanker darah\r\n-kanker payudara\r\n-menumpas kanker otak\r\n-dan semua jenis kanker\r\n\r\n+ Secara efektif memilih target dan membunuh sel jahat dari 12 tipe kanker yang berbeda, diantaranya kanker : Usus Besar, Payu Dara, Prostat, Paru2, dan Pankreas.\r\n+ Daya kerjanya 10.000 kali lebih kuat dalam memperlambat pertumbuhan sel kanker dibandingkan dengan Adriamicin dan Terapi Kemo yang biasa di gunakan.\r\n+ Tidak seperti terapi kemo, sari buah ini secara selektif hanya memburu dan membunuh sel2 jahat dan TIDAK membahayakan/ membunuh sel2 sehat.","rating":0}
{"no":0,"title":"Eraser Teeth Whitening Hyper Dental Peeling Stick / Penghapus pemutih gigi","price":"14.600","seller":"GRADE STORE","sellerPlace":"Jakarta Barat","url":"https://www.bukalapak.com/p/kesehatan-2359/obat-suplemen/obat-obatan/1d5y47-jual-eraser-teeth-whitening-hyper-dental-peeling-stick-penghapus-pemutih-gigi?from=&product_owner=normal_seller","sold":49,"seen":1529,"favorite":105,"updated":"2019-10-14 06:28:02","description":"Eraser Teeth Whitening Hyper Dental Peeling Stick memiliki Gel yang dapat memutihkan gigi, dengan sensivitas yang kurang daripada Brands lainnya membuat Eraser Teeth Whitening Hyper Dental Peeling Stick ini nyaman digunakan.\r\nFeatures\r\nGel Whitening\r\n\r\nGel pemutih gigi yang nyaman, membuat gigi Anda lebih putih daripada biasanya, dan mengurangi bercak yang ditimbulkan akibat minum teh, kopi ataupun merokok.\r\nEasy to Use\r\n\r\nSangat mudah penggunaannya, gosokkan penghapus ini pada gigi secara merata dan gigi akan segera memutih secara berkala.\r\nSafety\r\n\r\nKandungan Carbamide peroxide dan Hydrogen peroxide yang aman bagi gigi Anda.\r\nPackage Contents\r\n\r\nBarang-barang yang Anda dapat dalam kotak produk:\r\n\r\n 1 x Handle\r\n 25 x Eraser Teeth Whitening","rating":0}
{"no":0,"title":"po---stinor-2","price":"29.000","seller":"APT SEHAT BERKAH","sellerPlace":"Jakarta Timur","url":"https://www.bukalapak.com/p/kesehatan-2359/obat-suplemen/obat-obatan/29hb8v1-jual-po-stinor-2?from=&product_owner=normal_seller","sold":938,"seen":376,"favorite":9,"updated":"2019-10-15 14:27:14","description":"obat postinor harga perbox silahkan order gan...isi 1 strip 2 tablet\r\nbuat konsumen yg order banyak boleh di chat untuk harga special","rating":0}
{"no":0,"title":"MI NYAK LI NTAH MERAH PAPUA ORIGINAL PEM-BESAR","price":"80.000","seller":"Sufia Store","sellerPlace":"Bekasi","url":"https://www.bukalapak.com/p/kesehatan-2359/obat-suplemen/obat-obatan/1xfz44j-jual-mi-nyak-li-ntah-merah-papua-original-pem-besar?from=&product_owner=normal_seller","sold":281,"seen":2083,"favorite":69,"updated":"2019-10-15 11:11:29","description":"STOCK SELALU READY...!!! PRIVASI DIJAMIN AMAN...!!!\r\nMOHON DIBACA!!\r\norder diatas jam 15.00 dikirim esok hari\r\nSenin - sabtu : 08.00 - 15.00\r\n\r\n* Warna Minyak Hitam Pekat\r\n* Isi 60ml\r\n* Segel 3 Hologram (Lihat Foto)\r\n\r\nJAMINAN PRODUK ORIGINAL 100% ASLI\r\nKALAU BARANG PALSU/KW DAN TIDAK SESUAI FOTO\r\nKAMI REFUND UANG ANDA 2X LIPAT\r\n\r\n==============================================\r\nCara Pemakaian:\r\n* Oleskan keseluruh alat secara merata\r\n* Lalu urut dari pangkal sampai keujung satu arah selama 5-10 menit setiap pagi (minimal 1x sehari)\r\n* Diutamakan waktu pagi (bangun tidur pagi) \r\n* Dilakukan secara rutin\r\n\r\nKhasiat:\r\n* Membesarkan dan memperpanjang si otong secara permanen\r\n* Mengeraskan otot-otot pada si otong\r\n* Mengatasi ejakullasi dini dll\r\n\r\nPerubahan hasil yang diperoleh setiap orang bervariasi tergantung dari hormon testoteron yang ada pada setiap orang tersebut. Untuk menambah hormon, Anda bisa menkonsumsi Suplemen penambah hormon (Asam Amino, vitamin B komplek dll) dan makanan yang berprotein tinggi, seperti putih telur, susu, daging, kacang polong, kerang dan lainnya.","rating":0}
{"no":0,"title":"Obat Herbal Kista","price":"500.000","seller":"Jaya Marko","sellerPlace":"Bandung","url":"https://www.bukalapak.com/p/kesehatan-2359/obat-suplemen/obat-obatan/2ay6u1m-jual-obat-herbal-kista?from=&product_owner=normal_seller","sold":31,"seen":21,"favorite":0,"updated":"2019-10-15 08:48:23","description":"K-muricata obat herbal kanker asli yang terbuat dari tanaman alami daun sirsak dan tanaman keladi tikus. Didalam daun sirsak mengandung senyawa ACETOGENINS dan pada tanaman keladi tikus memiliki kandungan senyawa RIBOZOME INACTIVATING PROTEINS (RIPS).\r\n\r\nPara ahli mempelajari khasiat dari senyawa Acetogenins, serta aktivitas biologis anti Tumor secara in-vivo. Hasilnya Acetogenins adalah sumber alami yang dapat menghambat pertumbuhan sel tumor ataupun sel kanker. Selain itu khasiat dari senyawa acetogenins ini dapat menghancurkan miom dan kista secara alami. Penelitian ini dilakukan oleh Bioinformatics Division, Institute of Cytology and Preventive Oncology, Noida, India.\r\n\r\nRibozome Inactivating Proteins (RIPs) memiliki beberapa sifat biomedis, sebagai anti-virus dan anti-tumor. Rips diketahui menghambat proliferasi (perkembangan) sel tumor dan sel kanker dengan menginduksi apoptosis pada sel tumor jinak ataupun ganas. Penelitian ini dilakukan oleh State Key Laboratory of Oncology in South China, Guangzhou, China.","rating":0}
{"no":0,"title":"Promo posti nor-2","price":"25.000","seller":"APT SEHAT REZEKI","sellerPlace":"Jakarta Timur","url":"https://www.bukalapak.com/p/kesehatan-2359/obat-suplemen/obat-obatan/1zhqnuv-jual-promo-posti-nor-2?from=&product_owner=normal_seller","sold":134,"seen":306,"favorite":13,"updated":"2019-10-15 13:15:51","description":"postinor 2 isi sebok 2 tablet silah kan gan di order barang ready","rating":0}
{"no":0,"title":"OBAT HERBAL K UAT PRIA HAJAR JAHANAM ORIGINAL OLES","price":"20.000","seller":"Dalyta_herbal","sellerPlace":"Bekasi","url":"https://www.bukalapak.com/p/kesehatan-2359/obat-suplemen/obat-obatan/1ufeag0-jual-obat-herbal-k-uat-pria-hajar-jahanam-original-oles?from=&product_owner=normal_seller","sold":106,"seen":2228,"favorite":42,"updated":"2019-10-13 11:44:02","description":"==(BARANG READY STOCK)==\r\n\r\n*Jika ingin privasi silahkan pilih expedisi JNE / TIKI, kalau J&T / SICEPAT pakai resi otomatis dan nama barang akan terlihat.\r\n\r\n*Jika ingin menggunakan expedisi J&T untuk barang cair harap chat terlebih dahulu karena J&T untuk barang cair hanya pengiriman pulau jawa.\r\n\r\n*Terima pesanan Full 24jam, lebih cepat diproses untuk jam 7.00 sampai jam 19.00.\r\n\r\n*Terima order setiap hari (order dihari minggu via tiki dikirim hari senin atau diganti JNE).\r\n\r\n*Proses dijamin CEPAT, AMAN 100% dan ASLI.\r\n\r\n\r\n\r\nOBAT OLES PRIA KUAT HAJAR- JAHANAM MINYAK OLES TAHAN LAMA KUAT ORIGINAL !!\r\n\r\n100% Herbal Alami. \r\n\r\nHajar-Jahanam kami merupakan kualitas Terbaik dengan Khasiat Terbaik!! \r\n\r\nAwas tertipu harga murah, pastikan hanya di Dalytastore! \r\n\r\nBahan bakunya hanya tersedia di Mesir dan India yaitu berupa Getah yang diramu yang diambil dari tumbuhan tertentu kemudian dibentuk seperti Batu. Batu inilah yang dalam pemakaiannya tinggal dicairkan dengan air kemudian dioleskan. \r\n\r\nRamuan yang sudah diolah dalam bentuk cair ini dapat digunakan bagi Anda yang memang ingin \"bermain\" lama. \r\n\r\nJadi, fungsinya khusus agar Anda mampu tahan lama di ranjang berjam-jam. Dioleskan 1-2 jam sebelum berhubungan.\r\n\r\nCara kerja minyak tahan lama :\r\n\r\nSetelah minyak dioleskan merata maka akan terasa hangat pertanda ramuan herbal oles meresap dan bekerja baik. Kondisi ini akan membantu pembuluh darah dan membuat rongga pembuluh darah membesar sehingga uretra akan tertekan dan mengurangi sensitivitas organ intim anda (tapi tidak total kebas) tergantung dari banyaknya herbal yang dioles.\r\n\r\nGunakan pada batang dan kepala secukupnya dan lebih tebal pada bagian bawah batang pen*s (jangan terkena lubang). Jangan panik ketika merasa hangat setelah dioleskan ini berarti ramuan sudah bekerja dengan baik dan anda akan mendapatkan khasiat yang maksimal. Rasa hangat akan membantu pembuluh darah membesar hingga herbal meresap optimal.\r\n\r\nSetelah herbal dioleskan merata dan dicuci bersih, khasiat akan bertahan 3 hingga 7 jam.\r\n\r\nCara pakai ada dalam kemasan\r\n\r\nsalam sehat\r\n----------","rating":0}
{"no":0,"title":"nizoral obat gatal","price":"160.000","seller":"toko herbalku","sellerPlace":"Malang","url":"https://www.bukalapak.com/p/kesehatan-2359/obat-suplemen/obat-obatan/pjh94p-jual-nizoral-obat-gatal?from=&product_owner=normal_seller","sold":131,"seen":2064,"favorite":37,"updated":"2019-10-15 08:13:18","description":"exp date 2020,harga per 10 tab ####WAJIB BACA#####\r\nno komplain/no retur\r\nNizoral (ketoconazole) digunakan sebagai obat anti jamur pada kulit dan selaput mukosa, sepertiathletes foot, kurap, infeksi dermatofita pada kulit atau kuku tangan (tidak pada kuku kaki), kandidiasis (infeksi jamur atau sariawan), dan tinea versikolor.Sebagai antijamur sistemik, obat ini memiliki aktivitas terhadap berbagai jenis jamur, sepertiCandida, Histoplasma, Coccidioides, dan Blastomyces(meskipun tidak aktif terhadapAspergillus). Namun, di beberapa negara tidak lagi dipilih sebagai obat anti jamur sistemik lini pertama, karena memiliki efek toksisitas lebih besar, penyerapan yang buruk, dan spektrum yang lebih terbatas.Ketoconazole memiliki aktivitas sebagai antiandrogen dan efek antiglukokortikoid, yang telah digunakan sebagai pengobatan lini kedua untuk kanker prostat dan untuk menekan sintesis glukokortikoid dalam pengobatan cushing sindrom. Namun, dalam pengobatan kanker prostat, digunakan bersamaan dengan glukokortikoid untuk mencegah insufisiensi adrenal. Keamanan dan efektivitasnya untuk indikasi ini belum dapat dipastikan sehingga penggunaan tidak disetujui oleh INDIKASI\r\n\r\nJangan menggunakan nizoral untuk pasien yang memiliki riwayat hipersensitif pada ketoconazole atau obat golongan imidazole tahun 2013 Komite Obat Eropa (CHMP) merekomendasikan larangan penggunaan ketoconazole oral untuk penggunaan sebagai antijamur sistemik pada manusia di seluruh Uni Eropa, setelah menyimpulkan bahwa resiko kerusakan hati yang serius akibat penggunaan obat ini melebihi manfaatnya. Pada tahun yang sama Australia juga melakukan larangan serupa dan tahun 2015 larangan juga dilakukan oleh China. Obat antijamur triazol seperti flukonazole dan itrakonazole saat ini lebih dipilih karena memiliki afinitas yang lebih besar terhadap membran sel jamur dan memiliki toksisitas yang lebih kecil.Pemberian secara oral tidak untuk infeksi menggunakan obat ini untuk pasien yang memiliki gangguan hati dan pasien yang sedang diterapi dengan terfenadin atau boleh digunakan untuk meningitis karena diberikan bersamaan dengan obat-obat berikut : dofetilide, quinidine, pimozide, cisapride, metadon, disopiramid, dronedarone, ranolazine. ketoconazole dapat meningkatkan konsentrasi plasma obat-obat tersebut dan dapat memperpanjang interval QT, kadang-kadang menyebabkan disritmia ventrikel yang membahayakan sepertitorsades de : 200 mg/hari. Durasi pengobatan untuk 14 hari. Jika setelah 14 hari respons tidak memuaskan, lanjutkan pengobatan hingga setidaknya 1 minggu setelah gejala hilang dan kultur menjadi negatif. Dosis maksimum : 400 mg/ : 3 mg / kg bb / hari. Obat diberikan sebagai dosis tunggal atau dalam dosis terbagi.Kandidiasis vaginal resisten yang kronis : 400 mg / hari. Pengobatan dilakukan diberikan bersama makanan.","rating":0}
{"no":0,"title":"Hot in Cream","price":"50.000","seller":"lisa","sellerPlace":"Surabaya","url":"https://www.bukalapak.com/p/kesehatan-2359/obat-suplemen/obat-obatan/p7kjqu-jual-hot-in-cream?from=&product_owner=normal_seller","sold":0,"seen":0,"favorite":0,"updated":null,"description":"Cream pereda pegal-pegal, nyeri otot, dan nyeri sendi.\r\n\r\nTidak lengket dan nyaman di kulit.\r\n\r\nKandungan minyak serehnya sebagai anti nyamuk.\r\n\r\nDapat juga meredakan masung angin, perut kmebung, flu, sakit kepala, dan kesemutan.","rating":0}
{"no":0,"title":"Mextril tablet","price":"60.000","seller":"MUMOS","sellerPlace":"Bandung","url":"https://www.bukalapak.com/p/kesehatan-2359/obat-suplemen/obat-obatan/1a5uq90-jual-mextril-tablet?from=&product_owner=normal_seller","sold":1583,"seen":285,"favorite":6,"updated":"2019-10-15 11:14:47","description":"Mextril Tablet adalah obat yang digunakan untuk mengobati gejala flu seperti, hidung tersumbat, bersin-bersin, pilek yang disertai batuk.","rating":0}
{"no":0,"title":"Obat jamur eksim kudis kurap","price":"20.000","seller":"Toko Obat Herbal Alami 5758","sellerPlace":"Jakarta Utara","url":"https://www.bukalapak.com/p/kesehatan-2359/obat-suplemen/obat-obatan/lwj99r-jual-obat-jamur-eksim-kudis-kurap?from=&product_owner=normal_seller","sold":576,"seen":14150,"favorite":376,"updated":"2019-10-15 14:16:40","description":"Khasiat Dan Kegunaan Griseofulvin 500mg:\r\n\r\n\r\n\r\nMengobati penyakit kulit seperti alergi gatal-gatal, jamur, Eksim, panu, kudis,kurap Dan penyakit kulit lainnya.\r\n\r\n\r\n\r\n\r\nDosis pemakaian :\r\n\r\n\r\n\r\nSehari 1 X 1 tablet\r\n\r\nDiminum setelah makan\r\n\r\n\r\n\r\n\r\nHarga per strip/lembar isi 10 tablet\r\n\r\n\r\nDiproduksI oleh :\r\n\r\n\r\nPT. Prafa\r\n\r\n\r\nIndonesia","rating":0}
{"no":0,"title":"BESTthe MAN HERBAL-PEMBESAR-KELAMINJAMU-KUAT-PRIA-EROGAN plngkap Alat-Pijat-Terapi pria-Kesehatan-Wanita HERBAL","price":"405.000","seller":"Titian store","sellerPlace":"Jakarta Pusat","url":"https://www.bukalapak.com/p/kesehatan-2359/obat-suplemen/obat-obatan/1wszx9x-jual-bestthe-man-herbal-pembesar-kelaminjamu-kuat-pria-erogan-plngkap-alat-pijat-terapi-pria-kesehatan-wanita-herbal?from=&product_owner=normal_seller","sold":11,"seen":37,"favorite":11,"updated":"2019-10-12 11:24:58","description":"STOCK READY….!!!\r\n\r\n\r\nAWAS JANGAN SAMPAI ANDA PERCAYA DAN TERTIPU DENGAN PENAWARAN HARGA MURAH DAN TAK WAJAR ITU SUDAH DAPAT DI PASTIKAN PALSU\r\n\r\n\r\nPIKIR AJA PAKAI LOGIKA MANA ADA BARANG ASLl DIJUAL DAN DI OBRAL DENGAN HARGA MURAHAN.\r\n\r\n\r\nJANGAN SALAH PILIH…. PILIHLAH BARANG YANG ORIGINAL\r\n\r\n\r\nMANFAAT 0B4T ER0GAN USA 100% ORIGINAL :\r\n\r\n\r\n\r\nMemperbe5ar Alat Vtal\r\n\r\n[email protected] Alat Vtal\r\n\r\nKeraskan Vtal\r\n\r\nKuatkan Vtal\r\n\r\n[email protected] [email protected]\r\n\r\nMengobati [email protected] [email protected]\r\n\r\nAtasi [email protected] dini\r\n\r\n\r\n\r\n\r\nKejutkan pasangan anda buat lebih harmonis!!!!!!\r\n\r\n\r\nCara Pakai:\r\n\r\n\r\nSehari 2x ya 1 kapsul dipagi hari dan 1 kapsul di malam hari diminum dengan air putih hangat biar obat bekerja lebih efektif.\r\n\r\n\r\nUntuk tahan lama Ambil 1 kapsul diminum 1 JAM sebelum action.\r\n\r\n\r\nKEMASAN : 1 BOTOL ISI 30 CAP5ULE. barang selalu READY ya , silahkan langsung order\r\n\r\n\r\nselamat berbelanja di toko kami\r\n\r\n\r\nhappy shooping ……….","rating":0}
{"no":0,"title":"Obat Ejakulasi-dini stong pria Original Bazookaa","price":"365.200","seller":"GENDIS ID","sellerPlace":"Jakarta Pusat","url":"https://www.bukalapak.com/p/kesehatan-2359/obat-suplemen/obat-obatan/2bswd44-jual-obat-ejakulasi-dini-stong-pria-original-bazookaa?from=&product_owner=normal_seller","sold":110,"seen":18,"favorite":8,"updated":"2019-10-11 14:41:57","description":"PRODUK DIJAMIN ORIGINAL 100% ( Ber-HOLOGRAM )\r\n\r\nPRIVASI DIJAMIN AMAN DAN TERJAGA KERAHASIAANNYA\r\n\r\nPENGIRIMAN CEPAT & FAST RESPOND\r\n\r\nSUPALIER TANGAN PERTAMA, DIJAMIN ORI HAN HARGA LEBIH TERJANGKAU\r\n\r\n1.\r\nMembantu Anda untuk dapat Erexi lebih lama\r\n2.\r\nMembantu Anda mampu melakukan penetrasi dalam durasi yang cukup lama\r\n3.\r\nEjakulasidini Anda berakhir\r\n4.\r\nAnda akan merasakan sensasi orgasme yang luar biasa\r\n5.\r\nHubungan badan yang sangat memuaskan\r\n6.\r\nIstri Anda akan bahagia karena Anda bisa membuatnya orgasme berkali-kali\r\n7.\r\nKeharmonisan Anda dan pasangan kembali terjalin\r\n\r\n","rating":0}
{"no":0,"title":"Obat perkasa Pria Vgra100Mg Original","price":"362.000","seller":"GENDIS ID","sellerPlace":"Jakarta Pusat","url":"https://www.bukalapak.com/p/kesehatan-2359/obat-suplemen/obat-obatan/2bsvnho-jual-obat-perkasa-pria-vgra100mg-original?from=&product_owner=normal_seller","sold":110,"seen":40,"favorite":8,"updated":"2019-10-14 16:20:27","description":"# PRODUK DIJAMIN ORIGINAL 100% ( Ber-HOLOGRAM )\r\n# PRIVASI DIJAMIN AMAN DAN TERJAGA KERAHASIAANNYA\r\n# PENGIRIMAN CEPAT & FAST RESPOND\r\n# SUPALIER TANGAN PERTAMA, DIJAMIN ORI HAN HARGA LEBIH TERJANGKAU\r\n\r\n1. Membantu Anda untuk dapat Erexi lebih lama\r\n2. Membantu Anda mampu melakukan penetrasi dalam durasi yang cukup lama\r\n3. Ejakulasidini Anda berakhir\r\n4. Anda akan merasakan sensasi orgasme yang luar biasa\r\n5. Hubungan badan yang sangat memuaskan\r\n6. Istri Anda akan bahagia karena Anda bisa membuatnya orgasme berkali-kali\r\n7. Keharmonisan Anda dan pasangan kembali terjalin","rating":0}
{"no":0,"title":"JUAL OBAT HERBAL PRIA OLES KU ATDJAMIN ASLI","price":"150.000","seller":"LAPAK AMANAH","sellerPlace":"Jakarta Utara","url":"https://www.bukalapak.com/p/kesehatan-2359/obat-suplemen/obat-obatan/22jobp2-jual-jual-obat-herbal-pria-oles-ku-atdjamin-asli?from=&product_owner=normal_seller","sold":12,"seen":36,"favorite":30,"updated":"2019-09-06 17:44:28","description":"Ready stok Happy Shoping,.......................\r\n\r\nKami suplyer obat herbal Terpercaya....!!! Welcome Reseller dan Dropshiper. Cocok untuk Anda yg mau jual lagi...\r\nKami akan respon secepat mungkin, Langsung Order Saja...!! Barang semua READY,,, LANGSUNG KIRIM TANPA LAMA...!!!\r\n\r\nTerimakasih, Kepercayaanya Anda amanah Bagi kami, SMART BUYER..!!","rating":0}
{"no":0,"title":"MINYAK OLES PEM BESAR PENI-S-ORIGINAL","price":"170.000","seller":"HERBA CENTER INDONESIA","sellerPlace":"Jakarta Pusat","url":"https://www.bukalapak.com/p/kesehatan-2359/obat-suplemen/obat-obatan/1xl9idl-jual-minyak-oles-pem-besar-peni-s-original?from=&product_owner=normal_seller","sold":8,"seen":18,"favorite":10,"updated":"2019-08-17 05:23:57","description":"READY STOCK, ORDER MASUK LANGSUNG DIKIRIM!!!!\r\n\r\nTITAN GEL HOLOGRAM RESMI TANTRA RUSSIA !!!\r\n\r\nDAN INGAT TITAN ASLI RUSSIA ITU ADA ANTIFAKE CODE NYA...\r\n\r\nAWAS PRODUK PALSU...!!! (JANGAN TERTIPU HARGA MURAH)\r\n\r\n\r\nMANFAAT:\r\n-Membantu meningkatkan volume alat vital hingga 60%.\r\n-Membantu memperpanjang ukuran Alat vital hingga 5 cm.\r\n-Membantu meningkatkan daya tahan pada saat-saat intim.\r\n-Membantu memperlama hubungan anda saat berhubungan.\r\n-Membantu memberikan tambahan stamina dan meningkatkan pengalaman bercinta.\r\n-Membantu efek positif pada daya tahan dan kesehatan libido.\r\n-Direkomendasikan, lebih baik, lebih aman, lebih kuat dan memperpanjang p*\r\n\r\n\r\nCARA PAKAI:\r\n-Gunakan setiap hari secara teratur dan rutin setelah setiap mandi / saat tubuh bersih. \r\n-Oleskan Titan Gel ke seluruh kemaluan secara merata lalu Pijatlah dengan gerakan searah mulai secara perlahan dari pangkal p* hingga ke ujung p* selama 10 menit.\r\n-Cream Titan gel ini cepat diserap & tidak meninggalkan bau yang tidak menyenangkan atau tanda.\r\n-Untuk hasil yang lebih menakjubkan,pakailah titan gel 1 jam sebelum melakukan hubungan intim dengan pasangan Anda.\r\n\r\n\r\n*JAMINAN MUTU & KUALITAS INTERNATIONAL\r\n*KEPUASAN CUSTOMER ADALAH PRIORITAS UTAMA KAMI","rating":0}
{"no":0,"title":"MINYAK OBAT PEM BESAR PENI-S-PATEN","price":"170.000","seller":"HERBA CENTER INDONESIA","sellerPlace":"Jakarta Pusat","url":"https://www.bukalapak.com/p/kesehatan-2359/obat-suplemen/obat-obatan/1xl9s3l-jual-minyak-obat-pem-besar-peni-s-paten?from=&product_owner=normal_seller","sold":8,"seen":17,"favorite":10,"updated":"2019-08-17 05:23:55","description":"READY STOCK, ORDER MASUK LANGSUNG DIKIRIM!!!!\r\n\r\nTITAN GEL HOLOGRAM RESMI TANTRA RUSSIA !!!\r\n\r\nDAN INGAT TITAN ASLI RUSSIA ITU ADA ANTIFAKE CODE NYA...\r\n\r\nAWAS PRODUK PALSU...!!! (JANGAN TERTIPU HARGA MURAH)\r\n\r\n\r\nMANFAAT:\r\n-Membantu meningkatkan volume alat vital hingga 60%.\r\n-Membantu memperpanjang ukuran Alat vital hingga 5 cm.\r\n-Membantu meningkatkan daya tahan pada saat-saat intim.\r\n-Membantu memperlama hubungan anda saat berhubungan.\r\n-Membantu memberikan tambahan stamina dan meningkatkan pengalaman bercinta.\r\n-Membantu efek positif pada daya tahan dan kesehatan libido.\r\n-Direkomendasikan, lebih baik, lebih aman, lebih kuat dan memperpanjang p*\r\n\r\n\r\nCARA PAKAI:\r\n-Gunakan setiap hari secara teratur dan rutin setelah setiap mandi / saat tubuh bersih. \r\n-Oleskan Titan Gel ke seluruh kemaluan secara merata lalu Pijatlah dengan gerakan searah mulai secara perlahan dari pangkal p* hingga ke ujung p* selama 10 menit.\r\n-Cream Titan gel ini cepat diserap & tidak meninggalkan bau yang tidak menyenangkan atau tanda.\r\n-Untuk hasil yang lebih menakjubkan,pakailah titan gel 1 jam sebelum melakukan hubungan intim dengan pasangan Anda.\r\n\r\n\r\n*JAMINAN MUTU & KUALITAS INTERNATIONAL\r\n*KEPUASAN CUSTOMER ADALAH PRIORITAS UTAMA KAMI","rating":0}
{"no":0,"title":"OBAT OLES -PEMBE SAR PEN-IS-ORI","price":"170.000","seller":"HERBA CENTER INDONESIA","sellerPlace":"Jakarta Pusat","url":"https://www.bukalapak.com/p/kesehatan-2359/obat-suplemen/obat-obatan/1xlb2d5-jual-obat-oles-pembe-sar-pen-is-ori?from=&product_owner=normal_seller","sold":8,"seen":17,"favorite":9,"updated":"2019-08-17 05:23:44","description":"READY STOCK, ORDER MASUK LANGSUNG DIKIRIM!!!!\r\n\r\nTITAN GEL HOLOGRAM RESMI TANTRA RUSSIA !!!\r\n\r\nDAN INGAT TITAN ASLI RUSSIA ITU ADA ANTIFAKE CODE NYA...\r\n\r\nAWAS PRODUK PALSU...!!! (JANGAN TERTIPU HARGA MURAH)\r\n\r\n\r\nMANFAAT:\r\n-Membantu meningkatkan volume alat vital hingga 60%.\r\n-Membantu memperpanjang ukuran Alat vital hingga 5 cm.\r\n-Membantu meningkatkan daya tahan pada saat-saat intim.\r\n-Membantu memperlama hubungan anda saat berhubungan.\r\n-Membantu memberikan tambahan stamina dan meningkatkan pengalaman bercinta.\r\n-Membantu efek positif pada daya tahan dan kesehatan libido.\r\n-Direkomendasikan, lebih baik, lebih aman, lebih kuat dan memperpanjang p*\r\n\r\n\r\nCARA PAKAI:\r\n-Gunakan setiap hari secara teratur dan rutin setelah setiap mandi / saat tubuh bersih. \r\n-Oleskan Titan Gel ke seluruh kemaluan secara merata lalu Pijatlah dengan gerakan searah mulai secara perlahan dari pangkal p* hingga ke ujung p* selama 10 menit.\r\n-Cream Titan gel ini cepat diserap & tidak meninggalkan bau yang tidak menyenangkan atau tanda.\r\n-Untuk hasil yang lebih menakjubkan,pakailah titan gel 1 jam sebelum melakukan hubungan intim dengan pasangan Anda.\r\n\r\n\r\n*JAMINAN MUTU & KUALITAS INTERNATIONAL\r\n*KEPUASAN CUSTOMER ADALAH PRIORITAS UTAMA KAMI","rating":0}
{"no":0,"title":"BEST SELLER - OBAT PEMBESAR PENI S--Alat-Vital Original","price":"170.000","seller":"HERBA CENTER INDONESIA","sellerPlace":"Jakarta Pusat","url":"https://www.bukalapak.com/p/kesehatan-2359/obat-suplemen/obat-obatan/1xlgfza-jual-best-seller-obat-pembesar-peni-s-alat-vital-original?from=&product_owner=normal_seller","sold":8,"seen":13,"favorite":10,"updated":"2019-08-17 05:23:38","description":"READY STOCK, ORDER MASUK LANGSUNG DIKIRIM!!!!\r\n\r\nTITAN GEL HOLOGRAM RESMI TANTRA RUSSIA !!!\r\n\r\nDAN INGAT TITAN ASLI RUSSIA ITU ADA ANTIFAKE CODE NYA...\r\n\r\nAWAS PRODUK PALSU...!!! (JANGAN TERTIPU HARGA MURAH)\r\n\r\n\r\nMANFAAT:\r\n-Membantu meningkatkan volume alat vital hingga 60%.\r\n-Membantu memperpanjang ukuran Alat vital hingga 5 cm.\r\n-Membantu meningkatkan daya tahan pada saat-saat intim.\r\n-Membantu memperlama hubungan anda saat berhubungan.\r\n-Membantu memberikan tambahan stamina dan meningkatkan pengalaman bercinta.\r\n-Membantu efek positif pada daya tahan dan kesehatan libido.\r\n-Direkomendasikan, lebih baik, lebih aman, lebih kuat dan memperpanjang p*\r\n\r\n\r\nCARA PAKAI:\r\n-Gunakan setiap hari secara teratur dan rutin setelah setiap mandi / saat tubuh bersih. \r\n-Oleskan Titan Gel ke seluruh kemaluan secara merata lalu Pijatlah dengan gerakan searah mulai secara perlahan dari pangkal p* hingga ke ujung p* selama 10 menit.\r\n-Cream Titan gel ini cepat diserap & tidak meninggalkan bau yang tidak menyenangkan atau tanda.\r\n-Untuk hasil yang lebih menakjubkan,pakailah titan gel 1 jam sebelum melakukan hubungan intim dengan pasangan Anda.\r\n\r\n\r\n*JAMINAN MUTU & KUALITAS INTERNATIONAL\r\n*KEPUASAN CUSTOMER ADALAH PRIORITAS UTAMA KAMI","rating":0}
{"no":0,"title":"OBAT KUAT TAHAN LAMA - LAMA","price":"240.000","seller":"HERBA CENTER INDONESIA","sellerPlace":"Jakarta Pusat","url":"https://www.bukalapak.com/p/kesehatan-2359/obat-suplemen/obat-obatan/1xlp051-jual-obat-kuat-tahan-lama-lama?from=&product_owner=normal_seller","sold":8,"seen":13,"favorite":10,"updated":"2019-07-20 14:18:17","description":"Stok Selalu READY, tinggal ORDER aja yaa gan..\r\n\r\nJaminan Produk ASLI\r\nDistributor Resmi CV. KARYA ABADI JEPARA\r\nPengiriman sampai jam 3 sore\r\nPacking RAPI, Privacy agan AMAN.\r\n\r\nLhiformen-Obat Herbal Penambah Stamina Dan Menjaga Kebugaran Vitalitas Pria\r\n\r\nBadan kurang bugar, stamina loyo dan mudah keluar saat dengan pasangan? Awas tanda kerusakan organ vitaIitas/ . Jangan biarkan berlarut, jika tak ingin loyo dan terkena gangguan fungsi seperti ejjakuIIasi dinni (cepat keluar) , lmpotensl (susah erreksl) dan lemah sahwatt. \r\nObati segera dengan Lhiformen!\r\nObat herbal kusus pria dewasa terdaftar di BPOM dan halal MUI. Aman untuk dikonsumsi dan tidak memberikan efek ketergantungan. Meningkatkan produksi hormon testosteron, mengatasi ejakulaxi dini, meningkatkan libido, menjadikan erexi keras dan tahan lama, mengentalkan dan memperbanyak sperma.\r\n\r\nManfaat Kapsul Lhiformen:\r\nMenambah dan meningkatkan gairah SekzsuaI\r\nMengatasi masalah ezakuIasi dini\r\nMeningkatkan kadar hormon testosteron\r\nMeningkatkan produksi sperrmatozoid\r\nMenjaga vitaIitas dan kesehatan pria\r\nMemperkuat sistem kekebalan tubuh terhadap cuaca buruk\r\nMengandung bahan organik tanpa bahan kimia yang berbahaya\r\nMenjaga stamina di saat bekerja keras\r\nMenjaga suhu badan tetap stabil\r\nAman dikonsumsi bagai Anda yang mempunyai masalah ginjal, jantung, hipertensi, koesterol,diabetes dan penya\r\n\r\nDosis Penggunaan:\r\nHanya dengan 1 kapsul sehari dan 1 kapsul diminum 1 jam sebelum berhubungan untuk menjadikan Anda pria perkasa.\r\n\r\nDetail Produk:\r\nIsi:50 kapsul @ 500 mg\r\nIjin BPOM: POM TR. 093 301 521\r\nHalal MUI 05\r\nHarga: Rp.240.000,-\r\n\r\nSilahkan Pesan ORDER untuk Pemesanan ya..\r\nPengiriman CEPAT Dan Langsung dikirim Ke Alamat Tujuan Dengan AMAN! :) ..\r\nAwas Barang Tiruan!.. Produk ini 100% ORIGINAL ASLI RESMI..","rating":0}
{"no":0,"title":"TOP BGT Kapsul Kutuk Premium Albumin Ikan Gabus TERBAIK","price":"345.000","seller":"Yanto nurhidayat SHOP","sellerPlace":"Jakarta Utara","url":"https://www.bukalapak.com/p/kesehatan-2359/obat-suplemen/obat-obatan/1wwxaet-jual-top-bgt-kapsul-kutuk-premium-albumin-ikan-gabus-terbaik?from=&product_owner=normal_seller","sold":22,"seen":24,"favorite":0,"updated":"2019-09-12 15:11:50","description":"&#x2714;&#xFE0F; Pengiriman Hari yang SAMA\r\n&#x2714;&#xFE0F; Senin-Jumat 13.30 WIB\r\n&#x2714;&#xFE0F; Sabtu 12.00 WIB\r\n\r\nKenapa harus Kapsul Kutuk Premium?\r\n&#x1F44D; Menggunakan perbandingan 20:1\r\n&#x1F44D; Menggunakan proses Pure Double Extraction\r\n&#x1F44D; HALAL LP POM MUI\r\n&#x1F44D; POM TR. 143 380 041\r\n\r\nKapsul Kutuk Premium\r\n(Albumin Ikan Gabus Kualitas Premium)\r\n\r\n&#x1F397;Meningkatkan kadar albumin dan Daya Tahan Tubuh\r\n&#x1F397;Mempercepat proses penyembuhan pasca operasi\r\n&#x1F397;Mempercepat penyembuhan luka dalam / luka luar\r\n&#x1F397;Membantu proses penyembuhan pada penyakit: Hepatitis, TBC/Infeksi paru, Nephotric Syindrome, Tonsilitis, Thypus, Diabetes, Patah Tulang, Gasiritis, ITP, HIV, Sepsis, Stroke, Thalasemia minor.\r\n&#x1F397;Membantu menghilangkan Oedema (pembengkakan)\r\n&#x1F397;Memperbaiki gizi buruk pada bayi, anak dan ibu hamil dan memperlancar ASI\r\n\r\nCocok dikonsumsi bagi orang SEHAT agar LEBIH SEHAT (untuk menjaga kadar albumin dalam tubuh)\r\n\r\n1 botol = 1/2 Infus Albumin Rumah Sakit\r\nCukup 230.000 saja, daripada anda harus merogoh kocek sampai JUTAAN\r\n\r\nAturan Minum :\r\nDewasa : 3x sehari 2 kapsul\r\nAnak-anak : 2x sehari 1-2 kapsul\r\nDi minum 1 jam sebelum akan atau 2 jam sesudah makan\r\n\r\nAMAN DIKONSUMSI IBU HAMIL DAN MENYUSUI ;)","rating":0}
{"no":0,"title":"BARU LANBENA Acne Scar Removal Cream Skin Repair Acne Spots Acne Stretch VIRAL","price":"150.100","seller":"Agus Priyanto HOME","sellerPlace":"Jakarta Pusat","url":"https://www.bukalapak.com/p/kesehatan-2359/obat-suplemen/obat-obatan/1wwy14r-jual-baru-lanbena-acne-scar-removal-cream-skin-repair-acne-spots-acne-stretch-viral?from=&product_owner=normal_seller","sold":22,"seen":18,"favorite":0,"updated":"2019-09-12 09:56:21","description":"SELAMAT DATANG SELAMAT BERBELANJA! \r\n-------------------------------------------------- --- \r\nProduk Import - produk ini dikirim dari luar negeri...\r\n?Produk Ready stock! ? Sampai Sekitar 6-14 hari, tiba alamat Anda! \r\n? Jaminan Kepuasan 100% dan Jaminan Kualitas Premium! ? \r\n\r\nDear Friend, Anda mungkin menemukan bahwa seseorang menjual \r\ndengan harga lebih rendah dari kami tetapi mereka tidak dapat \r\nmenjamin kualitas dan layanan yang sama seperti yang kami lakukan. \r\nterima kasih! -------------------------------------------------- --- ????? There is a wide variety of products for you.\r\n\r\nFeaturte:\r\n100%Brand New and High quality.\r\nBand Name: LANBENA\r\nType: Acne Scar Removal Cream\r\nSkin Type: All Skin Types\r\nGender: Female\r\nFeature: Pigmentation Corrector\r\nNET WT: 30ml\r\nIngredient: Traditional Chinese medicine composition\r\nProduced Date:2018\r\nExpiration Date:2021\r\nProduced Date:2018\r\nExpiration Date:2021\r\nValidity period:3years\r\n\r\nUsing advanced scar acne repair technology, using traditional Chinese medicine ingredients, mild texture, easy to penetrate the skin cortex, soften scar tissue, promote natural skin renewal, quickly heal scars, promote skin secretion, prevent sunlight caused swelling, redness, scar inflammation, sclerosis, shorten the scratch time. At the same time, it has the functions of anti-inflammatory, bacteriostasis, beauty and beauty, scar removing and acne removing, so as to make skin smooth and soft.\r\n\r\nEffect:\r\nAcne pits Acne scars, insect bites, scratches and other life marks; Effective removal of burn scars, scars and other scars affecting the appearance.\r\n\r\nUsage: Use several times a day, disinfect the affected parts or wounds before use, then apply appropriate amount of this product on the parts to be repaired, gently massage.\r\n\r\nPackage Included:\r\n1 * Acne Scar Removal Cream\r\n\r\nEnjoy your shopping!\r\n\r\n#Beauty #Acnesacarremoval #removalcream #skinrepair #whiteningcream #facecream #blackheadreomover #Skincare #Whitening\r\n\"\"? Kami akan mengirimkan pesanan anda maksimal 3 hari setelah pesanan terkonfirmasi, dalam waktu 6-14 hari barang akan sampai tujuan Proses pengiriman: \r\n? Ikuti terus toko kami, dapatkan voucher melalui cutomer service kami!\r\n? Apabila alamat pesanan salah, harap segera batalkan pesanan dan lakukan pemesanan lagi (Kami tidak dapat melakukan pembetulan) SELAMAT BERBELANJA ??\r\n\"","rating":0}
{"no":0,"title":"OBAT PEM BESAR PENI-S-ORIGINAL","price":"170.000","seller":"HERBA CENTER INDONESIA","sellerPlace":"Jakarta Pusat","url":"https://www.bukalapak.com/p/kesehatan-2359/obat-suplemen/obat-obatan/1xl931d-jual-obat-pem-besar-peni-s-original?from=&product_owner=normal_seller","sold":8,"seen":13,"favorite":10,"updated":"2019-08-17 05:24:00","description":"READY STOCK, ORDER MASUK LANGSUNG DIKIRIM!!!!\r\n\r\nTITAN GEL HOLOGRAM RESMI TANTRA RUSSIA !!!\r\n\r\nDAN INGAT TITAN ASLI RUSSIA ITU ADA ANTIFAKE CODE NYA...\r\n\r\nAWAS PRODUK PALSU...!!! (JANGAN TERTIPU HARGA MURAH)\r\n\r\n\r\nMANFAAT:\r\n-Membantu meningkatkan volume alat vital hingga 60%.\r\n-Membantu memperpanjang ukuran Alat vital hingga 5 cm.\r\n-Membantu meningkatkan daya tahan pada saat-saat intim.\r\n-Membantu memperlama hubungan anda saat berhubungan.\r\n-Membantu memberikan tambahan stamina dan meningkatkan pengalaman bercinta.\r\n-Membantu efek positif pada daya tahan dan kesehatan libido.\r\n-Direkomendasikan, lebih baik, lebih aman, lebih kuat dan memperpanjang p*\r\n\r\n\r\nCARA PAKAI:\r\n-Gunakan setiap hari secara teratur dan rutin setelah setiap mandi / saat tubuh bersih. \r\n-Oleskan Titan Gel ke seluruh kemaluan secara merata lalu Pijatlah dengan gerakan searah mulai secara perlahan dari pangkal p* hingga ke ujung p* selama 10 menit.\r\n-Cream Titan gel ini cepat diserap & tidak meninggalkan bau yang tidak menyenangkan atau tanda.\r\n-Untuk hasil yang lebih menakjubkan,pakailah titan gel 1 jam sebelum melakukan hubungan intim dengan pasangan Anda.\r\n\r\n\r\n*JAMINAN MUTU & KUALITAS INTERNATIONAL\r\n*KEPUASAN CUSTOMER ADALAH PRIORITAS UTAMA KAMI","rating":0}
{"no":0,"title":"BEST SELLER - MINYAK OLES PEMBESA R PENI-S -ALAT-VITAL","price":"170.000","seller":"HERBA CENTER INDONESIA","sellerPlace":"Jakarta Pusat","url":"https://www.bukalapak.com/p/kesehatan-2359/obat-suplemen/obat-obatan/1xl7hy8-jual-best-seller-minyak-oles-pembesa-r-peni-s-alat-vital?from=&product_owner=normal_seller","sold":8,"seen":16,"favorite":10,"updated":"2019-08-17 05:24:10","description":"READY STOCK, ORDER MASUK LANGSUNG DIKIRIM!!!!\r\n\r\nTITAN GEL HOLOGRAM RESMI TANTRA RUSSIA !!!\r\n\r\nDAN INGAT TITAN ASLI RUSSIA ITU ADA ANTIFAKE CODE NYA...\r\n\r\nAWAS PRODUK PALSU...!!! (JANGAN TERTIPU HARGA MURAH)\r\n\r\n\r\nMANFAAT:\r\n-Membantu meningkatkan volume alat vital hingga 60%.\r\n-Membantu memperpanjang ukuran Alat vital hingga 5 cm.\r\n-Membantu meningkatkan daya tahan pada saat-saat intim.\r\n-Membantu memperlama hubungan anda saat berhubungan.\r\n-Membantu memberikan tambahan stamina dan meningkatkan pengalaman bercinta.\r\n-Membantu efek positif pada daya tahan dan kesehatan libido.\r\n-Direkomendasikan, lebih baik, lebih aman, lebih kuat dan memperpanjang p*\r\n\r\n\r\nCARA PAKAI:\r\n-Gunakan setiap hari secara teratur dan rutin setelah setiap mandi / saat tubuh bersih. \r\n-Oleskan Titan Gel ke seluruh kemaluan secara merata lalu Pijatlah dengan gerakan searah mulai secara perlahan dari pangkal p* hingga ke ujung p* selama 10 menit.\r\n-Cream Titan gel ini cepat diserap & tidak meninggalkan bau yang tidak menyenangkan atau tanda.\r\n-Untuk hasil yang lebih menakjubkan,pakailah titan gel 1 jam sebelum melakukan hubungan intim dengan pasangan Anda.\r\n\r\n\r\n*JAMINAN MUTU & KUALITAS INTERNATIONAL\r\n*KEPUASAN CUSTOMER ADALAH PRIORITAS UTAMA KAMI","rating":0}
{"no":0,"title":"obat anti parasit detoxic biru original ampuh","price":"99.000","seller":"RUMAH HERBAL GROSIR","sellerPlace":"Jakarta Selatan","url":"https://www.bukalapak.com/p/kesehatan-2359/obat-suplemen/obat-obatan/2cvttf5-jual-obat-anti-parasit-detoxic-biru-original-ampuh?from=&product_owner=normal_seller","sold":53,"seen":45,"favorite":4,"updated":"2019-10-15 15:42:12","description":"READY STOCK Kak !!!!\r\n\r\nGEJALA-GEJALA YANG MENUNJUKKAN ADANYA PARASIT DI DALAM TUBUH :\r\n\r\n*.Sering mengalami, hidung. tersumbat, masuk angin, dan sakit. tenggorokan.\r\n*.Alergi (mata, ruam, dan hidung berair)\r\n*.Sering mengalami sakit kepala, daiare atau konstipasi.\r\n*.Kelelahan kronis (Anda cepat merasa capek, tidak peduli apa saja yang sudah Anda lakukan)\r\n*.Mengalami kesulitan tidur, merasa gugup, dan gangguan nafsu makan\r\n*.Mengalami nyeri sendi &amp;amp; otot\r\n*.Lingkaran hitam di sekitar mata &amp;amp; kantungmata\r\n\r\n\r\nDosis yang disarankanDiminum 2 x 1 kapsul / hari &amp;gt; standarDiminum 2 x 2 kapsul /hari &amp;gt; maximalAnjuranDapat diminum sebelum/sesudah makan dan perbanyak minum air putihAnak usia 3 - 6 tahun disarankan untuk meminum obat ini 3x sehari, setengah jam sebelum usia 6 - 12 tahun disarankan untuk meminum obat ini 2x sehari, setengah jam sebelum dewasa sebaiknya meminum obat ini1x setiap hari, setengah jam sebelum makan","rating":0}
{"no":0,"title":"OBAT-PEMBE SAR PE-NIS - OBAT ALAT VITAL","price":"170.000","seller":"HERBA CENTER INDONESIA","sellerPlace":"Jakarta Pusat","url":"https://www.bukalapak.com/p/kesehatan-2359/obat-suplemen/obat-obatan/1xl6joh-jual-obat-pembe-sar-pe-nis-obat-alat-vital?from=&product_owner=normal_seller","sold":8,"seen":12,"favorite":9,"updated":"2019-08-17 05:24:27","description":"READY STOCK, ORDER MASUK LANGSUNG DIKIRIM!!!!\r\n\r\nTITAN GEL HOLOGRAM RESMI TANTRA RUSSIA !!!\r\n\r\nDAN INGAT TITAN ASLI RUSSIA ITU ADA ANTIFAKE CODE NYA...\r\n\r\nAWAS PRODUK PALSU...!!! (JANGAN TERTIPU HARGA MURAH)\r\n\r\n\r\nMANFAAT:\r\n-Membantu meningkatkan volume alat vital hingga 60%.\r\n-Membantu memperpanjang ukuran Alat vital hingga 5 cm.\r\n-Membantu meningkatkan daya tahan pada saat-saat intim.\r\n-Membantu memperlama hubungan anda saat berhubungan.\r\n-Membantu memberikan tambahan stamina dan meningkatkan pengalaman bercinta.\r\n-Membantu efek positif pada daya tahan dan kesehatan libido.\r\n-Direkomendasikan, lebih baik, lebih aman, lebih kuat dan memperpanjang p*\r\n\r\n\r\nCARA PAKAI:\r\n-Gunakan setiap hari secara teratur dan rutin setelah setiap mandi / saat tubuh bersih. \r\n-Oleskan Titan Gel ke seluruh kemaluan secara merata lalu Pijatlah dengan gerakan searah mulai secara perlahan dari pangkal p* hingga ke ujung p* selama 10 menit.\r\n-Cream Titan gel ini cepat diserap & tidak meninggalkan bau yang tidak menyenangkan atau tanda.\r\n-Untuk hasil yang lebih menakjubkan,pakailah titan gel 1 jam sebelum melakukan hubungan intim dengan pasangan Anda.\r\n\r\n\r\n*JAMINAN MUTU & KUALITAS INTERNATIONAL\r\n*KEPUASAN CUSTOMER ADALAH PRIORITAS UTAMA KAMI","rating":0}
{"no":0,"title":"OBAT EJAKULASI DINI - OBAT KUAT. TAHAN LAMA","price":"240.000","seller":"HERBA CENTER INDONESIA","sellerPlace":"Jakarta Pusat","url":"https://www.bukalapak.com/p/kesehatan-2359/obat-suplemen/obat-obatan/1xloqdd-jual-obat-ejakulasi-dini-obat-kuat-tahan-lama?from=&product_owner=normal_seller","sold":8,"seen":14,"favorite":10,"updated":"2019-07-20 14:18:16","description":"Stok Selalu READY, tinggal ORDER aja yaa gan..\r\n\r\nJaminan Produk ASLI\r\nDistributor Resmi CV. KARYA ABADI JEPARA\r\nPengiriman sampai jam 3 sore\r\nPacking RAPI, Privacy agan AMAN.\r\n\r\nLhiformen-Obat Herbal Penambah Stamina Dan Menjaga Kebugaran Vitalitas Pria\r\n\r\nBadan kurang bugar, stamina loyo dan mudah keluar saat dengan pasangan? Awas tanda kerusakan organ vitaIitas/ . Jangan biarkan berlarut, jika tak ingin loyo dan terkena gangguan fungsi seperti ejjakuIIasi dinni (cepat keluar) , lmpotensl (susah erreksl) dan lemah sahwatt. \r\nObati segera dengan Lhiformen!\r\nObat herbal kusus pria dewasa terdaftar di BPOM dan halal MUI. Aman untuk dikonsumsi dan tidak memberikan efek ketergantungan. Meningkatkan produksi hormon testosteron, mengatasi ejakulaxi dini, meningkatkan libido, menjadikan erexi keras dan tahan lama, mengentalkan dan memperbanyak sperma.\r\n\r\nManfaat Kapsul Lhiformen:\r\nMenambah dan meningkatkan gairah SekzsuaI\r\nMengatasi masalah ezakuIasi dini\r\nMeningkatkan kadar hormon testosteron\r\nMeningkatkan produksi sperrmatozoid\r\nMenjaga vitaIitas dan kesehatan pria\r\nMemperkuat sistem kekebalan tubuh terhadap cuaca buruk\r\nMengandung bahan organik tanpa bahan kimia yang berbahaya\r\nMenjaga stamina di saat bekerja keras\r\nMenjaga suhu badan tetap stabil\r\nAman dikonsumsi bagai Anda yang mempunyai masalah ginjal, jantung, hipertensi, koesterol,diabetes dan penya\r\n\r\nDosis Penggunaan:\r\nHanya dengan 1 kapsul sehari dan 1 kapsul diminum 1 jam sebelum berhubungan untuk menjadikan Anda pria perkasa.\r\n\r\nDetail Produk:\r\nIsi:50 kapsul @ 500 mg\r\nIjin BPOM: POM TR. 093 301 521\r\nHalal MUI 05\r\nHarga: Rp.240.000,-\r\n\r\nSilahkan Pesan ORDER untuk Pemesanan ya..\r\nPengiriman CEPAT Dan Langsung dikirim Ke Alamat Tujuan Dengan AMAN! :) ..\r\nAwas Barang Tiruan!.. Produk ini 100% ORIGINAL ASLI RESMI..","rating":0}
{"no":0,"title":"OBAT HERBAL KUAT PRIA EJAKULASI DINI KUAT TAHAN LAMA - DUREVEL","price":"280.000","seller":"HERBA CENTER INDONESIA","sellerPlace":"Jakarta Pusat","url":"https://www.bukalapak.com/p/kesehatan-2359/obat-suplemen/obat-obatan/1xlmpf4-jual-obat-herbal-kuat-pria-ejakulasi-dini-kuat-tahan-lama-durevel?from=&product_owner=normal_seller","sold":8,"seen":12,"favorite":10,"updated":"2019-07-20 14:19:35","description":"Dijamin 100% Original dari CV. KARYA ABADI !!!\r\nHarga untuk 1 Botol (15 ml)\r\nBarang selalu READY Stok gan, \r\n\r\n----------------- P E N T I N G ----------------\r\n\r\nJADWAL PENGIRIMAN\r\n\r\nSENIN s/d JUMAT : pengiriman sampai jam 3 sore\r\nSABTU : pengiriman sampai jam 12 siang\r\n\r\n\r\n**) Paket DIKEMAS rapih TANPA MEREK/GAMBAR Produk... RAHASIA TERJAMIN..\r\n\r\n----------------- D U R E V E L - S P R A Y Obat Herbal Tahan Lama Pria Terbaik Di Indonesia-------------\r\n\r\nDurevel Spray adalah formula herbal yang terbuat dari ekstrak tanaman herbal terbaik yang berkhasiat tinggi dalam membantu mengatasi ejakulasii dini secara nyata dan aman.\r\nDurevel berbahan dasar air dan dikemas dalam botol kaca spray. \r\nHal ini menjadikan Anda sangat mudah menggunakannya, cukup disemprotkan dan tunggu hasilnya setelah 45 menit. \r\n\r\nKhasiat :\r\n* Membantu Anda untuk kuat dan tahan lebih lama berhubungan bersama pasangan\r\n* Durasi berhubungan lebih lama\r\n* Ejakulasii Dini Anda berakhir\r\n* Anda akan merasakan sensasi yang luar biasa\r\nAturan Pakai :\r\n1. Anda hanya perlu menyemprotkan Durevel ke alatvital Anda dengan sedikit pijatan untuk meratakannya.\r\n2. Alatvital Anda akan terasa hangat setelah 10 menit.\r\n3. Tunggu selama 45 menit.\r\n4. Durevel bisa berfungsi setelah 45 menit sampai 12 jam.\r\n5. Dan Anda siap untuk berhubungan selama mungkin.\r\n\r\n1 Botol DUREVEL SPRAY berisi 15ml gunakan hanya saat akan berhubungan saja\r\nbisa untuk 2 bulan pemakaian tergantung sedikit banyaknya pemakaian\r\n\r\nHATI-HATI produk palsu! Durevel Spray hanya dijual di jaringan CV Karya Abadi! Durevel Spray Asli tidak dijual dg harga dibawah HET (Rp,280.000)!\r\n#obatkuatpria #herbalkuatpria #obattahanlama #obatkuatpriaperkasa #obatkuattahanlama","rating":0}
{"no":0,"title":"Minyak angin Bunga Putih 2,5ml","price":"12.000","seller":"May 89","sellerPlace":"Jakarta Utara","url":"https://www.bukalapak.com/p/kesehatan-2359/obat-suplemen/obat-obatan/azojm-jual-minyak-angin-bunga-putih-2-5ml?from=&product_owner=normal_seller","sold":9,"seen":316,"favorite":4,"updated":"2019-10-10 20:24:47","description":">> Produk Dijamin 100% Original Asli!!\r\n>> Pengiriman Cepat !!\r\n>> Packing Rapih !!\r\n\r\nBerkhasiat untuk :\r\n- Membantu meredakan gejala masuk angin, sakit kepala, perut kembung\r\n- Membantu meredakan nyeri otot dan gatal-gatal akibat gigitan serangga\r\n\r\nPerhatian:\r\n- Tidak digunakan untuk anak di bawah 2 tahun\r\n- Jangan digunakan langsung di bawah hidung\r\n\r\nKemasan botol berisi 2,5 ml","rating":0}
{"no":0,"title":"SUPER GREEN FOOD 600 TABLET","price":"725.000","seller":"DUTA MEDIKA","sellerPlace":"Jakarta Barat","url":"https://www.bukalapak.com/p/kesehatan-2359/obat-suplemen/obat-obatan/1wznv4z-jual-super-green-food-600-tablet?from=&product_owner=normal_seller","sold":0,"seen":33,"favorite":0,"updated":"2019-07-05 10:02:54","description":"Supergreen Food (SGF) adalah makanan suplemen dalam bentuk tablet yang sangat padat gizi dan non gizi bermanfaat, yang merupakan kombinasi luar biasa antara spesies terbaik Alga Chlorella (Chlorella Sorokiniana) dan Spirulina (Spirulina Plantesis). Kedua jenis alga ini oleh pakar kesehatan dan nutrisi dijuluki sebagai Superfood, karena tidak ditemukan bahan alami lain yang menyaingi kandungan zat gizi dan nongizi bermanfaat yang ada didalamnya.\r\n\r\nSupergreen Food kaya akan zat gizi seperti protein, vitamin, mineral dan asam nukleat yang sinergis, membuat kekuatan manfaatnya menjadi berlipat ganda dibandingkan jika hanya mengkonsumsi Chlorella dan Spirulina saja, atau bahkan dibandingkan dengan mengkonsumsi kedua-duanya.\r\n\r\nMengapa Harus Kombinasi Chlorella dan Spirulina ?\r\n\r\nMike Adam, Nutrisionist ternama yang telah belasan tahun menerapkan terapi suplemen, juice dan herbal dalam bukunya menyebut Chlorella dan Spirulina sebagai SUPERFOOD, kedua alga ini mempunyai kandungan gizi yang sempurna dan juga kaya dengan berbagai zat fitokimia bermanfaat. Dia menyarankan agar kedua alga ini dikonsumsi bersamaan untuk mendapatkan hasil yang maksimal.\r\n\r\nChlorella sorokiniana adalah jenis chlorella terbaik saat ini, bahkan bila dibandingkan dengan seluruh alga.\r\n\r\nChlorella sorokiniana adalah jenis chlorella terbaik saat ini, bahkan bila dibandingkan dengan seluruh alga.\r\n\r\nMengapa Harus SGF ?\r\n\r\nMengapa Anda harus mengkonsumsi Supergreen Food setiap hari ?\r\n\r\n1.50-70% dari total makanan yang anda konsumsi adalah makanan pokok (nasi, kentang, terigu/gandum/roti/mie, jagung, singkong). Diluar makanan pokok, porsi pangan hewani jauh melebihi sayur dan buah (60-80%). Kondisi ini akan memicu berbagai masalah antara lain :\r\n\r\n- Cairan tubuh menjadi lebih asam (asidosis) yang dapat berakibat :\r\n\r\n- Darah cenderung lebih kental, sehingga darah lebih mudah menggumpal yang dapat memicu penyumbatan pembuluh darah.\r\n\r\n- Mempercepat proses pengeroposan tulang.\r\n\r\n- Memicu radang sendi/reumatik (osteoartritis).","rating":0}
{"no":0,"title":"HabbazaFIT Habbatussauda ASLI Suplemen Obat Herbal Penyubur Sperma - Obat Alami Pengental Sperma - Obat Lemah Syahwat Pada Pria","price":"120.000","seller":"Susi Fatmawati","sellerPlace":"Jakarta Barat","url":"https://www.bukalapak.com/p/kesehatan-2359/obat-suplemen/obat-obatan/1x4wra4-jual-habbazafit-habbatussauda-asli-suplemen-obat-herbal-penyubur-sperma-obat-alami-pengental-sperma-obat-lemah-syahwat-pada-pria?from=&product_owner=normal_seller","sold":0,"seen":7,"favorite":0,"updated":"2019-09-05 14:09:38","description":"*BARANG SELALU READY STOCK\r\n*LANGSUNG KLIK BELI SEKARANG, KAMI LANGSUNG PROSES DAN DI KIRIM HARI INI JUGA\r\n*KEASLIAN OBAT TERJAMIN\r\n*AMAN DAN TANPA EFEK SAMPING\r\n*BERGARANSI UANG KEMBALI 100%, JIKA BARANG TIDAK SAMPAI TUJUAN ATAUPUN RUSAK\r\n\r\n>Pengiriman dilakukan sampai jam 14.30 WIB\r\n>Hari minggu tidak melakukan pengiriman, tapi tetap menerima orderan dan dikirim pada hari senin\r\n\r\n**Keterangan Produk\r\nNama Produk : HabbazaFit Softgel\r\nIsi : 100 Softgel\r\nAturan konsumsi : 2 softgel 2x sehari\r\nDi Produksi : CV SAMI MANDJOER YOGYAKARTA with NANO TECHNOLOGY\r\nLegalitas :\r\n- BPOM RI POM TR 193324361 \r\n- Sertifikat HALAL dari MUI\r\n\r\nHabbazaFit merupakan produk herbal terbaru yang terbuat dari bahan herbal Minyak habbatussauda dan Minyak Zaitun ASLI, sehingga aman di konsumsi untuk semua kalangan usia dari mulai anak-anak hingga dewasa, tanpa efek samping negatif bagi tubuh.\r\n\r\nKomposisi :\r\no) Minyak Habbatussauda (jintan hitam)\r\no) Minyak Zaitun\r\n\r\nSemua bahan-bahan tersebut 100% ALAMI tanpa adanya campuran bahan kimia yang berbahaya. HabbazaFit Softgel ini di produksi langsung oleh CV SAMI MANDJOER YOGYAKARTA menggunakan NANO TECHNOLOGY dalam proses pengolahannya, yang artinya kualitas produk lebih baik, lebih awet, lebih bersih, lebih aman, dan yang lebih penting lebih pintar dalam mengatasi keluhan yang anda alami, sehingga khasiatnya lebih cepat terasa oleh tubuh. Selain itu juga, HabbazaFit Softgel ini sudah terdaptar di BPOM RI dengan nomor regestrasi POM. TR 193324361 serta telah memiliki sertifikakt HALAL dari MUI.\r\n\r\nKhasiat HabbazaFit Softgel\r\no)Mengatasi berbagai jenis penyakit\r\no)Meningkatkatkan dan menguatkan sistem kekebalan tubuh\r\no)Sumber nutrisi tambahan bagi yang mudah terserang penyakit\r\no)Menjaga kesehatan sehingga tidak mudah sakit\r\no)Memperbaiki kecerdasan, daya ingat dan konsentrasi\r\no)Memperbaiki sistem saluran cerna dan antibakteri\r\no)Sebagai anti tumor dan menghambat perkembangan tumor & sel kanker\r\no)Mengelurakan dan menetralkan racun dalam tubuh\r\no)Memperbaiki dan meningkatkan bioaktivitas hormon\r\no)Melancarkan ASI pada ibu hamil\r\no)Sumber nutrisi lengkap bagi ibu hamil\r\no)Memelihara sirkulasi darah agar tetap lancar\r\no)Memperbaiki kondisi insomnia, sulit tidur dan stress\r\no)Membantu meredakan rasa nyeri\r\no)Memperlancar sistem pernafasan dan sistem pencernaan\r\no)Mengatasi berbagai masalah kulit, dll\r\n\r\nDisclaimer : Reaksi/khasiat obat herbal ini setiap individu berbeda-beda, tergantung tingkat keparahan penyakitnya, respon tubuh, pola makan, faktor lingkungan dan usia.","rating":0}
{"no":0,"title":"Walatra Zedoril 7 - Obat Kanker Serviks - Obat Kanker Rahim - Obat Kanker Payudara","price":"400.000","seller":"Susi Fatmawati","sellerPlace":"Jakarta Barat","url":"https://www.bukalapak.com/p/kesehatan-2359/obat-suplemen/obat-obatan/1npe35j-jual-walatra-zedoril-7-obat-kanker-serviks-obat-kanker-rahim-obat-kanker-payudara?from=&product_owner=normal_seller","sold":0,"seen":7,"favorite":0,"updated":"2019-05-02 15:03:45","description":"*BARANG SELALU READY STOCK\r\n*LANGSUNG KLIK BELI SEKARANG, KAMI LANGSUNG PROSES DAN DI KIRIM HARI INI JUGA\r\n*KEASLIAN OBAT TERJAMIN\r\n*AMAN DAN TANPA EFEK SAMPING\r\n*BERGARANSI UANG KEMBALI 100%, JIKA BARANG TIDAK SAMPAI TUJUAN ATAUPUN RUSAK\r\n\r\n>Pengiriman dilakukan sampai jam 14.30 WIB\r\n>Hari minggu tidak melakukan pengiriman, tapi tetap menerima orderan dan dikirim pada hari senin\r\n\r\n**Keterangan Produk\r\nNama Produk : Walatra Zedoril 7\r\nIsi : 100 kapsul\r\nDi Produksi : CV. JOGJA NATURAL HERBAL with NANO TECHNOLOGY\r\nLegalitas :\r\n-BPOM RI POM. TR 173304521\r\n-Sertifikat HALAL dari MUI\r\n\r\nWalatra Zedoril 7 merupakan solusi tepat untuk membarantas sel kanker secara tuntas sampai ke akarnya sehingga sel kanker tidak akan kambuh lagi. Selain untuk mengobati kanker, Walatra Zedoril 7 ini juga mampu untuk mengobati tumor. Dengan anda mengkonsumsi Walatra Zedoril 7 secara teratur, penyakit kanker/tumor anda akan segera teratasi sampai tuntas tanpa harus melakukan operasi pengangkatan tumor/kanker yang sedang anda alami ini. \r\n\r\nObat herbal Walatra Zedoril 7 di produksi langsung oleh CV. JOGJA NATURAL HERBAL dan dipasarkan oleh distributor tunggal PT. BERKAH WALATRA dengan menggunakan Technology Nano. Dengan melalui proses produksi menggukan technology nano ini akan ber,amfaat untuk membantu kelarutan , stabilitas, dan kemampuan penyerapan lebih cepat sehingga khasiat dari Walatra Zedoril 7 ini akan mampu lebih cepat diserap oleh tubuh dan bekerja langsung ke sumber permasalahan.\r\n\r\n*Komposisi \r\n+)Ekstrak Kulit Manggis\r\n+)Ekstrak Daun Sirsak\r\n+)Ekstrak Daun Sirih Merah \r\n\r\n*Aturan Konsumsi : 4 kapsul 3x sehari, sesudah makan\r\n\r\nKhasiat Lengkap Walatra Zedoril 7\r\n\r\no)Mengatasi berbagai penyakit kanker dan tumor seperti : Kanker rahim , kanker serviks, Kanker Prostat, Kanker Lambung, Kanker Payudara, Kanker Prankeas, Kanker & Tumor Otak, Kanker kelenjar getah bening, Kanker Kulit (Melanoma), Kanker Hati (Liver), Kanker Darah (Lieukimia), Kanker Tulang, dll.\r\no)Membantu menyehatkan tubuh secara menyeluruh\r\no)Membantu menghancurkan inti sel kanker\r\no)Membantu menghambat pertumbuhan sel kanker\r\no)Membantu menghentikan aktifitas sel kanker yang membahayakan tubuh\r\no)Berfungsi sebagai antioksidan dengan cara menekan terbentuknya peroksida dalam proses oksidasi lipid\r\no)Berfungsi sebagai anti radang\r\no)Mengurangi efek samping kemoterapi\r\n\r\nPENTING : WALATRA ZEDORIL 7 \"TIDAK DIANJURKAN BAGI IBU HAMIL & IBU MENYUSUI\"\r\n\r\nDisclaimer : Reaksi/khasiat obat herbal ini setiap individu berbeda-beda, tergantung tingkat keparahan penyakitnya, respon tubuh, pola makan, faktor lingkungan dan usia.","rating":0}
{"no":0,"title":"Walatra Sehat Wasir - Ambe Care Kemasan Baru - OBAT AMBEIEN","price":"195.000","seller":"Herbal Official","sellerPlace":"Tasikmalaya","url":"https://www.bukalapak.com/p/kesehatan-2359/obat-suplemen/obat-obatan/1zydhn5-jual-walatra-sehat-wasir-ambe-care-kemasan-baru-obat-ambeien?from=&product_owner=normal_seller","sold":0,"seen":22,"favorite":1,"updated":"2019-07-18 09:32:45","description":"STOK BARANG SELALU ADA-,\r\nBayar dan Kirim dihari yang sama\r\n\r\n GRATIS ONGKOS KIRIM\r\nSilakan masukan voucher yang disediakan oleh Bukalapak\r\n\r\n[ KEMASAN BARU \" Walatra Sehat Wasir \" [ AMBE CARE ] adalah salah satu produk herbal yang diformulasikan khusus untuk mencegah, membantu mengobati dan menyembuhkan penyakit wasir atau ambeien. Kandungan herbal yang terdapat dalam obat herbal ini memiliki peran penting terlebih diolah dengan menggunakan Nano Technology dimana berfungsi mengontrol zat pada sistem skala yang sangat kecil (nanometer). Sehingga menghasilkan fungsi baru yang belum ada sebelumnya.\r\n\r\nKomposisi :\r\no) Ekstrak daun ungu (Graptophyllum pictum 70 %)\r\no) Ekstrak kunyit putih (Curcuma zedoaria 30 %)\r\n\r\nKhasiat :\r\no) Membantu mengobati wasir dan ambeien hingga tuntas\r\no) Mempercepat proses pembekuan darah saat wasir\r\no) Menghentikan pendarahan akibat wasir\r\no) Membuat anus lebih nyaman\r\no) Meredakan gejala gatal dan iritasi didaerah anus\r\no) Membuat BAB lebih lancar\r\no) Meningkatkan peredaran darah dan jaringan ikat\r\no) Meredakan peradangan dengan cepat\r\no) Meredakan rasa sakit 3 kali lebih cepat\r\no) Menguatkan kapiler dan vena\r\n\r\nAturan Konsumsi :\r\n3 Kali sehari, 2 kapsul setiap minumnya sesudah makan.\r\n\r\nDetail Produk :\r\nIsi : 100 Kapsul\r\nProduksi : CV Walatra Herbal\r\nLegalitas : BPOM 193326621\r\nBersertifikat HALAL dari MUI\r\n\r\nDisclaimer : Reaksi yang dirasakan bisa berbeda - beda pada setiap orang, tergantung dari usia, jenis kelamin, riwayat kesehatan dan tingkat keparahan.\r\n\r\n\r\n GARANSI UANG KEMBALI\r\nJika barang yang diterima tidak dalam kondisi baik, tidak sesuai pesanan / tidak sampai\r\n\r\n PENGIRIMAN\r\nEkspedisi JNE & POS ,TIKI, JNT / Semua pengiriman dikirim dari kota tasikmalaya jadi cepat SAMPAI.\r\nPROMO DARI KAMI [ KHUSUS BELI 2 BOTOL ] AKAN MENDAPATKAN CASHBACK / ONGKIR MAKSIMAL Rp50.000 \"Syarat & Ketentuan Berlaku\"","rating":0}
{"no":0,"title":"Sea Gamat Gold/G","price":"150.000","seller":"TIMUR JAYA","sellerPlace":"Jakarta Barat","url":"https://www.bukalapak.com/p/kesehatan-2359/obat-suplemen/obat-obatan/20654s-jual-sea-gamat-gold-g?from=&product_owner=normal_seller","sold":1,"seen":1065,"favorite":4,"updated":"2019-06-17 07:51:36","description":"Jelly Gamat Gold G kemasan isi 500 ml.\r\n\r\nJelly Gamat / Sea Cucumber / Hoisom sudah dikenal sejak lama sebagai makanan kesehatan dan mampu menyembuhkan berbagai keluhan penyakit.\r\n- kolesterol.\r\n- darah tinggi.\r\n- nyeri sendi.\r\n- asam urat.\r\n- kencing manis.\r\n- juga sebagai makanan kesehatan.\r\n\r\n1 botol isi 500 ml.","rating":0}
{"no":0,"title":"kinoki gold foot detox harga per box isi 10 pcs 5 psg","price":"45.000","seller":"HERBALPLUS","sellerPlace":"Jakarta Barat","url":"https://www.bukalapak.com/p/kesehatan-2359/obat-suplemen/obat-obatan/1bd4a6b-jual-kinoki-gold-foot-detox-harga-per-box-isi-10-pcs-5-psg?from=&product_owner=normal_seller","sold":0,"seen":43,"favorite":0,"updated":"2019-09-16 07:56:30","description":"HARGA TERTERA ISI 5 PASANG ATAU 10PCS\r\n\r\nKinoki Gold adalah produk yang berbentuk koyok dan berfungsi untuk proses detoxifikasi dan pemulihan kesehatan untuk menghisap toksin, bahan kimia dan racun dari dalam tubuh serta memperkuat imunitas tubuh karna dapat memperlancar saluran darah.\r\nToxin yang menumpuk dalam tubuh akan menyebabkan disfungsi sistem tubuh dan menimbulkan berbagai macam penyakit.\r\n\r\nFungsi Kinoki Gold selain detoxifikasi atau pembuangan racun adalah: meningkatkan energi atau tenaga, mengurangi stress, menghilangkan rasa nyeri pada bagian tubuh, memperlancar peredaran darah, mengatasi sulit tidur (insomnia), meningkatkan konsentrasi dan meningkatkan fungsi metabolisme tubuh.\r\n\r\nCara Pemakaian:\r\n- Buka plester Kinoki Gold.\r\n- Kinoki Gold (berupa bantalan kecil warna emas) tempelkan bagian yang ada tulisan pada plester.\r\n- Tempelkan plester dengan posisi Kinoki Gold di tengah-tengah telapak kaki.\r\n- Gunakan sebelum tidur, dan biarkan 5-8 jam(selama Anda Tidur) agar racun dalam tubuh dapat di serap.\r\n- Kinoki Gold Foot dapat digunakan di bagian lain yang terasa sakit.\r\n\r\nSemakin banyak racun yang ada di tubuh anda, maka hasil pada kinoki pads akan semakin lebih gelap. Setelah memakai kinoki Gold, kaki akan terasa lebih ringan.","rating":0}
{"no":0,"title":"PERMEN MENTALK 1 BOX ISI 30 PCS ORIGINAL","price":"485.000","seller":"MAJU JAYA HERBAL","sellerPlace":"Jakarta Barat","url":"https://www.bukalapak.com/p/kesehatan-2359/obat-suplemen/obat-obatan/11jasp0-jual-permen-mentalk-1-box-isi-30-pcs-original?from=&product_owner=normal_seller","sold":1,"seen":66,"favorite":0,"updated":"2019-08-25 08:56:10","description":"Manfaat Mentalk :EXP:2021 BARU.\r\n- Memperbaiki sel sel tubuh yang mulai menua.\r\n- Mengobat berbagai penyakit (jantung, diabetes, hypertensi, kanker prostat, dll)\r\n- Memperbaiki sistem imum, metabolisma tubuh, otot jantung.\r\n- Meningkatkan sel darah merah.\r\n- Anti Oksidan.\r\n- Menjaga kulit, menambah nafsu makan.\r\n- Memperlancar pembuangan air seni.\r\n- Mengurangi rasa letih.\r\n- Memperbaiki vitalitas yang mulai melemah &amp;amp;amp;amp;amp; menambah stamina\r\n\r\nKandungan Utama Mentalk :\r\n- Ginseng\r\nMemperbaiki sistem kekebalan tubuh yang melemah , memperbaiki sistem metabolisme tubuh, cara kerja otot hati, mengurangi kelelahan, memperbaiki sel darah merah, membantu memperlambat penuaan.\r\n- Protein terhidrolisis\r\nMembantu dan menyerap secara langsung , memperbaiki sel dasar, merubah sel-sel menjadi yang baru .\r\n- Enzim\r\nMembantu memproduksi sel baru, mengurai toksin didalam tubuh, mengurai lemak dan membantu glycogen memproduksi energi.\r\n- Buah Delima\r\nbertenaga menjadi anti oksidant, mencegah perubahan genetik, menekan sel pertumbuhan yang berhubungan dengan kanker.\r\n- Malt Tulen\r\nMenjaga kulit, Meningkatan stamina","rating":0}
{"no":0,"title":"Ready DIJAMIN ASLI SO. LOCO. 12 PCS","price":"525.000","seller":"NATURAL HERBAL","sellerPlace":"Jakarta Utara","url":"https://www.bukalapak.com/p/kesehatan-2359/obat-suplemen/obat-obatan/295ckwo-jual-ready-dijamin-asli-so-loco-12-pcs?from=&product_owner=normal_seller","sold":234,"seen":395,"favorite":45,"updated":"2019-10-13 21:31:42","description":"Ready\r\nisi 12 permen\r\nasli 1000%\r\n\r\nPalsu = uang kembali 10x lipat","rating":0}
{"no":0,"title":"KINOKI DETOX FOOT PADS GOLD Koyo kaki hebal 10 lembar","price":"45.000","seller":"Iloni Shoped","sellerPlace":"Jakarta Pusat","url":"https://www.bukalapak.com/p/kesehatan-2359/obat-suplemen/obat-obatan/13qy429-jual-kinoki-detox-foot-pads-gold-koyo-kaki-hebal-10-lembar?from=&product_owner=normal_seller","sold":10,"seen":43,"favorite":2,"updated":"2019-10-14 07:55:01","description":"Detox semakin mudah dengan kehadiran Kinoki Detox Foot Pads! Bye bye toxin! Hanya dengan menempelkannya di kaki dan membiarkannya sebentar, toxin yang ada di tubuh hilang. Yuk coba detox dengan cara mudah ini sekarang.\r\n\r\n\r\nDetox Foot Pads adalah cara alami untuk membantu tubuh anda dalam m