{"no":0,"title":"Angkung Anggong ankung niu huang wan PT PURUSA Asli","price":"890.000","seller":"HERBALPLUS","sellerPlace":"Jakarta Barat","url":"https://www.bukalapak.com/p/kesehatan-2359/obat-suplemen/obat-obatan/1b1sai2-jual-angkung-anggong-ankung-niu-huang-wan-pt-purusa-asli?from=&product_owner=normal_seller","sold":0,"seen":12,"favorite":0,"updated":"2019-09-16 08:00:48","description":"Khasiat : Merangsang dan memulihkan kesadaran dari pingsan dan koma akibat panas tinggi atau stroke, radang selaput otak, gangguan pembuluh darah otak, koma hepatic dan kejang (stuip) pada anak-anak yang panas tinggi dan gangguan sulit tidur. \r\n\r\nAturan pakai :\r\n* dewasa, minum 1 pil 1 kali sehari. \r\n* anak (4-6 tahun), minum 1/2 pil 1 kali sehari. \r\n* dibawah 3 tahun, minum 1/4 pil 1 kali sehari.\r\nDiminum berturut-turut 3 hari\r\n\r\nKemasan dus isi 1 pil @3 gram.\r\n\r\nPOM TI. \r\nPT. PURUSA BHAKTI\r\nJakarta - Indonesia","rating":0}
{"no":0,"title":"SECRETMAN PAKET GOLD - OBAT KUAT DAN VITALITAS","price":"1.280.000","seller":"GOODSTRONG ID","sellerPlace":"Kab. Bandung","url":"https://www.bukalapak.com/p/kesehatan-2359/obat-suplemen/obat-obatan/1pk0cjj-jual-secretman-paket-gold-obat-kuat-dan-vitalitas?from=&product_owner=normal_seller","sold":0,"seen":409,"favorite":4,"updated":"2019-10-14 00:01:25","description":"Q &amp;amp;amp;amp;amp;amp;amp;amp;amp;amp;amp;amp;amp;amp;amp;amp;amp; A (umum)\r\n\r\n\r\nQ: Apakah produk ini Ready?\r\n\r\n\r\nA: Selama produk masih di jual = Ready, Silahkan diorder\r\n\r\n\r\nQ: Apakah produk original?\r\n\r\n\r\nA: Produk dijamin Original, jika palsu garansi uang kembali\r\n\r\n\r\nQ: Apakah ada efek samping?\r\n\r\n\r\nA: Produk kita sudah bersertifikasi Halal, BPOM &amp;amp;amp;amp;amp;amp;amp;amp;amp;amp;amp;amp;amp;amp;amp;amp;amp; FDA, sehingga aman dikonsumsi tanpa efek samping / merugikan\r\n\r\n\r\nAda pertanyaan lain? silahkan diskusi atau kirim pesan kepada kami.\r\n\r\n\r\nPAKET GOLD\r\n\r\n\r\nharga normal : Rp 2.250.000,-\r\n\r\n\r\nharga PROMO : Rp. 1.280.000,-\r\n\r\n\r\nPROMO SEKARANG RP 897.000\r\n\r\n\r\n( menambah sekitar 5-7 cm )\r\n\r\n\r\nTERDIRI DARI:\r\n\r\n\r\n- 2 BOTOL SECRETMAN CAPSULE 100 kapsul\r\n\r\n\r\n- 1 BOTOL EIROX 50 kapsul\r\n\r\n\r\n- 1 BOTOL SECRETMAN OIL\r\n\r\n\r\n-BONUS SABUN BLACKSTRONG MR.P\r\n\r\n\r\nyang mana paket ini sangat cocok untuk pria yang mengalami\r\n\r\n\r\nejakulasi dini, paket ini bisa meningkatkan Lifetime Penis agar tahan lama, meningkatkan jumlah sperma, memmperbaiki fungsi organ penis,\r\n\r\n\r\ndan meningkatkan gairah pria. Tahan 30 - 45 menit\r\n\r\n\r\nSAATNYA ANDA YG MENJADI JUARA !!\r\n\r\n\r\nManfaat Produk:\r\n\r\n\r\nSECRETMAN : membantu meningkatkan frekuensi aktivitas fisik dan daya Tahan pada saat berhubungan. Memastikan ereksi yang lama dan stabil, memperbaiki seluruh susunan syaraf organ intim.\r\n\r\n\r\nEIROX : meningkatkan gairah sexual dan memperbaiki kualitas sperma serta memperbanyak Jumlah Sperma. Menormalkan fungsi kelenjar prostat mempercapat pembesaran penis.\r\n\r\n\r\nOIL :\r\n\r\n\r\nOil adalah produk unggulan untuk sistem syarap dan peredaran di organ vital pria. Oil bertugas membesarkan rongga2 dalam penis untuk mempercepat pembesaran penis.\r\n\r\n\r\nSEMUA PRODUK DIATAS BERKHASIAT\r\n\r\n\r\n\r\nMEMBESARKAN PENIS\r\n\r\nMEMANJANGKAN PENIS\r\n\r\nMENGUATKAN EREKSI\r\n\r\nMENGOBATI DE DAN ED\r\n\r\nSELALU KUAT SETIAP SAAT\r\n\r\n\r\n\r\n\r\nseluruh produknya sudah dapat sertifikasi internasional , FDA, MUI, BPOM*.\r\n\r\n\r\nKenapa harus belanja dikami?\r\n\r\n\r\n&amp;amp;amp;amp;amp;amp;amp;amp;amp;amp;amp;amp;amp;amp;amp;amp;gt; Pengiriman cepat dan fast respon\r\n\r\n\r\n&amp;amp;amp;amp;amp;amp;amp;amp;amp;amp;amp;amp;amp;amp;amp;amp;gt; Seller ramah dan bertanggung jawab, produk dijamin sampai ketujuan\r\n\r\n\r\n&amp;amp;amp;amp;amp;amp;amp;amp;amp;amp;amp;amp;amp;amp;amp;amp;gt; Produk ORIGINAL, Garansi uang kembali + ongkir jika palsu\r\n\r\n\r\n&amp;amp;amp;amp;amp;amp;amp;amp;amp;amp;amp;amp;amp;amp;amp;amp;gt; Fresh produk / exp. date masih lama\r\n\r\n\r\n&amp;amp;amp;amp;amp;amp;amp;amp;amp;amp;amp;amp;amp;amp;amp;amp;gt; Menyediakan konsultasi gratis\r\n\r\n\r\n9 dari 10 customer kami memberikan testimoni positif terhadap produk2 yg dipakai dari kami.\r\n\r\n\r\nHarga murah tidak menjamin keaslian produk, pastikan selalu berbelanja pada distributor resmi secretman!\r\n\r\n\r\nhati-hati barang tiruan!","rating":0}
{"no":0,"title":"Obat Herbal Pengental Sperma Pria - Mengentalkan Sperma Encer - Mengatasi Sperma Bermasalah - Bau - Tidak kental - Habbazafit ASLI Habbatussauda","price":"120.000","seller":"Susi Fatmawati","sellerPlace":"Jakarta Barat","url":"https://www.bukalapak.com/p/kesehatan-2359/obat-suplemen/obat-obatan/24idaxn-jual-obat-herbal-pengental-sperma-pria-mengentalkan-sperma-encer-mengatasi-sperma-bermasalah-bau-tidak-kental-habbazafit-asli-habbatussauda?from=&product_owner=normal_seller","sold":0,"seen":4,"favorite":0,"updated":"2019-09-13 08:48:16","description":"*BARANG SELALU READY STOCK\r\n*LANGSUNG KLIK BELI SEKARANG, KAMI LANGSUNG PROSES DAN DI KIRIM HARI INI JUGA\r\n*KEASLIAN OBAT TERJAMIN\r\n*AMAN DAN TANPA EFEK SAMPING\r\n*BERGARANSI UANG KEMBALI 100%, JIKA BARANG TIDAK SAMPAI TUJUAN ATAUPUN RUSAK\r\n\r\n>Pengiriman dilakukan sampai jam 14.30 WIB\r\n>Hari minggu tidak melakukan pengiriman, tapi tetap menerima orderan dan dikirim pada hari senin\r\n\r\n**Keterangan Produk\r\nNama Produk : HabbazaFit Softgel\r\nIsi : 100 Softgel\r\nAturan konsumsi : 2 softgel 2x sehari\r\nDi Produksi : CV SAMI MANDJOER YOGYAKARTA with NANO TECHNOLOGY\r\nLegalitas :\r\n- BPOM RI POM TR 193324361 \r\n- Sertifikat HALAL dari MUI\r\n\r\nHabbazaFit merupakan produk herbal terbaru yang terbuat dari bahan herbal Minyak habbatussauda dan Minyak Zaitun ASLI, sehingga aman di konsumsi untuk semua kalangan usia dari mulai anak-anak hingga dewasa, tanpa efek samping negatif bagi tubuh.\r\n\r\nKomposisi :\r\no) Minyak Habbatussauda (jintan hitam)\r\no) Minyak Zaitun\r\n\r\nSemua bahan-bahan tersebut 100% ALAMI tanpa adanya campuran bahan kimia yang berbahaya. HabbazaFit Softgel ini di produksi langsung oleh CV SAMI MANDJOER YOGYAKARTA menggunakan NANO TECHNOLOGY dalam proses pengolahannya, yang artinya kualitas produk lebih baik, lebih awet, lebih bersih, lebih aman, dan yang lebih penting lebih pintar dalam mengatasi keluhan yang anda alami, sehingga khasiatnya lebih cepat terasa oleh tubuh. Selain itu juga, HabbazaFit Softgel ini sudah terdaptar di BPOM RI dengan nomor regestrasi POM. TR 193324361 serta telah memiliki sertifikakt HALAL dari MUI.\r\n\r\nKhasiat HabbazaFit Softgel\r\no)Mengatasi berbagai jenis penyakit\r\no)Meningkatkatkan dan menguatkan sistem kekebalan tubuh\r\no)Sumber nutrisi tambahan bagi yang mudah terserang penyakit\r\no)Menjaga kesehatan sehingga tidak mudah sakit\r\no)Memperbaiki kecerdasan, daya ingat dan konsentrasi\r\no)Memperbaiki sistem saluran cerna dan antibakteri\r\no)Sebagai anti tumor dan menghambat perkembangan tumor & sel kanker\r\no)Mengelurakan dan menetralkan racun dalam tubuh\r\no)Memperbaiki dan meningkatkan bioaktivitas hormon\r\no)Melancarkan ASI pada ibu hamil\r\no)Sumber nutrisi lengkap bagi ibu hamil\r\no)Memelihara sirkulasi darah agar tetap lancar\r\no)Memperbaiki kondisi insomnia, sulit tidur dan stress\r\no)Membantu meredakan rasa nyeri\r\no)Mengatasi Lemah syahwat\r\no)Menyehatkan Sperma, Penyubur sperma, pengental sperma\r\no)Memperlancar sistem pernafasan dan sistem pencernaan\r\no)Mengatasi berbagai masalah kulit, dll\r\n\r\nDisclaimer : Reaksi/khasiat obat herbal ini setiap individu berbeda-beda, tergantung tingkat keparahan penyakitnya, respon tubuh, pola makan, faktor lingkungan dan usia.","rating":0}
{"no":0,"title":"Obat Herbal Nyeri Bahu Tangan Kanan - Kiri - Sakit Bahu - Saraf Kejepit - Syaraf Kejepit Di Leher - Tulang Belakang - Tulang Ekor - Punggung","price":"200.000","seller":"Susi Fatmawati","sellerPlace":"Jakarta Barat","url":"https://www.bukalapak.com/p/kesehatan-2359/obat-suplemen/obat-obatan/29zkcl1-jual-obat-herbal-nyeri-bahu-tangan-kanan-kiri-sakit-bahu-saraf-kejepit-syaraf-kejepit-di-leher-tulang-belakang-tulang-ekor-punggung?from=&product_owner=normal_seller","sold":0,"seen":4,"favorite":0,"updated":"2019-10-11 09:42:00","description":"*BARANG SELALU READY STOCK\r\n*LANGSUNG KLIK BELI SEKARANG, KAMI LANGSUNG PROSES DAN DI KIRIM HARI INI JUGA\r\n*KEASLIAN OBAT TERJAMIN\r\n*AMAN DAN TANPA EFEK SAMPING\r\n*BERGARANSI UANG KEMBALI 100%, JIKA BARANG TIDAK SAMPAI TUJUAN ATAUPUN RUSAK\r\n\r\n>Pengiriman dilakukan sampai jam 14.30 WIB\r\n>Hari minggu tidak melakukan pengiriman, tapi tetap menerima orderan dan dikirim pada hari senin\r\n\r\n**Keterangan Produk\r\nNama Produk : QnC Jelly Gamat\r\nIsi : 300 ml\r\nDi Produksi : CV. JOGJA NATURAL HERBAL\r\nLegalitas :\r\n- BPOM RI POM TR 173301471\r\n- Sertifikat HALAL dari MUI\r\n\r\nQnC Jelly Gamat merupakan obat herbal multikhasiat yang terbuat dari Ekstrak Teripang Emas ASLI (Golden Stichopus Hermani) dan Maldepuratum (Madu). Yang mana dalam Teripang Emas terdapat banyak kandungan nutrisi lengkap yang berkhasiat penting untuk kesehatan tubuh anda, terlebih lagi dipadukannya dengan bahan tambahan Maldepuratum (Madu), seperti yang ada ketahui sendiri madu merupakan salah satu cairan kental manis yang dibuat oleh lebah dengan mengambil nectar dari bunga-bunga. Selain rasanya yang enak dan menyegarkan madu banyak mengandung banyak nutrisi dan vitamin yang dibutuhkakn tubuh.\r\n\r\nKandungan aktif yang terdapat dalam teripang emas ini, diantaranya adalah : Asam amino, Antiseptik Alamiah, Lektin, Cell Growth Factor, Glucosamine, Kolagen 80,0 %, Omega (3, 6, dan 9), Chondroitin, GAMAPEPTIDE, Saponin, Glucosaminoglycans (GAGs), Docosahehexanat 3,69 (DHA), Protein 86,8 %, Mukopolisakarida, Mineral, dan Vitamin.\r\n\r\n**Khasiat Lengkap QnC Jelly Gamat\r\n\r\no)Mengobati berbagai jenis penyakit : Asma, Asam lambung, Asam urat, maag, paru-paru, ginjal, lambung, jantung, kanker, ginjal, tumor, stroke, kista, miom, berbagai jenis penyakit kulit, dan masih banyak lagi yang lainnya.\r\no)Menjaga kesehatan sehingga tidak mudah sakit\r\no)Menjaga kesehatan jantung\r\no)Membersihkan darah kotor\r\no)Membantu meregenerasi sel rusak, untuk mempercepat pengeringan luka 3x lebih cepat baik luka luar maupun dalam\r\no)Mengeluarkan dan menetralkan racun\r\no)Memiliki antioksidan tinggi, antivirus, antitumor, antibakteri\r\no)Sumber nutrisi lengkap bagi ibu hamil\r\no)Mencegah dan melawan pertumbuhan kanker\r\no)Memperlancar sistem pernafasan dan sistem pencernaan\r\no)Meningkatkan sistem kekebalan tubuh\r\no)Mengobati dan menormalkan darah tinggi\r\no)Memelihara sirkulasi darah agar tetap lancar\r\no)Meringankan sakit pada persendian akibat osteoartritis, pengeroposan tulang, rematik\r\no)Menghentikan pendarahan akibat luka, haid, atau keguguran\r\no)Menurunkan kadar kolestrol di dalam tubuh dan trigliserida\r\no)Membuat kulit menjadi lebih muda, sehat, dan masih banyak lagi yang lainnya.\r\n\r\n**Aturan Konsumsi\r\n\r\n-Bayi 1-5 tahun : 1-2 sdt/hari\r\n-Anak-anak : 2x1 sdm/hari\r\n-Dewasa 3x2-3 sdm/hari (bisa di tambah sesuai kebutuhan)\r\n-Untuk penyakit luar (penyakit kulit, benjolan dll) di oleskan 5 kali sehari\r\n\r\n*AMAN DI KONSUMSI SEMUA KALANGAN, TERMASUK ANAK-ANAK, WANITA HAMIL DAN IBU MENYUSUI*\r\n\r\nPENTING : Bagi penderita yang mempunyai alergi Sea-food (makan laut) tidak diajurkan mengkonsumsi nya.\r\n\r\nDisclaimer : Reaksi/khasiat obat herbal ini setiap individu berbeda-beda, tergantung tingkat keparahan penyakitnya, respon tubuh, pola makan, faktor lingkungan dan usia.\r\n\r\nNote \"QnC Jelly Gamat ada yang cair dan ada yang kental, dikarenakan pada bahan baku teripang emas setiap musim berubah. Dan juga QnC Jelly Gamat tidak memiliki zat pengental apalagi zat kimia sehingga dengan demikian 100% herbal. Baik yang cair maupun yang kental memiliki khasiat dan manfaat yang sama\"","rating":0}
{"no":0,"title":"Obat Herbal Alami Telinga Sakit - Berdenging - Mendengung - Telinga Bernanah - Berair - Congek - Berdarah - Bengkak - Propolis Brazil ORIGINAL","price":"75.000","seller":"Susi Fatmawati","sellerPlace":"Jakarta Barat","url":"https://www.bukalapak.com/p/kesehatan-2359/obat-suplemen/obat-obatan/23qovwu-jual-obat-herbal-alami-telinga-sakit-berdenging-mendengung-telinga-bernanah-berair-congek-berdarah-bengkak-propolis-brazil-original?from=&product_owner=normal_seller","sold":0,"seen":19,"favorite":0,"updated":"2019-10-14 08:44:18","description":"*BARANG SELALU READY STOCK\r\n*LANGSUNG KLIK BELI SEKARANG, KAMI LANGSUNG PROSES DAN DI KIRIM HARI INI JUGA\r\n*KEASLIAN OBAT TERJAMIN\r\n*AMAN DAN TANPA EFEK SAMPING\r\n*BERGARANSI UANG KEMBALI 100%, JIKA BARANG TIDAK SAMPAI TUJUAN ATAUPUN RUSAK\r\n\r\n>Pengiriman dilakukan sampai jam 14.30 WIB\r\n>Hari minggu tidak melakukan pengiriman, tapi tetap menerima orderan dan dikirim pada hari senin\r\n\r\n**Keterangan Produk\r\nNama Produk : ProPolis SM Propolis Brazil\r\nIsi : 6 ML\r\nDi Produksi : CV. SAMI MANDJOER\r\nLegalitas :\r\n- BPOM RI POM TR 193624961\r\n- Sertifikat HALAL dari MUI\r\n\r\n\"Beli 7 Botol (1 Box) Lebih Hemat, 1 Box Rp. 490.000 (Rp. 70.000/btl)\"\r\n\"Beli 14 Botol (2 Box) Lebih Hemat, 2 Box Rp. 910.000(Rp. 65.000/btl)\"\r\n\r\n=======================================================================\r\n\r\nPropolis SM Merupakan Produk ASLI Indonesia yang terbuat dari bahan herbal alami tanpa campuran bahan kimia yang berbahaya. Bahan yang digunakan dalam pembuatan Propolis SM yaitu 100% Ekstrak Propolis Brazilian.\r\n\r\nPropolis SM ini di produksi langsung oleh CV. SAMI MANDJOER menggunakan NANO TECHNOLOGY. Teknologi ini sangat bermanfaat untuk mempercepat proses penyerapan nutrisi di dalam tubuh. Ini dikarenakan ekstraksi diolah menjadi ukuran nano sehingga tubuh akan mudah menyerap nutrisi yang ada dalam obat herbal Propolis SM.\r\n\r\n**Khasiat Propolis SM\r\n\r\no)Menjaga kesehatan tubuh secara menyeluruh, sehingga tidak mudah sakit\r\no)Meningkatkan kekebalan tubuh\r\no)Mengatasi berbagai jenis gangguan pada telinga\r\no)Menjaga kesehatan tulang dan sendi\r\no)Melancarkan sistem pencernaan dan sistem pernafasan\r\no)Melancarkan peredaran darah\r\no)Memiliki antioksidan tinggi, antivirus, antitumor, antibakteri\r\no)Mencegah dan mengatasi segala bentuk peradangan\r\no)Membantu mengeluarkan racun dalam tubuh\r\no)Membantu menurunkan kadar gula darah, kolesterol tinggi\r\no)Mempercepat penyembuhan luka luar atau dalam\r\no)Memperbaik sel sel jaringan tubuh yangh rusak\r\no)Membantu mengatasi penyakit TBC, darah tinggi, sinusitis, flu, sakit kepala, asam urat, rematik dll.\r\n\r\n**Aturan Konsumsi\r\n\r\n-Untuk Menjaga Kesehatan : Larutkan 2-3 tetes kedalam 1/4 air putih\r\n-Untuk Pengobatan : Larutkan 4-8 tetes kedalam 1/4 air putih\r\n-Untuk keluhan telinga : Bisa langsung di teteskan 1-2 tetes, dan diamkan selama 30 detik lalu bersihkan\r\n-Untuk pengobatan luar (Kulit), bisa dioleskan langsung pada bagian kulit yang bermasalah.\r\n\r\n**CIRI PRODUK ASLI / PALSU\r\nSilakan teteskan walatra propolis ke dalam 1 botol air putih dan lihat, warnanya akan tetap bening tidak berubah menjadi keruh. Berbeda dengan propolis yang beredar di pasaran akan berubah warna saat dicampur. Produk yang asli memiliki aroma yang bisa tercium.\r\n\r\nDisclaimer : Reaksi/khasiat obat herbal ini setiap individu berbeda-beda, tergantung tingkat keparahan penyakitnya, respon tubuh, pola makan, faktor lingkungan dan usia.","rating":0}
{"no":0,"title":"Obat Tetes Herbal Penyakit Gangguan Telinga - Telinga Sakit Bernanah - Berair - Berdarah - Congek - Curek - Bau - Berdengung - Berdenging","price":"75.000","seller":"Susi Fatmawati","sellerPlace":"Jakarta Barat","url":"https://www.bukalapak.com/p/kesehatan-2359/obat-suplemen/obat-obatan/28a4ho5-jual-obat-tetes-herbal-penyakit-gangguan-telinga-telinga-sakit-bernanah-berair-berdarah-congek-curek-bau-berdengung-berdenging?from=&product_owner=normal_seller","sold":0,"seen":10,"favorite":0,"updated":"2019-10-11 09:59:02","description":"*BARANG SELALU READY STOCK\r\n*LANGSUNG KLIK BELI SEKARANG, KAMI LANGSUNG PROSES DAN DI KIRIM HARI INI JUGA\r\n*KEASLIAN OBAT TERJAMIN\r\n*AMAN DAN TANPA EFEK SAMPING\r\n*BERGARANSI UANG KEMBALI 100%, JIKA BARANG TIDAK SAMPAI TUJUAN ATAUPUN RUSAK\r\n\r\n==PROMO HARI INI===\r\n\r\n*FREE ONGKIR pembelian 3 botol maksimal Ongkir 25.000 (semua wilayah)\r\n*FREE ONGKIR pembelian 7 botol (1Box) maksimal Ongkir 25,000+sarikurma 1 (Semua wilayah)\r\n\r\n\"7 Botol (1 Box) Rp. 490.000 (FREE ONGKIR)\"\r\n\"14 Botol (2 Box) Rp. 910.000 (FREE ONGKIR)\"\r\n\r\n:: DISKUSIKAN terlebih dulu untuk informasi selengkapnya, ONGKIR akan di kembalikan (transfer) ke rekening atau di ganti dengan pulsa ::\r\n\r\n===========================================\r\n\r\n**Keterangan Produk\r\nNama Produk : ProPolis SM\r\nIsi : 6 ML\r\nDi Produksi : CV. SAMI MANDJOER\r\nLegalitas :\r\n- BPOM RI POM TR 193624961\r\n- Sertifikat HALAL dari MUI\r\n\r\nPropolis SM Merupakan Produk ASLI Indonesia yang terbuat dari bahan herbal alami tanpa campuran bahan kimia yang berbahaya. Bahan yang digunakan dalam pembuatan Propolis SM yaitu 100% Ekstrak Propolis Brazilian.\r\n\r\nPropolis SM ini di produksi langsung oleh CV. SAMI MANDJOER menggunakan NANO TECHNOLOGY. Teknologi ini sangat bermanfaat untuk mempercepat proses penyerapan nutrisi di dalam tubuh. Ini dikarenakan ekstraksi diolah menjadi ukuran nano sehingga tubuh akan mudah menyerap nutrisi yang ada dalam obat herbal Propolis SM.\r\n\r\n**Khasiat Propolis SM\r\n\r\no)Menjaga kesehatan tubuh secara menyeluruh, sehingga tidak mudah sakit\r\no)Meningkatkan kekebalan tubuh\r\no)Mengatasi berbagai jenis gangguan pada telinga\r\no)Menjaga kesehatan tulang dan sendi\r\no)Melancarkan sistem pencernaan dan sistem pernafasan\r\no)Melancarkan peredaran darah\r\no)Memiliki antioksidan tinggi, antivirus, antitumor, antibakteri\r\no)Mencegah dan mengatasi segala bentuk peradangan\r\no)Membantu mengeluarkan racun dalam tubuh\r\no)Membantu menurunkan kadar gula darah, kolesterol tinggi\r\no)Mempercepat penyembuhan luka luar atau dalam\r\no)Memperbaik sel sel jaringan tubuh yangh rusak\r\no)Membantu mengatasi berbagai jenis penyakit.\r\n\r\n**Aturan Konsumsi\r\n\r\n-Untuk Menjaga Kesehatan : Larutkan 2-3 tetes kedalam 1/4 air putih\r\n-Untuk Pengobatan : Larutkan 4-8 tetes kedalam 1/4 air putih\r\n-Untuk keluhan telinga : Bisa langsung di teteskan 1-2 tetes, dan diamkan selama 30 detik lalu bersihkan\r\n-Untuk pengobatan luar (Kulit), bisa dioleskan langsung pada bagian kulit yang bermasalah.\r\n\r\n**CIRI PRODUK ASLI / PALSU\r\nSilakan teteskan walatra propolis ke dalam 1 botol air putih dan lihat, warnanya akan tetap bening tidak berubah menjadi keruh. Berbeda dengan propolis yang beredar di pasaran akan berubah warna saat dicampur. Produk yang asli memiliki aroma yang bisa tercium.\r\n\r\n>Pengiriman dilakukan sampai jam 14.30 WIB\r\n>Hari minggu tidak melakukan pengiriman, tapi tetap menerima orderan dan dikirim pada hari senin\r\n\r\nDisclaimer : Reaksi/khasiat obat herbal ini setiap individu berbeda-beda, tergantung tingkat keparahan penyakitnya, respon tubuh, pola makan, faktor lingkungan dan usia.","rating":0}
{"no":0,"title":"OBATKUAT PRIA - Tahan Lama Berjam-Jam Paket Malam Pertama","price":"470.000","seller":"Kedai Herbal Terapi","sellerPlace":"Jakarta Selatan","url":"https://www.bukalapak.com/p/kesehatan-2359/obat-suplemen/obat-obatan/26acyja-jual-obatkuat-pria-tahan-lama-berjam-jam-paket-malam-pertama?from=&product_owner=normal_seller","sold":71,"seen":17,"favorite":0,"updated":"2019-10-15 00:01:56","description":"BARANG SELALU READY STOCK YA\r\n\r\n\r\nLANGSUNG KLIK BELI, LANGSUNG KAMI PROSES, LANGSUNG KAMI KIRIM HARI INI JUGA\r\n\r\n\r\n*pengiriman sampai jam 3 sore\r\n\r\n\r\n(PAKET MALAM PERTAMA 100% KUAT, TAHAN LAMA dan SUKSES HONEYMOON ISI 15 ml)\r\n\r\n\r\n(*) Berat volume yang tercantum dalam keterangan iklan 300 gram, itu merupakan berat barang dalam kondisi sudah di pack.\r\n\r\n\r\n(*) 1 kg ongkir muat 3 botol\r\n\r\n\r\nPAKET MALAM PERTAMA merupakan produk herbal yg diolah dari 100% ekstrak herbal pilihan asli dan murni, yang diolah menggunakan teknology modern dengan metode khusus yang menjamin kealamian dan kehigienisan produk. PAKET MALAM PERTAMA ini sangat berbeda dari produk OBATKUAT TAHAN LAMA lainnya, dan dipastikan mempunyai khasiat dan kualitas yang paling unggul. Kualitas produk bisa terlihat setelah anda rutin menggunakan PAKET MALAM PERTAMA ke Payudara, karena alaminya PAKET MALAM PERTAMA ini. Berbeda dengan produk lainnya yang menggunakan campuran bahan kimia yg berbahaya. Diproduksi oleh PT. LIZA HERBAL INTERNATIONAL dan Didistribusikan oleh CV. KARYA ABADI JEPARA.\r\n\r\n\r\nKhasiat :\r\n\r\n\r\n\r\nMeningkatkan jumlah hormon testosteron\r\n\r\nMembuat ereksii keras dan tahan lama\r\n\r\nMengatasi ejakulasidini\r\n\r\nMengatasi disfungsiereksi\r\n\r\nMeningkatkan stamina/gairahh/libidoo pria\r\n\r\nMenyuburkan sperma\r\n\r\nMembuat durasi hubungan tahan lama\r\n\r\nMemperlancar aliran darah ke Peniss\r\n\r\nMengatasi masalah Prostat\r\n\r\nMengatur suhu tubuh untuk mendukung perkembangan fungsi-fungsi seksuall yang normal\r\n\r\nSangat dianjurkan untuk Anda yang mempunyai kamampuan seksuall menurun, tidak bergairah dan impotensii\r\n\r\nMenjadikan orgasmee lebih nikmat dan mengesankan\r\n\r\nLebih cepat memulihkan tenaga setelah aktivitas seksuall\r\n\r\nMenjadikan hari-hari Anda selalu berstamina\r\n\r\nMemberi tenaga extra serta menjaga keseimbangan hormon sekss\r\n\r\nEreksii masih PERKASA meskipun sudah ejakulasii. Ini menandakan masih ada stok energi yang cukup untuk melakukan hubungan yang kedua kali dalam tenggang waktu yang lebih singkat, atau stok energi yang cukup untuk menjalani aktivitas hari Anda.\r\n\r\n\r\n\r\n\r\nDapat Dipakai :\r\n\r\n\r\nSemua Pria Dewasa\r\n\r\n\r\nAturan Pakai :\r\n\r\n\r\n1.\r\nPertama gunakan LHIFORMEN dulu\r\n2.\r\nMinum 1 Kapsul LHIFORMEN 1 jam sebelum berhubungan.\r\n3.\r\nSetelah itu pakailah DUREVEL SPRAY (ingat yaa pemakaian Durevel Spray hanya untuk tiap kali mau berhubungan saja).\r\n4.\r\nKocok DUREVEL SPRAY terlebih dahulu.\r\n5.\r\nKemudian semprotkan sedikit Durevel ke kepala alat genital anda lalu ratakan sampai leher nya (pertemuan antara kepala dan batang). Jangan ratakan ke bagian batang apalagi sampai ke buah pelir.\r\n6.\r\nCukup semprotkan 3 kali saja, atau bisa ditambahi sesuai dengan kebutuhan.\r\n7.\r\nKulit anda akan merasakan panas, sekitar 10 menit setelah pemakaian. Ketika belum merasakan panas jangan tambahkan semprotan dulu, tunggu sampai rasa panas nya anda rasakan.\r\n8.\r\nTunggu minimal 45 menit. Setelah 45 menit rasa panas akan hilang. Jika masih terasa belum hilang dan Anda mau berhubungan, Anda bisa menyemprotkan air agar rasa panas cepat hilang dan siap berhubungan. (Durevel bisa berfungsi dengan baik setelah 45 menit, namun hasil paling baik jika menunggu setelah 2 jam, dan Durevel masih bisa berfungsi sampai 12 jam.)\r\n9.\r\nKulit Anda akan terasa kebas atau sedikit mati rasa dan siap berhubungan dalam waktu lama.\r\n\r\n\r\n\r\nDurevel bekerja tergantung pada seberapa banyak volume yang Anda semprotkan. Jika semakin banyak, maka ketahanan Anda akan semakin lama pula.\r\n\r\n\r\n1 Botol PAKET MALAM PERTAMA berisi 1 Botol LHIFORMEN 50 kapsul @500mg dan 1 Botol DUREVEL SPRAY 15ml\r\n\r\n\r\nPAKET MALAM PERTAMA Aman digunakan bagi Anda yang mempunyai masalah ginjal, jantung, hipertensi, kolesterol, diabetes dan penyakit lainnya.","rating":0}
{"no":0,"title":"obat sipilis kencing nanah raja singa dan obat luka dalam yunnan bai yao capsule original bpom ssa setara x gonore","price":"120.000","seller":"cahaya mutiara6","sellerPlace":"Jakarta Utara","url":"https://www.bukalapak.com/p/kesehatan-2359/obat-suplemen/obat-obatan/1s587x4-jual-obat-sipilis-kencing-nanah-raja-singa-dan-obat-luka-dalam-yunnan-bai-yao-capsule-original-bpom-ssa-setara-x-gonore?from=&product_owner=normal_seller","sold":0,"seen":46,"favorite":1,"updated":"2019-09-14 21:35:00","description":"ready stok.. langsung order.. \r\nexpd panjang.. \r\n&gt;&gt; Produk Dijamin 100% SSA Original Asli!! &gt;&gt; Pengiriman Cepat !! &gt;&gt; Packing Rapih !! \"Mohon konfirmasi stok barang sebelum memesan\" Dapat digunakan untuk: - menghentikan pendarahan, menghilangkan nyeri, bengkak dan memar, serta mengobati patah tulang akibat terjatuh / terpukul - mengobati radang lambung menahun, nyeri lambung, radang usus, tukak lambung dan usus serta pendarahan pada saluran pencernaan dan pernapasan - menghentikan pendarahan berlebihan saat haid dan setelah melahirkan - mengobati wasir yang disertai nyeri, bengkak dan pendarahan Cara minum dan dosis: 1. Pada luka jatuh/terpukul cukup berat, minum terlebih dahulu satu butir Pil Keselamatan (pil berwarna merah), kemudian minum Kapsul Yunnan Baiyao 4 x sehari @ 2 kapsul. 15 kotak sebagai satu seri pengobatan. Bila luka jatuh/terpukul ringan minum 4 x sehari @ 2 kapsul (tidak perlu minum Pil Keselamatan), 3 kotak sebagai satu seri pengobatan. Pada luka berdarah, bersihkan luka kemudian taburkan bubuk obat pada luka, maka darah akan berhenti 2. Pada radang lambung menahun, nyeri lambung, radang usus, tukak lambung minum 4 x sehari @ 2 kapsul. 15 kotak sebagai satu seri pengobatan. Untuk menghentikan pendarahan pada saluran pencernaan dan saluran pernapasan minum 4 x sehari @ 2 kapsul, 5 kotak sebagai satu seri pengobatan. 3. Pada pendarahan berlebihan saat haid dan setelah melahirkan minum 4 x sehari @ 2 kapsul, 3 kotak sebagai satu seri pengobatan 4. Pada wasir yang disertai nyeri, bengkak dan pendarahan, minum 4 x sehari @ 2 kapsul, 3 kotak sebagai satu seri pengobatan. KETERANGAN: Dosis diatas adalah untuk dewasa. - Untuk anak usia 6-12 th: 1/2 dosis dewasa - Untuk anak usia 2-5 th : 1/4 dosis dewasa - Tidak boleh diminum oleh wanita hamil * Pil Keselamatan (pil berwarna merah) dalam satu hari diminum hanya 1 butir saja Kemasan kotak berisi 16 kapsul POM TI 164 349 881","rating":0}
{"no":0,"title":"BAO FU LING 100gram original import salep luka bakar","price":"715.000","seller":"SK SHOP","sellerPlace":"Jakarta Barat","url":"https://www.bukalapak.com/p/kesehatan-2359/obat-suplemen/obat-obatan/22foqq3-jual-bao-fu-ling-100gram-original-import-salep-luka-bakar?from=&product_owner=normal_seller","sold":2,"seen":36,"favorite":4,"updated":"2019-10-09 20:40:40","description":"BAO FU LING 100% ASLI DARI BEIJING, CHINA\r\nIsi : 100 gram\r\nExpired : 12 February 2021\r\nKondisi : baru, masih tersegel\r\n\r\nBao Fu Ling terbuat dari obat murni dan halus sesuai dengan prosedur pengolahan farmasi modern yang berstandar internasional.\r\n\r\nKegunaan Bao Fu Ling diantaranya :\r\n- Menghilangkan luka bakar akibat benda panas, knalpot, dll\r\n- Menghilangkan jerawat/komedo\r\n- Menghilangkan gatal akibat jamur, panu, alergi, gigitan serangga, dll\r\n- Menghilangkan bekas pada luka seperti luka cakar, luka gigitan, luka garukan tangan, dll\r\n- Mengatasi neurodematis / radang pada sistem saraf\r\n- Mengatasi reaksi hipersensitivitas pada kulit\r\n- Menghaluskan telapak kaki yang pecah-pecah dan kasar\r\n- dll\r\n\r\nCara penggunaan :\r\n- Oles tipis 3-5x per hari pada bagian kulit yang bermasalah\r\n- Apabila baru terkena luka bakar, oles Bao Fu Ling dalam jumlah yang lebih banyak pada bagian kulit yang terbakar\r\n- Tidak boleh digunakan untuk balita di bawah 3 tahun\r\n\r\nCara penyimpanan :\r\nSimpan di tempat yang sejuk / dingin / lemari es","rating":0}
{"no":0,"title":"Wantong-Wan Tong-Kapsul-Obat Asam Urat-Pegal Linu-Encok-Kesemutan-Reumatik-Asli-Original","price":"44.000","seller":"Herbal Shop","sellerPlace":"Jakarta Pusat","url":"https://www.bukalapak.com/p/kesehatan-2359/obat-suplemen/obat-obatan/27sjieh-jual-wantong-wan-tong-kapsul-obat-asam-urat-pegal-linu-encok-kesemutan-reumatik-asli-original?from=&product_owner=normal_seller","sold":8,"seen":175,"favorite":5,"updated":"2019-10-14 07:31:10","description":"Produk yang kami pasarkan di jamin ORIGINAL/ASLI 100%\r\n\r\n\r\nISI :\r\n\r\n\r\n20 SACHET @ 2 KAPSUL\r\n\r\n\r\nKHASIAT :\r\n\r\n\r\n\r\nMENGOBATI PEGAL LINU\r\n\r\nRHEUMATIK\r\n\r\nASAM URAT\r\n\r\nSAKIT PINGGANG PUNDAK DAN LEHER KAKU DAN SAKIT\r\n\r\nKAKI DAN TANGAN KESEMUTAN\r\n\r\n\r\n\r\n\r\nATURAN MINUM :\r\n\r\n\r\n\r\nMINUM SECARA TERATUR 1 X 1 BUNGKUS SELAMA DIPERLUKAN\r\n\r\nBILA SAKITNYA PARAH, BOLEH MINUM 2 X 1 BUNGKUS SEHARI\r\n\r\n\r\n\r\n\r\nPANTANGAN :\r\n\r\n\r\nTIDAK DIANJURKAN UNTUK WANITA HAMIL & MENYUSUI\r\n\r\n\r\nPRODUKSI:\r\n\r\n\r\nHERBALINDO SM - INDONESIA","rating":0}
{"no":0,"title":"OBAT-PEMBE SAR PE-NIS - OBAT ALAT VITAL","price":"170.000","seller":"HERBA CENTER INDONESIA","sellerPlace":"Jakarta Pusat","url":"https://www.bukalapak.com/p/kesehatan-2359/obat-suplemen/obat-obatan/1xl6joh-jual-obat-pembe-sar-pe-nis-obat-alat-vital?from=&product_owner=normal_seller","sold":8,"seen":12,"favorite":9,"updated":"2019-08-17 05:24:27","description":"READY STOCK, ORDER MASUK LANGSUNG DIKIRIM!!!!\r\n\r\nTITAN GEL HOLOGRAM RESMI TANTRA RUSSIA !!!\r\n\r\nDAN INGAT TITAN ASLI RUSSIA ITU ADA ANTIFAKE CODE NYA...\r\n\r\nAWAS PRODUK PALSU...!!! (JANGAN TERTIPU HARGA MURAH)\r\n\r\n\r\nMANFAAT:\r\n-Membantu meningkatkan volume alat vital hingga 60%.\r\n-Membantu memperpanjang ukuran Alat vital hingga 5 cm.\r\n-Membantu meningkatkan daya tahan pada saat-saat intim.\r\n-Membantu memperlama hubungan anda saat berhubungan.\r\n-Membantu memberikan tambahan stamina dan meningkatkan pengalaman bercinta.\r\n-Membantu efek positif pada daya tahan dan kesehatan libido.\r\n-Direkomendasikan, lebih baik, lebih aman, lebih kuat dan memperpanjang p*\r\n\r\n\r\nCARA PAKAI:\r\n-Gunakan setiap hari secara teratur dan rutin setelah setiap mandi / saat tubuh bersih. \r\n-Oleskan Titan Gel ke seluruh kemaluan secara merata lalu Pijatlah dengan gerakan searah mulai secara perlahan dari pangkal p* hingga ke ujung p* selama 10 menit.\r\n-Cream Titan gel ini cepat diserap & tidak meninggalkan bau yang tidak menyenangkan atau tanda.\r\n-Untuk hasil yang lebih menakjubkan,pakailah titan gel 1 jam sebelum melakukan hubungan intim dengan pasangan Anda.\r\n\r\n\r\n*JAMINAN MUTU & KUALITAS INTERNATIONAL\r\n*KEPUASAN CUSTOMER ADALAH PRIORITAS UTAMA KAMI","rating":0}
{"no":0,"title":"OBAT EJAKULASI DINI - OBAT KUAT. TAHAN LAMA","price":"240.000","seller":"HERBA CENTER INDONESIA","sellerPlace":"Jakarta Pusat","url":"https://www.bukalapak.com/p/kesehatan-2359/obat-suplemen/obat-obatan/1xloqdd-jual-obat-ejakulasi-dini-obat-kuat-tahan-lama?from=&product_owner=normal_seller","sold":8,"seen":14,"favorite":10,"updated":"2019-07-20 14:18:16","description":"Stok Selalu READY, tinggal ORDER aja yaa gan..\r\n\r\nJaminan Produk ASLI\r\nDistributor Resmi CV. KARYA ABADI JEPARA\r\nPengiriman sampai jam 3 sore\r\nPacking RAPI, Privacy agan AMAN.\r\n\r\nLhiformen-Obat Herbal Penambah Stamina Dan Menjaga Kebugaran Vitalitas Pria\r\n\r\nBadan kurang bugar, stamina loyo dan mudah keluar saat dengan pasangan? Awas tanda kerusakan organ vitaIitas/ . Jangan biarkan berlarut, jika tak ingin loyo dan terkena gangguan fungsi seperti ejjakuIIasi dinni (cepat keluar) , lmpotensl (susah erreksl) dan lemah sahwatt. \r\nObati segera dengan Lhiformen!\r\nObat herbal kusus pria dewasa terdaftar di BPOM dan halal MUI. Aman untuk dikonsumsi dan tidak memberikan efek ketergantungan. Meningkatkan produksi hormon testosteron, mengatasi ejakulaxi dini, meningkatkan libido, menjadikan erexi keras dan tahan lama, mengentalkan dan memperbanyak sperma.\r\n\r\nManfaat Kapsul Lhiformen:\r\nMenambah dan meningkatkan gairah SekzsuaI\r\nMengatasi masalah ezakuIasi dini\r\nMeningkatkan kadar hormon testosteron\r\nMeningkatkan produksi sperrmatozoid\r\nMenjaga vitaIitas dan kesehatan pria\r\nMemperkuat sistem kekebalan tubuh terhadap cuaca buruk\r\nMengandung bahan organik tanpa bahan kimia yang berbahaya\r\nMenjaga stamina di saat bekerja keras\r\nMenjaga suhu badan tetap stabil\r\nAman dikonsumsi bagai Anda yang mempunyai masalah ginjal, jantung, hipertensi, koesterol,diabetes dan penya\r\n\r\nDosis Penggunaan:\r\nHanya dengan 1 kapsul sehari dan 1 kapsul diminum 1 jam sebelum berhubungan untuk menjadikan Anda pria perkasa.\r\n\r\nDetail Produk:\r\nIsi:50 kapsul @ 500 mg\r\nIjin BPOM: POM TR. 093 301 521\r\nHalal MUI 05\r\nHarga: Rp.240.000,-\r\n\r\nSilahkan Pesan ORDER untuk Pemesanan ya..\r\nPengiriman CEPAT Dan Langsung dikirim Ke Alamat Tujuan Dengan AMAN! :) ..\r\nAwas Barang Tiruan!.. Produk ini 100% ORIGINAL ASLI RESMI..","rating":0}
{"no":0,"title":"OBAT HERBAL KUAT PRIA EJAKULASI DINI KUAT TAHAN LAMA - DUREVEL","price":"280.000","seller":"HERBA CENTER INDONESIA","sellerPlace":"Jakarta Pusat","url":"https://www.bukalapak.com/p/kesehatan-2359/obat-suplemen/obat-obatan/1xlmpf4-jual-obat-herbal-kuat-pria-ejakulasi-dini-kuat-tahan-lama-durevel?from=&product_owner=normal_seller","sold":8,"seen":12,"favorite":10,"updated":"2019-07-20 14:19:35","description":"Dijamin 100% Original dari CV. KARYA ABADI !!!\r\nHarga untuk 1 Botol (15 ml)\r\nBarang selalu READY Stok gan, \r\n\r\n----------------- P E N T I N G ----------------\r\n\r\nJADWAL PENGIRIMAN\r\n\r\nSENIN s/d JUMAT : pengiriman sampai jam 3 sore\r\nSABTU : pengiriman sampai jam 12 siang\r\n\r\n\r\n**) Paket DIKEMAS rapih TANPA MEREK/GAMBAR Produk... RAHASIA TERJAMIN..\r\n\r\n----------------- D U R E V E L - S P R A Y Obat Herbal Tahan Lama Pria Terbaik Di Indonesia-------------\r\n\r\nDurevel Spray adalah formula herbal yang terbuat dari ekstrak tanaman herbal terbaik yang berkhasiat tinggi dalam membantu mengatasi ejakulasii dini secara nyata dan aman.\r\nDurevel berbahan dasar air dan dikemas dalam botol kaca spray. \r\nHal ini menjadikan Anda sangat mudah menggunakannya, cukup disemprotkan dan tunggu hasilnya setelah 45 menit. \r\n\r\nKhasiat :\r\n* Membantu Anda untuk kuat dan tahan lebih lama berhubungan bersama pasangan\r\n* Durasi berhubungan lebih lama\r\n* Ejakulasii Dini Anda berakhir\r\n* Anda akan merasakan sensasi yang luar biasa\r\nAturan Pakai :\r\n1. Anda hanya perlu menyemprotkan Durevel ke alatvital Anda dengan sedikit pijatan untuk meratakannya.\r\n2. Alatvital Anda akan terasa hangat setelah 10 menit.\r\n3. Tunggu selama 45 menit.\r\n4. Durevel bisa berfungsi setelah 45 menit sampai 12 jam.\r\n5. Dan Anda siap untuk berhubungan selama mungkin.\r\n\r\n1 Botol DUREVEL SPRAY berisi 15ml gunakan hanya saat akan berhubungan saja\r\nbisa untuk 2 bulan pemakaian tergantung sedikit banyaknya pemakaian\r\n\r\nHATI-HATI produk palsu! Durevel Spray hanya dijual di jaringan CV Karya Abadi! Durevel Spray Asli tidak dijual dg harga dibawah HET (Rp,280.000)!\r\n#obatkuatpria #herbalkuatpria #obattahanlama #obatkuatpriaperkasa #obatkuattahanlama","rating":0}
{"no":0,"title":"OBAT OLES -PEMBE SAR PEN-IS","price":"170.000","seller":"HERBA CENTER INDONESIA","sellerPlace":"Jakarta Pusat","url":"https://www.bukalapak.com/p/kesehatan-2359/obat-suplemen/obat-obatan/1xla0my-jual-obat-oles-pembe-sar-pen-is?from=&product_owner=normal_seller","sold":8,"seen":14,"favorite":10,"updated":"2019-08-17 05:23:54","description":"READY STOCK, ORDER MASUK LANGSUNG DIKIRIM!!!!\r\n\r\nTITAN GEL HOLOGRAM RESMI TANTRA RUSSIA !!!\r\n\r\nDAN INGAT TITAN ASLI RUSSIA ITU ADA ANTIFAKE CODE NYA...\r\n\r\nAWAS PRODUK PALSU...!!! (JANGAN TERTIPU HARGA MURAH)\r\n\r\n\r\nMANFAAT:\r\n-Membantu meningkatkan volume alat vital hingga 60%.\r\n-Membantu memperpanjang ukuran Alat vital hingga 5 cm.\r\n-Membantu meningkatkan daya tahan pada saat-saat intim.\r\n-Membantu memperlama hubungan anda saat berhubungan.\r\n-Membantu memberikan tambahan stamina dan meningkatkan pengalaman bercinta.\r\n-Membantu efek positif pada daya tahan dan kesehatan libido.\r\n-Direkomendasikan, lebih baik, lebih aman, lebih kuat dan memperpanjang p*\r\n\r\n\r\nCARA PAKAI:\r\n-Gunakan setiap hari secara teratur dan rutin setelah setiap mandi / saat tubuh bersih. \r\n-Oleskan Titan Gel ke seluruh kemaluan secara merata lalu Pijatlah dengan gerakan searah mulai secara perlahan dari pangkal p* hingga ke ujung p* selama 10 menit.\r\n-Cream Titan gel ini cepat diserap & tidak meninggalkan bau yang tidak menyenangkan atau tanda.\r\n-Untuk hasil yang lebih menakjubkan,pakailah titan gel 1 jam sebelum melakukan hubungan intim dengan pasangan Anda.\r\n\r\n\r\n*JAMINAN MUTU & KUALITAS INTERNATIONAL\r\n*KEPUASAN CUSTOMER ADALAH PRIORITAS UTAMA KAMI","rating":0}
{"no":0,"title":"BEST SELLER - OBAT PEMBESAR PENI S--Alat-Vital","price":"170.000","seller":"HERBA CENTER INDONESIA","sellerPlace":"Jakarta Pusat","url":"https://www.bukalapak.com/p/kesehatan-2359/obat-suplemen/obat-obatan/1xlfuwt-jual-best-seller-obat-pembesar-peni-s-alat-vital?from=&product_owner=normal_seller","sold":8,"seen":14,"favorite":10,"updated":"2019-08-17 05:23:41","description":"READY STOCK, ORDER MASUK LANGSUNG DIKIRIM!!!!\r\n\r\nTITAN GEL HOLOGRAM RESMI TANTRA RUSSIA !!!\r\n\r\nDAN INGAT TITAN ASLI RUSSIA ITU ADA ANTIFAKE CODE NYA...\r\n\r\nAWAS PRODUK PALSU...!!! (JANGAN TERTIPU HARGA MURAH)\r\n\r\n\r\nMANFAAT:\r\n-Membantu meningkatkan volume alat vital hingga 60%.\r\n-Membantu memperpanjang ukuran Alat vital hingga 5 cm.\r\n-Membantu meningkatkan daya tahan pada saat-saat intim.\r\n-Membantu memperlama hubungan anda saat berhubungan.\r\n-Membantu memberikan tambahan stamina dan meningkatkan pengalaman bercinta.\r\n-Membantu efek positif pada daya tahan dan kesehatan libido.\r\n-Direkomendasikan, lebih baik, lebih aman, lebih kuat dan memperpanjang p*\r\n\r\n\r\nCARA PAKAI:\r\n-Gunakan setiap hari secara teratur dan rutin setelah setiap mandi / saat tubuh bersih. \r\n-Oleskan Titan Gel ke seluruh kemaluan secara merata lalu Pijatlah dengan gerakan searah mulai secara perlahan dari pangkal p* hingga ke ujung p* selama 10 menit.\r\n-Cream Titan gel ini cepat diserap & tidak meninggalkan bau yang tidak menyenangkan atau tanda.\r\n-Untuk hasil yang lebih menakjubkan,pakailah titan gel 1 jam sebelum melakukan hubungan intim dengan pasangan Anda.\r\n\r\n\r\n*JAMINAN MUTU & KUALITAS INTERNATIONAL\r\n*KEPUASAN CUSTOMER ADALAH PRIORITAS UTAMA KAMI","rating":0}
{"no":0,"title":"OBAT HERBAL KUAT PRIA EJAKULASI DINI - TAHAN LAMA","price":"280.000","seller":"HERBA CENTER INDONESIA","sellerPlace":"Jakarta Pusat","url":"https://www.bukalapak.com/p/kesehatan-2359/obat-suplemen/obat-obatan/1xlo09n-jual-obat-herbal-kuat-pria-ejakulasi-dini-tahan-lama?from=&product_owner=normal_seller","sold":8,"seen":14,"favorite":10,"updated":"2019-07-20 14:19:24","description":"Dijamin 100% Original dari CV. KARYA ABADI !!!\r\nHarga untuk 1 Botol (15 ml)\r\nBarang selalu READY Stok gan, \r\n\r\n----------------- P E N T I N G ----------------\r\n\r\nJADWAL PENGIRIMAN\r\n\r\nSENIN s/d JUMAT : pengiriman sampai jam 3 sore\r\nSABTU : pengiriman sampai jam 12 siang\r\n\r\n\r\n**) Paket DIKEMAS rapih TANPA MEREK/GAMBAR Produk... RAHASIA TERJAMIN..\r\n\r\n----------------- D U R E V E L - S P R A Y Obat Herbal Tahan Lama Pria Terbaik Di Indonesia-------------\r\n\r\nDurevel Spray adalah formula herbal yang terbuat dari ekstrak tanaman herbal terbaik yang berkhasiat tinggi dalam membantu mengatasi ejakulasii dini secara nyata dan aman.\r\nDurevel berbahan dasar air dan dikemas dalam botol kaca spray. \r\nHal ini menjadikan Anda sangat mudah menggunakannya, cukup disemprotkan dan tunggu hasilnya setelah 45 menit. \r\n\r\nKhasiat :\r\n* Membantu Anda untuk kuat dan tahan lebih lama berhubungan bersama pasangan\r\n* Durasi berhubungan lebih lama\r\n* Ejakulasii Dini Anda berakhir\r\n* Anda akan merasakan sensasi yang luar biasa\r\nAturan Pakai :\r\n1. Anda hanya perlu menyemprotkan Durevel ke alatvital Anda dengan sedikit pijatan untuk meratakannya.\r\n2. Alatvital Anda akan terasa hangat setelah 10 menit.\r\n3. Tunggu selama 45 menit.\r\n4. Durevel bisa berfungsi setelah 45 menit sampai 12 jam.\r\n5. Dan Anda siap untuk berhubungan selama mungkin.\r\n\r\n1 Botol DUREVEL SPRAY berisi 15ml gunakan hanya saat akan berhubungan saja\r\nbisa untuk 2 bulan pemakaian tergantung sedikit banyaknya pemakaian\r\n\r\nHATI-HATI produk palsu! Durevel Spray hanya dijual di jaringan CV Karya Abadi! Durevel Spray Asli tidak dijual dg harga dibawah HET (Rp,280.000)!\r\n#obatkuatpria #herbalkuatpria #obattahanlama #obatkuatpriaperkasa #obatkuattahanlama","rating":0}
{"no":0,"title":"OBAT HERBAL KUAT PRIA EJAKULASI DINI KUAT TAHAN LAMA","price":"240.000","seller":"HERBA CENTER INDONESIA","sellerPlace":"Jakarta Pusat","url":"https://www.bukalapak.com/p/kesehatan-2359/obat-suplemen/obat-obatan/1xlp6wi-jual-obat-herbal-kuat-pria-ejakulasi-dini-kuat-tahan-lama?from=&product_owner=normal_seller","sold":8,"seen":12,"favorite":10,"updated":"2019-07-20 14:18:11","description":"Stok Selalu READY, tinggal ORDER aja yaa gan..\r\n\r\nJaminan Produk ASLI\r\nDistributor Resmi CV. KARYA ABADI JEPARA\r\nPengiriman sampai jam 3 sore\r\nPacking RAPI, Privacy agan AMAN.\r\n\r\nLhiformen-Obat Herbal Penambah Stamina Dan Menjaga Kebugaran Vitalitas Pria\r\n\r\nBadan kurang bugar, stamina loyo dan mudah keluar saat dengan pasangan? Awas tanda kerusakan organ vitaIitas/ . Jangan biarkan berlarut, jika tak ingin loyo dan terkena gangguan fungsi seperti ejjakuIIasi dinni (cepat keluar) , lmpotensl (susah erreksl) dan lemah sahwatt. \r\nObati segera dengan Lhiformen!\r\nObat herbal kusus pria dewasa terdaftar di BPOM dan halal MUI. Aman untuk dikonsumsi dan tidak memberikan efek ketergantungan. Meningkatkan produksi hormon testosteron, mengatasi ejakulaxi dini, meningkatkan libido, menjadikan erexi keras dan tahan lama, mengentalkan dan memperbanyak sperma.\r\n\r\nManfaat Kapsul Lhiformen:\r\nMenambah dan meningkatkan gairah SekzsuaI\r\nMengatasi masalah ezakuIasi dini\r\nMeningkatkan kadar hormon testosteron\r\nMeningkatkan produksi sperrmatozoid\r\nMenjaga vitaIitas dan kesehatan pria\r\nMemperkuat sistem kekebalan tubuh terhadap cuaca buruk\r\nMengandung bahan organik tanpa bahan kimia yang berbahaya\r\nMenjaga stamina di saat bekerja keras\r\nMenjaga suhu badan tetap stabil\r\nAman dikonsumsi bagai Anda yang mempunyai masalah ginjal, jantung, hipertensi, koesterol,diabetes dan penya\r\n\r\nDosis Penggunaan:\r\nHanya dengan 1 kapsul sehari dan 1 kapsul diminum 1 jam sebelum berhubungan untuk menjadikan Anda pria perkasa.\r\n\r\nDetail Produk:\r\nIsi:50 kapsul @ 500 mg\r\nIjin BPOM: POM TR. 093 301 521\r\nHalal MUI 05\r\nHarga: Rp.240.000,-\r\n\r\nSilahkan Pesan ORDER untuk Pemesanan ya..\r\nPengiriman CEPAT Dan Langsung dikirim Ke Alamat Tujuan Dengan AMAN! :) ..\r\nAwas Barang Tiruan!.. Produk ini 100% ORIGINAL ASLI RESMI..","rating":0}
{"no":0,"title":"MINYAK OBAT OLES PEM BESAR PENI-S-","price":"170.000","seller":"HERBA CENTER INDONESIA","sellerPlace":"Jakarta Pusat","url":"https://www.bukalapak.com/p/kesehatan-2359/obat-suplemen/obat-obatan/1xl7vx0-jual-minyak-obat-oles-pem-besar-peni-s?from=&product_owner=normal_seller","sold":8,"seen":16,"favorite":10,"updated":"2019-08-17 05:24:07","description":"READY STOCK, ORDER MASUK LANGSUNG DIKIRIM!!!!\r\n\r\nTITAN GEL HOLOGRAM RESMI TANTRA RUSSIA !!!\r\n\r\nDAN INGAT TITAN ASLI RUSSIA ITU ADA ANTIFAKE CODE NYA...\r\n\r\nAWAS PRODUK PALSU...!!! (JANGAN TERTIPU HARGA MURAH)\r\n\r\n\r\nMANFAAT:\r\n-Membantu meningkatkan volume alat vital hingga 60%.\r\n-Membantu memperpanjang ukuran Alat vital hingga 5 cm.\r\n-Membantu meningkatkan daya tahan pada saat-saat intim.\r\n-Membantu memperlama hubungan anda saat berhubungan.\r\n-Membantu memberikan tambahan stamina dan meningkatkan pengalaman bercinta.\r\n-Membantu efek positif pada daya tahan dan kesehatan libido.\r\n-Direkomendasikan, lebih baik, lebih aman, lebih kuat dan memperpanjang p*\r\n\r\n\r\nCARA PAKAI:\r\n-Gunakan setiap hari secara teratur dan rutin setelah setiap mandi / saat tubuh bersih. \r\n-Oleskan Titan Gel ke seluruh kemaluan secara merata lalu Pijatlah dengan gerakan searah mulai secara perlahan dari pangkal p* hingga ke ujung p* selama 10 menit.\r\n-Cream Titan gel ini cepat diserap & tidak meninggalkan bau yang tidak menyenangkan atau tanda.\r\n-Untuk hasil yang lebih menakjubkan,pakailah titan gel 1 jam sebelum melakukan hubungan intim dengan pasangan Anda.\r\n\r\n\r\n*JAMINAN MUTU & KUALITAS INTERNATIONAL\r\n*KEPUASAN CUSTOMER ADALAH PRIORITAS UTAMA KAMI","rating":0}
{"no":0,"title":"BEST SELLER - OBAT OLES PEMBESA R PENI-S -ALAT-VITAL","price":"170.000","seller":"HERBA CENTER INDONESIA","sellerPlace":"Jakarta Pusat","url":"https://www.bukalapak.com/p/kesehatan-2359/obat-suplemen/obat-obatan/1xl78bu-jual-best-seller-obat-oles-pembesa-r-peni-s-alat-vital?from=&product_owner=normal_seller","sold":8,"seen":13,"favorite":9,"updated":"2019-08-17 05:24:12","description":"READY STOCK, ORDER MASUK LANGSUNG DIKIRIM!!!!\r\n\r\nTITAN GEL HOLOGRAM RESMI TANTRA RUSSIA !!!\r\n\r\nDAN INGAT TITAN ASLI RUSSIA ITU ADA ANTIFAKE CODE NYA...\r\n\r\nAWAS PRODUK PALSU...!!! (JANGAN TERTIPU HARGA MURAH)\r\n\r\n\r\nMANFAAT:\r\n-Membantu meningkatkan volume alat vital hingga 60%.\r\n-Membantu memperpanjang ukuran Alat vital hingga 5 cm.\r\n-Membantu meningkatkan daya tahan pada saat-saat intim.\r\n-Membantu memperlama hubungan anda saat berhubungan.\r\n-Membantu memberikan tambahan stamina dan meningkatkan pengalaman bercinta.\r\n-Membantu efek positif pada daya tahan dan kesehatan libido.\r\n-Direkomendasikan, lebih baik, lebih aman, lebih kuat dan memperpanjang p*\r\n\r\n\r\nCARA PAKAI:\r\n-Gunakan setiap hari secara teratur dan rutin setelah setiap mandi / saat tubuh bersih. \r\n-Oleskan Titan Gel ke seluruh kemaluan secara merata lalu Pijatlah dengan gerakan searah mulai secara perlahan dari pangkal p* hingga ke ujung p* selama 10 menit.\r\n-Cream Titan gel ini cepat diserap & tidak meninggalkan bau yang tidak menyenangkan atau tanda.\r\n-Untuk hasil yang lebih menakjubkan,pakailah titan gel 1 jam sebelum melakukan hubungan intim dengan pasangan Anda.\r\n\r\n\r\n*JAMINAN MUTU & KUALITAS INTERNATIONAL\r\n*KEPUASAN CUSTOMER ADALAH PRIORITAS UTAMA KAMI","rating":0}
{"no":0,"title":"OBAT KUAT PRIA TAHAN LAMA BPOM.","price":"240.000","seller":"HERBA CENTER INDONESIA","sellerPlace":"Jakarta Pusat","url":"https://www.bukalapak.com/p/kesehatan-2359/obat-suplemen/obat-obatan/1xlobii-jual-obat-kuat-pria-tahan-lama-bpom?from=&product_owner=normal_seller","sold":8,"seen":14,"favorite":10,"updated":"2019-07-20 14:19:13","description":"Stok Selalu READY, tinggal ORDER aja yaa gan..\r\n\r\nJaminan Produk ASLI\r\nDistributor Resmi CV. KARYA ABADI JEPARA\r\nPengiriman sampai jam 3 sore\r\nPacking RAPI, Privacy agan AMAN.\r\n\r\nLhiformen-Obat Herbal Penambah Stamina Dan Menjaga Kebugaran Vitalitas Pria\r\n\r\nBadan kurang bugar, stamina loyo dan mudah keluar saat dengan pasangan? Awas tanda kerusakan organ vitaIitas/ . Jangan biarkan berlarut, jika tak ingin loyo dan terkena gangguan fungsi seperti ejjakuIIasi dinni (cepat keluar) , lmpotensl (susah erreksl) dan lemah sahwatt. \r\nObati segera dengan Lhiformen!\r\nObat herbal kusus pria dewasa terdaftar di BPOM dan halal MUI. Aman untuk dikonsumsi dan tidak memberikan efek ketergantungan. Meningkatkan produksi hormon testosteron, mengatasi ejakulaxi dini, meningkatkan libido, menjadikan erexi keras dan tahan lama, mengentalkan dan memperbanyak sperma.\r\n\r\nManfaat Kapsul Lhiformen:\r\nMenambah dan meningkatkan gairah SekzsuaI\r\nMengatasi masalah ezakuIasi dini\r\nMeningkatkan kadar hormon testosteron\r\nMeningkatkan produksi sperrmatozoid\r\nMenjaga vitaIitas dan kesehatan pria\r\nMemperkuat sistem kekebalan tubuh terhadap cuaca buruk\r\nMengandung bahan organik tanpa bahan kimia yang berbahaya\r\nMenjaga stamina di saat bekerja keras\r\nMenjaga suhu badan tetap stabil\r\nAman dikonsumsi bagai Anda yang mempunyai masalah ginjal, jantung, hipertensi, koesterol,diabetes dan penya\r\n\r\nDosis Penggunaan:\r\nHanya dengan 1 kapsul sehari dan 1 kapsul diminum 1 jam sebelum berhubungan untuk menjadikan Anda pria perkasa.\r\n\r\nDetail Produk:\r\nIsi:50 kapsul @ 500 mg\r\nIjin BPOM: POM TR. 093 301 521\r\nHalal MUI 05\r\nHarga: Rp.240.000,-\r\n\r\nSilahkan Pesan ORDER untuk Pemesanan ya..\r\nPengiriman CEPAT Dan Langsung dikirim Ke Alamat Tujuan Dengan AMAN! :) ..\r\nAwas Barang Tiruan!.. Produk ini 100% ORIGINAL ASLI RESMI..","rating":0}
{"no":0,"title":"Obat Panu Bandel Terbukti AMPUH Terlaris - Obat Panu Bandel yang Sulit Diobati dengan Produk lain","price":"49.000","seller":"YAPAYA olshop","sellerPlace":"Jakarta Utara","url":"https://www.bukalapak.com/p/kesehatan-2359/obat-suplemen/obat-obatan/201csq4-jual-obat-panu-bandel-terbukti-ampuh-terlaris-obat-panu-bandel-yang-sulit-diobati-dengan-produk-lain?from=&product_owner=normal_seller","sold":113,"seen":916,"favorite":64,"updated":"2019-10-15 12:29:23","description":"Minyak Getah Kapur Naga - Obat Gatal - Panu - Kurap\r\n-------------------------------------------------------------------------\r\n\r\nRamuan Getah Kayu Kapur Naga Kalimantan 100% Asl\r\n\r\nBahan : getah kayu kapur naga\r\nIsi produk : +/- 50ml\r\nPaket berisi 1 botol Getah Kayu Kapur Naga Kalimantan & brosur aturan pakai\r\n\r\nPada zaman dulu kayu dari pohon Kapur Naga sering digunanakan sebagai pondasi dasar rumah di Kalimantan Selatan, dikarenakan sifat kayu yang kuat meski lama terendam dalam air. Selain itu orang zaman dulu di Kalimantan Selatan biasa memafaatkan getah pohon ini untuk mengobati penyakit kulit. Pohon kapur naga sekarang sangat langka dan hanya tumbuh dibagian hutan pedalaman Kalimantan saja.\r\n\r\nManfaat Getah Kayu Kapur Naga antara lain untuk mengobati :\r\n- Panu\r\n- Campak\r\n- Kurap\r\n- Sangkadi (kutu air, lancat)\r\n- Buru kukuan\r\n- Bisul\r\n- Gatal2, alergi, dll.\r\n\r\nCara pakai :\r\n- Kocok dulu sebelumnya sampai isi tercampur merata\r\n- Oleskan kebagian yang gatal 2-3 kali sehari\r\n\r\nObat ini adalah obat herbal yang diolah secara tradisional tanpa zat kimia sehingga aman digunakan dan tanpa efek samping.\r\n\r\nPerhatian, obat ini obat luar (oles) bukan untuk diminum !!","rating":0}
{"no":0,"title":"DUREX Kondom Close Fit ( 3pcs )","price":"13.500","seller":"szexis shop","sellerPlace":"Jakarta Utara","url":"https://www.bukalapak.com/p/kesehatan-2359/obat-suplemen/obat-obatan/1pk2j1-jual-durex-kondom-close-fit-3pcs?from=&product_owner=normal_seller","sold":779,"seen":4254,"favorite":130,"updated":"2019-10-15 09:00:46","description":"Kemasan Box: isi 3 pcs.\r\n\r\nLEBIH KETAT UNTUK SENSASI LEBIH SAAT BERCINTA\r\n\r\nKondom Durex Close Fit dirancang untuk menciptakan sensasi lebih ketat dari yang pernah yang Anda rasakan sebelumnnya. Seperti halnya kulit kedua anda, sensasinya seperti tidak menggunakan kondom yang akan memberikan intensitas tambahan selama berhubungan intim.\r\n\r\nUntuk keamanan optimal, produk harus ditempatkan di tempat kering dan sejuk, serta jauh dari sinar matahari.\r\n\r\nSPECIFICATION:\r\nNominal Width: 49mm","rating":0}
{"no":0,"title":"Amino 2002 Ultimate Nutrition Ecer","price":"1.500","seller":"IvanZ Supplement","sellerPlace":"Jakarta Barat","url":"https://www.bukalapak.com/p/kesehatan-2359/obat-suplemen/obat-obatan/1l0lv7-jual-amino-2002-ultimate-nutrition-ecer?from=&product_owner=normal_seller","sold":14526,"seen":5945,"favorite":131,"updated":"2019-10-14 10:12:54","description":"Amino 2002 Ultimate Nutrition Ecer. Amino 2002 Ultimate Nutrition Ecer. Amino 2002 Ultimate Nutrition Ecer","rating":0}
{"no":0,"title":"PLESTER KUTIL","price":"20.000","seller":"APOTEK PARAMITA","sellerPlace":"Malang","url":"https://www.bukalapak.com/p/kesehatan-2359/obat-suplemen/obat-obatan/7pbgp-jual-plester-kutil?from=&product_owner=normal_seller","sold":945,"seen":1238,"favorite":32,"updated":"2019-10-05 10:05:04","description":"Plester kutil mengandung zat aktif asam salisilat dan phenol, yang bersifat keratolitik sehingga bisa melunakkan kulit yang menebal.\r\n\r\nCara pemakaian: basahi bagian tengah plester dengan air hangat sampai obat basah, kemudian tempelkan plester pada kulit yang menebal. Ganti plester sehari 2-3 kali. Gunakan plester ini terus sampai bagian yang tebal mengecil. \r\n\r\nPerhatian: jangan dipakai pada bagian yang sehat.\r\nKemasan: 1 pack isi 6 plester","rating":0}
{"no":0,"title":"penyubur obat kandungan herbal","price":"170.000","seller":"NATURINDO","sellerPlace":"Jepara","url":"https://www.bukalapak.com/p/kesehatan-2359/obat-suplemen/obat-obatan/9nngzv-jual-penyubur-obat-kandungan-herbal?from=&product_owner=normal_seller","sold":87,"seen":728,"favorite":15,"updated":"2019-10-14 05:51:14","description":"Go SBR Penyubur Kandungan\r\nPOM TR. 173305041\r\nSehatkan rahim anda untuk menjemput kehamilan yang sudah anda idam idamkan selama ini bersama pasangan anda. Belum berhasilnya anda untuk hamil bisa jadi disebabkan oleh beberapa penyakit yang ada di rahim anda.\r\nKini hadir untuk anda sebuah obat herbal penyubur kandungan bernamaGO SBRyang sangat effektif dalam mengobati dan menyehatkan rahim dari virus torch, jmaur, kista, dan lemahnya dinding rahim. Ikuti langkah langkah banyak waniita yang telah berhasil mendapatkan kehamilan secara alami setelah merutinkan menggunakan pengobatan dengan herbalGO SBR.\r\n\r\nManfaat Go SBR penyubur kandungan\r\n\r\n\r\nMembersihkan saluran reproduksi dari sumbatan dan perlengketan. Seperti : kista, miom, kanker serviks, tuba vilopi dll.\r\n\r\nMembersihkan dan mensterilkan rahim dari virus dan jamur\r\n\r\nMembantu menyuburkan kandungan\r\n\r\nMenguatkan Indung telur dan Rahim\r\n\r\nMengatasi gangguan Haid dan keputihan\r\n\r\nMencegah kemadulan sejak dini\r\n\r\nsebagai suplemen untuk menjaga stamina dan kesehatan wanita\r\n\r\nIsi 50 kapsul\r\nAturan minum\r\n3x1-2kapsul\r\nDiminum 1 jam sebelum makan atau 2 jam setelah makan","rating":0}
{"no":0,"title":"Obat Rheumatik Rematik Kesemutan Menahun","price":"295.000","seller":"Halo Sehat","sellerPlace":"Cilacap","url":"https://www.bukalapak.com/p/kesehatan-2359/obat-suplemen/obat-obatan/oe1thz-jual-obat-rheumatik-rematik-kesemutan-menahun?from=&product_owner=normal_seller","sold":129,"seen":51,"favorite":1,"updated":"2019-10-15 13:08:43","description":"PAKET HERBAL REMATIK :\r\n1 RheumaSTOP ( isi 50 kapsul )\r\n1 HABATOP ( isi 50 kapsul )\r\n- ORIGINAL De Natur ( botol bersegel hologram dan dikirm langsung dari Majenang , Kab. Cilacap )\r\n- GARANSI ASLI / ORIGINAL ( CV. DE NATURE INDONESIA ) dari CILACAP, JAWA TENGAH\r\n- PAKET YANG AKAN DIKIRIM KAMI PASTIKAN DIKEMAS DENGAN RAPIH, HANYA TERTERA NAMA, ALAMAT DAN NO HP, TANPA MEMEBERI DESKRIPSI PRODUK, ITU SEMUA SEBAGAI BENTUK MENJAGA PRIVASI PEMBELI.\r\n- HALAL DAN LULUS UJI BPOM\r\n\r\nPaket herbal rematik mengkombinasikan 2 produk De Nature : RhemaSTOP &amp; HABATOP\r\n\r\nNyeri pada persendian merupakan gejala utama dari penyakit rematik. Karena itu, fokus penanganan pasien rematik adalah mengontrol rasa nyeri serta mengurangi kerusakan sendi, salah satunya dengan terapi farmakologi atau obat-obatan. Obat rematik termasuk dalam obat keras dan harus dikonsumsi dalam jangka panjang. Karena itu anda diharapkan tidak sembarangan mengonsumsi obat rematik karena efek sampingnya tidak remeh.\r\nBagi anda yang khawtir akan bahaya efek samping obat - obatan kimia pengobatan herbal mungkin bisa jadi solusinya, Paket obat rematik herbal dari De Nature yang terdiri dari RheumaSTOP ( exstrak buah mahkota dewa, lengkuas dan jahe) dan HABATOP ( kapsul minyak habbatussauda ) membantu mencegah dan mengobati penyakit rematik, pegal linu serta membantu menjaga daya tahan tubuh.\r\n\r\nDETAIL PAKET :\r\n- 1 botol RheumaSTOP isi 50 kapsul\r\n- 1 botol HABATOP isi 50 kapsul\r\n- IZIN BPOM\r\n- IZIN UKOT DINKES RI No. 503/1259/2016/2\r\n- BERSERTIFIKAT HALAL MUI","rating":0}
{"no":0,"title":"PEMBESAR PEN-IS MINYAK OBAT HERBAL PRIA","price":"135.000","seller":"toko herbal sehat","sellerPlace":"Jakarta Pusat","url":"https://www.bukalapak.com/p/kesehatan-2359/obat-suplemen/obat-obatan/28um3uz-jual-pembesar-pen-is-minyak-obat-herbal-pria?from=&product_owner=normal_seller","sold":28,"seen":334,"favorite":16,"updated":"2019-10-15 07:24:47","description":"READY STOCK\r\nTriple L adalah penerus zhang power. Manfaatnya lebih maksimal dan luar biasa\r\n1. memperbesar mr.p lebih ceat, aman dan tidak menyebabkan ketergantungan\r\n2. Memanjangkan kelamin secara alami. secara bertahap akan bertambah 1-3 cm dalam waktu 1-3 bulan\r\n3. mempertebal kulit kelamin, sehingga akan lebih terlihat tebal\r\n\r\nSilahkann order sekarang, karena selama tahun ini akan ada promo triple l.\r\n\r\nDetail Produk:\r\nNama: Triple L\r\nKemasan: Botol\r\nBentuk: Cair\r\nIsi: 15 ml\r\nDepkes. RI: IKOT 442/00060/V-2\r\nDiproduksi oleh : CV. Karya Abadi\r\nNomor Regristrasi SIUP: 510/24/PK/VIII/2015\r\n\r\n#pembesarpenis #obatpembesarpenis #obatpembesarmrp #triplell","rating":0}
{"no":0,"title":"Obat Eksim Dan Gatal Bersih Darah Salep Ex Clear Alami Asli De Nature","price":"295.000","seller":"Obat Herbal 88","sellerPlace":"Cilacap","url":"https://www.bukalapak.com/p/kesehatan-2359/obat-suplemen/obat-obatan/1i34yle-jual-obat-eksim-dan-gatal-bersih-darah-salep-ex-clear-alami-asli-de-nature?from=&product_owner=normal_seller","sold":48,"seen":1011,"favorite":7,"updated":"2019-10-15 09:20:10","description":"IZIN BPOM RI : \r\n- KAPSUL BD POMTR163398401\r\n- EXIMTAS POMTR163397881\r\n- SALEP EXCLEAR POMTR173707401\r\nIZIN UKOT DINKES RI No. 503/1259/2016/2\r\nBERSERTIFIKAT HALAL DARI MUI\r\n\r\nISI PAKET:\r\n- 1 botol kapsul bd @50 kapsul\r\n- 1 botol eximtas @50 kapsul\r\n- 1 salep exclear\r\n- 1 lembar brosur\r\n- 1 lembar pantangan dan anjuran\r\n\r\nATURAN MINUM : \r\n- KAPSUL BD, EXIMTAS diminum sehari 3x2 kapsul per botol obat 1 jam sebelum atau 1 jam setelah makan\r\n- SALEP EXCLEAR dioles pada bagian yang gatal atau eksim secara merata sehari 2-3x dalam keadaan bersih dan kering\r\n\r\nUNTUK KELUHAN PENYAKIT:\r\n- Gatal\r\n- Eksim Basah\r\n- Eksim Kering\r\n\r\n# ISI KOMENTAR / INBOX UNTUK MENANYAKAN KETERSEDIAAN STOCK PRODUK #\r\n\r\n# PRIVASI KONSUMEN\r\n- RAHASIA TERJAMIN 100%\r\n- PACKING RAPIH & AMAN (DUS DIBALUT KARTON & DILAKBAN BOLAK-BALIK)\r\n- BAGIAN LUAR PAKET HANYA ADA NAMA, ALAMAT, DAN NO. HP PEMBELI SAJA\r\n- DIKIRIM DENGAN NAMA PERSONAL / BUKAN NAMA TOKO\r\n\r\n# JADWAL PENGIRIMAN\r\n- SENIN s/d SABTU PUKUL 07.00 - 14.00 WIB\r\n- HARI BESAR / TANGGAL MERAH LIBUR PENGIRIMAN\r\n\r\n# SUPPORT KURIR\r\n- JNE, TIKI, POS, J&T","rating":0}
{"no":0,"title":"Obat Asam Urat Terampuh","price":"120.000","seller":"Berkah Sale","sellerPlace":"Jakarta Timur","url":"https://www.bukalapak.com/p/kesehatan-2359/obat-suplemen/obat-obatan/1ljlxtf-jual-obat-asam-urat-terampuh?from=&product_owner=normal_seller","sold":137,"seen":388,"favorite":27,"updated":"2019-10-14 20:53:06","description":"Obat Asam Urat Terbukti Ampuh-Tong-Mai-Dan\r\n\r\nInsya Allah SEMBUH TOTAL DENGAN-TONG-MAI-DAN\r\n\r\nTONG-MAI-DAN ~ Ginseng Leaf Brand\r\nExp date : Tahun 2022\r\n\r\n* Produk 100% ORIGINAL ASLI BERHOLOGRAM\r\n* Pengiriman CEPAT dan PACKING rapih.\r\n* Produk Ready Stock.\r\n\r\nKhasiat Dan Kegunaan Tong Mai Dan:\r\n* Digunakan secara tradisional untuk melancarkan peredaran darah, sakit otot, sakit pinggang, sakit urat, Rhematik Dan asam urat\r\n* Mengobati rematik dan asam urat.\r\n* Menghilangkan pegal-pegal.\r\n* Melancarkan aliran darah di tubuh.\r\n* Menghilangkan kesemutan.\r\n* Mengatasi kaku-kaku pada kaki dan tangan.\r\n* Menghilangkan nyeri sendi.\r\n* Mengatasi keluhan sakit pinggang.\r\n* Telapak tangan dan kaki terasa baal.\r\n\r\nDosis :\r\n* Diminum dengan air putih hangat\r\n* Diminum 3 X sehari @ 3 Pill\r\n\r\nPerhatian:\r\n* Wanita hamil Dan anak-anak DILARANG minum obat INI.\r\n\r\nKemasan :\r\n* Botol berisi 48 pills\r\n\r\nDi produksi oleh : TONGSHENG PHARMACEUTICAL CO.,LTD., HK.\r\n\r\nDistribusikan oleh : SINHONG MEDICAL SDN. BHD.","rating":0}
{"no":0,"title":"Manjakani Razie Aceh Original 20","price":"110.000","seller":"KELANAHIJT","sellerPlace":"Madiun","url":"https://www.bukalapak.com/p/kesehatan-2359/obat-suplemen/obat-obatan/10jfp0o-jual-manjakani-razie-aceh-original-20?from=&product_owner=normal_seller","sold":81,"seen":61,"favorite":2,"updated":"2019-10-07 05:42:43","description":"~Kemasan ekonomis 20 butir~\r\nSolusi paling tepat bagi wanita yang aman dan tanpa efek samping\r\n\r\nKhasiat Majakani Aceh Razie :\r\nMembantu Mengatasi keputihan, gatal-gatal, dan bau tak sedap\r\nMembantu Merapatkan miss v serta mengencangkan otot-otot kewanitaan\r\nMelancarkan haid\r\nMembantu untuk mengobati penyakit kewanitaan seperti kista, miom, candyloma, penebalan rahim, jengger ayam dll\r\nMembantu Membunuh virus dan bakteri akibat susah hamil\r\nMembantu Proses penyembuhkan kanker servix\r\nMembantu Proses penyembuhkan infeksi saluran kencing dan ayang-ayangan\r\nMembantu mengobati mencret akut , maag/asam lambung dan ambein\r\n\r\n#sehatDenganHerba","rating":0}
{"no":0,"title":"Salep 999 Piyan Ping , Pi Yan Ping ( Obat gatal, Jamur , Eksim, Biang Keringat & Alergi)","price":"28.500","seller":"Sehat Abadi","sellerPlace":"Jakarta Timur","url":"https://www.bukalapak.com/p/kesehatan-2359/obat-suplemen/obat-obatan/5ljj55-jual-salep-999-piyan-ping-pi-yan-ping-obat-gatal-jamur-eksim-biang-keringat-alergi?from=&product_owner=normal_seller","sold":1587,"seen":16360,"favorite":470,"updated":"2019-10-15 10:23:45","description":"999 Piyan Ping Ointment ampuh Mengobati penyakit kulit.\r\n\r\n# Kami jamin produk 100% Original asli\r\n# Kirim CEPAT &amp;amp;amp;amp;amp;amp;amp;amp; Packing Rapih\r\n\r\nKhasiat Dan Kegunaan 999 Piyan Ping :\r\n* Membantu Mengobati penyakit kulit seperti gatal- gatal, biang keringat, Dan alergi.\r\n\r\nSerta dapat juga MembaNTU Mengobati penyakit kulit yang disebabkan oleh jamur seperti panu, kadas, kudis,kurap DLL.\r\n\r\nCara pakai Dan dosis:\r\n* Oleskan pada daerah yang gatal, sehari 2-3 Kali\r\n* Untuk kasus yang berat dioleskan sehari 5-8 Kali\r\n\r\n# Hanya untuk penggunaan luar.\r\n\r\nKemasan :\r\n* Dus berisi tube @ 20 gram\r\n\r\nDiproduksi oleh : China Resources Sanjiu Medical &amp;amp;amp;amp;amp;amp;amp;amp; Pharmaceutical Co., Ltd.","rating":0}
{"no":0,"title":"panadol soluble","price":"10.000","seller":"valyn huang","sellerPlace":"Medan","url":"https://www.bukalapak.com/p/kesehatan-2359/obat-suplemen/obat-obatan/24b13ck-jual-panadol-soluble?from=&product_owner=normal_seller","sold":61,"seen":23,"favorite":0,"updated":"2019-10-14 19:44:34","description":"Panadol soluble 1 strip isi 4 ,harga per 4 bj ya","rating":0}
{"no":0,"title":"OBAT HERBAL KUAT PRIA","price":"100.000","seller":"OBAT KUAT 99","sellerPlace":"Jakarta Utara","url":"https://www.bukalapak.com/p/kesehatan-2359/obat-suplemen/obat-obatan/22dyf0h-jual-obat-herbal-kuat-pria?from=&product_owner=normal_seller","sold":48,"seen":1355,"favorite":71,"updated":"2019-10-10 22:29:11","description":"READY STOK, ORDER MASUK LANGSUNG DIKIRIM, MOHON JGN TANYA STOK.., OK\r\n\r\nPESAN HARI INI KAMI KIRIM HARI INI JUGA GAN !!!!\r\n\r\nobatt kuatt kualitas terbaik aman tanpa efek samping!\r\n\r\nC!al! Z asli 1 kotak isi 4 pil\r\n\r\ndijamin manjur ampuh!!!\r\n\r\n100% ORIGINAL ASLI\r\n\r\nbikin kuatt dan tahan lebih lama kencangkan erreksii setamina kuatt bikin hubungann sexxxx jadi lebih lama dan puass!\r\n\r\nAturan minum :\r\ncukup minum 1 pil diminum dengan air putih hangat ditunggu 30 menit sebelum berhubungann intimm.\r\n\r\npuaskan pasangan anda agar hubungan passutri tetap harmonis!!!","rating":0}
{"no":0,"title":"jamu pria dewasa urat madu","price":"41.000","seller":"toko_elok","sellerPlace":"Semarang","url":"https://www.bukalapak.com/p/kesehatan-2359/obat-suplemen/obat-obatan/22g9ync-jual-jamu-pria-dewasa-urat-madu?from=&product_owner=normal_seller","sold":93,"seen":74,"favorite":1,"updated":"2019-10-15 12:41:59","description":"jamu khusus pria dewasa untuk menjaga stamina di malam hari","rating":0}
{"no":0,"title":"Paket Malam Pertama - Herbal Tahan Lama","price":"475.000","seller":"Strong Herbs","sellerPlace":"Kab. Bekasi","url":"https://www.bukalapak.com/p/kesehatan-2359/obat-suplemen/obat-obatan/2151spv-jual-paket-malam-pertama-herbal-tahan-lama?from=&product_owner=normal_seller","sold":1106,"seen":1151,"favorite":12,"updated":"2019-10-12 14:13:13","description":"aket Obat Kusus Pria Dewasa Malam Pertama ini Berisi:\r\n\r\n1. Satu Botol obat kusus pria dewasa kapsul Lhiformen\r\n\r\nObat kusus pria Lhiformen adalah obat pria dewasa yang telah terdaftar di Badan POM dengan nomor regristrasi POM TR. 093 301 521 dan halal MUI 05 yang berkasiat agar errexsi lebih keras, meningkatkan libiddo dan menjaga stamina. Dengan menggunakan obat kusus pria dewasa Lhiformen anda akan mendapatkan keperkasaan layaknya paduan Arjuna dan Werkudara.\r\n\r\nLhifomen akan meningkatkan stamina pria hingga mencapai 10 kali sehingga pria akan mampu memuaskan istri, Anda tak perlu khawatir dengan efek samping konsumsi obat ini, karena Lhiformen terbuat dari 100% bahan herbal alami. Lhiformen adalah obat kusus pria dewasa BPOM pertama kali di Indonesa dengan jaminan keberhasilan. Anda bisa mengklaim uang kembali jika tidak berhasil.\r\n\r\n2. Satu Botol Obat Tahan Lama Semprot Durevel\r\n\r\nObat Semprot Durevel dengan ijin IKOT 442/00060/V-2 adalah obat herbal khusus pria dewasa yang cara pemakaiannya cukup disemprotkan pada bagian-bagian yang paling sensitif pada alat vital pria, yaitu bagian kepala, leher serta bagian bawah alat vital. Anda cukup menyemprotkan 3 kali dan tunggu 45 menit. Anda akan merasakan bagian-bagian alat vital yang sensitif menjadi kebas, atau tahan terhadap rangsangan seksual.\r\n\r\nDengan Paket Malam Pertama, hubungan suami istri Anda telalu terasa layaknya malam pertama!!! Ini adalah produk unggulan kami.\r\n\r\nToko Kami Sangat Recommended dan terpercaya karena terjamin legalitas dan keamanan produknya\r\nNama Perusahaan: CV. Karya Abadi\r\nSIUP :510/24/PK/VIII/2015","rating":0}
{"no":0,"title":"Sam Yun Wan - Original Silver Kilat Hologram","price":"18.000","seller":"Toko Obat Herbal Alami 5758","sellerPlace":"Jakarta Utara","url":"https://www.bukalapak.com/p/kesehatan-2359/obat-suplemen/obat-obatan/l2m54x-jual-sam-yun-wan-original-silver-kilat-hologram?from=&product_owner=normal_seller","sold":652,"seen":3972,"favorite":69,"updated":"2019-10-15 11:12:22","description":"SAMYUN WAN 100% ORIGINAL DIJAMIN ASLI!!!\r\n\r\nKEMASAN SAMYUNWAN SILVER KILAP HOLOGRAM ( BUKAN WISDOM punya!)\r\n\r\nDIBAKAR TULISAN HILANG &amp;amp;amp;amp;amp;amp;amp;amp;amp;amp;amp; AKAN TIMBUL KEMBALI\r\n\r\nSamYunWan Kilap. 100% Original ASLI dan HALAL\r\n\r\n\r\nIsi : 20 Kapsul per botol untuk 10 Hari\r\n\r\n\r\n\r\nKapsul warna merah diminum sehari 2 X 1 kapsul setelah makan.\r\n\r\nAda 1 kapsul warna putih atau pink ( tergantung produksi pabrik saat itu ) diminum saat lelah saja (bonus)\r\n\r\nKHASIAT SAMYUNWAN:\r\n\r\n\r\nMenambah napsu makan dan membuat tubuh lebih berisi\r\nMeningkatkan Daya serap makanan yang masuk ke dalam tubuh Kita\r\nBerat Badan Kita akan cepat bertambah,karena apa yang kita makan\r\n\r\n\r\n\r\ndiserap cepat oleh tubuh\r\n\r\n\r\nMemperbaiki metabolisme tubuh\r\nPenyerapan makanan menjadi lebih sempurna\r\n\r\n\r\n\r\nBAHAN-BAHAN ALAMI 100% HERBAL TUMBUHAN (Halal 100%) :\r\n\r\n\r\nRadix Panax Ginseng\r\nCornu Cervi Pantotrichum\r\nRadix Astragali Seu Hedysari\r\nRadix Codonopsis Pilosulae\r\nRhizoma Atractylodis Macrocephalae\r\nFructus Chaenomelis Speciosa\r\n\r\n\r\n\r\nPENJELASAN PRODUK :\r\n\r\nProduk ini terdaftar disitus http://wwwbpfkgovmy/.\r\n\r\nBPFK merupakan kependekan dari Biro Pengawalan Farmasetikal Kebangsaan. Importir :WAN. LONNIX (M) SDN. BHD. LONNIX (M) SDN. BHD. 183.\r\n\r\nProduct Detail Information for MALT Product Information :\r\n\r\nProduct Name : SAMYUN WAN\r\n\r\nHolder Name : LONNIX (M) SDN. BHD.\r\n\r\nAddress : NO. 10, JALAN TTC 26 TAMAN TEKNOLOGI CHENG : 75250 : MELAKA : MELAKA : MALAYSIA\r\n\r\nManufacturer Name : LONNIX (M) SDN. BHD. Address : NO. 10, JALAN TTC 26 TAMAN TEKNOLOGI CHENG : 75250 : MELAKA : MELAKA : MALAYSIA\r\n\r\nPERHATIAN\r\n\r\nDilarang bagi :\r\n\r\n\r\nIbu hamil dan menyusui\r\nAnak 0-10 tahun\r\nOrang yg memiliki maag akut\r\n\r\n\r\n\r\nEfek suplemen :\r\n\r\n*Hari pertama minum suplemen ini menyebabkan kantuk ringan, tetapi konsumsi selanjutnya tidak menyebabkan kantuk\r\n\r\nBatch : 27757s\r\n\r\nExp. : 12/2020","rating":0}
{"no":0,"title":"Obat Pengemuk Penambah Berat Badan & Nafsu Makan Herbal Gemuk Plus","price":"295.000","seller":"Halo Sehat","sellerPlace":"Cilacap","url":"https://www.bukalapak.com/p/kesehatan-2359/obat-suplemen/obat-obatan/oewend-jual-obat-pengemuk-penambah-berat-badan-nafsu-makan-herbal-gemuk-plus?from=&product_owner=normal_seller","sold":130,"seen":205,"favorite":7,"updated":"2019-10-15 13:08:42","description":"Deskripsi Produk\r\nIZIN BPOM RI :\r\n- GEMUK PLUS : POM TR 163 394 911\r\n* IZIN UKOT DINKES RI No. 503/1259/2016/2\r\n* BERSERTIFIKAT HALAL DARI MUI\r\n\r\nGemuk plus Rp. Isi 50 Kpsul\r\nAturan Minum:\r\nAturan Minum 3 x Sehari 2 ''\" 3 Kapsul\r\nKapsul di minum 3x sehari, 1jam sebelum makan\r\n\r\nKomposisi:\r\nTemulawak membantu meningkatkan nafsu makan\r\nAdas Pulosari mengobati kurang nafsu makan\r\nDaun Sirih\r\nLada Hitam\r\nKunyit\r\nDengan Mengkonsumsi Secara Rutin Insya Allah Cepat gemuk\r\n\r\nKHASIAT :\r\n- Menambah nafsu makan\r\n- Meningkatkan berat badan\r\n- Menggemukkan badan","rating":0}
{"no":0,"title":"NISSAN REISHI MUSHROOM / JAMUR LING ZHI ( OBAT KANKER )","price":"1.505.000","seller":"Ferry siktiawan","sellerPlace":"Surabaya","url":"https://www.bukalapak.com/p/kesehatan-2359/obat-suplemen/obat-obatan/iy0ru-jual-nissan-reishi-mushroom-jamur-ling-zhi-obat-kanker?from=&product_owner=normal_seller","sold":62,"seen":2467,"favorite":18,"updated":"2019-10-14 10:01:09","description":"Nissan Reishi Mushroom<br/>Produksi : Nissan Chemical Industry japan<br/>Kemasan : dus berisi 50 sachet @ 2 kapsul<br/><br/>JANGAN TERTIPU DENGAN PRODUK REISHI ATAU LINGZHI YANG MURAH<br/>MINUM 1 TABLET EXTRACT NISSN REISHI SEBANDING DENGAN 12 KAPSUL BUBUK LINGZHI BIASA<br/><br/>Nissan Reishi jamur Ganoderma atau Lucid diproduksi oleh Nissan Chemical Industries Jepang. Menggunakan kayu log keseluruhan, obat bernilai tinggi, teknologi canggih, dengan pengawasan yang ketat dan kontrol cahaya, udara, dan makanan dalam lingkungan pertumbuhan, Nissan menetapkan standar untuk kemurnian, potensi dan konsistensi. Tidak ada pestisida yang digunakan. Merek Nissan diakui dan dihormati oleh konsumen di seluruh dunia.<br/>Nissan menjamin bahwa dalam satu kotak Mengandung 6000 mg Ganoderma Lucium (Reishi) ekstrak atau setara dengan 75 gram kering Reishi jamur<br/><br/>Kegunaan :<br/>1. Mengobati berbagai penyakit termasuk kanker<br/>2. Meningkatkan kekebalan tubuh<br/>3. Menurunkan gula darah, kolesterol, dll<br/><br/>Cara pakai :<br/>Untuk pencegahan Diminum sehari 2 X 1-2 kapsul sebelum makan<br/>Untuk pengobatan diminum sehari 3 X 2-3 kapsul sebelum makan<br/><br/>Tip untuk mendapatkan manfaat optimal Reishi :<br/>1. Paling optimal dikonsumsi pagi hari sebelum makan<br/>2. Minum air putih lebih banyak untuk mencegah dehidrasi seluler dan meningkatkan fungsi metabolisme tubuh mengeluarkan racun tubuh<br/>3. Disarankan mengkonsumsi reishi dengan vitamin C. Penelitian yang dilakukan dari Linus Pauling Institute membuktikan bahwa vit C membantu memecahkan polisakarida kompleks ( kandungan aktif Reishi ) menjadi lebih kecil sehingga mudah diserap oleh tubuh.<br/>4. Jangan dikonsumsi dengan teh, kopi, dan softdrink<br/>5. Hindari makanan olahan seperti makan instan dan dalam kaleng<br/>6.Hindari penggunaan gula putih. Lebih baik diganti dengan madu murni atau gula buah<br/>7. Makanlah beragam makanan alami dari setiap kelompok pangan","rating":0}
{"no":0,"title":"Imove Asli Obat Herbal Nyeri Sendi Dan Tulang Herbal Original","price":"140.000","seller":"QUEEN HERBAL","sellerPlace":"Jakarta Pusat","url":"https://www.bukalapak.com/p/kesehatan-2359/obat-suplemen/obat-obatan/1ws2gq1-jual-imove-asli-obat-herbal-nyeri-sendi-dan-tulang-herbal-original?from=&product_owner=normal_seller","sold":2184,"seen":4190,"favorite":108,"updated":"2019-10-14 06:45:41","description":"Ready Stok Ya Kak\r\nProduk Jaminan 100% Original\r\nAwas Produk Palsu Di Bawah Harga Kami...!!! \r\n\r\nTERBUAT DARI BAHAN ALAMI !!!\r\n\r\nMengandung vitamin A dan E yang sangat tinggi, namun sepenuhnya aman, mempercepat proses regenerasi tulang dan sendi.\r\n\r\nProporsi ekstrak bahan yang sesuai - secara teratur dikirim ke tubuh - memberi makan sel tulang dan meningkatkan produksi cairan sinovial yang mengisi ruang di antara tulang-tulang di sendi. Jumlah pelumas yang tepat menghilangkan rasa sakit pada persendian, dan selanjutnya melindungi dan merawat terhadap kerusakan mikro lebih lanjut.\r\n\r\nPemakaian secara teratur menghilangkan rasa sakit yang menyiksa, memperkuat tulang dan membuat tubuh itu sendiri mulai memproduksi tulang rawan artikular. Ini adalah resep untuk kesehatan dan sendi yang kuat untuk orang-orang dari segala umur - terlepas dari tingkat aktivitas fisik (juga untuk atlet).\r\n\r\nFungsi iMove :\r\n- Memelihara kesehatan fungsi tulang dan persendian\r\n- Mengobati rasa kaku dan nyeri sendi dan tulang\r\n- Menurunkan kolesterol\r\n- Mengobati sakit maag\r\n- Mempercepat penyembuhan luka\r\n- Memelihara kesehatan kulit\r\n\r\n1 Botol Isi 30 Kapsul\r\nAturan pakai : 2 kapsul / hari setelah makan\r\n\r\nHati Hati Jika Anda Menemukan Produk Di Bawah Harga Lapak Kami\r\nKami Pastikan Produk Tersebut Palsu.\r\nSayangi Kesehatan Anda","rating":0}
{"no":0,"title":"Aslene Orlistat 120 mg","price":"1.500.000","seller":"lia anggraini","sellerPlace":"Medan","url":"https://www.bukalapak.com/p/kesehatan-2359/obat-suplemen/obat-obatan/s8hs7c-jual-aslene-orlistat-120-mg?from=&product_owner=normal_seller","sold":163,"seen":83,"favorite":1,"updated":"2019-08-31 15:36:42","description":"Aslene Orlistat 120 mg \r\nHarga /Box \r\n\r\nINDIKASI \r\nAslene digunakan untuk mengelola obesitas pada orang dewasa, dapat digunakan untuk mengurangi risiko berat badan kembali setelah penurunan berat badan sebelumnya. Hal ini digunakan bersama dengan mengurangi kalori, diet rendah lemak. Aslene bekerja dengan menghalangi pencernaan lemak dari diet. \r\n\r\nINSTRUKSI \r\nGunakan Aslene seperti yang diarahkan \r\n Ambil Aslene melalui mulut. Jangan lebih dari 3 kapsul sehari \r\n Makanan tidak mengandung lemak, tidak perlu meminum Aslene \r\n Dapat menurunkan penyerapan vitamin. Mengambil multivitamin sekali sehari pada waktu tidur \r\n Jika melewatkan meminum Aslene, Ambil segera setelah ingat \r\n\r\nInformasi keamanan penting: \r\n Jangan mengambil lebih dari dosis yang dianjurkan Ini dapat meningkatkan risiko efek samping \r\n Diet yang tepat dan olahraga adalah penting untuk menurunkan berat badan dan mempertahankannya \r\n Aslene dapat menyebabkan perubahan dalam usus atau tinja (misalnya, gas dengan bercak berminyak, mencret, lebih sering tinja) \r\n Beritahu dokter atau dokter gigi sebelum menerima perawatan medis atau gigi, perawatan darurat, atau operasi \r\n Pasien diabetes - Aslene dapat mempengaruhi gula darah. Memeriksa kadar gula darah secara ketat. \r\n Hubungi dokter segera jika mengalami menguningnya kulit atau mata, urine gelap, tinja berwarna pucat, kelemahan yang tidak biasa, kehilangan nafsu makan, atau mual parah atau berkelanjutan \r\n Aslene tidak boleh digunakan pada anak-anak yang lebih muda 18 tahun \r\n Kehamilan dan menyusui: Jangan mengambil Aslene jika sedang hamil. Jika hamil, hubungi dokter \r\n\r\nEfek Samping \r\nSemua obat dapat menyebabkan efek samping, tetapi banyak orang tidak memiliki, atau kecil, efek samping. \r\nPeriksa dengan dokter jika salah satu efek samping yang paling umum ini menetap atau menjadi mengganggu : \r\nDiare, tinja sering atau longgar, gas dengan debit, bercak berminyak, kesulitan mengendalikan buang air besar.","rating":0}
{"no":0,"title":"DULCOLAX TABLET - ISI 4 TABLET","price":"8.000","seller":"May 89","sellerPlace":"Jakarta Utara","url":"https://www.bukalapak.com/p/kesehatan-2359/obat-suplemen/obat-obatan/24969fn-jual-dulcolax-tablet-isi-4-tablet?from=&product_owner=normal_seller","sold":0,"seen":31,"favorite":0,"updated":"2019-08-11 21:37:12","description":"DULCOLAX \r\n\r\nKOMPOSISI :\r\n* 1 TABLET SALUT MENGANDUNG 5mg BISACODYL\r\n\r\nKHASIAT :\r\n* UNTUK MENGATASI KONSTIPASI\r\n\r\nDOSIS :\r\n* DEWASA : 1 - 2 TABLET SEHARI\r\n\r\nPERHATIAN :\r\n* DOSIS MAKSIMUM HARIAN TIDAK BOLEH DILAMPAUI\r\n* TABLET DIANJURKAN UNTUK DI MINUM MALAM HARI UNTUK MENDAPATKAN BUANG AIR BESAR KEESOKAN HARINYA\r\n* TABLET HARUS DITELAN DALAM KEADAAN UTUH DENGAN AIR SECUKUPNYA\r\n* TIDAK BOLEH BERSAMA-SAMA DENGAN PRODUK YANG DAPAT MENINGKATKAN KEASAMAN SALURAN PENCERNAAN BAGIAN ATAS SEPERTI : SUSU, ANTASIDA ATAU SEDIAAN PROTON PUMP INHIBITOR\r\n\r\nKEMASAN : AMPLOP BERISI BLISTER @ 4 TABLET SALUT ENTERIK\r\n\r\nPRODUKSI :\r\nPT. Boehringer Ingelheim Indonesia\r\nReg. DTLA1\r\n\r\nEXP. 05/2021","rating":0}
{"no":0,"title":"Obat Herbal Ekstrak Pegagan Kapsul Mengatasi Gangguan Syaraf Pada Otak - Obat Vertigo - Migrain - Meningitis - Radang Otak - Kanker. Tumor Otak","price":"250.000","seller":"Susi Fatmawati","sellerPlace":"Jakarta Barat","url":"https://www.bukalapak.com/p/kesehatan-2359/obat-suplemen/obat-obatan/21moqot-jual-obat-herbal-ekstrak-pegagan-kapsul-mengatasi-gangguan-syaraf-pada-otak-obat-vertigo-migrain-meningitis-radang-otak-kanker-tumor-otak?from=&product_owner=normal_seller","sold":0,"seen":15,"favorite":0,"updated":"2019-10-13 19:26:43","description":"*BARANG SELALU READY STOCK\r\n*LANGSUNG KLIK BELI SEKARANG, KAMI LANGSUNG PROSES DAN DI KIRIM HARI INI JUGA\r\n*KEASLIAN OBAT TERJAMIN\r\n*AMAN DAN TANPA EFEK SAMPING\r\n*BERGARANSI UANG KEMBALI 100%, JIKA BARANG TIDAK SAMPAI TUJUAN ATAUPUN RUSAK\r\n\r\n>Pengiriman dilakukan sampai jam 14.30 WIB\r\n>Hari minggu tidak melakukan pengiriman, tapi tetap menerima orderan dan dikirim pada hari senin\r\n\r\n**Keterangan Produk\r\nNama Produk : Kapsul Ekstrak Pegagan\r\nIsi : 100 Kpasul\r\nAturan konsumsi : 2x2kapsul/hari\r\nDi Produksi : CV. SAMI MANDJOER with NANO TECHNOLOGY\r\nLegalitas :\r\n- BPOM RI POM TR 193325461\r\n- Sertifikat HALAL dari MUI\r\n\r\nKapsul Ekstrak Pegagan merupakan suplemen otak atau vitamin otak yang berkhasiat dan bermanfaat untuk meningkatkan fungsi kerja otak manusia sehingga lebih optimal. Kapsul Ekstrak Pegagan ini di produksi langsung oleh CV. SAMI MANDJOER menggunakan NANO TECHNOLOGY. Teknologi ini sangat bermanfaat untuk mempercepat proses penyerapan nutrisi di dalam tubuh. Ini dikarenakan ekstraksi diolah menjadi ukuran nano sehingga tubuh akan mudah menyerap nutrisi yang ada dalam Kapsul Ekstrak Pegagan.\r\n\r\nKapsul Ekstrak Pegagan terbuat hanya dari bahan pilihan berkualitas yaitu dari Ekstrak Pegagan saja tanpa adanya campuran bahan lain. Pegagan adalah salah satu jenis tanaman liar yang berasal dari rumput.\r\n\r\nKandungan yang terdapat dalam daun pegagan, diantaranya adalah : asiaticoside, thankuniside, isothankuniside, madecassoside, brahmoside, brahmic acid, brahminoside, madasiatic acid, meso-inositol, centelloside, carotenoids, hydrocotylin, vellarine, tanin serta kandungan mineral seperti kalium, natrium, magnesium, kalsium dan zat besi.\r\n\r\nKhasiat Kapsul Ekstrak Pegagan\r\n\r\no)Meningkatkan daya ingat\r\no)Meningkatkan Syaraf memori\r\no)Melancarkan peredaran darah\r\no)Mencegah datangnya masalah penyumbatan pada otak\r\no)Mengandung nutrisi yang sangat baik bagi kesehatan otak\r\no)Mengatasi sakit kepala yang berkepanjangan, menahun, dan sakit kepala sebelah\r\no)Mengatasi Vertigo, Migrain, Alzheimer\r\no)Mencegah penyumbatan darah pada otak\r\no)Mengurangi pelupa atau pikun\r\no)Meningkatkan sirkulasi darah pada lengan dan kaki\r\no)Menurunkan gejala stres dan depresi\r\no)Antibakteri, tonik, antispasma, antiinflasmasi, hopotensif, insektisida, antilaergi dan stimulan\r\n\r\nDisclaimer : Reaksi/khasiat obat herbal ini setiap individu berbeda-beda, tergantung tingkat keparahan penyakitnya, respon tubuh, pola makan, faktor lingkungan dan usia.","rating":0}
{"no":0,"title":"Obat Herbal Gatal Pada Miss V - Gatal Selangkangan - Gatal Pada Area Kemaluan - Gatal Keputihan - Walatra Sehat Wanita","price":"170.000","seller":"Susi Fatmawati","sellerPlace":"Jakarta Barat","url":"https://www.bukalapak.com/p/kesehatan-2359/obat-suplemen/obat-obatan/25mp5rw-jual-obat-herbal-gatal-pada-miss-v-gatal-selangkangan-gatal-pada-area-kemaluan-gatal-keputihan-walatra-sehat-wanita?from=&product_owner=normal_seller","sold":0,"seen":15,"favorite":0,"updated":"2019-10-13 19:19:26","description":"*BARANG SELALU READY STOCK\r\n*LANGSUNG KLIK BELI SEKARANG, KAMI LANGSUNG PROSES DAN DI KIRIM HARI INI JUGA\r\n*KEASLIAN OBAT TERJAMIN\r\n*AMAN DAN TANPA EFEK SAMPING\r\n*BERGARANSI UANG KEMBALI 100%, JIKA BARANG TIDAK SAMPAI TUJUAN ATAUPUN RUSAK\r\n\r\n-Pengiriman dilakukan sampai jam 14.30 WIB\r\n-Hari minggu tidak melakukan pengiriman, tapi tetap menerima orderan dan di kirim pada hari senin\r\n\r\n**Keterangan Produk\r\nNama Produk : Sehat Wanita\r\nIsi : 100 kapsul\r\nDi Produksi : CV. SAMI MANDJOER with NANO TECHNOLOGY\r\nLegalitas :\r\n- BPOM RI POM TR 193325571\r\n- Sertifikat HALAL dari MUI\r\n\r\nSehat Wanita merupakan salah satu produk yang berkhasiat untuk mengatasi berbagai keluhan kewanitaan terutama pada sisitem reproduksinya. Obat herbal Sehat Wanita ini bekerja secara sinergis meningkatkan daya tahan tubuh dan membersihkan berbagai toksin/racun dalam tubuh.\r\n\r\n**Komposisi : Kunyit, Daun Sirih, Kayu Manis, dan Manjakani\r\n\r\n**Khasiat Sehat Wanita\r\n\r\n>Nutrisi lengkap bagi wanita yang sedang dalam masa subur atau mendekati menopause, dan wanita lansia yang ingin menjaga kesehatan mereka\r\n>Mengurangi rasa sakit akibat menstruasi\r\n>Menormalkan dan melancarkan menstruasi\r\n>Mencegah dan mengatasi leukore (keputihan tebal)\r\n>Mencegah dan mengatasi Endometriosis (Sel endometrium yang melapisi rahim, tumbuh di luar rongga rahim)\r\n>Mengatasi dan mengobati gatal pada miss V\r\n>Mencegah dan mengatasi miss V yang kering\r\n>Manjakani digunakan untuk merapatkan dan mengencangkan miss V\r\n>Mengatasi dan menghilangkan bau tidak sedap dari miss V\r\n>Menyembuhkan infeksi jamur pada daerah kewanitaan\r\n>Mencegah dan membantu perawatan penderita kanker\r\n>Membantu mencegah dan mengatasi Sindrom Shock Toksik Haid (mTss)\r\n>Mencegah dan mengatasi Uterine Fibroid (Tumor non kanker yang tumbuh di dinding rahim)\r\n>Merawat kesehatan rahim agar mudah mendapatkan keturunan\r\n>Mempercapat pemulihan luka selepas melahirkan\r\n\r\n**Aturan Konsumsi \r\n4 kapsul 2x sehari (anak-anak maupun dewasa)\r\n\r\nDisclaimer : Reaksi/khasiat obat herbal ini setiap individu berbeda-beda, tergantung tingkat keparahan penyakitnya, respon tubuh, pola makan, faktor lingkungan dan usia.","rating":0}
{"no":0,"title":"L evitra asli obat kuat-tahan lama","price":"500.000","seller":"Liu Xingsheng","sellerPlace":"Jakarta Pusat","url":"https://www.bukalapak.com/p/kesehatan-2359/obat-suplemen/obat-obatan/2cebk4x-jual-l-evitra-asli-obat-kuat-tahan-lama?from=&product_owner=normal_seller","sold":1,"seen":52,"favorite":1,"updated":"2019-10-14 14:30:36","description":"READY STOK KAK.!!!\r\n\r\nproduk 100% Asli Original\r\n\r\nCATATAN : FOTO ASLI 100%\r\n\r\nMOHON maaf, Untuk Yang Mau Pesan Silahkan Klik Beli Dan Langsung Lanjut Pembayaran Karena Iklan Produk Dewasa Mudah Di Hapus Oleh Pihak Yang Berwenang.\r\n\r\nDi Jamin Barang Akan Kami Bungkus Rapi Guna Menjaga Privasi Anda . .\r\n\r\nKAMI DATANG MEMBANTU PROBLEM RUMAH TANGGA ANDA SERTA MENJAGA KEHARMONISAN RUMAH TANGGA ANDA,TERIMAKASIH \r\n\r\nKELEBIHAN TOKO KAMI :\r\n\r\nBenar - benar distributor resmi\r\n\r\nPrivacy anda terjamin aman\r\n\r\nPaket dikemas rapi tidak kelihatan isi\r\n\r\nPengiriman selalu tepat waktu\r\n\r\nDijamin barang terkirim dengan selamat sesuai pemesanan\r\n\r\nSelalu mengirim No","rating":0}
{"no":0,"title":"Obat Herbal Luka Diabetes Basah - Kering - Obat Oles Luka Diabetes - Luka Gangren - Pengering Luka Diabetes - QnC Jelly gamat","price":"155.000","seller":"Susi Fatmawati","sellerPlace":"Jakarta Barat","url":"https://www.bukalapak.com/p/kesehatan-2359/obat-suplemen/obat-obatan/21z89rv-jual-obat-herbal-luka-diabetes-basah-kering-obat-oles-luka-diabetes-luka-gangren-pengering-luka-diabetes-qnc-jelly-gamat?from=&product_owner=normal_seller","sold":0,"seen":6,"favorite":0,"updated":"2019-07-29 14:40:02","description":"*BARANG SELALU READY STOCK\r\n*LANGSUNG KLIK BELI SEKARANG, KAMI LANGSUNG PROSES DAN DI KIRIM HARI INI JUGA\r\n*KEASLIAN OBAT TERJAMIN\r\n*AMAN DAN TANPA EFEK SAMPING\r\n*BERGARANSI UANG KEMBALI 100%, JIKA BARANG TIDAK SAMPAI TUJUAN ATAUPUN RUSAK\r\n\r\n>Pengiriman dilakukan sampai jam 14.30 WIB\r\n>Hari minggu tidak melakukan pengiriman, tapi tetap menerima orderan dan dikirim pada hari senin\r\n\r\n**Keterangan Produk\r\nNama Produk : QnC Jelly Gamat\r\nIsi : 300 ml\r\nDi Produksi : CV. JOGJA NATURAL HERBAL\r\nLegalitas :\r\n- BPOM RI POM TR 173301471\r\n- Sertifikat HALAL dari MUI\r\n\r\nQnC Jelly Gamat merupakan obat herbal multikhasiat yang terbuat dari Ekstrak Teripang Emas ASLI (Golden Stichopus Hermani) dan Maldepuratum (Madu). Yang mana dalam Teripang Emas terdapat banyak kandungan nutrisi lengkap yang berkhasiat penting untuk kesehatan tubuh anda, terlebih lagi dipadukannya dengan bahan tambahan Maldepuratum (Madu), seperti yang ada ketahui sendiri madu merupakan salah satu cairan kental manis yang dibuat oleh lebah dengan mengambil nectar dari bunga-bunga. Selain rasanya yang enak dan menyegarkan madu banyak mengandung banyak nutrisi dan vitamin yang dibutuhkakn tubuh.\r\n\r\nKandungan aktif yang terdapat dalam teripang emas ini, diantaranya adalah : Asam amino, Antiseptik Alamiah, Lektin, Cell Growth Factor, Glucosamine, Kolagen 80,0 %, Omega (3, 6, dan 9), Chondroitin, GAMAPEPTIDE, Saponin, Glucosaminoglycans (GAGs), Docosahehexanat 3,69 (DHA), Protein 86,8 %, Mukopolisakarida, Mineral, dan Vitamin.\r\n\r\n**Khasiat Lengkap QnC Jelly Gamat\r\n\r\no)Mengobati berbagai jenis penyakit : Asma, Asam lambung, Asam urat, maag, paru-paru, ginjal, lambung, jantung, kanker, ginjal, tumor, stroke, kista, miom, berbagai jenis penyakit kulit, dan masih banyak lagi yang lainnya.\r\no)Menjaga kesehatan sehingga tidak mudah sakit\r\no)Menjaga kesehatan jantung\r\no)Membersihkan darah kotor\r\no)Membantu meregenerasi sel rusak, untuk mempercepat pengeringan luka 3x lebih cepat baik luka luar maupun dalam\r\no)Mengeluarkan dan menetralkan racun\r\no)Memiliki antioksidan tinggi, antivirus, antitumor, antibakteri\r\no)Sumber nutrisi lengkap bagi ibu hamil\r\no)Mencegah dan melawan pertumbuhan kanker\r\no)Memperlancar sistem pernafasan dan sistem pencernaan\r\no)Meningkatkan sistem kekebalan tubuh\r\no)Mengobati dan menormalkan darah tinggi\r\no)Memelihara sirkulasi darah agar tetap lancar\r\no)Meringankan sakit pada persendian akibat osteoartritis, pengeroposan tulang, rematik\r\no)Menghentikan pendarahan akibat luka, haid, atau keguguran\r\no)Menurunkan kadar kolestrol di dalam tubuh dan trigliserida\r\no)Membuat kulit menjadi lebih muda, sehat, dan masih banyak lagi yang lainnya.\r\n\r\n**Aturan Konsumsi\r\n\r\n-Bayi 1-5 tahun : 1-2 sdt/hari\r\n-Anak-anak : 2x1 sdm/hari\r\n-Dewasa 3x2-3 sdm/hari (bisa di tambah sesuai kebutuhan)\r\n-Untuk penyakit luar (penyakit kulit, benjolan dll) di oleskan 5 kali sehari\r\n\r\n*AMAN DI KONSUMSI SEMUA KALANGAN, TERMASUK ANAK-ANAK, WANITA HAMIL DAN IBU MENYUSUI*\r\n\r\nPENTING : Bagi penderita yang mempunyai alergi Sea-food (makan laut) tidak diajurkan mengkonsumsi nya.\r\n\r\nDisclaimer : Reaksi/khasiat obat herbal ini setiap individu berbeda-beda, tergantung tingkat keparahan penyakitnya, respon tubuh, pola makan, faktor lingkungan dan usia.\r\n\r\nNote \"QnC Jelly Gamat ada yang cair dan ada yang kental, dikarenakan pada bahan baku teripang emas setiap musim berubah. Dan juga QnC Jelly Gamat tidak memiliki zat pengental apalagi zat kimia sehingga dengan demikian 100% herbal. Baik yang cair maupun yang kental memiliki khasiat dan manfaat yang sama\"","rating":0}
{"no":0,"title":"Obat Herbal Radang Selaput Otak - Peradangan Otak - Meningitis - Penyumbatan Darah Di Otak - Pembekuan Darah Di Otak - Ekstrak Pegagan Kapsul","price":"250.000","seller":"Susi Fatmawati","sellerPlace":"Jakarta Barat","url":"https://www.bukalapak.com/p/kesehatan-2359/obat-suplemen/obat-obatan/21mn519-jual-obat-herbal-radang-selaput-otak-peradangan-otak-meningitis-penyumbatan-darah-di-otak-pembekuan-darah-di-otak-ekstrak-pegagan-kapsul?from=&product_owner=normal_seller","sold":0,"seen":2,"favorite":1,"updated":"2019-09-19 09:06:05","description":"*BARANG SELALU READY STOCK\r\n*LANGSUNG KLIK BELI SEKARANG, KAMI LANGSUNG PROSES DAN DI KIRIM HARI INI JUGA\r\n*KEASLIAN OBAT TERJAMIN\r\n*AMAN DAN TANPA EFEK SAMPING\r\n*BERGARANSI UANG KEMBALI 100%, JIKA BARANG TIDAK SAMPAI TUJUAN ATAUPUN RUSAK\r\n\r\n>Pengiriman dilakukan sampai jam 14.30 WIB\r\n>Hari minggu tidak melakukan pengiriman, tapi tetap menerima orderan dan dikirim pada hari senin\r\n\r\n**Keterangan Produk\r\nNama Produk : Kapsul Ekstrak Pegagan\r\nIsi : 100 Kpasul\r\nAturan konsumsi : 2x2kapsul/hari\r\nDi Produksi : CV. SAMI MANDJOER with NANO TECHNOLOGY\r\nLegalitas :\r\n- BPOM RI POM TR 193325461\r\n- Sertifikat HALAL dari MUI\r\n\r\nKapsul Ekstrak Pegagan merupakan suplemen otak atau vitamin otak yang berkhasiat dan bermanfaat untuk meningkatkan fungsi kerja otak manusia sehingga lebih optimal. Kapsul Ekstrak Pegagan ini di produksi langsung oleh CV. SAMI MANDJOER menggunakan NANO TECHNOLOGY. Teknologi ini sangat bermanfaat untuk mempercepat proses penyerapan nutrisi di dalam tubuh. Ini dikarenakan ekstraksi diolah menjadi ukuran nano sehingga tubuh akan mudah menyerap nutrisi yang ada dalam Kapsul Ekstrak Pegagan.\r\n\r\nKapsul Ekstrak Pegagan terbuat hanya dari bahan pilihan berkualitas yaitu dari Ekstrak Pegagan saja tanpa adanya campuran bahan lain. Pegagan adalah salah satu jenis tanaman liar yang berasal dari rumput.\r\n\r\nKandungan yang terdapat dalam daun pegagan, diantaranya ad