{"no":0,"title":"Obat Herbal untuk Vertigo","price":"418.000","seller":"Nusa Herbal","sellerPlace":"Jepara","url":"https://www.bukalapak.com/p/kesehatan-2359/obat-suplemen/obat-obatan/4lgcse-jual-obat-herbal-untuk-vertigo?from=&product_owner=normal_seller","sold":14,"seen":885,"favorite":17,"updated":"2019-10-14 12:38:09","description":"Kapsul Herbal Terapi Vertigo ini cocok untuk penderita Vertigo parah, sedang maupun baru gejala. Jika Anda sedang melakukan pengobatan medis, maka Herbal Terapi Vertigo ini sangat aman untuk Anda gunakan secara bersamaan.\r\n\r\nSelain mendapatkan petunjuk penggunaan lengkap, saat melakukan terapi penyembuhan Herbal Terapi Vertigo, Anda juga akan dipandu langsung oleh Herbalis kami. Anda boleh melakukan konsultasi tentang penyakit dan Herbal Terapi Vertigo secara gratis.\r\n\r\nDapatkanlah ramuan herbal langsung dari Herbalis. Jangan pertaruhkan kesehatan Anda dengan memperoleh obat herbal dari sembarang orang.\r\n\r\n\r\n\r\nDalam paket terapi mata Katarak, Anda akan mendapatkan:\r\n\r\n1). Satu Botol Kapsul Herbal (70 kapsul herbal). Cukup untuk 24 hari terapi.\r\n\r\n2). Panduan penggunaan langsung dari Herbalis\r\n\r\n3). Fasilitas konsultasi Gratis bersama Herbalis kami selama terapi\r\n\r\n4). Potongan harga khusus untuk pembelian kedua dan seterusnya\r\n\r\n\r\n\r\n\r\nApakah Dengan 1 Kali Terapi Langsung Bisa Sembuh Total?\r\n\r\nBeberapa klien kami memang ada yang bisa sembuh total dengan hanya 1 paket terapi. Tentu tergantung seberapa parah kondisi kesehatan Anda saat melakukan terapi. Semakin cepat Anda melakukan terapi, maka semakin cepat pula Anda bisa merasakan kesembuhan.\r\n\r\nSebaliknya, semakin Anda menunda-nunda untuk melakukan terapi, maka kondisi kesehatan Anda akan semakin parah dan membutuhkan waktu terapi yang jauh lebih lama. Ada juga klien kami yang membutuhkan 6 paket terapi lantaran kondisinya sudah sangat parah.\r\n\r\n\r\n\r\n\r\nApakah Saya Bisa Jadi Reseller?\r\n\r\nPerlu Anda tahu bahwa bukalapak merupakan alternatif media kami untuk lebih mengenalkan berbagai produk herbal bermanfaat. Media utama kami adalah website resmi nusaherbal. Disana ada keterangan lengkap tentang reseller dan dropshipper.\r\n\r\nSingkatnya, sebagian besar reseller kami adalah mereka yang sudah pernah merasakan manfaat dari herbal vertigo ini. Sebab itu mereka sudah tahu betul bagaimana manfaat, kualitas dan efektifnya terapi ini. Namun apabila Anda ingin jadi reseller meski belum pernah merasakan manfaat, kami juga persilahkan.\r\n\r\nBerarti peran Anda adalah sebagai penyampai solusi kesehatan. Anda bisa berbuat baik dengan menyampaikan terapi ini pada orang-orang yang membutuhkan.\r\n\r\nUntuk menjadi reseller atau dropshipper, Anda bisa hubungi kami via kontak, website atau komentar di bukalapak. Terimakasih :)\r\n\r\nSalam sehat dan bugar.","rating":0}
{"no":0,"title":"GASTROPIN obat maag kronis - asam lambung - nyeri ulu hati manjur","price":"35.000","seller":"TOKO OBAT PATEN","sellerPlace":"Bekasi","url":"https://www.bukalapak.com/p/kesehatan-2359/obat-suplemen/obat-obatan/1q1a01r-jual-gastropin-obat-maag-kronis-asam-lambung-nyeri-ulu-hati-manjur?from=&product_owner=normal_seller","sold":0,"seen":64,"favorite":2,"updated":"2019-09-29 02:19:07","description":"Penjelasan Singkat\r\n- Kombinasi herbal untuk pengobatan nyeri dan perdangan pada lambung\r\n- Asam lambung berlebih, kembung, GERD dan perut-panas\r\n- Mengurangi rasa sakit perut, mual, dan muntah\r\n- Aman dan efektif untuk menjaga kesehatan pencernaan dan lambung tanpa efek samping.\r\n\r\nCARA PAKAI : \r\nDiminum 2 - 4 tablet satu jam sebelum makan . 2 kali sehari \r\ndiminum dengan air hangat . \r\n\r\nKEMASAN : botol berisi @ 12 tablet\r\n\r\nCARA PENYIMPANAN : \r\nSimpan di tempat sejuk dan kering. \r\nterhindar dari sinar matahari langsung. \r\n\r\nSARAN PENGOBATAN : \r\nhindari makan makanan pedas , asam , santan , dan minuman yang mengandung \r\nkafein. \r\n\r\nPERHATAIN : \r\nbila sakit berlanjut , segera hubungi dokter. \r\n\r\nDIPRODUKSI OLEH : \r\nSHANGHAI QINGPING PHARMACEUTICAL CO.,LTD.","rating":0}
{"no":0,"title":"TIEN MA MI HUAN SU obat migrain - vertigo dan sakit kepala herbal manjur","price":"62.500","seller":"TOKO OBAT PATEN","sellerPlace":"Bekasi","url":"https://www.bukalapak.com/p/kesehatan-2359/obat-suplemen/obat-obatan/1s7k4fb-jual-tien-ma-mi-huan-su-obat-migrain-vertigo-dan-sakit-kepala-herbal-manjur?from=&product_owner=normal_seller","sold":2,"seen":96,"favorite":1,"updated":"2019-09-29 01:49:36","description":"Khasiat : \r\n- Mengobati sakit kepala akibat hipertensi\r\n- Mengobati vertigo, Insomnia dan epilepsi\r\n- Meredakan nyeri rematik\r\n- Melancarkan peredaran darah tubuh\r\n\r\nCara Pakai : Diminum 2-3x sehari @ 3 kapsul.\r\n\r\nLarangan : Tidak untuk wanita hamil\r\n\r\nKomposisi :\r\n-Rhizoma Gastrodiae 34g\r\n-Radix Acanthopanacis Bidentatae 28g\r\n-Cortex Eucommiae 28g\r\n-Ramulus Uncariae Cum Uncis 20g\r\n-Herba Visci 20g\r\n-Radix Scrophuiariae 20g\r\n-Radix Chuanxiong 20g\r\n-Flos Rehmanniae Indici 20g\r\n-Flos Chrysanthemi Indici 20g\r\n\r\nKemasan : Botol isi 36 kapsul\r\n\r\nDiproduksi Oleh : RFX Pharmaceutical Co. Ltd, Guang Xi\r\n\r\nDistributor : Perdana Sakti Indonesia\r\n\r\nBPOM no : TI 064 321 381","rating":0}
{"no":0,"title":"TRITENSI obat darah tinggi - hipertensi herbal manjur","price":"38.500","seller":"TOKO OBAT PATEN","sellerPlace":"Bekasi","url":"https://www.bukalapak.com/p/kesehatan-2359/obat-suplemen/obat-obatan/1qxhjkp-jual-tritensi-obat-darah-tinggi-hipertensi-herbal-manjur?from=&product_owner=normal_seller","sold":4,"seen":126,"favorite":2,"updated":"2019-10-13 22:54:06","description":"Penjelasan Singkat :\r\n- Mengobati tekanan darah tinggi\r\n- Menyehatkan fungsi kerja jantung\r\n- Melancarkan peredaran darah yang tersumbat\r\n- Meningkatkan stamina tubuh\r\n\r\nKhasiat dan Kegunaan Tritensi :\r\n- Menurunkan tekanan darah tinggi baik yang disertai sakit kepala yang hebat, pusing, penglihatan buram, nyeri dada, sesak napas dan aritmia (detak jantung tidak beraturan).\r\n- Memelihara fungsi kerja jantung.\r\n- Melancarkan sistem peredaran darah.\r\n- Menjaga stamina tubuh dan membuat tubuh tidak cepat mudah merasa lelah.\r\n\r\nTritensi dapat digunakan untuk penyakit darah tinggi / hipertensi, dengan gejala :\r\n- Sakit/nyeri kepala yang parah\r\n- Pusing\r\n- Penglihatan buram\r\n- Mual\r\n- Telinga berdenging\r\n- Detak jantung tidak beraturan (aritmia)\r\n- Mudah merasa lelah\r\n- Nyeri dada\r\n- Sesak napas\r\n\r\nCara Kerja :\r\n- Melebarkan pembuluh darah yang menyempit agar sistem peredaran darah menjadi lancar dan tekanan darah menjadi normal.\r\n- Bertindak sebagai diuretik (meningkatkan produksi urin) untuk membuang kelebihan garam (natrium) dan cairan dalam tubuh penyebab tekanan darah tinggi melalui air seni\r\n- Merelaksasikan syaraf dan otot kepala yang tegang untuk meredakan sakit kepala / pusing.\r\n\r\nCara Pakai :\r\nDiminum 2 kali sehari 6 pil seudah makan\r\n\r\nPerhatian :\r\n- Hanya untuk penderita darah tinggi yang telah ditetapkan oleh dokter\r\n- Selama penggunaan konsultasikan pada dokter secara berkala\r\n\r\nKomposisi : \r\n- Antelopis Cornu 67.5mg\r\n- Eucommiae Ulmoides Cortex 22.5mg\r\n- Rhemaniae Glutinosae Radix 22.5mg\r\n- Chrysantemi Indici Flos 22.5mg\r\n- Gastrodiae Rhizoma 7.5mg\r\n- Panacis Ginseng Radix 7.5mg\r\n\r\nKemasan : Botol isi 100 pil\r\n\r\nDiproduksi Oleh : CV. Santeri\r\n\r\nBPOM No : TR. 173 406 441","rating":0}
{"no":0,"title":"XIAO CHANG CHI WAN obat hernia - turun berok - bengkak herbal manjur","price":"59.500","seller":"TOKO OBAT PATEN","sellerPlace":"Bekasi","url":"https://www.bukalapak.com/p/kesehatan-2359/obat-suplemen/obat-obatan/1qm0nz4-jual-xiao-chang-chi-wan-obat-hernia-turun-berok-bengkak-herbal-manjur?from=&product_owner=normal_seller","sold":16,"seen":51,"favorite":1,"updated":"2019-09-29 02:19:27","description":"Penjelasan Singkat\r\n- Membantu meringankan bengkak \r\n- Membantu meredakan rasa nyeri\r\n- Membantu mengurangi peradangan\r\n- Cocok digunakan untuk hernia, radang testis, radang getah bening, dan radang usus\r\n\r\nDragonrear Xiao Chang Chi Wan, atau dikenal juga sebagai Obat untuk Hernia / Turun Berok. Terbuat dari bahan - bahan alami yang berkhasiat mengobati Hernia, mengurangi peradangan akibat hernia, mengurangi rasa nyeri, mengurangi peradangan biji pelir, peradangan saluran kelenjar getah bening dan peradangan getah bening.\r\n\r\nDalam pengobatan Cina, hernia disebabkan oleh ketidakseimbangan panas dan kelembaban tubuh sehingga terjadinya peradangan pada testis. Selain itu penyumbatan aliran darah dan kerusakan fungsi ginjal juga dapat mempengaruhi kelembaban tubuh sehingga mengakibatkan adanya benjolan pada bagian selangkangan atau bagian pada bawah perut dan menimbulkan rasa sakit.\r\n\r\nObat ini diproduksi menggunakan metode tradisional alami dan modern dengan mengambil ekstrak kandungan herbal terbaik menjadi produk obat sehingga obat ini mudah diserap oleh tubuh dan bagus untuk meredakan peradangan dan nyeri pada penyakit hernia.\r\n\r\nCara Pakai :\r\nDiminum sehari 3 kali, sekali minum 6 pill.\r\n\r\nKomposisi :\r\nFructus Toosendan 12%\r\nCortex Magnoliae Officinalis 10%\r\nSemen Litchi 10%\r\nRadix Platylcodonis 10%\r\nCaulis Clematidis Armandii 5%\r\nRhizoma Corydalis 5%\r\ndll\r\n\r\nKemasan : 1 Botol isi 100 pil\r\n\r\nDiproduksi Oleh : Dragonrear Intl Tdg. Co.\r\n\r\nDistributor : Sinar Herba Radix\r\n\r\nBPOM No : TI 044 412 191","rating":0}
{"no":0,"title":"MINYAK ANGIN BUNGA PUTIH 20 ML minyak angin serbaguna manjur","price":"52.500","seller":"TOKO OBAT PATEN","sellerPlace":"Bekasi","url":"https://www.bukalapak.com/p/kesehatan-2359/obat-suplemen/obat-obatan/1itn4me-jual-minyak-angin-bunga-putih-20-ml-minyak-angin-serbaguna-manjur?from=&product_owner=normal_seller","sold":2,"seen":45,"favorite":1,"updated":"2019-09-29 02:14:05","description":"Penjelasan Singkat :\r\n- Membantu meredakan gejala masuk angin, pilek, flu\r\n- Membantu melegakan hidung tersumbat\r\n- Membantu meredakan nyeri dan pegal-pegal pada otot / sendi\r\n- Membantu meredakan gatal akibat gigitan serangga\r\n- Praktis dan mudah dibawa saat berpergian\r\n\r\nHoe Hin White Flower Embrocation (Minyak Angin Bunga Putih) atau biasa dikenal dengan sebutan minyak angin Pak Fah Yeow ini merupakan minyak angin yang mengandung kombinasi campuran berbagai esensial oil seperti wintergreen, eucalyptus, dan lavender oil yang disertai juga dengan kandungan menthol dan camphor didalamnya. Dimana semua bahan-bahan kandungan alami dari minyak angin ini di import langsung dari Perancis, China, dan Australia yang dibeli sesuai dengan standard spesifikasi dari British Pharmacopoeia ataupun Chinese Pharmacopoeia. \r\n\r\nHoe Hin White Flower Embrocation (Minyak Angin Bunga Putih) memiliki aroma minyak angin yang khas dan efek rasa hangat bercampur dingin pada kulit, selain itu ukuran bentuk kemasannya juga praktis untuk dibawa saat berpergian sehingga efektif digunakan untuk meredakan mual dan muntah.\r\n\r\nKhasiat dan Kegunaan :\r\nMembantu meredakan gejala masuk angin, pilek, flu, hidung tersumbat, sakit kepala, dan sakit perut. Selain itu, minyak angin ini juga dapat membantu meredakan nyeri dan pegal-pegal pada otot / sendi, serta dapat mengurangi gatal-gatal akibat gigitan serangga.\r\n\r\nCara Pemakaian :\r\n- Untuk pemakaian luar : teteskan 2-3 tetes pada area yang sakit, lalu pijat secara lembut. Jika dibutuhkan ulangi pemakaian tiap 2 jam.\r\n- Dapat juga di inhalasi / di hirup jika dibutuhkan : Teteskan 2 - 3 tetes pada saputangan atau tisu, kemudian di hirup.\r\n\r\nPerhatian :\r\nTidak digunakan untuk anak dibawah 2 tahun, Jangan digunakan di bawah lubang hidung.\r\n\r\nKomposisi : \r\nWintergreen oil 40%\r\nMentol Crystal 30%\r\nEucalyptus Oil 18%\r\nCamphor 6%\r\nLavender Oil 6%\r\n\r\nKemasan : Botol isi 20 ml\r\n\r\nDiproduksi Oleh : Hoe Hin Pak Fah Yeow MFY. LTD\r\n\r\nBPOM No : QI 104 608 871","rating":0}
{"no":0,"title":"ZHONG LIU XIAO AI obat kanker dan tumor herbal manjur","price":"70.000","seller":"TOKO OBAT PATEN","sellerPlace":"Bekasi","url":"https://www.bukalapak.com/p/kesehatan-2359/obat-suplemen/obat-obatan/1iix3nq-jual-zhong-liu-xiao-ai-obat-kanker-dan-tumor-herbal-manjur?from=&product_owner=normal_seller","sold":4,"seen":42,"favorite":2,"updated":"2019-09-29 01:35:12","description":"ZHONG LIU XAIO AI \r\n\r\nSecara Tradisional digunakan untuk membantu menghambat pertumbuhan \r\nsel - sel kanker dan tumor , menghilangkan sakit dan mengurangi efek\r\nkemoterapi pada pasien kanker. \r\n\r\nZhong liu xiao Ai juga efektif untuk membantu menjaga dan menambah \r\nstamina pada penderita kanker dan tumor. \r\n\r\nterbuat dari bahan - bahan alami ramuan tradisional tiongkok \r\nzhong liu xiao ai aman diminum dan tidak ada efek samping. \r\n\r\nATURAN MINUM DAN DOSIS : \r\ndiminum 3 kali sehari , sekali minum 8 pill. \r\n\r\nKOMPOSISI : \r\nTiap pill mengandung : \r\nTerminalia Chebula Fructus............................27.800mg\r\nAmebiae Guttata Radix...................................20.220mg\r\nAtractylodes Macrocephala Rhizoma............42.950mg\r\nTaraxacum Mongolicae Folium......................58.100mg\r\nImpatientis Balsamina Semen........................20.220mg\r\nCodonopsis Pilosula Radix..............................35.400mg\r\nMel depuratum ( madu )................................20.500mg\r\n\r\nKEMASAN : \r\nbotol berisi @ 120 pill \r\n\r\nDIPRODUKSI OLEH : \r\nLanzhou Taibao Pharmaceutical Factory\r\n\r\nDIIMPORT DAN DI EDARKAN OLEH : \r\nPT. SINAR HERBA RADIX \r\nJakarta - indonesia .\r\nPOM TI NO. 044 411 871","rating":0}
{"no":0,"title":"KAPSUL CACING ASLI obat tipes dan demam paling paten","price":"20.000","seller":"TOKO OBAT PATEN","sellerPlace":"Bekasi","url":"https://www.bukalapak.com/p/kesehatan-2359/obat-suplemen/obat-obatan/1i1374w-jual-kapsul-cacing-asli-obat-tipes-dan-demam-paling-paten?from=&product_owner=normal_seller","sold":51,"seen":491,"favorite":14,"updated":"2019-10-15 14:58:04","description":"kapsul cacing tanah asli , di racik sendiri dengan bahan \r\n100% cacing asli . berkhasiat membantu mengobati tipes , menurunkan \r\ndemam , mengatasi infeksi pada usus. juga efektif membantu menawar \r\nracun dan membuang panas. \r\n\r\n5 kali lebih ampuh dari pada cacing kapsul kemasan !!\r\nbuktikan sendiri !\r\n\r\ndosis dan cara pakai : \r\nDiminum sehari 3 kali 4 kapsul sekali minum. \r\nsesudah makan , diminum dengan air hangat. \r\n\r\nkemasan : 1 set isi 12 kapsul . untuk 1 hari minum. \r\nanjuran diminum rutin selama 3 hari. \r\n\r\nhindari makan - makanan pedas , bersantan , dan goreng - gorengan \r\nselama proses pengobatan. \r\n\r\nistirahat yang cukup dan perbanyak minum air putih.","rating":0}
{"no":0,"title":"FUFANG EJIAO JIANG obat demam berdarah - penambah trombosit ecer 6 botol","price":"110.000","seller":"TOKO OBAT PATEN","sellerPlace":"Bekasi","url":"https://www.bukalapak.com/p/kesehatan-2359/obat-suplemen/obat-obatan/1mosfyl-jual-fufang-ejiao-jiang-obat-demam-berdarah-penambah-trombosit-ecer-6-botol?from=&product_owner=normal_seller","sold":2,"seen":135,"favorite":5,"updated":"2019-10-08 10:24:46","description":"NAMA PRODUK : FUFANG EJIAO JIANG \r\n\r\nKHASIAT DAN KEGUNAAN : \r\nSangat Manjur Untuk Meningkatkan Jumlah Trombosit Pada Pasien Demam Berdarah. \r\nMengobati Tipes , Menambah Darah dan Stamina. \r\n\r\nKOMPOSISI : \r\nCorii Asini Colla 11 mL\r\nCodonopsis Pilosulae Radix 2 mL\r\nCrataegus Pinnatifida 1 mL\r\nRehmanniae Glutinosa Radix 1.6 mL\r\nPanax Ginseng Radix 4.4 mL\r\n\r\nDOSIS DAN CARA PAKAI : \r\nDiminum sehari 3 x 20 mL.\r\nUntuk memelihara kesehatan tubuh : sehari 1-2 x 20 mL\r\n\r\nCARA PENYIMPANAN : \r\nBila tutup botol sudah dibuka.simpanlah di lemari pendingin.\r\nKEMASAN : \r\nDus berisi 6 botol \r\nDIPRODUKSI OLEH : \r\nShandong DongE EJiao Co.,Ltd\r\nDIIMPOR OLEH : \r\nPT. Saras Subur Abadi - Jakarta - Indonesia. \r\n\r\nPOM TI 164 650 681","rating":0}
{"no":0,"title":"KAPSUL CACING TANAH ASLI RACIKAN obat tipes paten","price":"20.000","seller":"TOKO OBAT PATEN","sellerPlace":"Bekasi","url":"https://www.bukalapak.com/p/kesehatan-2359/obat-suplemen/obat-obatan/1dwhn4q-jual-kapsul-cacing-tanah-asli-racikan-obat-tipes-paten?from=&product_owner=normal_seller","sold":5,"seen":208,"favorite":4,"updated":"2019-10-05 17:35:33","description":"kapsul cacing tanah asli , di racik sendiri dengan bahan \r\n100% cacing asli . berkhasiat membantu mengobati tipes , menurunkan \r\ndemam , mengatasi infeksi pada usus. juga efektif membantu menawar \r\nracun dan membuang panas. \r\n\r\ndosis dan cara pakai : \r\nDiminum sehari 3 kali 4 kapsul sekali minum. \r\nsesudah makan , diminum dengan air hangat. \r\n\r\nkemasan : 1 set isi 12 kapsul . untuk 1 hari minum. \r\nanjuran diminum rutin selama 3 hari. \r\n\r\nhindari makan - makanan pedas , bersantan , dan goreng - gorengan \r\nselama proses pengobatan. \r\n\r\nistirahat yang cukup dan perbanyak minum air putih.","rating":0}
{"no":0,"title":"Obat kanker tumor kanker payudara servik otak darah pembulu darah usus asli herbal denature","price":"320.000","seller":"JURAGAN DENATURE HERBAL","sellerPlace":"Cilacap","url":"https://www.bukalapak.com/p/kesehatan-2359/obat-suplemen/obat-obatan/11zmdcu-jual-obat-kanker-tumor-kanker-payudara-servik-otak-darah-pembulu-darah-usus-asli-herbal-denature?from=&product_owner=normal_seller","sold":150,"seen":24,"favorite":0,"updated":"2019-10-14 12:49:47","description":"Manfaat Dari Typhogel dan Zirzax Denature :\r\n\r\nMembantu mengobati kanker rahim\r\nMembantu mengobati kanker darah\r\nMembantu mengobati kanker paru-paru\r\nMembantu mengobati kanker otak\r\nMembantu mengobati kanker payudara\r\nMembantu mengobati semua jenis tumor\r\nMembantu mengobati semua jenis pendarahan\r\n\r\nIsi paket terdiri dari : \r\n\r\n1 Botol Typhogel isi 50 kapsul\r\n1 Botol Zirzax isi 50 kapsul\r\nMasing-masing botol isi 50 kapsul\r\n\r\nREADY STOCK SELALU GAN\r\n\r\nKami menerima layanan konsultasi untuk anda yang ingin bertanya-tanya terlebih dahulu. Silahkan langsung chat kami","rating":0}
{"no":0,"title":"Grosir Madu Diet Ath Thoifah - Madu Diet AtThoifah Murah","price":"335.000","seller":"dwi astuti","sellerPlace":"Kab. Serang","url":"https://www.bukalapak.com/p/kesehatan-2359/obat-suplemen/obat-obatan/krpykb-jual-grosir-madu-diet-ath-thoifah-madu-diet-atthoifah-murah?from=&product_owner=normal_seller","sold":391,"seen":156,"favorite":1,"updated":"2019-10-07 06:01:26","description":"Produk ini BUTUH SAFETY EKSTRA, silakan tambahkan BUBLE WRAP (harga MURAH 500\r\nperak) di link ini\r\n dan jika\r\nINGIN LEBIH AMAN LAGI BUBLE + DUS TEBALL (1000 perak SAJA) di sini\r\n DIET Ath Thoifah Merupakan madu murni pilihan yang diformulasikan dengan\r\nbeberapa ekstrak herbal terstandar yang secara tradisional mampu membantu\r\nprogram diet yang aman. Komposisi: Madu Murni Pilihan Ekstrak Kemuning Ekstrak\r\nLidah Buaya Ekstrak Bangle Ekstrak Jati Cina Khasiat: Membantu menghilangkan\r\nselulit Menghilangkan gelambir di perut bagi ibu-ibu yang baru melahirkan\r\nMengurangi lemak di paha, pinggul dan bagian yang berlemak lainnya Mengecilkan\r\nperut buncit akibat lemak / KB Detoksifikasi alami dan aman dari lemak dan racun\r\npenyebab kanker Melancarkan BAB DINKES P-IRT NO. 2-19 Di produksi :\r\nCvAt Thoifah Bekasi Indonesia info: berat asli 350 gr tapi sy tulis 450 karena\r\nstiap pakingan paket mnggunakan steroapoam/kardus tebal dan itu membuat tambah\r\ntimbangan paketan pengiriman jd saya tmbahkan dgn berat produk yg sebenarnya\r\ntrma ksih atas kerjasamanya... \r\ngh","rating":0}
{"no":0,"title":"avail night use","price":"25.700","seller":"herbalaku","sellerPlace":"Semarang","url":"https://www.bukalapak.com/p/kesehatan-2359/obat-suplemen/obat-obatan/52km0-jual-avail-night-use?from=&product_owner=normal_seller","sold":5615,"seen":1219,"favorite":31,"updated":"2019-10-13 11:23:54","description":"Order masuk sebelum jam 1, selain hari sabtu dan hari merah. bisa langsung di respons, jika tidak ada kendala langsung di ikutkan pengiriman hari itu juga. \r\nuntuk hari sabtu maksimal jam 11 untuk order masuk, bisa di ikutkan kirim hari itu juga. Tq\r\n\r\nAvail Bio Sanitary Pad\r\n\r\n1 Bks isi 10 lbr\r\n\r\nAvail Bio Sanitary Pad adalah pembalut wanita yang diproduksi dengan memakai teknologi tinggi yaitu \"Bio Teknologi\" bahan baku kapas, berkualitas tinggi dan tidak mudah tembus, mengandung 17 jenis herbal alami (link komposisi dan fungsi) di dalamnya yang mempunya khasiat tinggi.\r\n\r\nProduk ini telah diuji di singapura oleh Health Sciences Authority (No. Lab. PH menyatakan produk FC Bio Sanitary Pad tidak mengandung racun di dalamnya.\r\n\r\nJuga telah diuji di Malaysia oleh Chem Vi Laboraty Sdn Bhd, Malasyia (Ruj. LSmenyatakan produk FC Bio Sanitary Pad tidak mengandung plumbum, arsenic, tembaga, timah, , Salmonela (bakteri penyebab keracunan makanan) dan Stafilokokus (bakteri yang menghasilkan nanah)\r\n\r\n\r\nAvail Tidak mengandung Florensen, aman digunakan\r\nAvail 100 % terbuat dari Kapas (Cotton)\r\nAvail Berkualitas tinggi dan tidak mudah tembus\r\nAvail Tidak mengandung zat pemutih.\r\nAvail Tidak mengandung zat DIOXIN yang dapat menyebabkan kanker rahim, kanker payudara, dll.\r\nAvail Menjadi Antiseptik\r\nAvail Membasmi Kuman dan Bau.\r\nAvail Mengandung 17 Herbal Alami yang berfungsi mengatasi masalah wanita (keputihan, gatal, infeksi, dll)\r\nAvail Mencegah Kanker Rahim","rating":0}
{"no":0,"title":"Obat Ambeien Ambejoss Salwa - Obat Wasir Ambejoss Salwa","price":"275.000","seller":"deNature naura herbal","sellerPlace":"Cilacap","url":"https://www.bukalapak.com/p/kesehatan-2359/obat-suplemen/obat-obatan/158snwj-jual-obat-ambeien-ambejoss-salwa-obat-wasir-ambejoss-salwa?from=&product_owner=normal_seller","sold":81,"seen":122,"favorite":2,"updated":"2019-10-14 16:58:58","description":"Barang selalu ready ya sist/gan. Tinggal kirim (fast respond)\r\n\r\n\r\nPaket 1 minggu 275.000\r\n\r\n\r\n1 botol ambejoss @50 kapsul\r\n\r\n\r\n1 botol salep salwa\r\n\r\n\r\nApa Yang Anda Rasakan Ketika Terkena Penyakit Wasir / Ambeien Luar ataupun Dalam?\r\n\r\n\r\nRisih\r\n\r\n\r\nSulit Beraktifitas\r\n\r\n\r\nBAB Terasa Sakit\r\n\r\n\r\nGatal di Sekitar Anus\r\n\r\n\r\nBAB Berdarah\r\n\r\n\r\nMalu Ketika Berkumpul dg Teman\r\n\r\n\r\nApa Saja Yang Sudah Anda Lakukan Selama Ini Untuk Menghilangkan Penyakit Wasir Atau Ambeien Tersebut?\r\n\r\n\r\nKonsumsi Berbagai Macam Obat Namun Tak Kunjung Sembuh?\r\n\r\n\r\nDisarankan Untuk Operasi Tapi Takut?\r\n\r\n\r\nSudah Pernah Operasi Tapi Kambuh Lagi?\r\n\r\n\r\nJangan Khawatir Kami Punya Solusinya..!!\r\n\r\n\r\nTidak Sedikit Yang Sudah Operasi Wasir/ Ambeien Namun Kambuh Lagi..!!! Setelah Konsultasi dan Kami Sarankan Berobat Menggunakan Kapsul AmbeJoss dan Alhamdulillah Menemukan Kecocokan dan Sembuh..\r\n\r\n\r\nTANPA OPERASIPaket Ambejoss+ Salep salwa\r\n\r\n\r\nDiperuntukan untuk penderita wasir stadium II keatas yang sudah ada benjolannya.\r\n\r\n\r\nCara Mengobati Wasir Secara Tradisional yaitu dengan Ambejoss De Nature Indonesia sebagai obat wasir tradisional yang dirancang secara khusus untuk sembuhkan wasir ringan maupun parah secara alami.\r\n\r\n\r\nUji klinis telah menunjukkan bahwa produk ini aman dan tidak memiliki efek samping. Ambejoss De Nature Indonesia, Herbal Kami terbuat dari daun ungu pilihan yang sudah banyak membantu mengobati pasien wasir atau ambeien. Pemakaian Ambejoss secara rutin selama satu bulan bisa membantu mengobati wasir, baik itu wasir stadium IV sekalipun. Untuk yang stadium II keatas yang sudah ada benjolan di sekitar anus akibat pembengkakan, cara mengobati wasir luar kami sarankan juga untuk menggunakan Salep salwa. Salep salwa untuk wasir terbuat dari campuran herbal, diantaranya adalah propolis murni, minyak zaitun, binahong dan bahan lain yang membantu menyembuhkan wasir dari luar.\r\n\r\n\r\nobatwasirdisertaibenjolan\r\n\r\nobatambeyen\r\n\r\nobatmasur\r\n\r\nobatalamitanpaefekesamping","rating":0}
{"no":0,"title":"OBAT ASAM URAT REUMATIK HERBAL HABBASYIFA HABBATUSSAUDA ISI 90 KAPSUL","price":"65.000","seller":"Lyksans Shop","sellerPlace":"Bekasi","url":"https://www.bukalapak.com/p/kesehatan-2359/obat-suplemen/obat-obatan/211wmdr-jual-obat-asam-urat-reumatik-herbal-habbasyifa-habbatussauda-isi-90-kapsul?from=&product_owner=normal_seller","sold":84,"seen":235,"favorite":26,"updated":"2019-10-12 12:34:56","description":"Supaya dikirim Hari ini, order sebelum Jam 14:30 (Order diatas jam 14:30 dikirim esok hari)\r\n\r\nHABBASYIFA HABBATUSSAUDA CAIR ISI 90 KAPSUL\r\n100% ORIGINAL GARANSI JAMINAN UANG KEMBALI JIKA PALSU\r\n\r\nIsi: 90 Kapsul\r\nNo. Sertifikat Halal MUI: 00140016360701 (kapsul)\r\nIzin Depkes RI: POM TR 113 323 461\r\n\r\nProdusen/Merk: CV. Syifa Herbal Alami\r\n\r\nHabbasyifa adalah minyak habbatusauda dalam kapsul dari Habbasyi yang di dapat dari proses cold pressure, sehingga menghasilkan minyak yang berkualitas.\r\n\r\nKeunggulan :\r\nHarga 2 kali lipat lebih murah dibandingkan produk lain.\r\nDikemas secara higienis.\r\nMenggunakan kardus sehingga tidak tertembus sinar UV.\r\nMenggunakan alat khusus sehingga mempunyai isi yang tepat kurang lebih 600 mg.\r\nMenggunakan cangkang kapsul yang halal (Sertifikat Halal Cangkang Kapsul LP POM MUI No. 00140016360701)\r\n\r\nManfaatnya :\r\n*Menyembuhkan jantung.\r\n*Stroke.\r\n*Gangguan Lambung.\r\n*Penyakit Liver.\r\n*Penyakit Reumatik dan Asam urat.\r\n*Membuang dan Menetralisir Racun Dalam Tubuh.\r\n*Memperbaikin Sistem Saluran Pencernaan dan Pernapasan, Gangguan Asma.\r\n*Menyeimbangkan Hormon.\r\n*Penguat Sistem Kekebalan Tubuh.\r\n*Anti Tumor/Kanker dan Peradangan.\r\n*Memperkuat daya ingat dan konsentrasi.\r\n*Mencegah Batu Ginjal.\r\n*Menormalkan Tekanan Darah.\r\n*Menurunkan Kolesterol.\r\n*Meningkatkan Produksi ASI.\r\n*Mencegah Penyumbatan Pembuluh Darah.\r\n*Dan lain-lain","rating":0}
{"no":0,"title":"Obat Madu Penggemuk Badan AL MABUROH Herbal Gemuk Badan","price":"70.000","seller":"Lyksans Shop","sellerPlace":"Bekasi","url":"https://www.bukalapak.com/p/kesehatan-2359/obat-suplemen/obat-obatan/211wwv4-jual-obat-madu-penggemuk-badan-al-maburoh-herbal-gemuk-badan?from=&product_owner=normal_seller","sold":79,"seen":189,"favorite":24,"updated":"2019-10-02 00:04:20","description":"Supaya dikirim Hari ini, order sebelum Jam 14:30 (Order diatas jam 14:30 dikirim esok hari)\r\n\r\nMADU PENGGEMUK BADAN AL MABUROH\r\n100% ORIGINAL GARANSI JAMINAN UANG KEMBALI JIKA PALSU\r\n\r\nDINKES :209327511529\r\nHET 65.000/BOTOL\r\nisi 350gr\r\n\r\nMANFAAT MADU PENGGEMUK BADAN :\r\n1.MENINGKATKAN NAFSU MAKAN\r\n2.MEMBANTU TUBUH LEBIH BERISI\r\n3.MEMPEBAIKI METANOLISME TUBUH\r\n4.MEMBANTU PROSES PENYERAPAN NURISI LEBIH MAKSIMAL\r\n\r\ndikonsumsi dari usia 5th keatas hingga dewasa","rating":0}
{"no":0,"title":"SEMEN BOOSTER Obat Khusus Pria Pengental Sperma Terbaik","price":"204.000","seller":"STOKIS HERBA","sellerPlace":"Jepara","url":"https://www.bukalapak.com/p/kesehatan-2359/obat-suplemen/obat-obatan/1m45t8q-jual-semen-booster-obat-khusus-pria-pengental-sperma-terbaik?from=&product_owner=normal_seller","sold":27,"seen":81,"favorite":32,"updated":"2019-10-03 10:32:42","description":"Jaminan uang kembali jika tidak merasakan khasiatnya sedikitpun setelah menghabiskan 1 botol.\r\n\r\n\r\nKELEBIHAN LAPAK KAMI :\r\n\r\n\r\n100 % Original - Tidak menimbulkan efek sampingBahan herbal alami - Aman untuk tubuhStock selalu ready dan baruPrivasi Anda aman bersama kamiNomor Regristrasi SIUP: 510/24/PK/VIII/2015 Mohon ikuti petunjuk pemakaian dengan cermat agar hasil yang didapatkan bisa maksimal\r\n\r\n\r\nSEMEN BOOSTER:\r\n\r\n\r\nSolusi air mani atau sperma encer, 0bat herbal sperma encer, mengentalkan sperma, meningkatkan kesuburan pria, meningkatkan kualitas air mani, meningkatkan libido sehingga Anda bisa beraksi liar di atas ranjang akibat gairah seksual yang mengebu-gebu.Air sperma yang Anda keluarkan saat ezakulasi adalah indeks kesehatan seksual Anda. Air sperma banyak namun tidak kental, ini adalah kondisi yang buruk. Percuma apabila produksi sperma didalam testis banyak namun air sperma yang Anda keluarkan saat ezakulasi encer. Air sperma encer adalah kondisi yang sangat buruk dan ini akan mempengaruhi kejantanan dan kesuburan. Bahkan, banyak wanita yang terangsangan secara visual apabila pasangannya menyemburkan air sperma yang kental dan banyak.Agar sperma tidak encer dan untuk bisa mendapatkan air sperma yang lebih kental, pastikan tubuh Anda mendapatkan asupan mineral dan vitamin yang dibutuhkan tubuh untuk menghasilkan air sperma yang sehat dan kental. Seng, magnesium dan selenium adalah jenis mineral yang sangat penting dan dibutuhkan oleh tubuh dalam menjaga kesehatan air sperma, sehingga kondisi sperma selalu terjaga kualitasnya dan kekentalannya.\r\n\r\n\r\nKHASIAT:\r\n\r\n\r\nMengentalkan air mani atau sperma.Menyehatkan dan menyuburkan spermaMeningkatkan potensi untuk merasakan kenikmatan s3ksual, tidak hanya sekali tapi berulang kali.Menjadikan ezakulasi jauh dan jauh lebih nikmat\r\n\r\n\r\nDETAIL PRODUK:\r\n\r\n\r\nNama: Semen BoosterKemasan: Botol (lihat foto diatas)Isi: 60 kapsul @ 500 mgIjin edar: Depkes. RI: IKOT 442/00060/V-2Cara Pemakaian: minum 1 atau 2 kapsul 2 kali sehari 15 menit sebelum makan.\r\n\r\n\r\nTelitilah Sebelum Berbelanja Pastikan Anda Bertransaksi Di Marketplace Resmi CV. Karya Abadi.\r\n\r\n\r\nPastikan Anda mendapatkan produk original, bukan KW.","rating":0}
{"no":0,"title":"RACUN SEMUT MEI JI GING MEIJIQING OBAT AMPUH PEMBASMI PEMBUNUH SERANGGA KOLONI","price":"1.500","seller":"sempati bird shop","sellerPlace":"Bandung","url":"https://www.bukalapak.com/p/kesehatan-2359/obat-suplemen/obat-obatan/1ypcyen-jual-racun-semut-mei-ji-ging-meijiqing-obat-ampuh-pembasmi-pembunuh-serangga-koloni?from=&product_owner=normal_seller","sold":646,"seen":564,"favorite":23,"updated":"2019-10-13 15:32:17","description":"Nama Produk: RACUN SEMUT MEIJIGING OBAT AMPUH PEMBASMI SEMUT SERANGGA KOLONI\r\n\r\nKategori produk: Obat/Drug\r\n\r\nKegunaan:\r\nMembasmi tuntas semut\r\nMembasmi koloni semut\r\nSebagai umpan racun bagi semut\r\nMembasmi ratu, anakan &amp; telur semut\r\nMenjadikan tempat bebas semut\r\nDapat langsung tabur dibarisan semut\r\nUmpan racun beraroma roti\r\nAroma disukai semut\r\nAwet &amp; praktis\r\n\r\nCara penggunaan: Taburkan 1/4 atau 1/2 bungkus bubuk umpan pada kerumunan semut, umpan akan dimakan dan dibawa kedalam sarangnya. Sehingga Ratu, anak, telur berikut koloninya akan musnah.","rating":0}
{"no":0,"title":"JAMSI Jamu Diabetes Asli - Jamu Kencing Manis Jaminan Asli","price":"59.900","seller":"Lenteng Herbal store","sellerPlace":"Jakarta Selatan","url":"https://www.bukalapak.com/p/kesehatan-2359/obat-suplemen/obat-obatan/1m283ea-jual-jamsi-jamu-diabetes-asli-jamu-kencing-manis-jaminan-asli?from=&product_owner=normal_seller","sold":142,"seen":651,"favorite":32,"updated":"2019-10-15 14:23:53","description":"APAKAH ANDA MENDERITA DIABETES? Tahukah Anda bahwa Gula darah tinggi dapat menyebabkan Komplikasi seperti : Buta, Stroke, Jantung Koroner, impoten, dan bahkan sampai harus Amputasi bagian tubuh. Setiap 6 detik, satu orang Meninggal akibat Diabetes. LALU APA SOLUSINYA? JAMSI solusi paling manjur atasi diabetes dalam 1-2 jam. JAMSI terbuat dari 100 % bahan alami, diantaranya: Mengkudu, Daun Sambiloto, Pegagan, Kurkuma, Mahkota Dewa, dll. yang kaya dengan kandungan protein &amp;amp;amp;amp;amp; vitamin yang dibutuhkan oleh tubuh manusia. KHASIAT &amp;amp;amp;amp; KELEBIHAN JAMSI: 1. Bermanfaat untuk mengatasi Diabetes dan menurunkan kadar gula darah dengan cepat 2. Dapat membantu memperbaiki kerusakan pankreas agar dapat kembali bekerja dengan baik 3. Sangat baik untuk Otak karena mengandung Omega 3 &amp;amp;amp;amp;amp; 6 4. Memberikan vitamin dan protein yang baik sebagai pengganti saripati makanan yang rusak 5. Dibuat oleh PT. Mahkotadewa Indonesia yang telah berpengalaman dalam mengolah produk herbal berkualitas dan merupakan perusahaan herbal pertama di Indonesia yang meraih sertifikasi keamanan pangan Internasional (Hazard Analysis Critical Control Point). ATURAN MINUM JAMSI: 1. Untuk Penderita Diabetes: 3 x 2 sendok makan diminum 1 jam sblm makan atau 1 jam stlah makan. 2. Bagaimana jika sedang minum obat medis/dokter? Obat medis tetap bisa diminum tapi beri jarak waktu 1 jam utk meminum JAMSI, dengan dosis sehari 2 x 2 sendok makan. 3. Bila gula darahnya kurang dari 200 sebaiknya asupan obat medis maupun insulin dikurangi dosis penggunaannya, misalnya: harusnya 3 x 1 dikurangi menjadi 2 x 1. 4. Untuk memelihara kesehatan (pencegahan diabetes): 1 x 1 sendok makan diminum 1 jam sebelum/setelah makan. INGIN GULA DARAH ANDA TURUN SECARA CEPAT &amp;amp;amp;amp; ALAMI? PESAN SEKARANG &amp;amp;amp;amp; RASAKAN KHASIATNYA!","rating":0}
{"no":0,"title":"Eye Care Softgel Green world","price":"530.000","seller":"Alkhansa Herbal","sellerPlace":"Makassar","url":"https://www.bukalapak.com/p/kesehatan-2359/obat-suplemen/obat-obatan/rv1hj-jual-eye-care-softgel-green-world?from=&product_owner=normal_seller","sold":33,"seen":1325,"favorite":27,"updated":"2019-03-21 22:31:12","description":"KAMI TIDAK MENJUAL BARANG PALSU DAN OPLOSAN \"100% ORIGINAL (TIDAK ORIGINAL KAMI BELI 2XLIPAT)\r\n\r\nEyecare softgel diproduksi oleh PT. Green world yang direkomendasikan khusus untuk kesehatan mata dan merupakan produk terbaik dengan paduan bahan herbal yang dikenal untuk menjaga fungsi mata dan kesehatan mata. eyecare softgel diproses dengan menggunakan teknologi modern dan canggih sehingga menjamin kualitas dan keamanannya.\r\n\r\nKhasiat :\r\nMengobati penyakit mata katarak\r\nMencegah glaukoma\r\nMengobati mata minus\r\nMemperbaiki daya penglihatan\r\nMengobati mata rabun\r\nMemberikan nutrisi untuk mata\r\nRetinitis pigmentosa\r\nMenajamkan penglihatan\r\nMengobati syaraf mata\r\n\r\nKomposisi :\r\nExtrak blueberry, eyebright, extrak ginkgo boliba, lutein, riboflavin, taurine, zinc, extrak biji anggur.\r\n\r\nAturan Minum :\r\nDewasa sehari 2x1 softgel\r\nAnak sehari 1 sotgel","rating":0}
{"no":0,"title":"Mentol / Menthol Cair Konsentrat Untuk Campuran Pembuatan E-Liquid / E-Juice","price":"20.000","seller":"Fernia Shop","sellerPlace":"Semarang","url":"https://www.bukalapak.com/p/kesehatan-2359/obat-suplemen/obat-obatan/3dwi0-jual-mentol-menthol-cair-konsentrat-untuk-campuran-pembuatan-e-liquid-e-juice?from=&product_owner=normal_seller","sold":360,"seen":8228,"favorite":324,"updated":"2019-10-15 15:12:46","description":"Harga untuk:\r\n10ml: 20.000 free alat suntik\r\n30ml: 40.000 free alat suntik\r\n100ml: 100.000 free alat suntik\r\nUntuk mendapat harga quantity 30ml atau 100ml, silakan beli dengan jumlah 2 untuk 30 ml dan jumlah 5 untuk pembelian 100ml\r\n\r\nMenthol cair konsentrat Food Grade ini bisa di gunakan untuk campuran E-Liquid, hanya butuh 1-2% untuk mendapatkan sensasi seperti rokok ice blast di RDA.\r\nDengan 10 ml anda sudah bisa sampai 20 botol e-liquid @30ml dengan kualitas dingin setara ice blast\r\nSudah melalui proses penyaringan double filter untuk kebersihanya sehingga tidak meninggalkan residu\r\nUntuk penggunaaan di tank dengan coil head kecil butuh 5-6%\r\nDemi keamanan dalam pengiriman, menthol cair akan kami kirim menggunakan botol plastik tetes standard farmasi.\r\n\r\nTersedia pula paket hemat menyesuaikan kebutuhan anda\r\nisi: esen, em, nicotine, menthol cair, chiller, asam, pemanis, pg, vg, alat suntik, botol plastik, botol pipet, botol kaca, stiker label, dll.\r\nsilakan pm\r\n\r\nTersedia Esen Zenflavour lainya, daftar aroma yang tersedia bisa di lihat di:\r\n/p/hobi/koleksi/vapor-rokok-elektrik/14obai-jual-daftar-aroma-premium-esen-zenflavour-e-liquid-essence-import-singapore\r\natau\r\nLabel [FS] Esen E-Liquid\r\n/huylie/label/fs-esen-e-liquid\r\n\r\nModifier / Enhancer E Liquid: (Lihat Label [FS] Enhancer)\r\n/huylie/label/fs-enhancer\r\n- Menthol Cair Konsentrat\r\n10ml 20rb, 30ml 40rb\r\n- Chiller, Koolada Pepermint\r\n10ml 30rb, 30ml 60rb\r\n- Asam, Citric Acid Konsentrat\r\n10ml 20rb, 30ml 40rb\r\n- Pemanis, Stevia Cair\r\n10ml 20rb, 30ml 40rb\r\n- Ethyl Maltol / EM / Cotton Candy\r\n10ml 10rb, 30ml 20rb\r\n- Nicotine Cair 100mg Nicvape USA\r\n10ml 50rb, 30ml 120rb\r\n\r\nSemua pembelian esen / enhancer / pemesanan pembuatan liquid di kirim 1-2 hari kerja, setelah pembayaran.","rating":0}
{"no":0,"title":"Obat Pelangsing Obat Penurun Berat Badan Diet WL Pro Garcinia Cambogia","price":"125.000","seller":"TokoIndri","sellerPlace":"Tangerang","url":"https://www.bukalapak.com/p/kesehatan-2359/obat-suplemen/obat-obatan/1xhk500-jual-obat-pelangsing-obat-penurun-berat-badan-diet-wl-pro-garcinia-cambogia?from=&product_owner=normal_seller","sold":103,"seen":924,"favorite":35,"updated":"2019-10-15 13:26:35","description":"Untuk barangnya selalu READY STOK - Produk Original - Garansi Asli\r\n\r\nIndikasi: \r\nWL Pro terbuat dari 100% herbal alami berfungsi untuk menurunkan berat badan.\r\n\r\nCara Kerja:\r\nWL Pro melapisi lambung dengan kandungan herbalnya sehingga makanan yang masuk tidak mudah menjadi tumpukan lemak yang menyebabkan naik berat badan/obesitas. Juga bekerja dengan cara menekan nafsu makan. Terdapat racikan Garcinia Cambogia dengan komposisi tepat yang dapat memicu proses metabolisme tubuh lebih cepat dan memecah sel - sel lemak penyebab kegemukan sehingga kalori lebih mudah terbakar.\r\n\r\nEfek Samping: \r\nTidak ada. Tanpa pusing, tanpa sakit perut, tanpa mual, tanpa jantung berdebar, tanpa buang air kecil/besar melulu. Boleh digunakan untuk manula diatas 65tahun. Bisa membantu menurunkan kadar kolesterol jahat dalam darah.\r\n\r\nTerapi:\r\nSetiap konsumen yang membeli WL Pro tidak hanya mendapatkan produk saja tapi juga mendapatkan panduan terapi lengkap serta bimbingan/konsultasi penurunan berat badan gratis baik melalui WA maupun chat.\r\n\r\nTerapi Level 1 turun BB s/d 10kg per 30 hari\r\nTerapi Level 2 turun BB s/d 15kg per 30 hari\r\nTerapi Level 3 turun BB s/d 20kg per 30 hari \r\n\r\nKemasan:\r\n1 Botol isi 60 kapsul @500mg cukup untuk 10 - 15 hari pemakaian\r\nLPPOM 001700016360701\r\n\r\nAturan pakai: \r\n2 - 3 kali sehari @ 2 kapsul. Sebaiknya 15 - 30 menit sebelum makan.\r\n\r\nTerapi Level 1 = Boleh 2 - 3 kali sehari @ 2 kapsul, Total 4 - 6 kapsul sehari. 1 botol bisa untuk 10 - 15 hari.\r\nTerapi Level 2 dan 3 = Wajib 3 kali sehari @ 2 kapsul, Total 6 kapsul sehari. 1 botol bisa untuk 10 hari.\r\n\r\nCatatan:\r\nTerapi Level 1 sampe 3 barang WLPro-nya sama. Yang beda antara level 1 sampe 3 adalah program terapi keluar masuk kalori dan jumlah konsumsi kapsul per hari berbeda per level. Didalam paketnya nanti sudah disertakan panduan detil program terapi level 1 sampe 3 di print terpisah.\r\n\r\n#obatdiet #obatpelangsing #penurunberatbadan #diet #langsing #garciniacambogia #pelangsing","rating":0}
{"no":0,"title":"Obat Herbal Kanker Tumor Kista dan Servik Asli De Nature","price":"315.000","seller":"Obat Herbal 88","sellerPlace":"Cilacap","url":"https://www.bukalapak.com/p/kesehatan-2359/obat-suplemen/obat-obatan/k9dedl-jual-obat-herbal-kanker-tumor-kista-dan-servik-asli-de-nature?from=&product_owner=normal_seller","sold":30,"seen":648,"favorite":17,"updated":"2019-10-14 10:13:21","description":"IZIN BPOM RI :\r\n- Ziirzax : TR 163 395 021\r\n- Typhogell : TR 173 399 941\r\n\r\nOBAT KANKER ZIIRZAX TYPHOGELL DE NATURE\r\nHarga sudah 1 Paket, Untuk 1 minggu.\r\n- 1 botol Ziirzax ( isi 50 kapsul )\r\n- 1 botol Typhogell ( isi 50 Kapsul )\r\n\r\nATURAN MINUM :\r\nDikonsumsi bersamaan\r\n- Ziirzax diminum sehari 3 x 2 kapsul, setiap 1 jam sebelum makan.\r\n- Typhogell diminum sehari 3 x 2 kapsul, setiap 1 jam sebelum makan.","rating":0}
{"no":0,"title":"Afrin Obat Semprot Hidung 15ml","price":"64.500","seller":"Bayer Health","sellerPlace":"Jakarta Timur","url":"https://www.bukalapak.com/p/kesehatan-2359/obat-suplemen/obat-obatan/1366yhc-jual-afrin-obat-semprot-hidung-15ml?from=&product_owner=seller_brand","sold":63,"seen":1322,"favorite":22,"updated":"2019-10-15 14:20:54","description":"Afrin Obat Semprot Hidung 15ml\r\n\r\n Komposisi: \r\nSetiap ml mengandung 0.5mg oxymetazoline hydrochloride\r\n\r\n Uraian: \r\nMengandung simpatomimetik oxymetazoline hydrochloride yang memiliki efek dekongestan. \r\n\r\n Indikasi: \r\nUntuk meringankan simtomatik dari kongesti (kesembaban) hidung dan nasofaring karena salesma (flu), sinusitis, hay fever atau alergi saluran napas bagian atas lainnya. \r\n\r\nDosis dan aturan pakai: \r\nUntuk orang dewasa dan anak-anak umur enam tahun atau lebih: dua atau tiga semprot ke dalam tiap lubang hidung dua kali sehari, pagi dan sore hari. Dengan kepala tegak lurus, letakkan ujung lubang semprotan dalam lubang hidung tanpa menyumbat lubang hidung seluruhnya. Selama setiap pemberian, pasien harus menekuk kepalanya sedikit ke depan dan hirup dengan cepat sambil memencet botol. \r\n\r\nBaca Peringatan dan Perhatian.\r\n\r\n.\r\n.","rating":0}
{"no":0,"title":"Graviola Concentrate Daun Sirsak Original","price":"490.000","seller":"Toko Saluyu","sellerPlace":"Sumedang","url":"https://www.bukalapak.com/p/kesehatan-2359/obat-suplemen/obat-obatan/1w8zu5z-jual-graviola-concentrate-daun-sirsak-original?from=&product_owner=normal_seller","sold":42,"seen":36,"favorite":0,"updated":"2019-10-01 15:25:41","description":"1 BOX ISI 7 BOTOL\r\nManfaat Daun Sirsak / Graviola :\r\n~ Mengobati Penyakit Kanker\r\n~ Mengobati Asam Urat \r\n~ Meningkatkan sistim kekebalan tubuh\r\n~ Membantu menyehatkan kinerja jantung\r\n~ Menurunkan kadar gula dalam darah\r\n~ Menurunkan tekanan darah tinggi\r\n~ Menghambat pertumbuhan sel tumor\r\n~ Mengobati Eksim dan rematik\r\n~ Mengobati sakit pinggang\r\n~ Dan mengobati beberapa penyakit yang disebabkan oleh Virus, Bakteri dan kuman\r\nKhasiat daun sirsak VLM Graviola mampu mengatasi berbagai macam penyakit :\r\nPenyakit yang disebabakan oleh VIRUS seperti : \r\nFlu, pilek, hidung tersumbat, batuk, cacar air, harpes, syndrome pernafasan akut, hepatitis, polio, aids,dll.\r\nPenyakit yang disebabkan oleh BAKTERI seperti : Tifus, disentri, kolera,TBC, radang paru paru, Meningitis, Lepra, Patek, Kencing nanah, Luka borok, dllPenyakit yang disebabkan oleh JAMUR seperti : Panu, Kadas, Kurap, Gatal kulit kepala, keputihan, gatal di selangkangan, gatal gatal disela jari tangan atau kaki, jenis penyakit yang disebabkan oleh ALERGI Menyembuhkan semua PERADANGANSebagai penurun kadar KOLESTEROL jahatDan Penyakit lainnya seperti : asma, bronchitis, stroke, diabetes, kista, sembelit, ambeyen, wasir, radiasi, asam urat,infeksi, tekanan darah tinggi, luka, tumor, sakit kepala, demam, sinusitis,dll.\r\nCara mengkonsumsi daun sirsak graviola :\r\nSiapkan air hangat 100ml / setengah gelas kecil, lalu teteskan daun sirsak graviola kedalam gelas dan segera diminum.\r\nAnjuran Pemakaian Daun Sirsak Graviola :\r\nPencegahan : 1x3 tetes perhari\r\nPenyakit ringan : 2x5 tetes perhari\r\nPenyakit berat : 3x7 tetes perhari\r\n#herbal #daunsirsak #penyakit #sehat #kesehatan","rating":0}
{"no":0,"title":"Promag Tablet 2 Strip","price":"10.000","seller":"Nabila Sembako Grosir","sellerPlace":"Jakarta Timur","url":"https://www.bukalapak.com/p/kesehatan-2359/obat-suplemen/obat-obatan/1pf3vkl-jual-promag-tablet-2-strip?from=&product_owner=normal_seller","sold":10,"seen":31,"favorite":3,"updated":"2019-09-18 13:02:47","description":"Deskripsi Produk\r\n\r\nObat kesehatan\r\nMengurangi gejala-gejala yang berhubungan dengan kelebihan asam lambung, gastritis, tukak lambung, nyeri lambung, nyeri ulu hati dan tukak usus dua belas\r\nTiap tablet mengandung Magnesium hidroksida 150 mg, Hydrotalcite 200 mg, Simethicone 50 mg\r\nDosis : Dewasa: 1-2 tablet 3-4 kali sehari, Anak 6-12 tahun : 1/2-1 tablet 3-4 kali sehari\r\nKemasan strip isi 12 / 2 strip","rating":0}
{"no":0,"title":"promo lan tus","price":"89.000","seller":"Apotek Aisyah","sellerPlace":"Jakarta Timur","url":"https://www.bukalapak.com/p/kesehatan-2359/obat-suplemen/obat-obatan/25dk9bx-jual-promo-lan-tus?from=&product_owner=normal_seller","sold":41,"seen":127,"favorite":2,"updated":"2019-10-06 18:43:29","description":"barang ready stok exp 2021 brg ori","rating":0}
{"no":0,"title":"Waisan 1g isi 12 sachet obat maag bintang toedjoe","price":"5.700","seller":"MUMOS","sellerPlace":"Bandung","url":"https://www.bukalapak.com/p/kesehatan-2359/obat-suplemen/obat-obatan/1d9ib8g-jual-waisan-1g-isi-12-sachet-obat-maag-bintang-toedjoe?from=&product_owner=normal_seller","sold":312,"seen":119,"favorite":5,"updated":"2019-10-02 19:49:49","description":"Bintang Toedjoe Waisan merupakan obat pencernaan berupa serbuk. Untuk mengurangi gejala-gejala yang berhubungan dengan kelebihan asam lambung, gastritis, tukak lambung, tukak usus dua belas jari dengan gejala-gejala seperti mual, nyeri lambung, nyeri ulu hati, kembung, dan perasaan penuh pada lambung.\r\n\r\nManfaat\r\nUntuk mengurangi gejala-gejala yang berhubungan dengan kelebihan asam lambung, gastritis, tukak lambung, tukak usus dua belas jari dengan gejala-gejala seperti mual, nyeri lambung, nyeri ulu hati, kembung, dan perasaan penuh pada lambung.\r\n\r\nPemakaian\r\nDewasa dan anak-anak > 12 tahun: 3 - 4 kali sehari 1 - 2 bungkus. \r\nSebaiknya diminum 1 - 2 jam setelah makan dan sebelum tidur malam.","rating":0}
{"no":0,"title":"bb cusion gold","price":"100.000","seller":"gesisahati","sellerPlace":"Medan","url":"https://www.bukalapak.com/p/kesehatan-2359/obat-suplemen/obat-obatan/2b6vn5h-jual-bb-cusion-gold?from=&product_owner=normal_seller","sold":85,"seen":12,"favorite":0,"updated":"2019-10-13 20:59:39","description":"asli ya\r\n\r\nada harga ada kualitasss\r\n\r\nsilahkan di order","rating":0}
{"no":0,"title":"Obat Sipilis Terdaftar BPOM","price":"295.000","seller":"deNature Obat Herbal","sellerPlace":"Cilacap","url":"https://www.bukalapak.com/p/kesehatan-2359/obat-suplemen/obat-obatan/dc0nnx-jual-obat-sipilis-terdaftar-bpom?from=&product_owner=normal_seller","sold":38,"seen":299,"favorite":7,"updated":"2019-10-09 18:17:40","description":"obat sipilis paling ampuh dari DENA LABORATORIUM\r\nGangjie dan Ghosiah Paket Obat Penyakit Kelamin Untuk Atasi Penyakit kelamin yang sudah lama,Gonore,Sipilis,Clamydia,Virus HPV,Trikomoniasi Dan penyakit Kelamin Lainnya\r\n\r\nObat Kami Sudah Terdaftar Resmi D Dinkes Dan BPOM Jadi Tidak Usah Kwatir\r\nObat Gangjie Ghosiah aman tidak ada efek samping\r\n\r\nBerfungsi Untuk:\r\nUntuk memulihkan stamina\r\nMemperbaiki jaringan sel pada bagian uretic\r\nMenjaga kesehatan tubuh\r\nSebagai anti virus\r\nMengobati infeksi saluran kencing\r\nGonore\r\nSipilis\r\nClamydia\r\n\r\nReadi Stok ya BL\r\nGak perlu tanya lagi ya :)\r\n\r\nSilahkan bisa di order\r\n#PRIVASI AMAN","rating":0}
{"no":0,"title":"frutablend","price":"128.000","seller":"Evelyn","sellerPlace":"Tangerang","url":"https://www.bukalapak.com/p/kesehatan-2359/obat-suplemen/obat-obatan/7z8za-jual-frutablend?from=&product_owner=normal_seller","sold":147,"seen":4145,"favorite":175,"updated":"2019-10-14 10:27:16","description":"Frutablend dari HWI dijamin original","rating":0}
{"no":0,"title":"Obat Perontok Kutil Kelamin Herbal Alami De Nature Original","price":"695.000","seller":"Bagja De Nature","sellerPlace":"Cilacap","url":"https://www.bukalapak.com/p/kesehatan-2359/obat-suplemen/obat-obatan/192l7kl-jual-obat-perontok-kutil-kelamin-herbal-alami-de-nature-original?from=&product_owner=normal_seller","sold":17,"seen":63,"favorite":15,"updated":"2019-05-18 05:02:01","description":"DETAIL PRODUK :\r\n#1BOTOL KAPSUL BD\r\n#1BOTOL Pipeca\r\n#1SALEP ANPILOMA PERONTOK KUTIL Kelamin\r\n#1SALEP PLUS PENGHILANG DAN PENGERING BEKAS Kutil\r\n\r\n#READY STOK TINGGAL ORDER\r\n#GARANSI ORIGINAL PRODUK\r\n#DIKIRIM LANGSUNG DARI CILACAP\r\n\r\n#1.Kapsul Bersih Darah :\r\nberfungsi untuk membersihkan darah yang kotor, mengobati gatal-gatal, koreng, bisul, memperbaiki peredaran darah, dan memperbaiki pencernaan makanan.\r\n\r\n#2.Kapsul Pipeca :\r\nsebagai Anti-Virus. terbuat dari sirih merah mengandung flavonoid, alkaloid, tanin dan minyak atsiri. Senyawa flavonoid bersifat anti kanker, anti-oksidan, ant-diabetik, anti-septik dan anti-inflamasi yang sangat bagus untuk menetralisir virus HPV.\r\n\r\nATURAN MINUM :\r\nKonsumsi Obat (Pipeca,Bersih Darah) 3X2 sehari (2 kapsul dari tiap botol jadi sekali konsumsi 4 kapsul sehari 3x4=12 Kapsul)\r\n\r\nSalep Perontok Kutil Kelamin Antipiloma ini adalah prodak yang sangat diburu oleh konsumen. Karena salep ini terbukti cepat mengatasi masalah kutil kelamin, maupun tahi lalat.\r\nCara penggunaanya :\r\n- Oleskan dengan korek kuping pada bagian kutilnya saja.\r\n- selama 10 menit bersihkan dengan air\r\n-lakukan berulang ulang \r\n-1hari 4 kali\r\n\r\nRontok dalam 2-3 hari\r\n* IZIN UKOT DINKES RI No. 503/1259/2016/2\r\n* BERSERTIFIKAT HALAL DARI MUI\r\n\r\n# Khasiat SALEP DJIE PLUS De Nature\r\n- Mengurangi lecet pada kulit\r\n- Menghilangkan bekas luka\r\n- Mengobati dan Menyembuhkan Herpes Zoster\r\n- Mengobati dan Menyembuhkan Infeksi Jamur\r\n- Mengurangi efek luka bernanah pada kulit yang terkena sipilis dan kutil\r\n- Membantu menghaluskan kulit yang terkena luka\r\n- Mengobati lecet pada kelamin pria / wanita\r\n\r\nAturan Salep Herbal SALEP DJIE PLUS Denature Indonesia:\r\nSalep herbal SALEP DJIE dioleskan 2X sehari [pagi dan malam hari sebelum tidur]","rating":0}
{"no":0,"title":"SO234 Madu Jadied Sehat Lambung - Obat Asam Lambung - Meningkatkan Daya Tahan Tubuh - Mengatasi Masalah Lambung - Kesehatan Saluran Pencernaan","price":"25.800","seller":"Juragan SixtyOne","sellerPlace":"Jakarta Pusat","url":"https://www.bukalapak.com/p/kesehatan-2359/obat-suplemen/obat-obatan/17vdqw1-jual-so234-madu-jadied-sehat-lambung-obat-asam-lambung-meningkatkan-daya-tahan-tubuh-mengatasi-masalah-lambung-kesehatan-saluran-pencernaan?from=&product_owner=normal_seller","sold":28,"seen":209,"favorite":3,"updated":"2019-10-09 02:16:26","description":"Madu Jadied Sehat Lambung\r\n\r\n\r\n\r\nMerupakan ramuan tradisional yang dibuat dari madu murni, zingiber officinale & mentha arvensis, dengan komposisi seimbang, sangat berkhasiat untuk mengatasi masalah kesehatan lambung & gejalanya.\r\n\r\n\r\n\r\nKhasiat :\r\n\r\n- Mengatasi maag\r\n\r\n- Mengatasi perut kembung\r\n\r\n- Meningkatkan daya tahan tubuh\r\n\r\n- Meningkatkan stamina\r\n\r\n- Mengatasi masuk angin\r\n\r\n- Membantu menormalkan pengeluaran asam lambung\r\n\r\n- Membantu meningkatkan fungsi saluran pencernaan\r\n\r\n- Menghangatkan badan\r\n\r\n- Meningkatkan daya konsentrasi\r\n\r\n\r\n\r\nKomposisi :\r\n\r\n- Madu\r\n\r\n- Sari kurma\r\n\r\n- Minyak zaitun\r\n\r\n- Minyak habbatussauda\r\n\r\n- Mentha arvensis\r\n\r\n- Zingiber officinale\r\n\r\n\r\n\r\nPetunjuk Pemakaian :\r\n\r\nMinum dengan tangan kanan sambil duduk dan membaca basmalah\r\n\r\n- Dewasa : 3x2 sendok makan setiap hari\r\n\r\n- Anak-anak : 3x1 sendok makan setiap hari\r\n\r\n\r\n\r\nIsi 150 gram\r\n\r\nLPPOM 01121052430810\r\n\r\nDINKES P-IRT : 2093271031105\r\n\r\nDiproduksi oleh : CV. JADIED INTERNASIONAL\r\n\r\nBogor - Indonesia","rating":0}
{"no":0,"title":"SO276 HIU Sari Kutuk - Albumin - Suplemen Tubuh - Kapsul Kesehatan - Obat Herbal - Suplemen Herbal","price":"69.800","seller":"Juragan SixtyOne","sellerPlace":"Jakarta Pusat","url":"https://www.bukalapak.com/p/kesehatan-2359/obat-suplemen/obat-obatan/17x2wba-jual-so276-hiu-sari-kutuk-albumin-suplemen-tubuh-kapsul-kesehatan-obat-herbal-suplemen-herbal?from=&product_owner=normal_seller","sold":29,"seen":185,"favorite":3,"updated":"2019-08-18 17:04:29","description":"HIU Sari Kutuk\r\n\r\n\r\n\r\nInsya Allah berkhasiat :\r\n\r\n- Sumber albumin alami\r\n\r\n- Mempercepat pemulihan jaringan tubuh\r\n\r\n- Mempercepat penyembuhan luka setelah operasi\r\n\r\n- Suplemen penunjang ibu hamil\r\n\r\n- Mempercepat penyembuhan setelah melahirkan\r\n\r\n- Meningkatkan kadar albumin\r\n\r\n- Membantu proses penyembuhan penyakit\r\n\r\n- Mempercepat pemulihan jaringan tubuh yang rusak\r\n\r\n\r\n\r\nIsi 60 kapsul\r\n\r\nPOM TR. 133 375 361\r\n\r\nHALAL LPPOM MUI No. 12270003591213\r\n\r\nDiproduksi oleh : Herbal Indo Utama","rating":0}
{"no":0,"title":"obat untuk sakit asma biasa maupun kronis","price":"250.000","seller":"JAGAT SATRIA SADEWA","sellerPlace":"Banyuwangi","url":"https://www.bukalapak.com/p/kesehatan-2359/obat-suplemen/obat-obatan/25fkxiu-jual-obat-untuk-sakit-asma-biasa-maupun-kronis?from=&product_owner=normal_seller","sold":19,"seen":72,"favorite":0,"updated":"2019-10-14 08:15:23","description":"Asma adalah jenis penyakit jangka panjang atau kronis pada saluran pernapasan yang ditandai dengan peradangan dan penyempitan saluran napas yang menimbulkan sesak atau sulit bernapas.\r\nSelain sulit bernapas, penderita asma juga bisa mengalami gejala lain seperti nyeri dada, batuk-batuk, dan mengi.\r\n\r\nBagi seseorang yang memiliki penyakit asma, saluran pernapasannya lebih sensitif dibandingkan orang lain yang tidak hidup dengan kondisi ini. Ketika paru-paru teriritasi pemicu di atas, maka otot-otot saluran pernapasan penderita asma akan menjadi kaku dan membuat saluran tersebut menyempit. Selain itu, akan terjadi peningkatan produksi dahak yang menjadikan bernapas makin sulit dilakukan.\r\n\r\nklinik pengobatan jagat satria mengobati segala penyakit baik medis maupun non medis insya Allah dg izin Allah sakit Anda sembuh\r\n\r\n\r\nBila Anda ingin mendapatkan obat untuk asma atau sesak nafas silahkan bisa melalui bukalapak di sini. \r\nAtau bisa langsung datang ke tempat saya di alamat saya :\r\n\r\nPENGOBATAN ALTERNATIF JAGAT SATRIA \r\nalamat : desa bimorejo pesisir\r\nRT 02/ RW 04, kecamatan wongsorejo kabupaten banyuwangi , propinsi jawa timur\r\n\r\nSemoga anda mendapat manfaat darinya dan semoga saya bisa mengamalkan ilmu saya unt orang banyak. Terima kasih \r\n\r\nWassalamu'alaikum warahmatullah wabarakatuhu.","rating":0}
{"no":0,"title":"OBAT HERBAL KAPSUL PRIA VITALITAS KU AT","price":"150.000","seller":"LAPAK AMANAH","sellerPlace":"Jakarta Utara","url":"https://www.bukalapak.com/p/kesehatan-2359/obat-suplemen/obat-obatan/22jlnsu-jual-obat-herbal-kapsul-pria-vitalitas-ku-at?from=&product_owner=normal_seller","sold":16,"seen":148,"favorite":34,"updated":"2019-10-10 09:44:37","description":"Ready stok Happy Shoping,.......................\r\n\r\nKami suplyer obat herbal Terpercaya....!!! Welcome Reseller dan Dropshiper. Cocok untuk Anda yg mau jual lagi...\r\nKami akan respon secepat mungkin, Langsung Order Saja...!! Barang semua READY,,, LANGSUNG KIRIM TANPA LAMA...!!!\r\n\r\nTerimakasih, Kepercayaanya Anda amanah Bagi kami, SMART BUYER..!!","rating":0}
{"no":0,"title":"teh mahkota dewa 130gr","price":"13.000","seller":"Nasir Herbal Jakarta","sellerPlace":"Jakarta Selatan","url":"https://www.bukalapak.com/p/kesehatan-2359/obat-suplemen/obat-obatan/fh76uu-jual-teh-mahkota-dewa-130gr?from=&product_owner=normal_seller","sold":683,"seen":1209,"favorite":28,"updated":"2019-10-14 15:23:49","description":"teh mahkota dewa merupakan teh yg di campur dengan herbal teh hijau,benar teh,dan buah mahkota dewa\r\n\r\n\r\nlolos uji laboratorium LPPT UNIVERSITAS GAJAH MADA USM\r\n\r\n\r\nberkhasiat mengobati si antaranya\r\n\r\n\r\ndemam berdarah\r\n\r\n\r\nkanker\r\n\r\n\r\nliver\r\n\r\n\r\ndarah tinggi\r\n\r\n\r\nstroke\r\n\r\n\r\njantung kencing manis\r\n\r\n\r\nkegemukan\r\n\r\n\r\nbatuk\r\n\r\n\r\nsesak nafas\r\n\r\n\r\nkeputihan\r\n\r\n\r\nhaid tidak lancar\r\n\r\n\r\nasam urat","rating":0}
{"no":0,"title":"LI XU WANG - Untuk penyumbatan pembulu darah dan kolestrol jantung","price":"100.000","seller":"YANI","sellerPlace":"Magelang","url":"https://www.bukalapak.com/p/kesehatan-2359/obat-suplemen/obat-obatan/hwquhr-jual-li-xu-wang-untuk-penyumbatan-pembulu-darah-dan-kolestrol-jantung?from=&product_owner=normal_seller","sold":315,"seen":166,"favorite":2,"updated":"2019-09-23 12:58:48","description":"Untuk penyumbatan pembulu darah. kolestrol jantung. Melancarkam bekuan darah. Dsb","rating":0}
{"no":0,"title":"Vitamin C Injeksi Origonal","price":"299.000","seller":"Jass Red fishing","sellerPlace":"Jombang","url":"https://www.bukalapak.com/p/kesehatan-2359/obat-suplemen/obat-obatan/1nkjqhe-jual-vitamin-c-injeksi-origonal?from=&product_owner=normal_seller","sold":306,"seen":54,"favorite":1,"updated":"2019-07-20 09:15:36","description":"SELAMAT DATANG DI LAPAK KAMI\r\n\r\n\r\n Vitamin C Injeksi\r\nAman bagi tubuh\r\nMencegah loyo\r\nMemperkuat sistem kekebalan tubuh\r\n\r\n\r\nTERIMAKASIH, SELAMAT BELANJA","rating":0}
{"no":0,"title":"komix cair","price":"2.000","seller":"v3shop Jakarta BV","sellerPlace":"Jakarta Timur","url":"https://www.bukalapak.com/p/kesehatan-2359/obat-suplemen/obat-obatan/a9t75c-jual-komix-cair?from=&product_owner=normal_seller","sold":36,"seen":269,"favorite":3,"updated":"2019-07-09 07:28:10","description":"Khasiat :\r\n- meredakan batuk berdahak\r\n- membantu mengeluarkan dahak\r\n- meredakan pilek\r\n\r\nKomix OBH merupakan sirup obat batuk hitam yang dapat membantu meredakan batuk berdahak dan pilek. Komix OBH bekerja sebagai ekspektoran untuk mengeluarkan dahak, dekongestan untuk melegakan hidung tersumbat akibat pilek, dan antihistamin untuk meredakan batuk.\r\n\r\nCara Kerja Obat : Bekerja sebagai ekspektoran, dekongestan hidung dan antihistamin. \r\n\r\nCara pakai : \r\n- Dewasa dan anak diatas 12 tahun : 3 kali 2 sachet sehari\r\n- Anak 6 - 12 tahun : 3 kali 1 sachet\r\n\r\nPerhatian : \r\n- Hati - hati penggunaan pada penderita dengan gangguan fungsi hati dan ginjal, glaukoma, hipertrofi prostat, hipertiroid dan retensi urine.\r\n- Tidak dianjurkan penggunaan pada anak usia dibawah 6 tahun.\r\n- Hati - hati penggunaan bersamaan dengan obat - obat lain yang menekan susunan saraf pusat.\r\n- Selama minum obat ini tidak boleh mengendarai kendaraan bermotor atau menjalankan mesin.\r\n\r\nEfek Samping : \r\nMengantuk, gangguan pencernaan, sakit kepala, insomnia, gelisah, eksitasi, tremor, takikardi, aritmia, mulut kering, palpitasi, retensi urine.\r\n\r\nKomposisi : \r\nSetiap sachet (7 ml) mengandung :\r\n- Succus Liquiritiae 167 mg\r\n- Guaifenesis 100 mg\r\n- Phenylephrine HCl 10 mg\r\n- Chlorpheniramine Maleate 2 mg\r\n\r\n\r\nDiproduksi Oleh : Bintang Toedjoe","rating":0}
{"no":0,"title":"Kapsul Mengkudu 120 Kapsul Obat Darah Tinggi Kapsul Noni","price":"26.000","seller":"Ayo Sehat","sellerPlace":"Tangerang Selatan","url":"https://www.bukalapak.com/p/kesehatan-2359/obat-suplemen/obat-obatan/gl11bp-jual-kapsul-mengkudu-120-kapsul-obat-darah-tinggi-kapsul-noni?from=&product_owner=normal_seller","sold":111,"seen":1329,"favorite":44,"updated":"2019-10-15 12:20:40","description":"Kapsul Mengkudu isi 120 kapsul herbamedika kapsul noni terbaik.\r\n\r\nManfaat Kapsul Mengkudu Herbamedika\r\n\r\n- Daya tahan tubuh\r\n- Anti inflamasi\r\n- Analgesik\r\n- Melawan kuman\r\n- Anti kanker\r\n- Mengendalikan tekanan darah\r\n- Hipertensi\r\n- Demam (Masuk Angin dan Infuenza)\r\n- Batuk\r\n- Sakit Perut\r\n- Menghilangkan Sisik pada Kaki\r\n- Meningkatkan Daya Tahan Tubuh\r\n- Menormalkan Tekanan Darah\r\n- Mengobati Tumor Dan Kanker\r\n- Melancarkan pencernaan\r\n\r\nKomposisi Kapsul Mengkudu Herbamedika isi 120\r\n- Serbuk Buah Mengkudu Pilihan\r\n\r\n\r\nAturan Pakai Kapsul Mengkudu Herbamedika isi 120\r\n- Pencegahan : 1 2 kapsul 2 x sehari\r\n- Pengobatan : 2 3 kapsul 2 x sehari\r\n\r\n\r\nIsi Kemasan Kapsul Mengkudu Herbamedika isi 120\r\n- 120 kapsul\r\n\r\n\r\nProdusen Kapsul Mengkudu Herbamedika isi 120\r\n- Herbamedika\r\n\r\n\r\nLegal dari Kapsul Mengkudu Herbamedika isi 120\r\n- DINKES RI IZIN IKOT NO : 442/1077-KES/V/10","rating":0}
{"no":0,"title":"LO SIAW GOK LO BAN TENG SPESIAL obat gosok untuk memar dan luka dalam paten","price":"60.000","seller":"TOKO OBAT PATEN","sellerPlace":"Bekasi","url":"https://www.bukalapak.com/p/kesehatan-2359/obat-suplemen/obat-obatan/1de7al5-jual-lo-siaw-gok-lo-ban-teng-spesial-obat-gosok-untuk-memar-dan-luka-dalam-paten?from=&product_owner=normal_seller","sold":7,"seen":309,"favorite":4,"updated":"2019-10-03 18:29:18","description":"OBAT GOSOK LO SIAW GOK LO BAN TENG \r\n\r\nSecara Tradisional digunakan untuk membantu meredakan nyeri karena terpukul , \r\nkeseleo , patah tulang dan tulang retak. \r\n\r\nSangat efektif untuk membantu mengurangi pembengkakan akibat luka dalam , dan\r\nbenturan , dengan cara melancarkan peredan darah dan menghilangkan bekuan darah . \r\n\r\nKomposisi : \r\nCinnamomi Cortex...........................30%\r\nAngelicae Radix.................................30%\r\nGentianae Marcrophyllae radix.......10%\r\nMastix.................................................10%\r\nArak Putih...........................................10%\r\nAir.........................................................10%\r\n\r\nCara Pemakaian : \r\nGosok Pada Bagian Yang sakit / Di kompres. \r\n\r\nBotol Berisi @ 200 mL \r\n\r\nPerhatian : \r\nHanya untuk pemakaian luar , tidak untuk luka terbuka. \r\nCara Penyimpanan : \r\nSimpan Ditempat Sejuk dan kering . \r\nTerhindar dari sinar matahari langsung. \r\n\r\nPOM TR. 175601881","rating":0}
{"no":0,"title":"BATUK PILEK si ji gan mao zhi ke gao obat batuk pilek cair manjur","price":"40.000","seller":"TOKO OBAT PATEN","sellerPlace":"Bekasi","url":"https://www.bukalapak.com/p/kesehatan-2359/obat-suplemen/obat-obatan/1gzgrpr-jual-batuk-pilek-si-ji-gan-mao-zhi-ke-gao-obat-batuk-pilek-cair-manjur?from=&product_owner=normal_seller","sold":5,"seen":37,"favorite":1,"updated":"2019-08-02 09:34:02","description":"BATUK PILEK si ji gan mao zhi ke gao obat batuk pilek cair manjur\r\n\r\nBATUK PILEK Si Ji Gan Mao Zhi Ke Gao\r\n\r\nSecara Tradisional digunakan Untuk membantu meredakan Batuk dan Pilek .\r\nefektif digunakan untuk membantu mengatasi hidung tersumbat , hidung meler , \r\nbersin - bersin , banyak dahak dan demam . \r\n\r\nDOSIS DAN CARA PEMAKAIAN : \r\nDewasa : 3 kali sehari @15ml \r\nAnak - anak : 3 kali sehari @ 10 ml \r\n\r\nKOMPOSISI : \r\nRadix Bupleuri...........................10 mg\r\nFlos Lonicerae............................15 mg\r\nFructus Forsythlae.................... 15 mg\r\nRadix Platycodononis................15 mg\r\nSemen Armeniacae Amarum...10 mg\r\nBulbus Fritillariae Citrihosae....15 mg\r\nRadix Glycyrrhiae.........................5 mg\r\nHerba Menthae............................5 mg\r\n\r\nKEMASAN : \r\nBOTOL ISI @ 200 ML\r\n\r\nTEMPAT PENYIMPANAN : \r\nSimpan ditempat sejuk dan kering , terhindar dari sinar matahari langsung. \r\nsimpan di bawah suhu 30 derajat celcius. \r\n\r\nPOM TR 123662821\r\nPT. CAHAYA BIRU","rating":0}
{"no":0,"title":"MEILI AN CHANG WAN obat jerawat herbal paten","price":"35.000","seller":"TOKO OBAT PATEN","sellerPlace":"Bekasi","url":"https://www.bukalapak.com/p/kesehatan-2359/obat-suplemen/obat-obatan/1g28xji-jual-meili-an-chang-wan-obat-jerawat-herbal-paten?from=&product_owner=normal_seller","sold":1,"seen":83,"favorite":2,"updated":"2019-10-15 11:16:56","description":"MEILI AN CHANG WAN \r\n\r\nDigunakan Untuk Mengobati jerawat biasa ataupun jerawat yang parah .\r\njerawat yang bernanah , jerawat batu dan jerawat di punggung. \r\n\r\nMeili An Chang Wan bekerja membersihkan darah kotor yang menyebabkan timbul\r\nnya jerawat . \r\n\r\nATURAN MINUM : 2 kali sehari , 2 kapsul sekali minum . \r\nuntuk satu seri pengobatan 4 - 6 minggu pemakaian. \r\n\r\nPERHATIAN : \r\nagar cepat sembuh , hindari makan telur , ikan laut dan makanan yang pedas dan berminyak. \r\n\r\nKEMASAN : 1 Botol berisi @ 20 kapsul \r\n\r\nCARA PENYIMPANAN : \r\nSimpan Di tempat sejuk dan kering. \r\njauhkan dari sinar matahari langsung. \r\n\r\nDIPRODUKSI OLEH : Hong Kong Medical Shon Tang Medical Co, Ltd.","rating":0}
{"no":0,"title":"DELMAG obat asam lambung dan pencernaan herbal","price":"39.000","seller":"TOKO OBAT PATEN","sellerPlace":"Bekasi","url":"https://www.bukalapak.com/p/kesehatan-2359/obat-suplemen/obat-obatan/1g2ygw6-jual-delmag-obat-asam-lambung-dan-pencernaan-herbal?from=&product_owner=normal_seller","sold":9,"seen":199,"favorite":6,"updated":"2019-10-07 07:16:40","description":"Penjelasan Singkat\r\n- Membantu mengobati luka lambung\r\n- Mengurangi rasa nyeri lambung, mual, kembung, dan muntah\r\n- Menyehatkan pencernaan dan lambung\r\n- Memperbaiki sistem pencernaan\r\n\r\nDelmag (Hsiang Sha Yang Wei Phien) merupakan obat herbal tradisional China yang terbuat dari ramuan herbal alami berkhasiat. Obat ini memiliki khasiat untuk membantu mengatasi gangguan pencernaan seperti mual, kembung dan nyeri lambung. Selain itu juga dapat membantu menyembuhkan luka lambung, memperbaiki sistem pencernaan, menghilangkan perut kembung dan menyehatkan lambung.\r\n\r\nKhasiat : \r\nUntuk membantu mengatasi gangguan pencernaan seperti mual, kembung dan nyeri pada lambung\r\n\r\nCara Pakai\r\nDewasa : 4 tablet 2 kali sehari\r\nAnak-anak : 2 tablet 2 kali sehari\r\n\r\nKomposisi :\r\nRhizoma Atractylodis Macrocephalae 0.50g\r\nPericarpium Citri Reticulate 0.59g\r\nPoria 0.50g\r\nRhizoma Polygonati 0.50g\r\nRhizoma Cyperi 0.35g\r\nFructus Amomi 0.35g\r\nRadix Aucklandiae 0.25g\r\nFructus Aurantii Immaturus 0.25g\r\nFructus Amomi Rotundus 0.25g\r\nCortex Magnoliae Officinalis 0.25g\r\nHerba Pogostemonis 0.25g\r\nRadix Glycyrrhizae 0.15g\r\nZingiberis Officinalis Resens 0.15g\r\nFructus Jujubae 0.25g\r\n\r\nKemasan : Isi 100 pill\r\n\r\nDiproduksi Oleh : Nam Fung Enterprises Ltd.\r\n\r\nDistributor : Citra Deli Kreasitama\r\n\r\nBPOM No : TR 052 442 171 \r\n\r\n#asamlambung #maag #maagkronis #pencernaan","rating":0}
{"no":0,"title":"BALSEM TJHING TJAU balsem untuk nyeri otot paten","price":"20.000","seller":"TOKO OBAT PATEN","sellerPlace":"Bekasi","url":"https://www.bukalapak.com/p/kesehatan-2359/obat-suplemen/obat-obatan/1f269c8-jual-balsem-tjhing-tjau-balsem-untuk-nyeri-otot-paten?from=&product_owner=normal_seller","sold":0,"seen":43,"favorite":0,"updated":"2019-04-06 14:51:00","description":"TJHING TJAU BALSEM \r\n\r\nKHASIAT DAN KEGUNAAN : \r\nSebagai Obat gosok Yang digunakan Untuk membantu meredakan sakit kepala ,\r\nmual , nyeri otot , dan menghilangkan gatal - gatal akibat gigitan serangga. \r\n\r\nKOMPOSISI : \r\nChampora 20%\r\nMenthol 18%\r\nPeppermint Oil 2%\r\nCassia Oil 1,5%\r\nWax 13,5%\r\nVaseline 45 %\r\n\r\nCARA PAKAI : \r\nDioleskan / digosokkan pada bagian yang sakit / nyeri. \r\n\r\nKEMASAN : netto 36g\r\n\r\nCARA PENYIMPANAN : \r\nSimpan di tempat sejuk dan kering. \r\nterhindar dari sinar matahari langsung. \r\njauhkan dari jangkauan anak anak. \r\n\r\nPERINGATAN / PERHATIAN : \r\nTidak boleh dioleskan di lubang hidung atau di telan. \r\nkarena dapat menimbulkan kolaps. \r\njangan digunakan untuk anak di bawah 2 tahun. \r\nbila gejala penyakit belum sembuh , segra konsultasikan ke dokter , \r\nhindarkan kontak dengan mata , luka terbuka , kulit teriritasi dan peka. \r\n\r\nDIPRODUKSI OLEH : \r\nPT. TULUS INDOJAYA , Bogor - Indonesia\r\nPOM QD 082 707 811","rating":0}
{"no":0,"title":"DETOSILIN CAPSULE obat batuk pilek dan meriang","price":"65.000","seller":"TOKO OBAT PATEN","sellerPlace":"Bekasi","url":"https://www.bukalapak.com/p/kesehatan-2359/obat-suplemen/obat-obatan/1ebcl6d-jual-detosilin-capsule-obat-batuk-pilek-dan-meriang?from=&product_owner=normal_seller","sold":0,"seen":89,"favorite":0,"updated":"2019-05-13 04:59:03","description":"- Membantu meringankan gejala selesma\r\n- Membantu menurunkan demam\r\n- Membantu meredakan batuk dan tenggorokan kering\r\n- Cocok untuk flu yang disertai demam, batuk, hidung tersumbat, nyeri sendi / pegal linu, sakit kepala, dan tenggorokan kering\r\n\r\nDetosilin Capsule merupakan produk obat herbal China yang digunakan untuk membantu meredakan gejala selesma atau biasa dikenal dengan batuk pilek yang disertai dengan gejala seperti hidung tersumbat, bersin-bersin, meriang, sakit kepala, tenggorokan gatal dan nyeri, batuk, serta gejala selesma lainnya.\r\n\r\nDetosilin Capsule mengandung bahan-bahan herbal alami yang sudah teruji khasiatnya dalam membantu melawan virus penyebab selesma dengan cara meningkatkan sistem kekebalan tubuh, membersihkan panas dan racun pada tubuh, mengurangi peradangan, menurunkan demam, meredakan batuk, dan melegakan tenggorokan.\r\n\r\nKhasiat :\r\nMembantu meredakan gejala selesma seperti hidung tersumbat, meriang dan membantu meredakan batuk\r\n\r\nCara Pakai : Diminum sehari 3 x 2 - 4 kapsul\r\n\r\nPerhatian :\r\nHindari konsumsi makanan pedas, dingin, dan berminyak\r\nHati-hati bagi yang alergi terhadap obat ini\r\nJauhkan dari jangkauan anak-anak\r\nJangan digunakan bila karakteristik produk ini berubah\r\n\r\nKomposisi :\r\nGypsum Fibrosum 115 mg\r\nLonicerae Japonicae Flos 28.6 mg\r\nScrophulariae Ningpoensis Radix 24 mg\r\nRehmanniae Glutinosa Radix 20 mg\r\nForsythiae Suspensa Fructus 11.5 mg\r\nGardeniae Jasminoides Fructus 11.5 mg\r\nCorydalis Bungeanae Herba 11.5 mg\r\nScutellariae Baicalensis Radix 11.5 mg\r\nGentianae Scabra Radix et Rhizoma 11.5 mg\r\nIsatidis Tinctoria Radix 11.5 mg\r\nAnemarrhenae Asphodeloides Rhizoma 16.2 mg\r\nOphiopogonis Japonicus Radix 16.2 mg\r\n\r\nKemasan : Dus berisi 2 blister @ 18 kapsul\r\n\r\nBrand : Buchang\r\n\r\nDiproduksi Oleh : Shaanxi Buchang Pharmaceutical Co.,Ltd\r\n\r\nProduksi : China\r\n\r\nBPOM No : TI 184 357 651","rating":0}
{"no":0,"title":"TIEH TA WAN obat keseleo bengkak dan luka dalam paten","price":"10.000","seller":"TOKO OBAT PATEN","sellerPlace":"Bekasi","url":"https://www.bukalapak.com/p/kesehatan-2359/obat-suplemen/obat-obatan/1doqarp-jual-tieh-ta-wan-obat-keseleo-bengkak-dan-luka-dalam-paten?from=&product_owner=normal_seller","sold":32,"seen":281,"favorite":9,"updated":"2019-10-14 18:50:10","description":"Penjelasan Singkat\r\n\r\n\r\n\r\nSangat baik untuk luka memar, terkilir, dan jatuh.\r\n\r\nCepat mengatasi benjol, memar, bengkak\r\n\r\nTerbuat dari bahan herbal alami\r\n\r\nCocok juga untuk bengkak akibat patah tulang\r\n\r\n\r\n\r\n\r\nHsiung Tan Tieh Ta Wan banyak digunakan untuk pengobatan cedera akibat olahraga atau luka akibat benturan dengan luka terbuka maupun tidak. Banyak digunakan oleh ahli bela diri untuk mengobati luka - luka akibat latihan. Tieh Ta Wan banyak dianjurkan untuk pengobatan patah tulang sebagai obat minum, terutama pada saat bagian yang patah tulangnya masih didalam gibs. Kurang efektif untuk luka tanpa adanya pembengkakan / memar, seperti misalnya luka tusuk, luka robek, dll tetapi tetap dapat membantu. Selain diminum Tieh Ta Wan juga bisa digunakan dengan dioleskan pada bagian yang memar.\r\n\r\n\r\nCara Kerja :\r\n\r\n\r\nMelancarkan peredaran darah, menghilangkan bekuan darah, mengecilkan bengkak, mengurangi rasa nyeri/sakit, merangsang pertumbuhan sel - sel yang rusak.\r\n\r\n\r\nIndikasi :\r\n\r\n\r\nLuka akibat olah raga dengan luka dalam dan pembengkakan atau memar, dengan atau tanpa luka terbuka. Cedera akibat keseleo atau otot ketarik. Cocok untuk patah tulang, tulang retak dan keseleo yang disertai memar, terutama pada saat baru saja luka. Cocok juga luka dengan lecet dan memar seperti akibat terjatuh dari sepeda motor, sepeda, dll.\r\n\r\n\r\nKhasiat : Membantu Membantu meringankan bengkak atau memar akibat keseleo.\r\n\r\n\r\nCara Pakai :\r\n\r\n\r\nDewasa : 1 kali sehari 1 pil\r\n\r\n\r\nAnak-anak : 1 kali sehari ½ pil\r\n\r\n\r\nUntuk pemakaian luar :\r\n\r\n\r\nDilarutkan dalam air panas dan digosok pada bagian yang luka/keseleo\r\n\r\n\r\nKemasan : 1 Kotak kecil\r\n\r\n\r\nDistributor : Sinar Herba Radix\r\n\r\n\r\nBPOM No : TI 014 402 191","rating":0}
{"no":0,"title":"ECER pil cikit atau fung sa jan obat masuk angin dan sakit perut paten","price":"3.500","seller":"TOKO OBAT PATEN","sellerPlace":"Bekasi","url":"https://www.bukalapak.com/p/kesehatan-2359/obat-suplemen/obat-obatan/1dnm5k7-jual-ecer-pil-cikit-atau-fung-sa-jan-obat-masuk-angin-dan-sakit-perut-paten?from=&product_owner=normal_seller","sold":1,"seen":52,"favorite":0,"updated":"2019-05-11 05:25:14","description":"PIL CHI KIT TECK AUN \r\n\r\nSecara Tradisional Digunakan Untuk sakit perut , muntah dan mabuk perjalanan . \r\nPIL CIKIT juga efektif di gunakan untuk mengobati sakit kepala ringan , perut kembung , mencret \r\ndan mual yang di akibatkan masuk angin. \r\n\r\nATURAN PAKAI : \r\nDewasa : sekali minum 1 bungkus , 3 kali sehari. \r\nAnak - anak : 1 - 2 tahun , 5 pill. 2 - 3 tahun , 10 pil . \r\nlebih dari 3 tahun , minum 1/2 bungkus. 3 kali sehari . \r\ndiminum dengan air hangat. \r\n\r\nPERHATIAN : \r\nJika sakit berlanjut , Segera hubungi dokter!! \r\n\r\nCara penyimpanan : \r\nSimpan di tempat sejuk dan kering . \r\nsimpan pada suhu di bawah 30 derajat celcius. \r\n\r\nDI IMPORT OLEH : \r\nPT. SINDE BUDI SENTOSA , BEKASI - INDONESIA.","rating":0}
{"no":0,"title":"XIAO KE PILLS obat diabetes penurun gula darah herbal","price":"60.000","seller":"TOKO OBAT PATEN","sellerPlace":"Bekasi","url":"https://www.bukalapak.com/p/kesehatan-2359/obat-suplemen/obat-obatan/1h0vr3i-jual-xiao-ke-pills-obat-diabetes-penurun-gula-darah-herbal?from=&product_owner=normal_seller","sold":9,"seen":189,"favorite":9,"updated":"2019-10-14 14:07:03","description":"XIAO KE PILLS\r\nSecara tradisional digunakan untuk membantu mengobati kencing manis dan \r\nmenurunkan kadar gula dalam darah \r\n\r\nKomposisi :\r\n(Tiap pill mengandung ) \r\nAstragali Radix..........................25mg\r\nTrichisanthis Radix...................120mg\r\nRehmanniae Radix....................75mg\r\nPuerariae Radix........................120mg\r\nDioscoreae Rhizoma...................15mg\r\nSchisandrae Fructus..................25mg\r\nZeae Maydis Stylus....................20mg\r\n\r\nDosis dan cara pakai :\r\nDiminum dengan air hangat setelah makan, sehari 3 kali 5 -10 pill sekali minum . \r\nKemasan : botol berisi 120 pill\r\nPeringatan / perhatian :\r\n-