{"no":0,"title":"Jenis Obat Penis Keluar Nanah Di Apotik Paling di Cari- Obat kencing panas","price":"295.000","seller":"ZAHRA DE NATURE","sellerPlace":"Cilacap","url":"https://www.bukalapak.com/p/kesehatan-2359/obat-suplemen/obat-obatan/2cmfq04-jual-jenis-obat-penis-keluar-nanah-di-apotik-paling-di-cari-obat-kencing-panas?from=&product_owner=normal_seller","sold":0,"seen":0,"favorite":1,"updated":"2019-10-07 19:08:15","description":"Obat Buah Zakar Bengkak - Obat Sipilis De nature - Obat Gonore - Obat Kencing nanah\r\n\r\n\r\nKEGUNAAN Gangjie Ghosiah :\r\n\r\n- Untuk memulihkan stamina\r\n- Memperbaiki jaringan sel pada bagian uretic, seperti buah zakar bengkak, dll\r\n- Sebagai anti virus\r\n- Mengobati infeksi saluran kencing, sifili, gonore, kencing nanah, klamidia, dll\r\n- Menjaga kesehatan tubuh\r\n\r\n\r\nPaket terdiri dari :\r\n1 Botol Kapsul Gangjie isi 50 kapsul\r\n1 Botol Kapsul Pipeca isi 50 kapsul\r\n\r\n\r\nKhasiat:\r\nMengobati Sipilis, kencing nanah, gonore dan gejala yg menYertainya seperti demam tak kunjung sembuh, sakit saat kencing, keluar nanah kental dari kelamin, dll\r\n\r\nMengapa harus belanja di Toko Kami ?\r\n#Garansi resmi 100% Dari De Nature\r\n#Garansi uang kembali jika bukan ORIGINAL\r\n#Paket Di jamin privasi\r\n#Tidak harus keluar rumah / pergi ke dokter\r\n\r\nKomposisi yang sudah di periksa oleh BPOM dan MUI, sehingga dapat anda percaya keamanannya.\r\n\r\nBahan yang digunakan adalah bahan herbal yang tidak berakibat menimbulkan ketergantungan dan tidak berefeksamping negatif.\r\n\r\nHanya menyembuhkan dan memastikan tidak akan kambuh lagi, itulah tujuan dari obat ini di buat.\r\n\r\nPesan sekarang, dan jadilah bukti nyata keampuhan obat de nature berikutnya.!!!\r\n\r\nBarang selalu tersedia yah.. silakan langsung add aja..\r\nFast Respon\r\n\r\n\r\nZAHRA DE NATURE https://www.bukalapak.com/p/kesehatan-2359/obat-suplemen/obat-obatan/111zmof-jual-obat-udah-2-hari-ujung-kemaluan-saya-sakit-keluar-cairan-kuning\r\n\r\n#obatkelaminkeluarnanah #obatpenyakitkelamin #obatkelaminkeluarnanah #obatherpes #obatkutilkelamin #obatkutil #obatherbalsipilis #obatherbal #obatsipilis #obatkelamin #obatgonore #obatsipilispria #obatsipilisherbal #obatsipilisampuh #obatsipilismanjur #obatsipilismurah #obatsakitkelamin #obatkelaminbernanah #obatkencingnanah #obatkelaminkeluarnanahdiapotik #obatpenyakitsipilis #obatpenyakitkemaluan #obatpenyakitkelamin #jualobatpenyakitsipilis #obatkencingnanah #jualobatpenyakitkelamin #obatherbalpenyakitkelamin #obatsipilissingapura #zahradenature #kikukikuk","rating":0}
{"no":0,"title":"OBAT WASIR AMBEIEN AMBEJOS","price":"395.000","seller":"RATU HERBAL","sellerPlace":"Jakarta Barat","url":"https://www.bukalapak.com/p/kesehatan-2359/obat-suplemen/obat-obatan/e2fjjk-jual-obat-wasir-ambeien-ambejos?from=&product_owner=normal_seller","sold":50,"seen":2826,"favorite":17,"updated":"2019-10-14 04:10:08","description":"BONUS SALEP \r\nAmbejoss + Zaitop + sALWA = Obat Untuk Penderita wasir/Ambeien,Mengatasi Sembelit BAB Berdarah,Mengatasi Benjoan di anus Karena Wasir , Untuk Stadium 2,- stadium 3 dan stadium 4 dan untuk Kondisi Wasir/Ambeien Yang Lain\r\n\r\nSolusi Wasir Tanpa Operasi\r\n\r\nKombinasi paket dari obat wasir/Ambeien ,AMBEJOSS Dan Zaitop De Nature Untuk Mengatasi wasir/Ambeien dengan cepat\r\n- Gejala Wasir / Ambeien Stadium 1 - 2\r\n- Mengobati Ambeien / Wasir Dalam (Internal)\r\n- Gejala Wasir / Ambeien stadium 3 - 4\r\n- Mengobati Ambeien / Wasir Luar (External)\r\n- Menghilangkan benjolan / bengkak di dubur tanpa operasi\r\n- Menghilangkan rasa sakit, gatal dan panas pada dubur\r\n- Mengobati BAB berdarah / berlendir\r\n- Melancarkan BAB\r\nAMBEJOSS ZAITOP SALEP\r\nCara mengggaaatasi BAB berdasarkan pada anak dan orang dewasa buang air besar berdarah ( hematochezia , malenia ) menunjukan adanya ppendarahan diseluruh pencernaan mulai lambung usus anus\r\nBila tinja berwarna merah segar dan menetes kemunghkinan sumber pendarahan beasal dari rectum dan anus.\r\nBila tinja tempat bercmpur dengan tinja sumbert pendarahan bias berasal dari usus kolon .\r\nPerlu diketahui juga berak drah tidak selalu berewarna merah apabila tinja hitam gelap itu menunjukan adanya pendarahan lambung .\r\nBAB brwdarah juga menunjukan adanya infeksi saluran pencernaan banyak orang menganggap BAB berdarah disebabkan oleh wasir padahal belum tentu !! bias saja itu terjadi karena ada infeksi / kanker usus besar ( kanker kolon )\r\nAkan tetapi yang paling banayk penyebab adanya penyebab darah saat BAB adalah wasir (hemoroid). Kenali sumber pendarahan pseudo leudo kotoran bercampur darah yang berwarna merah kehitaman melena darah hitam ka;au bercampur dgn air baru kelihatan merah darah segar keluar dari anus ( hemotokezia )\r\nHal hal yang harus di hindari karena ini memicu terjadinya wasir :\r\n- Duduk terlalu lama\r\n- Mengejan saat BAB\r\n- Memakan makanan pedas\r\n- Memakan makanan kurang serat\r\n- Memakan makanan asam\r\nATURAN MINUM\r\nSatu hari 3 kali 2 kapsul AMBEJOS\r\nSatu hari 3 kali 2 kapsul ZAITOP\r\nSALEP DIOLES 3 KALI SEHARI\r\nPAGI SIANG MALAM\r\n\r\n\r\nREADY STOK YA KAK","rating":0}
{"no":0,"title":"TANG KWE GAO SIRUP TAMBAH DARAH","price":"260.000","seller":"Healthy Herbal","sellerPlace":"Semarang","url":"https://www.bukalapak.com/p/kesehatan-2359/obat-suplemen/obat-obatan/ujjz3u-jual-tang-kwe-gao-sirup-tambah-darah?from=&product_owner=normal_seller","sold":0,"seen":12,"favorite":0,"updated":"2019-10-12 19:28:37","description":"Tang Kwe Gao\r\nPOM TI 044614431\r\n\r\nKhasiat dan Kegunaan:\r\nMenambah darah, anemia, pusing, cocok bagi ibu sehabis bersalin untuk pemulihan\r\n\r\nAturan pemakaian:\r\n3x sehari 15 ml diminum dengan air hangat\r\nKocok dulu sebelum diminum\r\n\r\nKemasan : Botol isi 200 ml","rating":0}
{"no":0,"title":"Obat Ambeien Obat Wasir Kapsul Herbal Ampuh Mengobati Penyakit Ambien Ambiyen Ambeyen Luar & Dalam Yang Baru Maupun Sudah Menahun Sembuh Tanpa Operasi","price":"130.000","seller":"Bintang Farma","sellerPlace":"Semarang","url":"https://www.bukalapak.com/p/kesehatan-2359/obat-suplemen/obat-obatan/senwwn-jual-obat-ambeien-obat-wasir-kapsul-herbal-ampuh-mengobati-penyakit-ambien-ambiyen-ambeyen-luar-dalam-yang-baru-maupun-sudah-menahun-sembuh-tanpa-operasi?from=&product_owner=normal_seller","sold":1,"seen":85,"favorite":4,"updated":"2019-10-07 00:00:13","description":"OBAT AMBEIEN DAN WASIR “ CHINESE ZHIGENDUAN ” AMPUH MENGOBATI AMBEIEN SEMBUH TANPA OPERASI\r\n\r\n\r\nPOM TI No. 044 311 861\r\n\r\n\r\nBatch No. 150124\r\n\r\n\r\nExpire Date : 2020-01-23\r\n\r\n\r\nSole Agent :\r\n\r\n\r\nPT. Sinar Herba Radix Jakarta - Indonesia\r\n\r\n\r\nDragonrear International Trading Company\r\n\r\n\r\nObat Ambeien “ CHINESE ZHIGENDUAN ” Ampuh Mengobati Keluhan AMBEIEN atau WASIR Sampai Tuntas tanpa OPERASI.\r\n\r\n\r\nObat Ambeien “ CHINESE ZHIGENDUAN ” sebagai salah satu jenis KAPSUL yang diformulasikan dari Heras otentik yang sangat ampuh untuk mengobati ambeien atau wasir.\r\n\r\n\r\nObat ambeien “ CHINESE ZHIGENDUAN ” dapat membantu menghilangkan rasa sakit pada area dubur atau anus yang bengkak atau terdapat benjolan.\r\n\r\n\r\nObat Ameien Herbal “ CHINESE ZHIGENDUAN ” adalah Obat Ambeien RAMUAN TRADISIONAL CHINA KUNO BERBAHAN 100% HERBAL ALAMI diracik dengan sangat teliti sehingga menghasilkan OBAT AMBEIEN YANG SANGAT MANJUR.\r\n\r\n\r\nObat ini sangat ampuh untuk menghilangkan pembengkakan luar atau dalam, menghilangkan rasa sakit, pendarahan, memusnahkan akar-akar Wasir, sembuhkan Ambeien tanpa operasi.\r\n\r\n\r\nKOMPOSISI :\r\n\r\n\r\n\r\nHerba Andrograp…..50mg\r\n\r\nRadix Sanguisorbae…..100mg\r\n\r\nRadix Notoginseng…..200mg\r\n\r\nRadix Scutelariae…..50mg\r\n\r\nHerba Angrimoniae…..25mg\r\n\r\nFrucus Sophorae…..50mg\r\n\r\nFlos Chrysanthemi…..75mg\r\n\r\nCortex Phellodendri…..50mg\r\n\r\n\r\n\r\n\r\n100% BAHAN HERBAL ALAMI AMAN TANPA EFEK SAMPING.\r\n\r\n\r\nSemua jenis Ambeien atau Wasir akut akan teratasi dengan Obat Ambeien CHINESE ZHIGENDUAN Sembuh Tanpa Operasi!\r\n\r\n\r\nATURAN MINUM OBAT AMBEIEN :\r\n\r\n\r\n\r\n1 Botol Obat Ambeien Pil Isi 50 Kapsul\r\n\r\nDiminum 3 Kali Sehari Sekali minum 2 Kapsul Pakai Air Putih Hangat\r\n\r\n\r\n\r\n\r\n“SETIAP PRODUK YANG KAMI TAWARKAN TERJAMIN MUTU dan KUALITASNYA…","rating":0}
{"no":0,"title":"obat mata herbal pil & tetes mengobati penyakit mata katarak minus plus rabun merah iritasi silinder glukoma buta warna sembuh total normal kembali","price":"200.000","seller":"Lapak Online","sellerPlace":"Semarang","url":"https://www.bukalapak.com/p/kesehatan-2359/obat-suplemen/obat-obatan/vg0ocu-jual-obat-mata-herbal-pil-tetes-mengobati-penyakit-mata-katarak-minus-plus-rabun-merah-iritasi-silinder-glukoma-buta-warna-sembuh-total-normal-kembali?from=&product_owner=normal_seller","sold":1,"seen":99,"favorite":1,"updated":"2019-10-06 18:08:17","description":"PRODUK KESEHATAN PAKET OBAT MATA HERBAL ALAMI PIL PLUS TETES AMPUH MENGOBATI SEMUA JENIS PENYAKIT MATA SEMBUH NORMAL KEMBALI\r\n\r\n\r\nPaket GLEAMING EYES USA ORIGINAL Merupakan Obat Mata Herbal Alami Terdiri Dari Pill + Tetes Yang Sangat Ampuh Untuk Mengobati Semua Jenis Penyakit Mata Seperti Mata Minus/Plus, Katarak, Silinder, Glukoma, Rabun Dll.\r\n\r\n\r\nOBAT MATA AMPUH GLEAMING EYES USA Original Ramuan Pil + Tetes Adalah Obat Mata Herbal Golongan Antiseptic Dan Anti Infeksi Dapat Digunakan Pada Semua Gangguan Mata Karena Adanya Infeksi Oleh Mikroba Atau Karena Masuknya Benda Asing Ke Dalam Kornea Mata Sehingga Menyebabkan Kornea Mata Luka Seperti Kena Debu Yang Terus Menerus Atau Terlalu Sering Di Depan Layar Handphone Atau Komputer.\r\n\r\n\r\nOBAT MATA GLEAMING EYES USA ORIGINAL\r\n\r\n\r\nTerbukti Mampu Menyembuhkan Semua Jenis Penyakit Pada Mata, 100% Kami Jamin Keampuhannya, Karena Dari Banyak Konsumen Kami Sudah Banyak Yang Menggunakannya Dan Hasilnya Terbukti Manjur.\r\n\r\n\r\nBAHAN HERBAL OBAT MATA GLEAMING EYES\r\n\r\n\r\n*Vitamin B6\r\n\r\n\r\n*Taurin\r\n\r\n\r\n*Sodium\r\n\r\n\r\n*Hyaluronate\r\n\r\n\r\n*Etc.\r\n\r\n\r\nGleaming Eyes USA Mengobati Segala Penyakit Mata Seperti:\r\n\r\n\r\n-Mata Minus/Plus\r\n\r\n\r\n-Mata Katarak\r\n\r\n\r\n-Mata Silinder\r\n\r\n\r\n-Glukoma\r\n\r\n\r\n-Rabun Dekat/Jauh\r\n\r\n\r\n-Mata Merah/Iritasi\r\n\r\n\r\n-Buta Warna Dll\r\n\r\n\r\nKOMPOSISI OBAT MATA GLEAMING EYES\r\n\r\n\r\n*Rehmania Glutinosa Libosc…18,17%\r\n\r\n\r\n*Dioscorea Iaponica Thumb…9,09%\r\n\r\n\r\n*Paeonia Suffruticosa Andrews…6,82%\r\n\r\n\r\n*Poria Cocos Wolff…6,82%\r\n\r\n\r\n*Comus Officinalis S. Et…Z9,09%\r\n\r\n\r\n*Alisma Plantago Auqtica L…6,82%\r\n\r\n\r\n*Lycium Chinense Miller…6,82%\r\n\r\n\r\n*Haliotis Gigantea Gmelin…9,09%\r\n\r\n\r\n*Tribulus Terretris Linne…6,82%\r\n\r\n\r\n*Radix Paeoniae Lactiflorae…6,82%\r\n\r\n\r\n*Radix Angelicae Sinensis…6,82%\r\n\r\n\r\n*Chrysanthemum Linne…6,82%\r\n\r\n\r\nDOSIS ATURAN PAKAI OBAT MATA GLEAMING EYES USA HERBAL\r\n\r\n\r\n*Obat Mata Pil Di Minum 2 Kali Sehari Pagi dan Malam, Sekali Minum 5 Pil Pakai Air Putih.\r\n\r\n\r\n*Obat Mata Tetes Di Pakai 2 Kali Sehari Pagi dan Malam, Sekali Pakai 2 Tetes Pada Setiap Mata.\r\n\r\n\r\nKategori Produk: Obat Mata\r\n\r\n\r\nNama Produk: Gleaming Eyes USA\r\n\r\n\r\nNegara Asal: USA\r\n\r\n\r\nKemasan: Paket Pil + Tetes\r\n\r\n\r\n100% ORIGINAL","rating":0}
{"no":0,"title":"Sarang Semut","price":"130.000","seller":"Elang mas","sellerPlace":"Jakarta Barat","url":"https://www.bukalapak.com/p/kesehatan-2359/obat-suplemen/obat-obatan/7dmtmu-jual-sarang-semut?from=&product_owner=normal_seller","sold":99,"seen":2486,"favorite":33,"updated":"2019-09-13 12:22:42","description":"SARANG SEMUT (Myrmecodia Pendans)\r\n\r\n100% ASLI Produk PRIMA SOLUSI MEDIKAL.\r\n\r\nBPOM : POM TR 102 320 151.\r\n\r\nBerkhasiat membantu mengatasi berbagai keluhan penyakit seperti :\r\n- Benjolan/tumor/kanker payudara.\r\n- Gangguan jantung.\r\n- Prostat.\r\n- Batu ginjal.\r\n- Wasir/ambeien.\r\n- Maag , DLL.\r\n\r\nDosis :\r\n- Pencegahan 1 kapsul perhari.\r\n- Pengobatan Penyakit ringan : 1 kapsul 2-3 kali perhari.\r\n- Pengobatan Penyakit Berat : 2 kapsul 2-3 kali perhari.\r\n- Konsumsi 1 jam setelah makan atau 2 jam setelah makan.\r\n\r\nKemasan : \r\nPer box isi 3 strip @10 kapsul (total 30 kapsul).","rating":0}
{"no":0,"title":"swiss paris lotion obat penghilang kutil obat penghilang tahi lalat","price":"60.000","seller":"sehat sejahtera","sellerPlace":"Jakarta Barat","url":"https://www.bukalapak.com/p/kesehatan-2359/obat-suplemen/obat-obatan/dsow70-jual-swiss-paris-lotion-obat-penghilang-kutil-obat-penghilang-tahi-lalat?from=&product_owner=normal_seller","sold":55,"seen":3171,"favorite":38,"updated":"2019-10-14 11:57:56","description":"TAHI LALAT / KUTIL di wajah,kaki,tangan atau bagian lain tubuh mu bikin Gak PD ?? Sekarang Tlah Hadir Lotion Ampuh !! Tanpa Operasi &amp;amp; juga tanpa rasa sakit lohhh So..bukan masalah lagi buatmu... Buat kamu2 yg punya harapan untuk ngilangin tahi lalat &amp;amp; kutil yg 100% aman untuk dipakai &amp;amp; sudah terdaftar di juga (NoCD ) SWISS PARIS adalah Lotion Penghilang Tahi Lalat,Andeng-Andeng &amp;amp; Kutil (mata ikan) Hanya Dalam Waktu min 1O Hari !! \r\nKEMASAN : Isi Bersih 8 ML \r\nDEP KES. RI No. CD \r\nPOM No. CD 1002205168\r\nAman tanpa efek samping \r\n\r\nJANGAN COBA - COBA SEMBARANGAN YA, PASTIKAN BELI YG ASLI .... SEHINGGA BENAR2 AMAN !!! \r\n\r\nDOSIS DAN CARA PEMAKAIAN :\r\nKocok / aduk terlebih dahulu, lalu ambil tusuk gigi / cotton bud yg untuk bayi. \r\nPertama oleskan sebesar tahi lalat / kutil yg akan dihilangkan, tunggu +- 15 menit lalu dilap dengan kapas basah. Kedua oleskan lagi lalu biarkan saja tanpa dilap kembali &amp;amp; segera oleskan salep \" bioplacenton\" untuk mencegah bekas luka timbul\r\n\r\nSARAN : \r\nDibawa tidur aja,\r\nGunakan swiss paris pd malam hari saat mau tidur, jadi keesokan harinya langsung mandi / kena air tidak masalah \r\nUntuk tahi lalat / kutil yg agak besar, keesokan harinya setelah mandi oleskan swiss parisnya kembali cukup 1x saja \r\nJika selama 10hari tahi lalat / kutil belum lepas seluruhnya, boleh dioleskan kembali secukupnya seperti langkah awal \r\n\r\nHIMBAUAN : \r\n1. Jangan sesekali mengoles pakai jari hingga mengenai kulit sekitar selain tahi lalat / kutil yg dituju, karena bisa membuat kulit sekitar ikut luka apalagi untuk yg memiliki kulit sensitif \r\n2. Siapkan obat anti infeksi (obat luka ) Betadin / obat luka bakar seperti biplacenton.\r\n3. Ketika digunakan reaksi normal tahi lalat / kutil akan terlihat melebar / berdarah, itu berarti lotion sedang bekerja untuk mengelupas akar tahi lalat / kutil, jadi sebaiknya biarkan saja lotion bekerja tanpa diutak atik dengan tangan","rating":0}
{"no":0,"title":"koyo diabetes gula darah kencing manis diabetic patch","price":"40.500","seller":"sehat sejahtera","sellerPlace":"Jakarta Barat","url":"https://www.bukalapak.com/p/kesehatan-2359/obat-suplemen/obat-obatan/cxzfep-jual-koyo-diabetes-gula-darah-kencing-manis-diabetic-patch?from=&product_owner=normal_seller","sold":73,"seen":1593,"favorite":26,"updated":"2019-10-14 16:15:33","description":"Koyo Diabetes herbal menurunkan Gula Darah Tinggi. Untuk tritmen Diabetes\r\n\r\nExtrak herbal yang terkandung dalam koyo, dengan lembut memberikan dosis yang tepat untuk menormalkan level gula darah.\r\nKoyo Diabetic didisain untuk mentrimen diabetes, membantu mengurangi gejala akibat diabetes seperti nyeri, nafas yang pendek, ingatan yang kurang, sering buang air kecil, mati rasa, dan nyeri di anggota tubuh.\r\n\r\nJika ada alergi terhadap salah satu kandungan Koyo, segera hentikan penggunaan Koyo.\r\nIngredients: Extracted from Rehmanniae, Rhizoma anemarrhenae,Trichosanthin, arrowroot, astragalus, Scrophulariaceae, berberine, yam, borneol\r\n\r\nTritmen Herbal untuk diabetes akan berfokus pada mengatur predaran darah dan Qi (cakra) dan menyeimbangkan sisten organ untuk meningkatkan fungsi pankreas dan mengurangi panas dalam serta berkurangnya cairan tubuh. \r\n\r\nCara Pakai: \r\n1. Penggunaan Luar \r\n2. Bersihkan area pusar dengan air hangat, buka Koyo Diabetes dan tempelkan di area pusar. \r\n3. 1 Koyo bisa digunakan selama 3-4 hari. setelah itu dilepas dan bersihkan kulit. \r\n4. 1 kali tritmen dengan 5 pcs koyo. disarankan untuk 2-3x tritmen (10-15 koyo) untuk mendapatkan hasil yang optimal. \r\nNoted: Setelah Penggunaan Koyo, tidak serta merta mengurangi Obat, tetap cek Gula Darah Anda dan catat perkembangannya. \r\n80% pasien, setelah penggunaan koyo diabetes selama 2 -4 minggu, gula darah turun, dan mengurangi konsumsi obat kimia. Dan akhirnya bisa stop konsumsi obat kimia.","rating":0}
{"no":0,"title":"jiang tang wan obat diabetes kencing manis","price":"80.000","seller":"sehat sejahtera","sellerPlace":"Jakarta Barat","url":"https://www.bukalapak.com/p/kesehatan-2359/obat-suplemen/obat-obatan/95dik7-jual-jiang-tang-wan-obat-diabetes-kencing-manis?from=&product_owner=normal_seller","sold":12,"seen":1291,"favorite":11,"updated":"2019-10-09 09:53:35","description":"Obat Herbal Jiang Tang Wan Untuk Diabetes / Kencing Manis Sangat Ampuh Dan Aman\r\n\r\nKhasiat dan kegunaan :\r\n\r\nMengobati Diabetes\r\nMerangsang regenerasi atau pemulihan sel\r\nMengobati asam urat atau kolesterol\r\nMengobatan Disfungsi Seksual\r\n100% Tanpa Efek samping\r\n\r\nObat Herbal Diabetes Jiang Tang Wan merupakan ekstrak bahan Alami herbal yang terbukti mampu mengobati dan mengatasi gejala ataupun penyakit diabetes dengan cepat dan aman.\r\n\r\nJiang Tang Wan memiliki kandungan Cell Growth Factor (faktor regenerasi sel) sehingga mampu me-regenerasi/pemulihan sel dan jaringan tubuh manusia yang telah rusak bahkan membusuk, sehingga menjadi sehat kembali. Misalnya pada penderita diabetes. Obat Diabetes ini cukup di minum rutin 2 kali sehari 2 pil atau kapsul sekali minum, mampu mempertahankan dan mengobati kencing manis anda. karena kaya akan senyawa glikosaminoglikan yang bersifat anti penggumpalan dan pembekuan darah.\r\n\r\nKandungan kromium juga membantu kinerja insulin untuk menurunkan gula darah. Caranya melalui penyerapan glukosa berlebih dalam darah dan menyedot glukosa masuk jaringan darah lebih cepat. Dengan mengkonsumsi Obat Diabetes jiang tang wan ini tidak hanya diabetes dan juga diabetes militus bisa tersembuhkan bahkan jika anda mempunyai penyakit asam urat atau kolesterol pun bisa disembuhkan dengan jiang tang wan ini.\r\n\r\nSelain itu, Eksrtak herbal daun sirsak mendukung hati yang sehat dan memperbaiki fungsi ginjal serta sistem kardiovaskular dan meningkatkan kekebalan tubuh. Hal ini sangat berguna sebagai pengobatan diabetes tradisional untuk menghindari komplikasi diabetes. Studi klinis menunjukkan, saponin secara signifikan dapat mengurangi tingkat glukosa serum. Hal ini juga berguna untuk pengobatan Disfungsi Seksual (dalam Pria dan Wanita).\r\n\r\nCara Pakai : Obat Diabetes jiang tang wan cukup di minum rutin 2 kali sehari 2 pil","rating":0}
{"no":0,"title":"Obat Nyeri Sendi & Tulang Mengobati Sakit Pada Persendian & Tulang Menyembuhkan Rematik & Asam Urat Sedia Obat Pelangsing Penggemuk & Peninggi Badan","price":"125.000","seller":"Bintang Farma","sellerPlace":"Semarang","url":"https://www.bukalapak.com/p/kesehatan-2359/obat-suplemen/obat-obatan/1zxa98m-jual-obat-nyeri-sendi-tulang-mengobati-sakit-pada-persendian-tulang-menyembuhkan-rematik-asam-urat-sedia-obat-pelangsing-penggemuk-peninggi-badan?from=&product_owner=normal_seller","sold":0,"seen":17,"favorite":0,"updated":"2019-10-14 02:02:48","description":"IMOVE ORIGINAL ASLI\r\n( Obat Nyeri Sendi dan Tulang Juga Mengobati dan Mencegah Rematik dan Asam Urat ).\r\n\r\nIMOVE ORIGINAL adalah kapsul herbal alami ampuh mengobati segala keluhan sakit pada sendi dan tulang karena terkilir keseleo ataupun sehabis patah tulang, mengembalikan otot-otot yang lemah karena sehabis terkilir atau patah tulang otot-otot pada sendi akan berubah tidak berada pada tempatnya sehingga menjadikan persendian ataupun tulang menjadi lemah dan tidak normal seperti semula.\r\n\r\nMANFAAT OBAT IMOVE ORIGINAL :\r\n* Menyembuhkan nyeri sendi dan tulang\r\n* Menyembuhkan asam urat dan rematik\r\n* Memperbaiki otot2 sendi yang lemah\r\n* Mempercepat penyembuhan tulang patah\r\n* Menjaga kesehatan sendi dan tulang\r\n* Menghilangkan nyeri dan linu pada sendi ataupun tulang\r\n\r\nATURAN MINUM\r\n* Untuk pengobatan minum 2 kapsul setiap hari pagi 1 kapsul dan sore 1 kapsul diminum setelah makan pakai air putih hangat.\r\n\r\n* Untuk perawatan tulang dan sendi cukup minum 1 kapsul setiap hari setelah makan diminum pakai air putih hangat.\r\n\r\nNB: Produk ini tidak untuk ibu hamil ataupun menyusui.\r\n\r\n1 BOTOL IMOVE ORIGINAL ISI 30 KAPSUL\r\n\r\nEXPIRE DATE : 03 2022","rating":0}
{"no":0,"title":"SO249 HIU Herba Androbi Plus Sambiloto - Obat Radang Tenggorokan - Obat Radang Paru - Obat Mata Merah - Obat Usus Buntu","price":"42.800","seller":"Juragan SixtyOne","sellerPlace":"Jakarta Pusat","url":"https://www.bukalapak.com/p/kesehatan-2359/obat-suplemen/obat-obatan/17w6l95-jual-so249-hiu-herba-androbi-plus-sambiloto-obat-radang-tenggorokan-obat-radang-paru-obat-mata-merah-obat-usus-buntu?from=&product_owner=normal_seller","sold":30,"seen":219,"favorite":1,"updated":"2019-08-05 22:37:47","description":"HIU Herba Androbi Sambiloto Plus\r\n\r\n\r\n\r\nInsya Allah berkhasiat :\r\n\r\n- Radang tenggorokan\r\n\r\n- Radang paru (pneumonia)\r\n\r\n- Radang mata merah (konjungtivis)\r\n\r\n- Radang akut usus buntu (akut apenditistis)\r\n\r\n- Radang hati (hepatitis)\r\n\r\n- TBC Paru\r\n\r\n- Sakit kepala\r\n\r\n- Tidak nafsu makan\r\n\r\n- Pembesaran prostat\r\n\r\n- Kencing nanah (gonorhoe)\r\n\r\n- Gondongan (parotitis)\r\n\r\n- Sakit maag (gastritis)\r\n\r\n- Demam\r\n\r\n- Diare\r\n\r\n- Batuk\r\n\r\n\r\n\r\nIsi 60 kapsul\r\n\r\nPOM TR. 133 375 361\r\n\r\nHALAL LPPOM MUI No. 12270003591213\r\n\r\nDiproduksi oleh : Herbal Indo Utama","rating":0}
{"no":0,"title":"SO189 Kapsul Binahong - Kapsul Ekstrak Binahong Tazakka - Membantu Mempercepat Penyembuhan Luka Dalam Dan Luar","price":"37.800","seller":"Juragan SixtyOne","sellerPlace":"Jakarta Pusat","url":"https://www.bukalapak.com/p/kesehatan-2359/obat-suplemen/obat-obatan/17odd4e-jual-so189-kapsul-binahong-kapsul-ekstrak-binahong-tazakka-membantu-mempercepat-penyembuhan-luka-dalam-dan-luar?from=&product_owner=normal_seller","sold":34,"seen":179,"favorite":3,"updated":"2019-10-05 13:46:45","description":"Kapsul Ekstrak Binahong Tazakka\r\n\r\n\r\n\r\nMembantu Mempercepat Penyembuhan Luka Dalam &amp; Luar\r\n\r\n\r\n\r\nKHASIAT :\r\n\r\nSecara tradisional digunakan untuk membantu mempercepat pemulihan kesehatan setelah operasi, melahirkan, khitan, segala luka-luka dalam, radang usus, rematik dan asam urat, meredakan nyeri dan pegal linu.\r\n\r\n\r\n\r\nKOMPOSISI :\r\n\r\nTiap kapsul mengandung ekstrak yang setara dengan 2 gram simplisia Anredera cordifolia herba\r\n\r\n\r\n\r\nATURAN PAKAI :\r\n\r\nDiminum 3 x sehari 2 kapsul\r\n\r\n\r\n\r\nIsi 60 kapsul\r\n\r\nIzin Produksi 503/4683/2\r\n\r\nDiproduksi oleh : UD. Rachma Sari\r\n\r\nDidistribusikan oleh UD. Tazakka","rating":0}
{"no":0,"title":"Oligocare","price":"200.000","seller":"Toko Cordelia","sellerPlace":"Tangerang Selatan","url":"https://www.bukalapak.com/p/kesehatan-2359/obat-suplemen/obat-obatan/sshrf3-jual-oligocare?from=&product_owner=normal_seller","sold":490,"seen":1580,"favorite":50,"updated":"2019-10-15 07:07:57","description":"GRATIS PACKING BUBBLE WRAP !!!\r\n\r\n\r\nJika ingin lebih aman tambahkan packing kardus dengan link : https://www.bukalapak.com/p/food/dairy-products/1yglwur-jual-tambahan-packing-kardus?keyword=\r\n\r\n\r\nEx-April-2021\r\n\r\n\r\nDESKRIPSI:Membantu mengatasi kebutuhan mikronutrien untuk mendukung kesehatan tubuh pria\r\n\r\n\r\nMeningkatkan spermatogenesis, jumlah dan motilitas sperma\r\n\r\n\r\nKomposisi :\r\n\r\n\r\nLycopene 2 mg, glutathione 2.5 mg, L-carnitine 75 mg, L-arginine 10 mg, co-Q10 2.5 mg, elemental Zn 12.5 mg, elemental selenium 100 mcg, elemental Fe 5 mg, elemental manganese 1.5 mg, elemental copper 500 mcg, vit E 12.5 mg, vit C 75 mg, vit A 1,250 IU, folic acid 400 mcg, cyanocobalamin 100 mcg, thiamine 5 mg, pyridoxine 10 mg, ginseng extr 10 mg.\r\n\r\n\r\nDosis :\r\n\r\n\r\n1 tablet 2 kali sehari\r\n\r\n\r\nKemasan :\r\n\r\n\r\nDus isi 5 strip @6 tablet","rating":0}
{"no":0,"title":"TAKABB Anti Cough Pill Herbal Med Obat Batuk Thailand Kelabang TAKAAB","price":"38.000","seller":"JeLo Shop","sellerPlace":"Kab. Tangerang","url":"https://www.bukalapak.com/p/kesehatan-2359/obat-suplemen/obat-obatan/gsom60-jual-takabb-anti-cough-pill-herbal-med-obat-batuk-thailand-kelabang-takaab?from=&product_owner=normal_seller","sold":278,"seen":1961,"favorite":42,"updated":"2019-10-07 10:12:24","description":"Takabb Anti - Cough Pill (Herbal Med) - Obat Batuk Thailand\r\n\r\nHarga / Kemasan Berisi 80 pill\r\n\r\nREADY STOCK SIAP LANGSUNG KIRIM\r\nDKI JAKARTA / TANGERANG / DEPOK BISA PAKAI GOJEK\r\n\r\nIndications :\r\nAgainst cough, refreshing and dissolve phlegm.\r\n\r\nDosage:\r\nAllow 2-4 pill to dissolve slowly in your mouth when required.\r\nsuitable for adults and children\r\n\r\n( MADE IN THAILAND )","rating":0}
{"no":0,"title":"My baby 60 ml minyak telon","price":"14.000","seller":"Toko Obat DIZA","sellerPlace":"Jakarta Timur","url":"https://www.bukalapak.com/p/kesehatan-2359/obat-suplemen/obat-obatan/b94hx3-jual-my-baby-60-ml-minyak-telon?from=&product_owner=normal_seller","sold":1060,"seen":1455,"favorite":36,"updated":"2019-10-15 10:02:08","description":"My baby minyak telon untuk menghangatkan tubuh bayi dan anak, juga bisa sebagai anti nyamuk yang aman untuk kulit bayi dan anak.","rating":0}
{"no":0,"title":"GOLD G 320 ML | SEA CUCUMBER","price":"87.000","seller":"RAJAHERBAL","sellerPlace":"Jakarta Barat","url":"https://www.bukalapak.com/p/kesehatan-2359/obat-suplemen/obat-obatan/tdfms-jual-gold-g-320-ml-sea-cucumber?from=&product_owner=normal_seller","sold":84,"seen":506,"favorite":16,"updated":"2019-09-22 08:11:16","description":"KEMASAN BARU TUTUP GOLD CAP/TUTUP BOTOL WARNA EMAS.\r\n\r\nGold-G Bisa Menyembuhkan :\r\nMenjadi Lancar\r\nHilang\r\nTulang Membaik\r\ndari Penyakit Jantung dan Lever\r\nB negatif\r\n&amp; jerawat Sembuh\r\ndari Alergi, Diabetes,Herpes dan Hipertensi\r\nTerasa Normal dan Gula normal\r\nDarah Normal, Anemia dan Eksim Sembuh\r\ndari Tumor Ovarium, Kista Polip pada Cervic\r\nlebih bersinar dan muda, Kolesterol dan jerawat hilang\r\nMengecil dan Mengering\r\n&amp; SGPT turun\r\nTidak kembung lagi, Rasa perih Berkurang\r\nsembuh total\r\ndari Asam Urat\r\ndari Maag, Badan lebih segar\r\nGinjal keluar\r\nleher Berkurang\r\nPinggang &amp; Migraine Sembuh\r\n\r\nAturan Pakai\r\nCARA KONSUMSI DAN PENYIMPANAN\r\nJeli gamat Gold-G Sea Cucumber Jelly adalah produk berbentuk jeli (bukan kapsul). Ada sedikit aroma namun tidak menyengat dan tidak mengganggu.\r\n\r\nBagaimana cara mengkonsumsinya?\r\nCara konsumsinya sangat mudah, yaitu dengan cara dituangkan ke satu sendok makan kemudian langsung diminum.\r\n* Untuk menjaga kesehatan, cukup 1-2 sendok makan, 3 kali sehari.\r\n* Untuk terapi sakit ringan-sedang, minumlah 3 sendok makan, 3 kali sehari.\r\n* Untuk terapi sakit berat, minumlah 3-4 sendok makan, 3 kali sehari.\r\n\r\nIsi : 320ML\r\nBPOM RI TI : 114 645 721","rating":0}
{"no":0,"title":"BuChang NaoXinTong Capsule'36s","price":"82.000","seller":"Murni Jaya","sellerPlace":"Jakarta Barat","url":"https://www.bukalapak.com/p/kesehatan-2359/obat-suplemen/obat-obatan/7slfzf-jual-buchang-naoxintong-capsule-36s?from=&product_owner=normal_seller","sold":531,"seen":1709,"favorite":40,"updated":"2019-10-15 11:52:20","description":"Barang Dijamin Asli Herbal 100%!!\r\nPengiriman Barang Cepat!!\r\nBarang Dipacking dengan Rapih!!\r\n\r\nBuChang NaoXinTong\r\n\r\nKhasiat & Kegunaan : \r\n-. Membantu pencegahan dan pemulihan stroke & jantung koroner\r\n-. Menurunkan kadar kolesterol darah\r\n-. Melancarkan peredaran darah\r\n-. Meringankan pegal-pegal pada belakang leher akibat darah tidak lancar\r\n-. Mengencerkan kekentalan darah\r\n\r\nIndikasi : \r\n-. Peredaran darah memiliki fungsi yang sangat penting dalam menjamin suplai oksigen dan nutrisi ke organ-organ tubuh seperti otak,jantung,ginjal,dll..\r\n-. Oleh karena itu jika peredaran darah dalam tubuh tidak lancar, dapat membahayakan kesehatan dan menimbulkan penyakit serius seperti stroke dan jantung.\r\n-. Jika anda mengalami mudah lemas, kesemutan, lesu, sering pusing, sulit berkonsentrasi, dll.. bisa jadi peredaran darah anda kurang lancar.\r\n\r\nCara Pakai & Dosis :\r\n-. Untuk Pengobatan diminum :\r\nsehari 3 x 2-4 kapsul.\r\n1 seri terapi adalah 1 bulan.\r\n\r\n-. Untuk Pencegahan diminum :\r\nsehari 2 x 2 kapsul.\r\n\r\nKemasan : \r\nDus berisikan 2 blister @18 kapsul.\r\n\r\nPerhatian : \r\nHindari penggunaan pada wanita hamil dan menyusui.\r\n\r\nDIIMPORT OLEH : \r\nPT. SARAS SUBUR ABADI\r\nPOM TI. 164 350 421","rating":0}
{"no":0,"title":"Obat Wasir Ambeien Dalam Khusus Disertai BAB Berdarah Ambejoss Ziirzax De Nature","price":"350.000","seller":"juragan amanah","sellerPlace":"Cilacap","url":"https://www.bukalapak.com/p/kesehatan-2359/obat-suplemen/obat-obatan/1ujyqba-jual-obat-wasir-ambeien-dalam-khusus-disertai-bab-berdarah-ambejoss-ziirzax-de-nature?from=&product_owner=normal_seller","sold":21,"seen":14,"favorite":0,"updated":"2019-09-25 08:47:20","description":"BARANG SELALU READY STOCK !\r\n\r\nLANGSUNG DARI PABRIKNYA, PRODUK 100% ASLI, GARANSI!\r\n\r\nPESAN SEKARANG, BARANG LANGSUNG DI KIRIM\r\n\r\n\r\n\r\n\r\n\r\nKeuntungan Belanja Di Sini:\r\n\r\n-Mendapat PRODUK ASLI 100% ORIGINAL, karena dikirim langsung dari perusahaan CV. De Nature Indonesia\r\n\r\n-BERGARANSI UANG KEMBALI 1000% jika produk tidak sampai atau rusak\r\n\r\n-FREE PACKING SAFETY\r\n\r\n-PROSES CEPAT DAN AMAN\r\n\r\n-PRIVACY TERJAGA\r\n\r\n\r\n\r\n\r\n\r\nKAMI AGEN PUSAT DE NATURE INDONESIA\r\n\r\nDi produksi CV. De Nature Indonesia\r\n\r\n\r\n\r\n\r\n\r\n#UNTUK KELUHAN PENYAKIT:\r\n\r\n- Wasir\r\n\r\n- Ambeien\r\n\r\n- BAB Sakit\r\n\r\n- BAB Berdarah\r\n\r\n- Benjolan Di Anus\r\n\r\n- Susah BAB\r\n\r\n- Anus Sakit / Perih / Panas\r\n\r\n- Dan berbagai keluhan wasir / ambeien lainnya.\r\n\r\n\r\n\r\n\r\n\r\nPetunjuk Pengunaan :\r\n\r\nAturan minum produk De Nature disertakan didalam Kemasan obat yang Anda pesan. Dalam paketan biasanya Disertakan brosur untuk produk-produk De Nature lainnya, aturan minum obat, pantangan dan anjuran selama pengobatan. \r\n\r\n\r\n\r\n\r\n\r\n# JADWAL PENGIRIMAN\r\n\r\n- JNE,TIKI dan J&amp;amp;amp;amp;amp;amp;amp;T Pick UP\r\n\r\n- SENIN s/d SABTU PUKUL 07.00-14.00 WIB(Orderan masuk sebelum jam 2 siang akan di kirim di hari yang sama).\r\n\r\n- POS dan J&amp;amp;amp;amp;amp;amp;amp;T Manual Pengiriman Sehari sekali PUKUL 08.00 WIB\r\n\r\n- HARI BESAR / TANGGAL MERAH LIBUR PENGIRIMAN\r\n\r\n\r\n\r\n\r\n\r\n\r\n\r\n# Kenapa Obat Wasir/ Ambeien Herbal de Nature Bagus untuk Wasir atau Ambeien?\r\n\r\nKapsul AmbeJoss terbuat dari bahan-bahan herbal berkualitas yang terdiri dari Mahkota Dewa, Daun Ungu, dan Kunyit Putih. Ketiga bahan herbal ini mempunyai kandungan yang baik untuk penderita penyakit wasir atau ambeien.\r\n\r\n\r\n\r\n# KHASIAT DAUN UNGU\r\n\r\n- Mengobati sakit ambeien atau wasir\r\n\r\n- Mengandung handeuleum yang berkhasiat mengatasi pembekakan\r\n\r\n- Mengandung Flavonoloid, Glikosid, steroid, saponin, tanin yang bersifat anti inflamasi sehingga dapat mengurangi - Pembengkakan / peradangan\r\n\r\n- Menghilangkan rasa nyeri dan pendarahan.\r\n\r\n- Menyembuhkan aneka macam luka pada kulit.\r\n\r\n- Menyembuhkan reumatik, sakit encok dan sakit pada persendian\r\n\r\n- Memperlancar Datang Bulan\r\n\r\n- Menurut anjuran staf Balai Penelitian Tanaman Obat (BPTO) bahwa daun ungu tersebut sudah populer sebagai obat ambeien / wasir.\r\n\r\n\r\n\r\n# KHASIAT MAHKOTA DEWA\r\n\r\n- Mencegah pertumbuhan sel sel tumor dan kanker\r\n\r\n- Menyembuhkan rematik dan asam urat\r\n\r\n- Penetralisir racun dalam tubuh\r\n\r\n- Melancarkan peredarah\r\n\r\n\r\n\r\nHATI-HATI BARANG TIRUAN/PALSU\r\n\r\n- Produk Denature Indonesia Hanya Dikirim Dari Majenang, Cilacap, Jawa Tengah\r\n\r\n- Kemasan bersegel hologram\r\n\r\n- Produk 100% Orinal Denature Indonesia\r\n\r\n- Paket Rapi dan Rahasia 100% Aman.\"\r\n\r\n\r\n\r\n\r\n\r\n\r\n\r\nTerbuat dari tanaman tanaman obat yang diracik oleh para ahli herbalis, yang secara turun temurun mampu mengatasi gejala gejala penyakit ambeien / wasir secara alami tanpa efek samping dan tanpa menjalani operasi.\r\n\r\nSegera obati keluhan penyakit wasir / ambeien anda sebelum bertambah parah dan semakin mengganggu aktifitas anda.\r\n\r\n\r\n\r\n\r\n\r\n# Kenapa Obat Wasir/ Ambeien Herbal de Nature Berkhasiat Untuk Menyembuhkan Tanpa Operasi?\r\n\r\nKapsul AmbeJoss terbuat dari bahan-bahan herbal berkualitas yang terdiri dari Mahkota Dewa, Daun Ungu, dan Kunyit Putih. Ketiga bahan herbal ini mempunyai kandungan yang sangat dahsyat untuk menyembuhkan wasir tanpa operasi.\r\n\r\nJangan Khawatir Kami Punya Solusi nya !!! Tidak Sedikit Yang Sudah Operasi Wasir / Ambeien Namun Kambuh Lagi ... !!! Setelah Konsultasi Dan Kami Sarankan Berobat Menggunakan Kapsul Ambejoss Dan Salwa Dan Alhamdulilah Menemukan Kecocokan Dan Sembuh ..\r\n\r\nObat Wasir / Ambeien Luar Dan Dalam De Nature Indonesia Aman Dan Ampuh ...!!!!\r\n\r\nStock selalu ready.","rating":0}
{"no":0,"title":"MINYAK HAJAR ORIGINAL - JAHANAM SUPER PREMIUM GOLD - HJ ASLI BLACK-STONE","price":"50.000","seller":"Lyksans Herbal","sellerPlace":"Bekasi","url":"https://www.bukalapak.com/p/kesehatan-2359/obat-suplemen/obat-obatan/244vb4c-jual-minyak-hajar-original-jahanam-super-premium-gold-hj-asli-black-stone?from=&product_owner=normal_seller","sold":421,"seen":2145,"favorite":71,"updated":"2019-10-13 03:04:52","description":"Supaya dikirim Hari ini, order sebelum Jam 14:30 (Order diatas jam 14:30 dikirim esok hari)\r\n\r\nHATI-HATI BARANG PALSU, dengan Ciri-ciri :\r\n*Tidak ada hologram di BOX\r\n*Tidak ada BOX dan di wrapping plastik\r\n\r\nBARANG YANG KAMI JUAL LANGSUNG DARI PRODUSEN JAMINAN 100% ORIGINAL\r\nJIKA PALSU UANG ANDA KEMBALI 2X LIPAT\r\n\r\nKHASIAT:\r\n*Mengatasi Ejakulasi Dini\r\n*Menambah Durasi Hubungan suami istri\r\n*Menyebabkan istri orgasme berkali-kali\r\n*Menambah keharmonisan rumah tangga\r\n\r\nCARA PAKAI:\r\n1. Bersihkan Mr P dengan air bersih, lalu oleskan Hajar Jahanam secara merata di batang bagian bawah saat Mr P keadaan tidak ereksi/tegak.\r\nRasa hangat yang timbul menandakan obat meresap secara optimal.\r\n2. Setelah 45 menit, lalu bilas Mr P dengan air bersih (tanpa sabun)\r\nSilakan mulai berhubungan dengan istri..","rating":0}
{"no":0,"title":"Original Minyak Ikan PDO - Pure Fish Oil - Pure Deep Ocean","price":"115.000","seller":"BagusTas Olshop","sellerPlace":"Cianjur","url":"https://www.bukalapak.com/p/kesehatan-2359/obat-suplemen/obat-obatan/buymf0-jual-original-minyak-ikan-pdo-pure-fish-oil-pure-deep-ocean?from=&product_owner=normal_seller","sold":703,"seen":3325,"favorite":79,"updated":"2019-10-14 21:29:07","description":"Harga : \r\nEcer / 1 botol = Rp 115.000 \r\n2 - 5 botol = Rp 104.500\r\n6 - 11botol = Rp 104.000\r\n12 - 23 botol = Rp 102.000\r\n24 - 35 botol = Rp 101.000\r\n36 - 47 botol = Rp 100.000\r\n48 - 71 botol = Rp 99.000\r\n72 - 120 botol = Rp 98.000\r\n\r\nDapatkan bonus/hadiah ditiap transaksi.\r\n\r\nExpired Date Mei 2020\r\n\r\nMulai pengiriman tanggal 23 Mei 2019, Botol PDO yang kami kirim yakni botol kemasan baru.. \r\nAdapun isi dan khasiat tetap sama... \r\n\r\nPerubahan botol kemasan PDO sudah di beritahukan beberapa bulan yang lalu oleh pihak perusahaan minyak ikan PDO melalui radio SAMHAN\r\n\r\nmohon menjadi maklum \r\n\r\n1 kg = 19 pcs botol PDO\r\nSudah include dengan dus pembungkus\r\n\r\n\r\nPDO (Pure Deep Ocean) adalah minyak dari jenis ikan yang hidup di laut dalam (deep ocean) dan diolah secara murni (pure), alamiah, hygienis dan bermutu, tanpa bahan kimia sehingga dapat dikonsumsi untuk segala umur.\r\n\r\nPDO mengandung semua unsur yang penting/ berkhasiat yaitu asam lemak essensial (EFA) : Omega 3, 6 &amp;amp;amp;amp;amp;amp;amp;amp;amp;amp;amp;amp;amp;amp;amp;amp;amp;amp;amp;amp;amp;amp;amp; 9 65,96% dan juga diperkaya dengan vitamin E\r\n\r\nKhasiatnya sangat Luar Biasa dan sudah terbukti dapat menyembuhkan berbagai macam penyakit tanpa menimbulkan efek samping.\r\n\r\nInsya Allah Membantu Menyembuhkan Penyakit Anda spt:\r\nkanker payudara/rahim/hati, hepatitis, liver, diabetes, jantung koroner/bengkak/bocor, stroke, leukimia, asthma, paru-paru, darah tinggi, asam urat, hernia, vertigo, sinusitis, gangguan saluran kencing, kolesterol, kista, menyuburkan kandungan, sakit persendian, ginjal, sakit menjelang menstruasi, meningkatkan kecerdasan otak, rhematik, osteoporosis, dan lain-lain.\r\n\r\nPDO mengandung Fish Oil dimana terkandung Asam Lemak Essensial (EFA) yang terdiri dari : Omega 3 (EFA, DHA dan ALA), Omega 6 (LA, GLA), Omega 7 dan Omega 9 (OA). PDO juga berfungsi memelihara kesehatan fungsi jantung dan tekanan darah.\r\n\r\nKomposisi :\r\nTiap kapsul lunak mengandung :\r\nFish Oil 500 mg. yang mengadung :\r\n\r\nOmega 3\r\nOmega 6\r\nOmega 7\r\nOmega 9 ........................................... 328,9 mg\r\nAsam Lemak Essensial (EFA) .............. 170,2 mg\r\nSertifikat Halal Cangkang Kapsul MUI No. 01281097490214\r\n\r\nAturan Pakai :\r\nDewasa\r\n- Pengobatan : 3 x 2 - 3 kapsul per hari\r\n- Perawatan : 1 - 2 kapsul pagi &amp;amp;amp;amp;amp;amp;amp;amp;amp;amp;amp;amp;amp;amp;amp;amp;amp;amp;amp;amp;amp;amp;amp; sore\r\nAnak-anak : 1 kapsul pagi dan sore\r\n\r\nHarga murah karena kami ga ambil untung banyak, biar bisa tuk di jual lagi sama yg beli. \r\nMudah2n lewat pelantara minyak ikan PDO bagi yg di coba sakit diberikan kesembuhan yang barokah, dan yang untuk di jual lagi di berikan kemudahan dan kelancaran dalam usaha PDO nya.. Amin \r\nJangan lupa tuk selalu berdoa, karna hanya tuhan yang maha segalanya... \r\n\r\nPerubahan pada kemasan yang dulu PDO sekarang Menjadi PFO itu tidak merubah khasiatnya!! insyaallah makin manjur.","rating":0}
{"no":0,"title":"Arrijal Herbal","price":"50.000","seller":"Deka Store","sellerPlace":"Bandung","url":"https://www.bukalapak.com/p/kesehatan-2359/obat-suplemen/obat-obatan/psjrxu-jual-arrijal-herbal?from=&product_owner=normal_seller","sold":108,"seen":78,"favorite":3,"updated":"2019-06-27 19:59:39","description":"Herbal AR_RIJAL dengan bahan-bahan alami dan tanpa efek samping 100%\r\nTERBUKTI AMPUH 5X LEBIH HEBAT\r\n\r\nDiformulasikan khusus untuk:\r\n- Meningkatkan stamina\r\n-Mencegah dan mengobati impotensi\r\nCara pakai : Minum 2 kapsul 1/2 - 1 JAM sebelum melakukan hubungan intim\r\n\r\nMengandung bahan alami Yohibin, Ginseng Radix, Zingberis Rhizoma, Miristica Fragans\r\n No. 03130000710311","rating":0}
{"no":0,"title":"Minyak HJ Mesir Hajar Original Jahanam 5ml Segel Asli","price":"35.000","seller":"Lyksans Shop","sellerPlace":"Bekasi","url":"https://www.bukalapak.com/p/kesehatan-2359/obat-suplemen/obat-obatan/1qmr5yg-jual-minyak-hj-mesir-hajar-original-jahanam-5ml-segel-asli?from=&product_owner=normal_seller","sold":263,"seen":952,"favorite":48,"updated":"2019-10-12 12:34:44","description":"LYKSANS SHOP - HANYA MENJUAL PRODUK ORIGINAL 100%\r\n- Pengiriman Barang dari Hari Senin - Sabtu Jam 08:00 - 14:00 (Order lewat jam 14:00 dikirim esok hari)\r\n\r\n- JAMINAN PRODUK 100% ORI, TIDAK ORI KEMBALIKAN.\r\n- isi murni : 5 ml\r\n\r\nHati2 Produk KW, ciri2 nya : \r\n- isi cuma 2 - 3 ml. isi cuma setengah botol, Cuma Panas tanpa khasiat.\r\n- Harga murah meriah karena cuma isi setengah botol.\r\nHATI-HATI YANG KW SEKILAS MIRIP DENGAN YANG ORI TAPI TIDAK ADA KASIATNYA !!!!!!!\r\n\r\nSELISIH SERIBU PERAK DAPAT BARANG KW. isi cuma setengah BOTOL ???\r\nHasil nya cuma PANAS aja tanpa khasiat? \r\n\r\nMENDING BELI YG ASLI KARENA SELISIH DIKIT TAPI ORIGINAL.\r\nTES BELI DAN BANDINGKAN DENGAN TOKO LAIN.\r\nSELISIH KW DAN ORI CUMA SERIBU TAPI KUALITAS JAUH.\r\n\r\nPRIVASI AMAN TIDAK DITULIS OBAT KUAT DAN LAINNYA - PACKING RAPIH - BARANG DIKIRIM SESUAI FOTO/GAMBAR ASLI","rating":0}
{"no":0,"title":"Capsul herbal pembe-sar dan pe-manjan-ng al-at vi-tal pri-a","price":"250.000","seller":"AgenHerbalis","sellerPlace":"Jakarta Selatan","url":"https://www.bukalapak.com/p/kesehatan-2359/obat-suplemen/obat-obatan/kmxr6n-jual-capsul-herbal-pembe-sar-dan-pe-manjan-ng-al-at-vi-tal-pri-a?from=&product_owner=normal_seller","sold":358,"seen":25278,"favorite":539,"updated":"2019-10-15 11:06:25","description":"BELI 2 BONUS 1\r\n\r\nSTOK READY .....!!!! \r\n\r\n\" O-BAT HERBAL GOLD NUTRITION TRIBULUS TERRESTRIS AMPUH 100% HERBAL INI SUDAH TERBUKTI TERUJI SECARA KLINIES MENGOBATI L3MAH 5YAHW4T, 3JAKULAS! D!N! SECARA ALAMI SEMBUH TOTAL TANPA EFEK SAMPING \" \r\n\r\nGOLD NUTRITION TRIBULUS TERRESTRIS Sebagai Solusi Alami Untuk Mengembalikan Stamina Dan V!tal!tas Anda. Hindarilah Ragam Obat Ku=at Berbahaya Yang Bisa Merusak Organ Dalam Tubuh Serta Dapat Mengganggu Dan Melemahkan Jantung. Selain Untuk Menjaga Dan Meningkatkan Stamina Pria, \r\nOB4T GOLD NUTRITION TRIBULUS TERRESTRIS. Suplemen Pembesar Mr. Pria Alami Juga Mampu Bekerja Ganda Dengan Cara Memperbaiki Dan Meningkatkan Kesehatan Seluruh Fungsi Tubuh, Serta Menguatkan Jantung, Ginjal, Dan Limpa. \r\nBERBAGAI MACAM KHASIAT DAN MANFAAT SERTA FUNGSI OB4T GOLD NUTRITION TRIBULUS TERRESTRIS ORIGINAL .\r\n- Memperbesar Dan Memperpanjang MR. Pria\r\n- Memaperlama Hubungan 5ek5ual!tas . - Mengobati 3jakulasi D!n! .\r\n- Mengobati L3mah 5yahwat.\r\n- Memperlancar Sirkulasi Darah. \r\n- Memperbaiki Sistem L!b!do.\r\n- Mengembalikan Stamina 3reks!. \r\n- Memaksimalkan Daya 3reks! Mr. pria. \r\n- Memperlama Keluarnya 5perma. \r\n\r\nPASTIKAN ANDA MENDAPATKAN OBAT ASLI HANYA DI TEMPAT KAMI DEMI KESEHATAN\r\nHATI - HATI DENGAN OBAT PALSU YANG BEREDAR, JANGAN ANDA TERGIUR DENGAN HARGA MURAH YANG NANTI AKAN MEMBAHAYAKAN KESEHATAN ANDA, JADILAH KONSUMEN YANG PINTAR \"","rating":0}
{"no":0,"title":"Obat Kutil Kelamin HPV Dan Kutil Anus Luar Dalam","price":"400.000","seller":"Halo Sehat","sellerPlace":"Cilacap","url":"https://www.bukalapak.com/p/kesehatan-2359/obat-suplemen/obat-obatan/onhusx-jual-obat-kutil-kelamin-hpv-dan-kutil-anus-luar-dalam?from=&product_owner=normal_seller","sold":120,"seen":35,"favorite":0,"updated":"2019-10-15 13:08:43","description":"* Paket EKONOMIS :\r\n- 1 botol obat kapsul isi @50 kapsul (Konsumsi perhari 3 x 2 kapsul/botol)\r\n- 1 botol CAIRAN Perontok (Dioles 2x sehari)\r\n\r\nAturan Minum :\r\n- Kapsul Gang jie diminum tiga kali sehari 1 jam sebelum makan (pagi, siang dan malam), sekali minum 2 kapsul.\r\n- 1 botol CAIRAN Perontok (Dioles 2x sehari)\r\n\r\n\r\n# Denature Indonesia memberikan solusi untuk penyakit kutil kelamin atau daging tumbuh di kelamin, yang sedang anda derita secara herbal TANPA OPERASI, yaitu dengan paket OBAT KUTIL KELAMIN HERBAL DENATURE. \r\n\r\n# Sudah banyak konsumen kami yang telah membuktikan paket obat kutil kelamin kami, pengalaman rata-rata pasien kami, mereka sudah bisa merasakan khasiat dari obat herbal kami dalam waktu 3-5 hari, bahkan banyak yang dalam waktu tersebut kutilnya sudah bisa dirontokkan. Solusi penyakit kutil kelamin secara alami tradisional, TANPA OPERASI YANG MEMBUTUHKAN BIAYA YANG SANGAT BESAR, Kutil kelamin rontok dalam waktu yang relatif singkat.\r\n\r\n# Obat Kutil Kelamin Herbal utk solusi Kutil Pada kemaluan pria atau Kutil Pada Miss V, pantat, paha, kantung buah zakar, selangkangan, dan organ tubuh lainnya Secara Instan. Kutil rontok Dalam 3 sampai 5 Hari Tanpa Efek Samping Atau pun Ketergantungan Obat. Hal tersebut dibuktikan dengan terdaftarnya produk ini di DINKES RI No. 442/00060/V-2.","rating":0}
{"no":0,"title":"siapa yang mau wajah bersih","price":"1.500.000","seller":"Beatrix Chic","sellerPlace":"Medan","url":"https://www.bukalapak.com/p/kesehatan-2359/obat-suplemen/obat-obatan/1zql0jq-jual-siapa-yang-mau-wajah-bersih?from=&product_owner=normal_seller","sold":38,"seen":33,"favorite":0,"updated":"2019-10-03 15:43:33","description":"remaja paling takurlt dengan jerawat kadang bisa menurunkan rasa percaya diri","rating":0}
{"no":0,"title":"terlaris..SILDENAFIL CITRATE 100mg isi 4 tablet","price":"138.000","seller":"farma_medika99","sellerPlace":"Jakarta Timur","url":"https://www.bukalapak.com/p/kesehatan-2359/obat-suplemen/obat-obatan/1z7oril-jual-terlaris-sildenafil-citrate-100mg-isi-4-tablet?from=&product_owner=normal_seller","sold":37,"seen":677,"favorite":17,"updated":"2019-10-15 09:52:31","description":"BARANG BAGUS 100,% ASLI DAN ORIGINAL\r\n#MURAH\r\n#AMAN\r\n#TERPECAYA \r\n\r\nEXP JAUH SILAHKAN DI ORDER\r\nbarang sesuai dengan gambar\r\njika produk lain yg di inginkan tidak tercantum dalam iklan silahkan di tanyakan thnks.....","rating":0}
{"no":0,"title":"Milagros Milagros Air Alkali kesehatan 1 Dus","price":"270.000","seller":"Mandiri Herbal","sellerPlace":"Jakarta Timur","url":"https://www.bukalapak.com/p/kesehatan-2359/obat-suplemen/obat-obatan/l25rys-jual-milagros-milagros-air-alkali-kesehatan-1-dus?from=&product_owner=normal_seller","sold":182,"seen":3623,"favorite":71,"updated":"2019-10-15 14:05:09","description":"Selain gojek / grab, akan ditolak.\r\nUntuk pembelian diluar jakarta, mohon kirimkan pesan terlebih dahulu.\r\n\r\nMilagros ~ Miracle Inside\r\n12 botol @ 612ml (1dus)\r\n\r\nAir merupakan nutrisi penting dalam tubuh kita 70% dari tubuh kita terdiri dari cairan. fungsi penting air bagi tubuh adalah sebagai pembersih, pengatur, dan penambah. Jenis air yang baik untuk dikonsumsi adalah air yng mengandung mineral organik. air dengan kandungan mineral organik tidak saja mendatangkan manfaat sebagai pembersih, pengatur dan penambah juga berfungsi sebagai beteng atau pelindung yang baik bagi tubuh.\r\nContoh air dengan karakter seperti ini adalah Air Zam-zam dan air seperti ini memiliki manfaat sebagai pembuang racun (detoxifikasi), pembersih darah, regenerasi sel, penyelaras suhu tubuh, dan imunisasi, memperlancar proses pencernaan dan metabolime, mempermudah pergerakan otot sendi dan pembawa nutrisi serta oxsigen yang baik\r\nDari banyak penelitian yang dilakukan para ahli, disebutkan bahwa kandungan mineral pada Air Zam-Zam bersifat sangat basa (Super Alkali) dimana hal ini sangat efektif untuk menyeimbangkan kadar asam yang berlebih di dalam tubuh, sehingga dapatlah dipahami secara ilmiah tentang \"mengapa Air Zam-Zam memiliki manfaat yang besar bagi kesehatan.\r\n\r\nBerikut ini beberapa manfaat Alkali yg ada pada produk Milagros :\r\nMeningkatkan power sampai 100% secara instan","rating":0}
{"no":0,"title":"SO030 Habbatussauda Extra Propolis - Obat Stroke Dan Gangguan Jantung - Obat Asam Lambung - Obat TBC - Obat Wasir","price":"23.800","seller":"Juragan SixtyOne","sellerPlace":"Jakarta Pusat","url":"https://www.bukalapak.com/p/kesehatan-2359/obat-suplemen/obat-obatan/16nipfk-jual-so030-habbatussauda-extra-propolis-obat-stroke-dan-gangguan-jantung-obat-asam-lambung-obat-tbc-obat-wasir?from=&product_owner=normal_seller","sold":70,"seen":524,"favorite":13,"updated":"2019-10-13 15:57:49","description":"Habbatussauda Extra Propolis Trigona 60 Kapsul\r\n\r\n\r\n\r\nManfaat dan Kegunaan :\r\n\r\n- Sebagai antibiotik alami\r\n\r\n- Membantu mengatasi stroke, gangguan jantung\r\n\r\n- Mengatasi rheumatik, asam urat, nyeri sendi\r\n\r\n- Menormalkan kolesterol, asam lambung\r\n\r\n- Mengatasi radang tenggorokan, TBC, Paru-Paru\r\n\r\n- Membuang racun dalam tubuh / detoksifikasi\r\n\r\n- Mengobati tekanan darah tinggi (Hipertensi)\r\n\r\n- Meningkatkan ASI pada ibu menyusui\r\n\r\n- Mengatasi impotensi, lemah syahwat\r\n\r\n- Mengatasi gangguan ginjal, liver\r\n\r\n- Mengatasi alergi, kulit gatal-gatal, exim\r\n\r\n- Mengobati wasir/ambeien, diabetes melitus, dll.\r\n\r\n\r\n\r\nKomposisi :\r\n\r\n- Habbatussauda (Jintan Hitam)\r\n\r\n- Minyak Zaitun (Olive Oil)\r\n\r\n- Propolis Trigona\r\n\r\n- Madu Murni\r\n\r\n\r\n\r\nAturan Pakai :\r\n\r\n- Dewasa : 2-3 kapsul pagi dan sore\r\n\r\n- Anak-anak : 1-2 kapsul pagi dan sore\r\n\r\n\r\n\r\nIsi 60 kapsul\r\n\r\nDinkes. P.IRT 212331304338\r\n\r\nSert. Halal Cangkang Kapsul MUI No.00140016360701\r\n\r\nDiproduksi oleh : UMS Indonesia","rating":0}
{"no":0,"title":"Jamu Obat Batuk Berdahak - Obat Tb Paru Herbal - Obat Tbc Denature - Paru Paru Basah Tradisional","price":"295.000","seller":"Warung Denature","sellerPlace":"Cilacap","url":"https://www.bukalapak.com/p/kesehatan-2359/obat-suplemen/obat-obatan/1cxyo93-jual-jamu-obat-batuk-berdahak-obat-tb-paru-herbal-obat-tbc-denature-paru-paru-basah-tradisional?from=&product_owner=normal_seller","sold":116,"seen":85,"favorite":1,"updated":"2019-10-14 09:52:58","description":"Khasiat dan Manfaat Detopar Pipeca Denature :\r\n\r\nMengobati batuk berdahak\r\nMengobati batuk berlendir\r\nMengobati penyakit tbc\r\nMengobati paru paru basah\r\nMengobati sesak nafas\r\nMembersihkan paru paru\r\nDll\r\n\r\nisi paket terdiri dari :\r\n\r\n1 Botol detopar isi 50 kapsul\r\n1 Botol pipeca isi 50 kapsul\r\n\r\nAturan minum tersedia lengkap di dalam kemasan obat.\r\n\r\nREADY STOCK SELALU GAN\r\n\r\n# PRIVASI KONSUMEN\r\n- RAHASIA TERJAMIN 100%\r\n- PACKING RAPIH & AMAN (DUS DIBALUT KARTON & DILAKBAN BOLAK-BALIK)\r\n- BAGIAN LUAR PAKET HANYA ADA NAMA, ALAMAT, DAN NO. HP PEMBELI SAJA\r\n- DIKIRIM DENGAN NAMA PERSONAL / BUKAN NAMA TOKO","rating":0}
{"no":0,"title":"nelco special","price":"35.000","seller":"equator_shop","sellerPlace":"Ciamis","url":"https://www.bukalapak.com/p/kesehatan-2359/obat-suplemen/obat-obatan/1d16biq-jual-nelco-special?from=&product_owner=normal_seller","sold":30,"seen":22,"favorite":0,"updated":"2019-09-27 05:41:38","description":"nelco special obat ampuh untuk mengobati batuk","rating":0}
{"no":0,"title":"bio nerve solusi sakit sendi syaraf..bionerve asli Malaysia isi 40 tab.. bio cypress biocypres","price":"180.000","seller":"Medika Herbal","sellerPlace":"Jakarta Timur","url":"https://www.bukalapak.com/p/kesehatan-2359/obat-suplemen/obat-obatan/t3wcm3-jual-bio-nerve-solusi-sakit-sendi-syaraf-bionerve-asli-malaysia-isi-40-tab-bio-cypress-biocypres?from=&product_owner=normal_seller","sold":320,"seen":2401,"favorite":45,"updated":"2019-10-15 08:08:22","description":"Isi 40 tablet\r\n\r\n\r\nBionerve pengganti biocypress\r\n\r\n\r\nBIONERVE 100% HERBAL\r\n\r\n\r\nPIL AJAIB PENUH KHASIAT TANPA BIKIN NAFSU MAKAN MENINGKAT\r\n\r\n\r\nSpesialis PENYAKIT DEGENERATIF\r\n\r\n\r\nPRODUK ASLI GARANSI UANG KEMBALI 10 KALI LIPAT JIKA TERBUKTI PALSU\r\n\r\n\r\nSATU BOTOL ISI 40 PIL\r\n\r\n\r\nPRODUK ASLI MALAYSIA\r\n\r\n\r\nEXP 10 2020\r\n\r\n\r\nDAHSYATPANTES SAJA LUAR BIASA MANFAAT PRODUK HERBAL BIONERVE\r\n\r\n\r\nKombinasi dari zat aktif yang terkandung di dalam setiap pil bionerve bersinergy dan sangat bermanfaat untuk tubuh.\r\n\r\n\r\nKandungan Bio Nerve :\r\n\r\n\r\nJahe merah, Habbatussaudah ( Jintan Hitam ), Sambiloto, Ubi jaga, Radix Eurutama Longifolia dan daun kukus.\r\n\r\n\r\nManfaat / Khasiat Bionerve :\r\n\r\n\r\n\r\nMenurunkan trigliserida\r\n\r\nMencegah kanker usus\r\n\r\nMeningkatkan imun tubuh\r\n\r\nMeredakan nyeri tulang\r\n\r\nMengatasi nyeri haid\r\n\r\nMengobati rematik\r\n\r\nMeningkatkan bioaktivitas hormon dan vitalitas\r\n\r\nSebagai antioksidan yg sangat paten\r\n\r\nMengobati hepatitis\r\n\r\nMengobati amandel\r\n\r\nMengatasi pneumoni dan bronchitis (radang s3 paru-paru)\r\n\r\nMengobati radang ginjal\r\n\r\nMengobati diabetes\r\n\r\nMengobati Asma\r\n\r\nMengobati kanker payudara\r\n\r\nMencegah leukemia\r\n\r\nMengobati impotensi\r\n\r\nMeningkatkan vitalitas\r\n\r\nMeningkatkan jumlah sperma\r\n\r\nMelindungi Jaringan hati\r\n\r\nMengobati keputihan\r\n\r\nMengobati radang selaput lendir\r\n\r\n\r\n\r\n\r\nItulah sebagian dari kandungan yg terdapat pada BIONERVE. Dari berbagai kandungan tersebut bersinergy memberikan manfaat untuk berbagai masalah kesehatan dan MENJAGA ( Bersifat preventifbagi orang sehat agar tidak mudah sakit ).","rating":0}
{"no":0,"title":"Promo Jamu Extra Kuda Kapsul 4X Lebih Kuat dan Tahan Lama","price":"75.000","seller":"Lyksans Herbal","sellerPlace":"Bekasi","url":"https://www.bukalapak.com/p/kesehatan-2359/obat-suplemen/obat-obatan/1ilp8rk-jual-promo-jamu-extra-kuda-kapsul-4x-lebih-kuat-dan-tahan-lama?from=&product_owner=normal_seller","sold":192,"seen":885,"favorite":39,"updated":"2019-10-15 03:45:41","description":"LYKSANS HERBAL - HERBAL ALAMI ORI\r\nPromo Jamu Extra Kuda Kapsul 4X Lebih Kuat dan Tahan Lama\r\n\r\nDetail Produk :\r\n> Harga tertera 1 BOX ISI 10 sacset @2 kapsul\r\n\r\nPRIVASI AMAN, TIDAK DITULIS OBAT KUAT DAN LAINNYA - PACKING RAPIH - BARANG DIKIRIM SESUAI FOTO/GAMBAR PESANAN\r\n> Pengiriman Barang dari Hari Senin - Sabtu Jam 08:00 - 15:00 (Order diatas jam 15:00 kirim esok hari).\r\n> Minggu dan Tanggal Merah/Hari Libur Nasional Tidak Ada Pengiriman Barang.\r\n\r\nKhasiat Produk :\r\n> Dijamin 4x Lebih Kuat, 4x Lebih Lama dan 4x Lebih Dahsyat Pastinya.","rating":0}
{"no":0,"title":"conterpain saleb","price":"250.000","seller":"Gita Lianny","sellerPlace":"Bandung Barat","url":"https://www.bukalapak.com/p/kesehatan-2359/obat-suplemen/obat-obatan/1st8s75-jual-conterpain-saleb?from=&product_owner=normal_seller","sold":0,"seen":0,"favorite":0,"updated":null,"description":"conterpain sales untuk mengatasi nyeri otot","rating":0}
{"no":0,"title":"OBAT OLES PEMBESAR PAYUDARA PEMBESAR PAYUDARA","price":"150.000","seller":"TOKO LARIS JAYA","sellerPlace":"Jakarta Selatan","url":"https://www.bukalapak.com/p/kesehatan-2359/obat-suplemen/obat-obatan/cnj71w-jual-obat-oles-pembesar-payudara-pembesar-payudara?from=&product_owner=normal_seller","sold":11,"seen":129,"favorite":11,"updated":"2019-10-10 21:49:34","description":"Obat Herbal Paling Ampuh Untuk Memperbesar dan Mengancangkan Payudara Wanita. Membuat Payudara Terlihat Lebih Sehat, Indah, Montok Dan Seksi Secara Alami\r\n\r\nMungkin selama ini Anda kurang percaya diri, terutama di depan pria, hanya lantaran Anda memiliki payudara yang kurang ideal, kecil, atau kurang montok. Mungkin anda selama ini kurang percaya diri atau bahkan tidak pede sama sekali hanya karena PAYUDARA anda kurang ideal atau bisa di katakan orang kecil, dada rata dan banyak cibiran lainnya.\r\n\r\nMembuat payudara lebih kencang dan besar bukan perkara yang sulit jika Anda tahu caranya. Sebagai wanita, Anda pasti ingin memiliki bentuk payudara yang kencang, indah, dan terlihat seksi. Anda tidak perlu pergi ketempat pemijatan payudara (Breast Massage) dengan biaya mahal tentunya. Karena sekarang Anda dapat melakukan pijat payudara sendiri dirumah.\r\n\r\nAda solusinya! Dengan minyak oles herbal Breasty Lovely, Anda dapat dengan mudah dan cepat memiliki payudara yang lebih besar, lebih besar, lebih cantik, dan lebih seksi tentunya.\r\n\r\nCara kerja dan Fungsi Breasty Lovely\r\n> Menambah ukuran payudara secara alami dan bertahap\r\n> Mengangkat dan mengencangkan payudara\r\n> Membesarkan kembali payudara yang mengalami pertumbuhan terhambat\r\n> Mengencangkan payudara dan punggung Anda lebih seksi\r\n> Menegangkan dan menstabilkan posisi payudara agar tidak menggantung\r\n> Membuat payudara lebih kenyal\r\n> Menjaga kecantikan payudara secara alami\r\n> Meremajakan kulis sehingga lebih elastis\r\n\r\nDetail Produk:\r\n> Nama: Beasty Lovely\r\n> Isi 15 ml\r\n> Ijin Edar: Depkes. RI: IKOT 442/00060/V-2\r\n> Dalam paket dsertai Cara pemakaian lengkap.\r\n\r\n#pembesarpayudara #obatolespemesar #payudaramontok #obatoles #breastylovely","rating":0}
{"no":0,"title":"PROMO PERMEN CANDY B OBAT HERBAL ASLI KU AT PRIA DEWASA","price":"50.000","seller":"henny","sellerPlace":"Jakarta Utara","url":"https://www.bukalapak.com/p/kesehatan-2359/obat-suplemen/obat-obatan/23l5gq5-jual-promo-permen-candy-b-obat-herbal-asli-ku-at-pria-dewasa?from=&product_owner=normal_seller","sold":11,"seen":41,"favorite":28,"updated":"2019-10-03 12:57:13","description":"ECER 1 BUTIR\r\n\r\nReady stok Happy Shoping,.......................\r\n\r\nProduk No. 1 Untuk Pria Idaman Indonesia\r\n\r\nCandy B Indonesia menghadirkan suplemen herbal 100%\r\nKandungan alami terbaik dibidangnya\r\ncandy b plus asli dari box yang berisi 12 pisc. jamin asli 100% !!!\r\n\r\nMendukung stamina dan Vitalitas pria dewasa\r\nTanpa efek samping !!\r\n\r\nDengan Tambahan Gratiss 18 Fungsi Lainnya\r\n1. merangsang tubuh badan agar lebih bertamina dan bertenaga\r\n2. menyeimbangkan hormon\r\n3. menjaga kadar kolestrol\r\n4. meningkatkan daya tahan imunitas\r\n5. menguatkan otot jantung\r\n6. menjaga diabetes\r\n7. menjaga tekanan darah\r\n8. menguatkan dinding arteri\r\n9. meningkatkan produksi hormon testosteron\r\n10. membantu menyembuhkan penyakit radang\r\n11. meningkatkan kesuburan &amp;amp;amp;amp;amp;amp;amp;amp;amp;amp;amp;amp;amp;amp;amp;amp;amp;amp;amp;amp;amp;amp;amp;amp;amp; produksi sperma yang sehat\r\n12. mengaktifkan metabolisme tubuh\r\n13. melancarkan peredaran darah\r\n14. mencegah penyakit kardiovaskular\r\n15. membantu mengatasi kelelahan dan stress\r\n16. menstabilkan hormon\r\n17. menguatkan fungsi ginjal\r\n18. mencegah penyakit paru-paru\r\n\r\nKami suplyer obat herbal Terpercaya....!!! Welcome Reseller dan Dropshiper. Cocok untuk Anda yg mau jual lagi...\r\nKami akan respon secepat mungkin, Langsung Order Saja...!! Barang semua READY,,, LANGSUNG KIRIM TANPA LAMA...!!!\r\n\r\nTerimakasih, Kepercayaanya Anda amanah Bagi kami, SMART BUYER..!!","rating":0}
{"no":0,"title":"Paketan Obat Hernia Terampuh - Turun Berok - Herbal Agaricpro Plus Celana Anak","price":"800.000","seller":"Wargi Online","sellerPlace":"Tasikmalaya","url":"https://www.bukalapak.com/p/kesehatan-2359/obat-suplemen/obat-obatan/26g9szm-jual-paketan-obat-hernia-terampuh-turun-berok-herbal-agaricpro-plus-celana-anak?from=&product_owner=normal_seller","sold":101,"seen":44,"favorite":0,"updated":"2019-10-04 11:33:37","description":"Selamat datang di Agen Tasik yang menyediakan produk pelangsing Berkualitas Tinggi Kelas Premium dan Terjamin produk ORIGINAL Karena kami menyetok langsung dari Pusatnya.\r\n\r\n\r\nUntuk ukuran / Size silahkan chat terlebih dahulu, biar kami memastikan ukuran untuk celana hernia anaknya terimakasih salam sehat.\r\n\r\n\r\nProduk Herbal AgaricPro merupakan produk Herbal Madu terfermentasi yang multikompleks khasiatnya karena merupakan kombinasi dari berbagai tumbuhan herbal asli Indonesia seperti: Madu Fermentasi, Ekstrak Jamur Agaricus Blazei Murill, Propolis, Ekstrak Manggis, Ekstrak Kelopak Bunga Rosella, Ekstrak Sarang Semut, Gula Aren. Dari kombinasi tumbuhan herbal tersebut Produk Herbal AgaricPro mampu menghasilkan mikroba positif yang bekerja untuk merawat dan menjaga kesehatan tubuh.\r\n\r\n\r\nAgaricPro Herbal Madu terfermentasi yang multikompleks khasiatnya, merupakan kombinasi dari berbagai tumbuhan herbal seperti:\r\n\r\n\r\n\r\nMadu Fermentasi,\r\n\r\nEkstrak Jamur Agaricus Blazei Murill,\r\n\r\nPropolis,\r\n\r\nEkstrak Manggis,\r\n\r\nEkstrak Kelopak Bunga Rosella,\r\n\r\nEkstrak Sarang Semut,\r\n\r\nGula Aren.\r\n\r\n\r\n\r\n\r\nDari kombinasi herbal tersebut Herbal AgaricPro mampu menghasilkan mikroba positif yang bekerja untuk merawat dan menjaga kesehatan tubuh yang disebut Probiotik.\r\n\r\n\r\nKeistimewaan AgaricPro Herbal Tradisional\r\n\r\n\r\nAgaricPro adalah produk hasil fermentasi dari beberapa herbal yang berkhasiat diramu dengan formula tepat, dibandingkan dengan produk herbal lainya.\r\n\r\n\r\nManfaat AgaricPro untuk:\r\n\r\n\r\n1.\r\nDarah: Mengencerkan perlengketan antar sel darah, menurunkan tekanan darah, memperkaya oksigen dalam darah, membersihkan Toxin/Racun dalam darah, kolesterol, asam urat, menurunkan kadar gula darah.\r\n2.\r\nPembuluh Darah: Terhindar dari penyempitan/penyumbatan pembuluh darah, membersihkan plak dari dinding pembuluh darah mempedancar peredaran darah.\r\n3.\r\nJantung: Kerja jantung tidak berat, karena jantung tidak terbebani untuk memompa darah kental keseluruh organ tubuh.\r\n4.\r\nParu-Paru: Mengatasi masalah TBC, Bronchitis, Plek pada paru-paru akibat polusi udara, merokok, alkohol.\r\n5.\r\nGinjal: Membantu mengatasi urinasi, memperlancar pengeluaran urine, mengatasi Hematuria, membantu mengatasi Albumenuria, mencegah Impotensi.\r\n6.\r\nSaluran Pencernaan: Membersihkan saluran pencernaan, mengatasi maag terhindar dari kanker kolon atau kanker usus besar\r\n\r\n","rating":0}
{"no":0,"title":"Obat Wasir herbal","price":"275.000","seller":"deNature naura herbal","sellerPlace":"Cilacap","url":"https://www.bukalapak.com/p/kesehatan-2359/obat-suplemen/obat-obatan/158sc2u-jual-obat-wasir-herbal?from=&product_owner=normal_seller","sold":48,"seen":63,"favorite":2,"updated":"2019-10-14 03:50:24","description":"Mohon jangan tanya ready atau tidak, barang selalu ready ya sist/gan. Tinggal order saja Paket langsung kami kirim,.\r\n\r\nJne YES berlaku untuk wilayah kota saja, kecamatan dan desa tidak berlaku :)\r\n\r\nDi Sarankan Untuk Wilayah Jabodetabek Menggunakan TIKI ONS Agar Cepat Sampai Alamat,..\r\n\r\nMengetahui Posisi Pesanan =&amp;amp;amp;amp;amp;amp;amp;amp;amp;amp;gt; SILAHKAN TRACKING RESI YG DIBERIKAN ATAU DATANGI JASA KIRIM TERDEKAT LANGSUNG\r\n\r\nApa obatnya aman = IYA OBAT KAMI TERJAMIN AMAN SUDAH MENDAPAT IZIN EDAR DARI BPOM DAN MUI\r\n\r\nUntuk aturan pakai DLL, Nanti sudah ada pada kemasan botol ataupun dalam paketanya.\r\n\r\nobatwasiruntukibuhamilataumenyusui\r\n\r\nobatherbalalamiwasir.ambeyen","rating":0}
{"no":0,"title":"DJGL 728 Ekstrak gamat klink","price":"1.302.000","seller":"QUBIC SHOP","sellerPlace":"Ciamis","url":"https://www.bukalapak.com/p/kesehatan-2359/obat-suplemen/obat-obatan/21e76kx-jual-djgl-728-ekstrak-gamat-klink?from=&product_owner=normal_seller","sold":46,"seen":61,"favorite":0,"updated":"2019-10-06 14:31:15","description":"Ekstrak Gamat Emulsion k-Link\r\n\r\n\r\nKandungan Gamat:\r\n\r\n\r\nProteinOmega-3 (EPA &amp;amp;amp;amp;amp; DHA)Condroitin Sulfate &amp;amp;amp;amp;amp; MukopolisakaridaMineral-mineral seperti: Magnesium, Mangan,Sodium, Zink, Kuprum, Fosforus, Iodin, Potasium, Natrium, Kalium dllVitamin E, Genisten, Beta Caroten\r\n\r\n\r\nDiharapkan dapat membantu Melancarkan peredaran darahMeningkatkan kesehatan dan daya tahan tubuhMengontrol berat badanMemperlambat monopauseMempermudah persalinanMempercepat masa nifasMelancarkan ASIMeningkatkan daya sexualMeningkatkan VitalitasMempercepat penyembuhan luka dalam dan luarMempercepat penyembuhan patah tulangMengencangkan dan menghaluskan kulitMenghilangkan flex dan jerawatMengatasi rawan sendi, rematik dan OsteoarthritisSebagai anti inflamasi, Mengatasi konstipasiMenurunkan kadar kolesterol, menstabilkan gula darahSuplemen untuk kesehatan jantungpembuluh darah, DiabetesMempercepat regenerasi selMerangsang pertumbuhan otot,syaraf, tulang dan kulit\r\n\r\n\r\nSebaiknya dikonsumsi penderita :\r\n\r\n\r\nKolesterolHipertensi / Darah TinggiStrokeJantung, Jantung BerlubangDiabetes / Kencing manisSinusitis, Wasir / AmbeinLever / Hati , Hepatitis, SirosisParu Paru, Paru Paru Basah, TBCNyeri Sendi, RematikOestoporosis / PengapuranPatah/ Retak TulangJerawat, Kurap, Eksim, KustaAnak- Anak Dalam Masa PertumbuhanRambut Rontok, KebotakanPertumbuhan Kuku tidak bagusLuka Dalam / Luka LuarLuka potong / kecelakaanSetelah Operasi, Setelah MelahirkanKondisi Lemah Lesu, Tidak BertenagaLunjut UsiaKesuburan, Meningkatkan Kualitas Sel Sperma Dan Sel TelurImpotensi / Lemah SyahwatCampakGoutGusiMigrainKeputihanKanker / TumorSembelitKembungAsmaTidak Nafsu Makan\r\n\r\n\r\nAturan Pakai :\r\n\r\n\r\nAnak-anak : 2 x sehari, 1 sendok teh (5 10 ml)\r\n\r\n\r\nDewasa : 2 x sehari, 1 sendok makan","rating":0}
{"no":0,"title":"minyak kemiri bmks bpom tracking code kpr-09","price":"35.000","seller":"Unik_Murah","sellerPlace":"Tangerang","url":"https://www.bukalapak.com/p/kesehatan-2359/obat-suplemen/obat-obatan/hby5i1-jual-minyak-kemiri-bmks-bpom-tracking-code-kpr-09?from=&product_owner=normal_seller","sold":180,"seen":3156,"favorite":41,"updated":"2019-10-14 21:52:14","description":"Beli barang ORIGINAL - saat ini dilengkapi dengan tracking code\r\nHati-hati dengan produk palsu kw\r\n\r\nWanita / pria cantik dan tampan adalah yang memiliki rambut yang sehat, hitam dan berkilau.\r\nDengan memiliki rambut yang indah, maka kepercayaan diri wanita akan bertambah. Apalagi anda, wanita yang sebagai public figur, entah itu di lingkup perusahaan, kantor atau mungkin ibu rumah tangga biasa.\r\n\r\nCoba bayangkan saja, apabila seorang wanita itu tidak memiliki rambut !\r\naneh dan tidak cantik lagi bukan ?\r\n\r\nMemang, di daerah tropis seperti di indonesia ini, kuman penyakit berkembang lebih pesat. Sehingga bisa mengakibatkan rambut nampak kering dan kusam. kalau di biaran rambut akan patah dan berujung pada kerontokan yang hebat.\r\nMaka dari itu, pada saat yang demikian rambut butuh asupan nutrisi yang baik, untuk menunjang proses pertumbuhannya.\r\n\r\nSalah satunya bisa dengan menggunakan, minyak kemiri . Yaitu minyak kemiri murni yang di hasilkan melalui teknologi COLD PRESS, sehingga kandungan vitamin E pada kemiri terjaga dengan utuh.\r\n\r\nBeda dengan minyak kemiri bakar atau sangrai yang mana vitamin E dapat rusak, karena proses pemanasan. Sebab vitamin sangat rentan sekali dengan Panas.\r\n\r\nBeberapa manfaat dari Minyak Kemiri :\r\n- Menumbuhkan rambut,baik dewasa ataupun bayi\r\n- Menghitamkan rambut\r\n- Melebatkan rambut\r\n- Memperkuat akar rambut\r\n- Menyembuhkan kerontokan rambut\r\n- Mencegah rambut bercabang\r\n- Mengaluskan rambut\r\n- Mengilangkan ketombe\r\n- Mencegah timbulnya uban\r\n- Mengkilapkan rambut\r\n- Menyuburkan kembali akar rambut\r\n\r\nUntuk produk BMKS lain bisa di cek di ;\r\n\r\n\r\n\r\nfollow/like toko kami agar selalu dapat update bara","rating":0}
{"no":0,"title":"Madu Penyubur kandungan dan penyubur pria","price":"98.000","seller":"DnDStore","sellerPlace":"Bandung","url":"https://www.bukalapak.com/p/kesehatan-2359/obat-suplemen/obat-obatan/un5lq-jual-madu-penyubur-kandungan-dan-penyubur-pria?from=&product_owner=normal_seller","sold":23,"seen":142,"favorite":6,"updated":"2019-07-16 19:32:00","description":"PAKET TERDIRI DARI:\r\n\r\nMADU PENYUBUR KANDUNGAN UNTUK ISTRI 350gr\r\n\r\nBagi Anda yang ingin memiliki keturunan, atau yang sudah pernah memiliki keturunan tapi pernah mengalami masalah seperti keguguran, KB yang berat, sehingga sulit untuk punya anak lagi, insya Allah madu ini solusinya.\r\n\r\nkomposisi :\r\nMadu pilihan, Sarikurma, ekstrak kemangi, ekstrak barucina, Ekstrak adas\r\n\r\nKhasiat :\r\n~ Untuk kesuburan kandungan\r\n~ Membantu memperkuat daya tahan sperma\r\n~ Membantu merangsang kerja hormon\r\n~ Membantu menjaga kesehatan reproduksi wanita\r\n~ membantu mengatasi gangguan haid dan keputihan\r\n\r\n\r\nMADU PENYUBUR PRIA 280gr\r\n\r\nKomposisi :\r\nmadu hutan, Ekstrak kurma, Ekstrak pucuk bunga kurma\r\n\r\nKhasiat:\r\n~ Membantu Mengatasi kemandulan\r\n~ Membantu Mengentalkan sperma\r\n~ Membantu Menjaga sperma lebih berkualitas\r\n~ Membantu Untuk ketahanan tubuh\r\n\r\nDep kes Pirt : 2","rating":0}
{"no":0,"title":"Obat Penis Keluar Nanah - Obat kencing panas","price":"295.000","seller":"ZAHRA DE NATURE","sellerPlace":"Cilacap","url":"https://www.bukalapak.com/p/kesehatan-2359/obat-suplemen/obat-obatan/2cmggsf-jual-obat-penis-keluar-nanah-obat-kencing-panas?from=&product_owner=normal_seller","sold":0,"seen":0,"favorite":1,"updated":"2019-10-07 19:04:44","description":"Obat Buah Zakar Bengkak - Obat Sipilis De nature - Obat Gonore - Obat Kencing nanah\r\n\r\n\r\nKEGUNAAN Gangjie Ghosiah :\r\n\r\n- Untuk memulihkan stamina\r\n- Memperbaiki jaringan sel pada bagian uretic, seperti buah zakar bengkak, dll\r\n- Sebagai anti virus\r\n- Mengobati infeksi saluran kencing, sifili, gonore, kencing nanah, klamidia, dll\r\n- Menjaga kesehatan tubuh\r\n\r\n\r\nPaket terdiri dari :\r\n1 Botol Kapsul Gangjie isi 50 kapsul\r\n1 Botol Kapsul Pipeca isi 50 kapsul\r\n\r\n\r\nKhasiat:\r\nMengobati Sipilis, kencing nanah, gonore dan gejala yg menYertainya seperti demam tak kunjung sembuh, sakit saat kencing, keluar nanah kental dari kelamin, dll\r\n\r\nMengapa harus belanja di Toko Kami ?\r\n#Garansi resmi 100% Dari De Nature\r\n#Garansi uang kembali jika bukan ORIGINAL\r\n#Paket Di jamin privasi\r\n#Tidak harus keluar rumah / pergi ke dokter\r\n\r\nKomposisi yang sudah di periksa oleh BPOM dan MUI, sehingga dapat anda percaya keamanannya.\r\n\r\nBahan yang digunakan adalah bahan herbal yang tidak berakibat menimbulkan ketergantungan dan tidak berefeksamping negatif.\r\n\r\nHanya menyembuhkan dan memastikan tidak akan kambuh lagi, itulah tujuan dari obat ini di buat.\r\n\r\nPesan sekarang, dan jadilah bukti nyata keampuhan obat de nature berikutnya.!!!\r\n\r\nBarang selalu tersedia yah.. silakan langsung add aja..\r\nFast Respon\r\n\r\n\r\nZAHRA DE NATURE https://www.bukalapak.com/p/kesehatan-2359/obat-suplemen/obat-obatan/111zmof-jual-obat-udah-2-hari-ujung-kemaluan-saya-sakit-keluar-cairan-kuning\r\n\r\n#obatkelaminkeluarnanah #obatpenyakitkelamin #obatkelaminkeluarnanah #obatherpes #obatkutilkelamin #obatkutil #obatherbalsipilis #obatherbal #obatsipilis #obatkelamin #obatgonore #obatsipilispria #obatsipilisherbal #obatsipilisampuh #obatsipilismanjur #obatsipilismurah #obatsakitkelamin #obatkelaminbernanah #obatkencingnanah #obatkelaminkeluarnanahdiapotik #obatpenyakitsipilis #obatpenyakitkemaluan #obatpenyakitkelamin #jualobatpenyakitsipilis #obatkencingnanah #jualobatpenyakitkelamin #obatherbalpenyakitkelamin #obatsipilissingapura #zahradenature #kikukikuk","rating":0}
{"no":0,"title":"Minyak Pembesar Penis-Herbal","price":"170.000","seller":"ARUM HERBAL","sellerPlace":"Jakarta Pusat","url":"https://www.bukalapak.com/p/kesehatan-2359/obat-suplemen/obat-obatan/1uihwgh-jual-minyak-pembesar-penis-herbal?from=&product_owner=normal_seller","sold":513,"seen":5926,"favorite":301,"updated":"2019-10-15 15:53:01","description":"READY STOCK, ORDER MASUK LANGSUNG DIKIRIM!!!!\r\n\r\nTITAN GEL HOLOGRAM RESMI TANTRA RUSSIA !!!\r\n\r\nDAN INGAT TITAN ASLI RUSSIA ITU ADA ANTIFAKE CODE NYA...\r\n\r\nAWAS PRODUK PALSU...!!! (JANGAN TERTIPU HARGA MURAH)\r\n\r\n\r\nMANFAAT:\r\n-Membantu meningkatkan volume alat vital hingga 60%.\r\n-Membantu memperpanjang ukuran Alat vital hingga 5 cm.\r\n-Membantu meningkatkan daya tahan pada saat-saat intim.\r\n-Membantu memperlama hubungan anda saat berhubungan.\r\n-Membantu memberikan tambahan stamina dan meningkatkan pengalaman bercinta.\r\n-Membantu efek positif pada daya tahan dan kesehatan libido.\r\n-Direkomendasikan, lebih baik, lebih aman, lebih kuat dan memperpanjang p*\r\n\r\n\r\nCARA PAKAI:\r\n-Gunakan setiap hari secara teratur dan rutin setelah setiap mandi / saat tubuh bersih. \r\n-Oleskan Titan Gel ke seluruh kemaluan secara merata lalu Pijatlah dengan gerakan searah mulai secara perlahan dari pangkal p* hingga ke ujung p* selama 10 menit.\r\n-Cream Titan gel ini cepat diserap & tidak meninggalkan bau yang tidak menyenangkan atau tanda.\r\n-Untuk hasil yang lebih menakjubkan,pakailah titan gel 1 jam sebelum melakukan hubungan intim dengan pasangan Anda.\r\n\r\n\r\n*JAMINAN MUTU & KUALITAS INTERNATIONAL* KEPUASAN CUSTOMER ADALAH PRIORITAS UTAMA KAMI","rating":0}
{"no":0,"title":"OBAT KUAT TAHAN LAMA","price":"475.000","seller":"ARUM HERBAL","sellerPlace":"Jakarta Pusat","url":"https://www.bukalapak.com/p/kesehatan-2359/obat-suplemen/obat-obatan/2a19j0t-jual-obat-kuat-tahan-lama?from=&product_owner=normal_seller","sold":87,"seen":169,"favorite":88,"updated":"2019-10-14 13:40:25","description":"Deskripsi\r\nSTOCK SELALU READY... SILAHKAN DIORDER YA..\r\n\r\n#Produk Dijamin 100% Original\r\n#Harga Paket Lebih Murah dibanding Harga Satuan\r\n#Supplier Pertama, Dijamin Harga Paling Murah\r\n\r\n\r\nBanyak pria yang tidak tahu rahasianya agar mempunyai erexi yang kuat, libido tinggi dan tidak lekas ejakulasi dini. Jika Anda hanya konsumsi kapsul herbal, maka ini hanya meningkatkan libido dan masalah ketahanan penetrasi biasanya masih tetap. Maka dari itu selain kapsul herbal Anda perlu Durevel yang menjadikan bagian sensitif pada daerah alat vitas menjadi kebas dan lebih tahan ragsangan, tergantung Anda mengoleskannya, jika semakin banyak maka semakin tahan lama, namun jangan kebanyakan nanti anda tidak merasakan rangsangan.\r\n\r\nPaket Obat Kusus Pria Dewasa Malam Pertama, adalah Obat Herbal yang wajib Anda miliki untuk merasakan tiap kali berhubungan senikmat malam pertama, Paket ini ierisi:\r\n\r\n1. Satu Botol obat herbal kusus pria dewasa Lhiformen\r\n\r\nObat herbal kusus pria Lhiformen telah terdaftar di Badan POM dengan nomor regristrasi POM TR. dan halal MUI 05 yang berkasiat untuk mendongkrak libido pria, agar errexsi lebih keras, meningkatkan libiddo dan menjaga stamina. Dengan menggunakan obat herbal kusus pria dewasa Lhiformen anda akan mendapatkan keperkasaan layaknya paduan Arjuna dan Werkudara.\r\n\r\nLhifomen meningkatkan stamina pria hingga mencapai 10 kali lipat. Anda tak perlu khawatir dengan efek samping konsumsi obat ini, karena Lhiformen terbuat dari 100% bahan herbal alami. Lhiformen adalah obat herbal kusus pria dewasa BPOM pertama kali di Indonesa dengan jaminan keberhasilan. Anda bisa mengklaim uang kembali jika tidak berhasil setelah beberapa hari anda mengkonsumsinya!\r\n\r\n2. Satu Botol Obat Tahan Lama Semprot Durevel\r\n\r\nObat Semprot Durevel dengan ijin IKOT 442/00060/V-2 adalah obat herbal khusus pria dewasa yang cara pemakaiannya cukup disemprotkan pada bagian-bagian yang paling sensitif pada alat vital pria, yaitu bagian kepala, leher serta bagian bawah alat vital. Anda cukup menyemprotkan 3 kali dan tunggu 45 menit. Anda akan merasakan bagian-bagian alat vital yang sensitif menjadi kebas, atau tahan terhadap rangsangan seksual. Hasil Terbaik obat semprot ini adalah setelah 2 jam, danm masih bekerja setelah 12 jam.\r\n\r\nDurevel adalah solusi terbaik untuk menjadikan durasi penetrasi lebih lama dan tangguh, mampu melakukan manuver posisi seksual, apapunposisi yang ingin anda coba. Durevel tercipta karena adanya keluhan kebanyakan pria yang mengalami masalah pada ejjakulaxi dini, sehingga ia hanya melakukan hal yang monoton untuk menghindari cepat keluar, namun dengan Durevel Anda menjadi raja diranjang. Durevel bekerja dengan mengurangi sensitivitas pada alat kelamin pria.\r\n\r\nDengan Paket Malam Pertama, hubungan suami istri Anda telalu terasa layaknya malam pertama!!! Ini adalah produk unggulan kami.\r\n\r\nDetail Produk:\r\nNama : LHIFORMEN\r\nKemasan: Botol (lihat foto di samping)\r\nIsi: 50 kapsul @ 500 mg\r\nDinkes: POM TR. 093 301\r\n\r\nNama: Durevel\r\nIsi 15 ml\r\nIjin Edar: Depkes. RI: IKOT 442/00060/V-2.\r\nDisertai cara pakai\r\n\r\nProduced by : CV. Karya Abadi.\r\nNomor Regristrasi SIUP: 510/24/PK/VIII/2015\r\n\r\nKelebihan belanja di toko kami :\r\n1. Terjamin keamanan produknya 100% herbal\r\n2. legalitas resmi\r\n3. Original Brand\r\n4. Pelayanan maksimal . (pengiriman dihari yang sama pembayaran jika sebelum pukul 15:00 WIB )\r\n5. packing rapih aman dan terjamin kerahasiaannya\r\n6. Stock Selalu Ready","rating":0}
{"no":0,"title":"OBAT KUAT-PRIA","price":"240.000","seller":"ANEKA JAYA SHOP","sellerPlace":"Jakarta Pusat","url":"https://www.bukalapak.com/p/kesehatan-2359/obat-suplemen/obat-obatan/206g8q0-jual-obat-kuat-pria?from=&product_owner=normal_seller","sold":156,"seen":2526,"favorite":133,"updated":"2019-10-13 17:56:45","description":"Stok Selalu READY, tinggal ORDER aja yaa gan..\r\n\r\nJaminan Produk ASLI\r\nDistributor Resmi CV. KARYA ABADI JEPARA\r\nPengiriman sampai jam 3 sore\r\nPacking RAPI, Privacy agan AMAN.\r\n\r\nLhiformen-Obat Herbal Penambah Stamina Dan Menjaga Kebugaran Vitalitas Pria\r\n\r\nBadan kurang bugar, stamina loyo dan mudah keluar saat dengan pasangan? Awas tanda kerusakan organ vitaIitas/ . Jangan biarkan berlarut, jika tak ingin loyo dan terkena gangguan fungsi seperti ejjakuIIasi dinni (cepat keluar) , lmpotensl (susah erreksl) dan lemah sahwatt. \r\nObati segera dengan Lhiformen!\r\nObat herbal kusus pria dewasa terdaftar di BPOM dan halal MUI. Aman untuk dikonsumsi dan tidak memberikan efek ketergantungan. Meningkatkan produksi hormon testosteron, mengatasi ejakulaxi dini, meningkatkan libido, menjadikan erexi keras dan tahan lama, mengentalkan dan memperbanyak sperma.\r\n\r\nManfaat Kapsul Lhiformen:\r\nMenambah dan meningkatkan gairah SekzsuaI\r\nMengatasi masalah ezakuIasi dini\r\nMeningkatkan kadar hormon testosteron\r\nMeningkatkan produksi sperrmatozoid\r\nMenjaga vitaIitas dan kesehatan pria\r\nMemperkuat sistem kekebalan tubuh terhadap cuaca buruk\r\nMengandung bahan organik tanpa bahan kimia yang berbahaya\r\nMenjaga stamina di saat bekerja keras\r\nMenjaga suhu badan tetap stabil\r\nAman dikonsumsi bagai Anda yang mempunyai masalah ginjal, jantung, hipertensi, koesterol,diabetes dan penya\r\n\r\nDosis Penggunaan:\r\nHanya dengan 1 kapsul sehari dan 1 kapsul diminum 1 jam sebelum berhubungan untuk menjadikan Anda pria perkasa.\r\n\r\nDetail Produk:\r\nIsi:50 kapsul @ 500 mg\r\nIjin BPOM: POM TR. 093 301 521\r\nHalal MUI 05\r\nHarga: Rp.240.000,-\r\n\r\nSilahkan Pesan ORDER untuk Pemesanan ya..\r\nPengiriman CEPAT Dan Langsung dikirim Ke Alamat Tujuan Dengan AMAN! :) ..\r\nAwas Barang Tiruan!.. Produk ini 100% ORIGINAL ASLI RESMI..","rating":0}
{"no":0,"title":"OBAT KUAT -OBAT","price":"210.000","seller":"ANEKA JAYA SHOP","sellerPlace":"Jakarta Pusat","url":"https://www.bukalapak.com/p/kesehatan-2359/obat-suplemen/obat-obatan/206gliz-jual-obat-kuat-obat?from=&product_owner=normal_seller","sold":139,"seen":3326,"favorite":155,"updated":"2019-10-15 09:39:14","description":"Dijamin 100% Original dari CV. KARYA ABADI !!!\r\nHarga untuk 1 Botol (15 ml)\r\nBarang selalu READY Stok gan, langsung klik BELI dan kami kirim hari ini juga \r\n\r\n----------------- P E N T I N G ----------------\r\n\r\nJADWAL PENGIRIMAN\r\n===================\r\nSENIN s/d JUMAT : pengiriman sampai jam 3 sore\r\nSABTU : pengiriman sampai jam 12 siang\r\n\r\n*) ORDER yang kami terima SETELAHNYA atau hari LIBUR NASIONAL akan dikirim pada HARI KERJA BERIKUTNYA.\r\n\r\n**) Paket DIKEMAS rapih TANPA MEREK/GAMBAR Produk... RAHASIA TERJAMIN..\r\n\r\n----------------- M A G I C - O I L ----------------\r\n\r\nMagic Oil merupakan produk berbahan herbal termutakhir hasil dari penelitian anggota Perhimpunan Herbalis Indonesia. Tidak seperti obatkuat pada umumnya, yang cara pemakaiannya dengan diminum, Magic Oil berbentuk oles, yaitu cairan yang dioleskan pada alatvital pria. Formula yang unik ini dirancang untuk memungkinkan konsumen menikmati ereksii dengan kualitas, fungsi dan kontrol yang kuat.\r\n\r\nKhasiat :\r\n* Membangun pelepasan hormone adrenalin yang dapat memperlebar pembuluh darah, sehingga tubuh menjadi hangat, darah mengalir lebih lancar dan tekanan darah menurun\r\n* Mengatasi masalah ejakulasii dini\r\n* Membangun ereksii, mencegah kemandulan dan memperkuat daya tahan sperma\r\n* Dapat meningkatkan ukuran alatvital pria serta membuatnya kencang\r\n* Meningkatkan libidoo.\r\n\r\nAturan Pakai :\r\n1. Oleskan Magic Oil satu atau dua kali sehari\r\n2. Pastikan alatvital Anda dalam keadaan bersih. \r\n3. Teteskan Magic Oil pada alatvital, cukup 3-5 tetes.\r\n4. Untuk aturan pakai selanjutnya ada dalam kemasan\r\n\r\n1 Botol MAGIC OIL berisi 15ml gunakan 1 atau maksimal 2 sehari\r\nbisa untuk 1 bulan pemakaian tergantung jumlah dan seringnya pemakaian","rating":0}
{"no":0,"title":"OBAT KUAT TAHAN-LAMA","price":"280.000","seller":"ANEKA JAYA SHOP","sellerPlace":"Jakarta Pusat","url":"https://www.bukalapak.com/p/kesehatan-2359/obat-suplemen/obat-obatan/206gfqd-jual-obat-kuat-tahan-lama?from=&product_owner=normal_seller","sold":137,"seen":920,"favorite":135,"updated":"2019-10-14 00:28:25","description":"Dijamin 100% Original dari CV. KARYA ABADI !!!\r\nHarga untuk 1 Botol (15 ml)\r\nBarang selalu READY Stok gan, \r\n\r\n----------------- P E N T I N G ----------------\r\n\r\nJADWAL PENGIRIMAN\r\n\r\nSENIN s/d JUMAT : pengiriman sampai jam 3 sore\r\nSABTU : pengiriman sampai jam 12 siang\r\n\r\n\r\n**) Paket DIKEMAS rapih TANPA MEREK/GAMBAR Produk... RAHASIA TERJAMIN..\r\n\r\n----------------- D U R E V E L - S P R A Y Obat Herbal Tahan Lama Pria Terbaik Di Indonesia-------------\r\n\r\nDurevel Spray adalah formula herbal yang terbuat dari ekstrak tanaman herbal terbaik yang berkhasiat tinggi dalam membantu mengatasi ejakulasii dini secara nyata dan aman.\r\nDurevel berbahan dasar air dan dikemas dalam botol kaca spray. \r\nHal ini menjadikan Anda sangat mudah menggunakannya, cukup disemprotkan dan tunggu hasilnya setelah 45 menit. \r\n\r\nKhasiat :\r\n* Membantu Anda untuk kuat dan tahan lebih lama berhubungan bersama pasangan\r\n* Durasi berhubungan lebih lama\r\n* Ejakulasii Dini Anda berakhir\r\n* Anda akan merasakan sensasi yang luar biasa\r\nAturan Pakai :\r\n1. Anda hanya perlu menyemprotkan Durevel ke alatvital Anda dengan sedikit pijatan untuk meratakannya.\r\n2. Alatvital Anda akan terasa hangat setelah 10 menit.\r\n3. Tunggu selama 45 menit.\r\n4. Durevel bisa berfungsi setelah 45 menit sampai 12 jam.\r\n5. Dan Anda siap untuk berhubungan selama mungkin.\r\n\r\n1 Botol DUREVEL SPRAY berisi 15ml gunakan hanya saat akan berhubungan saja\r\nbisa untuk 2 bulan pemakaian tergantung sedikit banyaknya pemakaian\r\n\r\nHATI-HATI produk palsu! Durevel Spray hanya dijual di jaringan CV Karya Abadi! Durevel Spray Asli tidak dijual dg harga dibawah HET (Rp,280.000)!\r\n#obatkuatpria #herbalkuatpria #obattahanlama #obatkuatpriaperkasa #obatkuattahanlama","rating":0}
{"no":0,"title":"Cellergy,celergy..original","price":"250.000","seller":"Medika Herbal","sellerPlace":"Jakarta Timur","url":"https://www.bukalapak.com/p/kesehatan-2359/obat-suplemen/obat-obatan/eiyvv-jual-cellergy-celergy-original?from=&product_owner=normal_seller","sold":21,"seen":363,"favorite":7,"updated":"2019-10-12 20:27:21","description":"CELLERGY.\r\n\r\n-