{"no":0,"title":"Kopi GOLD Ashwagandha Premium KSM66 = Minuman Stamina Dari Swiss","price":"800.000","seller":"Ibu Stamina","sellerPlace":"Jakarta Barat","url":"https://www.bukalapak.com/p/kesehatan-2359/obat-suplemen/obat-obatan/16uuh0-jual-kopi-gold-ashwagandha-premium-ksm66-minuman-stamina-dari-swiss?from=&product_owner=normal_seller","sold":2,"seen":943,"favorite":10,"updated":"2019-10-03 22:28:28","description":"PRODUK INI BUKAN KOPI SEDUH, BUBUK RASA KOPI.\r\n\r\n\r\nCARA KONSUMSI DIJELASKAN DIBAWAH POSTING.\r\n\r\n\r\nHarga tertera adalah harga per Box\r\n\r\n\r\nKemasan Box isi 30 sachets @3gr.\r\n\r\n\r\nRasa : kopi.\r\n\r\n\r\nFrom Mibelle, Swiss.\r\n\r\n\r\nProduk herbal vitalitas kelas premium dengan KSM-66 atau Ashwagandha untuk anti stress, kesuburan wanita dan pria, memperbaiki dan meregenerasi sel2 pada organ reproduksi.\r\n\r\n\r\nTiga bahan utama yang terkandung pada BIO-STEMCELL GOLD :\r\n\r\n\r\n1.\r\nApple Stemcell teknologi PhytoCellTec dari Mibelle biochemistry Swiss.\r\n2.\r\nKSM-66 Ashwagandha dari Ixoreal Biomed ©.\r\n3.\r\nGinseng Korea\r\n\r\n\r\n\r\nManfaat dari BIO-STEMCELL GOLD :\r\n\r\n\r\n1.\r\nMengatasi permasalahan seksualitas pada Pria dan Wanita.\r\n2.\r\nMeningkatkan kualitas dan kuantitas Sperma serta tingkat testosteron (mengatasi kemandulan).\r\n3.\r\nMengurangi stress dan kegelisahan.\r\n4.\r\nMeningkatkan daya ingat dan daya tangkap.\r\n5.\r\nMeningkatkan kinerja otot dan kekuatan otot.\r\n6.\r\nMeningkatkan daya tahan dan stamina.\r\n7.\r\nMembantu mengatasi masalah insomnia.\r\n8.\r\nMembantu mengatasi masalah menstruasi.\r\n9.\r\nMembantu medapatkan tubuh ramping dan sehat.\r\n\r\n\r\n\r\nsistem kekebalan tubuh.\r\n\r\n\r\nBIO-STEMCELL GOLD telah lolos uji lab terbukti BEBAS dari bahan2 aktif terkandung pada obat kuwat seperti : Tadalafil, Sildenafil dan Vardenafil.\r\n\r\n\r\nKonsumsi :\r\n\r\n\r\n1 sachet per hari untuk pria atau\r\n\r\n\r\n½ sachet per hari untuk wanita dan sebaiknya setelah sarapan pagi.\r\n\r\n\r\nCara Pakai :\r\n\r\n\r\nBerbentuk serbuk dalam sachet, dimakan 1 kali sehari dengan cara ditaruh dibawah lidah, tunggu selama 1-2 menit, kemudian isap hingga larut, minum 1 gelas air putih sesudah semua bubuk larut / dapat dicampur dengan teh, kopi / jus.\r\n\r\n\r\n***PERINGATAN :\r\n\r\n\r\nKonsumsi pada siang hari dan tidak boleh dikonsumsi apabila anda memiliki atau pernah memiliki tekanan darah tinggi, masalah jantung, masalah sistem imun, kanker payudara, ibu hamil, anak-anak.","rating":0}
{"no":0,"title":"HEPATSURE CAPSULE GREEN WORLD/OBAT LIVER/BATU EMPEDU","price":"293.000","seller":"okeshopjkt","sellerPlace":"Jakarta Timur","url":"https://www.bukalapak.com/p/kesehatan-2359/obat-suplemen/obat-obatan/25atds-jual-hepatsure-capsule-green-world-obat-liver-batu-empedu?from=&product_owner=normal_seller","sold":6,"seen":486,"favorite":4,"updated":"2019-10-12 06:10:50","description":"HEPASTSURE CAPSULE GREEN WORLD\r\n\r\nKomposisi : \r\nAstragalus mongholicus, Liquorice dan Lopatherum gracile\r\n\r\nIsi : 60 Kapsul / Botol.\r\n\r\nATURAN KONSUMSI :\r\n2 kapsul, 1-2 kali sehari.\r\n\r\nBERKHASIAT UNTUK :\r\n1.Melindungi dan menstabilkan sel-sel hati.\r\nuntuk hepatitis akut, hepatitis kronis dan sirosis.\r\n3.Meningkatkan fungsi hati, meningkatkan sekresi empedu, mengurangi peradangan, mencegah dan mengeluarkan alkohol, racun kimia, logamberat, obat-obatan dan melawan keracunan makanan dan pencemaran lingkungan.\r\n4.Mempercepat regenerasi dan pemulihan sel-sel hati, melindungi dan menstabilkan membran sel hati. Melindungi hati, meningkatkan dan memperbaiki fungsi hati.\r\n\r\nKELOMPOK PEMAKAI :\r\n1. Orang yang fungsi hati terganggu atau yang mempunyai penyakit hati.\r\n2. Penderita hepatitis, hati berlemak atau sirosis.\r\n3. Penderita penyakit kuning atau kolesistitis.\r\n4. Orang yang terlalu banyak mengkonsumsi alkohol atau yang memiliki kebiasaan hidup yang tidak teratur.\r\n5. Orang yang selalu bekerja di lingkungan tercemar.","rating":0}
{"no":0,"title":"PILOSE ANTLER CAPSULE GREEN WORLD/TANDUK RUSA/OBAT KESUBURAN PRIA","price":"287.000","seller":"okeshopjkt","sellerPlace":"Jakarta Timur","url":"https://www.bukalapak.com/p/kesehatan-2359/obat-suplemen/obat-obatan/25auwd-jual-pilose-antler-capsule-green-world-tanduk-rusa-obat-kesuburan-pria?from=&product_owner=normal_seller","sold":72,"seen":1988,"favorite":38,"updated":"2019-10-15 11:30:39","description":"PILOSE ANTLER CAPSULE GREEN WORLD/TANDUK RUSA\r\n\r\nMeningkatkan Hormon Plutein Pada wanita, hormon ini berfungsi untuk merangsang pengeluaran sel telur dari ovarium dan mempertahankan folikel sisa sel telur tersebut serta membuatnya berwarna kekuningan. \r\n\r\nPada laki-laki, hormon ini disebut Interstitial Cell Stimulating Hormone (ICSH),yang berfungsi untuk merangsang sel-sel interstisial di dalam testis untuk berkembang dan mensekresikan hormon testosteron.\r\nMeningkatkan Testosteron\r\nMeningkatkan gairah sexual / libido\r\nMemperbaiki kemampuan ereXSI\r\nMeningkatkan kesuburan. Problem kesuburan bagi wanita. (dapat memperlancar sumbatan2 yang menghambat Tuba falopi, juga kotoran2 lain yang menghambat sel telur). Terutama, bagi yang rahim dingin.\r\nMeningkatkan kualitas rahim dan indung telur\r\nMembantu gejala susah hamil akibat kualitas sperma kurang atau rahim dingin\r\nMenjaga kesehatan ginjal\r\nMengatasi Penuaan dini dan membuat awet muda\r\nMengatasi Frigiditas (Pria dan Wanita)\r\nMengatasi Sperma encer/sedikit\r\nMembantu untuk gejala aritmia, mengurangi kerusakan otot jantung, melebarkan pembuluh darah jantung, menambah energi otot jantung, menjaga selaput sel jantung tetap utuh serta merangsang penyembuhan kinerja otot jantung.\r\nMeningkatkan kualitas testis, prostat, Vesikula seminalis , corpus spongiosum pada pria.\r\nMemperkuat kinerja tubuh, memperbaiki kualitas tidur dan nafsu makan, mengurangi kelelahan otot.\r\nMempercepat penyembuhan luka, mengurangi radang, rasa sakit.\r\nMempercepat regenerasi dan pertambahan sel darah merah.\r\nMengatur tekanan darah\r\nMeningkatkan dan Memperkuat fungsi ginjal. \r\n\r\nKelompok pemakai :\r\nYang baru sembuh dari sakit, Pria dan wanita untuk keharmonisan seksual,tidak disarankan untuk wanita hamil dan menyusui.\r\n\r\nKomposisi: \r\nEkstrak bubuk tanduk rusa \r\n\r\nIsi: 30 capsule","rating":0}
{"no":0,"title":"Rebone Forte - Membantu memelihara kesehatan persendian","price":"136.000","seller":"Puspa Pharma Official Store","sellerPlace":"Jakarta Selatan","url":"https://www.bukalapak.com/p/kesehatan-2359/obat-suplemen/obat-obatan/18u1m72-jual-rebone-forte-membantu-memelihara-kesehatan-persendian?from=&product_owner=normal_seller","sold":7,"seen":65,"favorite":0,"updated":"2019-10-08 11:52:43","description":"Keunggulan :\r\n\r\n Once daily dose! \r\n Satu-satunya sediaan Glukosamin-Kondroitin dengan rasa mangga yang ENAK!\r\n Satu-satunya sediaan Glukosamin-Kondroitin yang dapat disajikan DINGIN\r\n\r\nKomposisi :\r\nGlucosamine HCl 1500 mg \r\nChondroitin sulphate 1200 mg \r\nMethyl Sulfonyl Methane (MSM) 1000 mg\r\nMangan (Mn) 2.5 mg\r\nMagnesium (Mg) 20 mg\r\nZinc (Zn) 5 mg\r\nSelenium 50 mcg\r\nKegunaan : Membantu memelihara kesehatan persendian\r\nKemasan : Dus, 5 sachet @7 gram\r\nAturan Pakai : 1 kali sehari 1 kaplet \r\n\r\nTAGLINE: Melangkah Lebih Nyaman Kini dan Nanti\r\n\r\n\r\n\r\nHAPPY SHOPPING :)","rating":0}
{"no":0,"title":"Alat Pijat Kayu Kerokan Batok Kelapa","price":"6.000","seller":"lukman hakim","sellerPlace":"Malang","url":"https://www.bukalapak.com/p/kesehatan-2359/obat-suplemen/obat-obatan/ur3c5-jual-alat-pijat-kayu-kerokan-batok-kelapa?from=&product_owner=normal_seller","sold":94,"seen":2163,"favorite":65,"updated":"2019-10-10 19:30:38","description":"Alat Pijat Kayu Kerokan Batok Kelapa\r\n\r\nAlat pijat roda tradisional untuk melancarkan peredaran darah, relaksasi, dan mengurangi lelah. Dengan desain yg bersahabat, mudah digunakan, bisa dipakai kapan saja & dimana saja. Cara menggunakan dengan Kerokkan secara pelan-pelan ke bagian tubuh yang dikehendaki, khususnya yang sedang mengalami masuk angin. \r\n\r\nUkuran :\r\nPanjang 15 cm\r\n\r\nPETUNJUK PEMESANAN\r\n- Silakan bisa langsung menggunakan fitur BELI yang tersedia di Bukalapak. Pembelian aman dan terpercaya :)\r\n- Sertakan selalu kode serta seri barang yang diminati pada keterangan pembelian yang ada\r\n- Akan lebih baik jika bisa menggunakan kolom diskusi / pesan pada Bukalapak untuk menanyakan stok barang terlebih dahulu\r\n\r\nTERIMA KASIH","rating":0}
{"no":0,"title":"KIDNEY CARE CAPSULE FOR MAN GREEN WORLD/OBAT GINJAL PRIA/SAKIT PINGGANG","price":"265.000","seller":"okeshopjkt","sellerPlace":"Jakarta Timur","url":"https://www.bukalapak.com/p/kesehatan-2359/obat-suplemen/obat-obatan/25awod-jual-kidney-care-capsule-for-man-green-world-obat-ginjal-pria-sakit-pinggang?from=&product_owner=normal_seller","sold":77,"seen":2232,"favorite":79,"updated":"2019-10-09 08:17:44","description":"KAMI TIDAK MENJUAL PRODUK PALSU. SEMUA BARANG YANG KAMI JUAL ORIGINAL 100% ASLI DAN BILA TERBUKTI TIDAK ORI/PALSU/KW KAMI GANTI 1000X LIPAT.\r\n\r\nKidney Care Capsule (for Man) ini dibuat dengan komposisi Ginseng, Oyster, Cinnamon, Fruit of Chinese Wolfberry, serta Chinese Yam\r\n\r\nObat Herbal Kidney Care Capsule (for Man)Dari kombinasi bahan-bahan alami herbal di atas yang sangat baik untuk kesehatan ginjal, maka tidak heran jika Kidney Care Capsule ini sangat berkhasiat untuk mengatasi berbagai masalah keluhan fungsi ginjal yang mendera pada pria. \r\n\r\nJadi, jika anda (pria) mempunyai masalah kesehatan pada fungsi ginjal, anda bisa memilih obat herbal Kidney Care Capsule (for Man) ini sebagai solusinya. \r\n\r\nSegera pesan obat herbal Kidney Care Capsule ini, dan rasakan sendiri khasiat dan keampuhan dari obat herbal Kidney Care Capsule ini !\r\n\r\nKhasiat Utama Kidney Care Capsule (for Man)\r\n\r\nMemperbaiki sistem ginjal dan kemampuan filterisasi ginjal.\r\nMembersihkan tumpukan zat racun di ginjal.\r\nMenciptakan lingkungan yang baik untuk ginjal dan menyeimbangi organ dalam.\r\nKelompok Pemakai\r\n\r\nOrang yang daya tahan tubuhnya lemah.\r\nPria dewasa dan tua.\r\nYang sakit pinggang dan kurang tenaga.","rating":0}
{"no":0,"title":"Alat Garuk Punggung Bahan Kayu","price":"5.500","seller":"lukman hakim","sellerPlace":"Malang","url":"https://www.bukalapak.com/p/kesehatan-2359/obat-suplemen/obat-obatan/qc6uv-jual-alat-garuk-punggung-bahan-kayu?from=&product_owner=normal_seller","sold":332,"seen":2573,"favorite":82,"updated":"2019-10-11 10:12:06","description":"ALAT GARUK PUNGGUNG\r\nFungsi alat garuk punggung kayu ini adalah untuk membantu memudahkan menggaruk bagian punggung, dan bagian tubuh yang sulit dijangkau. Alat Garukan punggung ini membantu di saat bagian punggung yang gatal sulit dijangkau jari-jari untuk mengusir rasa gatal.\r\n\r\nalat garuk punggung atau GARUKAN KAYU, sangat membantu kita bila terasa gatal dipunggung, dengan alat ini gatal dipunggung akan hilang, \r\n\r\nUKURAN\r\nPanjang 40 cm\r\nLebar 3,5\r\n\r\nPETUNJUK PEMESANAN\r\n- Silakan bisa langsung menggunakan fitur BELI yang tersedia di Bukalapak\r\n- Sertakan selalu kode serta seri barang yang diminati pada keterangan pembelian yang ada\r\n- Akan lebih baik jika bisa menggunakan kolom diskusi / pesan pada Bukalapak untuk menanyakan stok barang terlebih dahulu\r\n\r\nTERIMA KASIH","rating":0}
{"no":0,"title":"TRIFLEX CAPSULE GREEN WORLD/OBAT RHEUMATIK/RADANG SENDI/ASAM URAT","price":"310.000","seller":"okeshopjkt","sellerPlace":"Jakarta Timur","url":"https://www.bukalapak.com/p/kesehatan-2359/obat-suplemen/obat-obatan/25azc1-jual-triflex-capsule-green-world-obat-rheumatik-radang-sendi-asam-urat?from=&product_owner=normal_seller","sold":77,"seen":2159,"favorite":76,"updated":"2019-10-01 04:33:27","description":"ARTHROPOWER CAPSULE (TRIFLEX CAPSULE) GREEN WORLD KEMASAN BARU\r\n\r\n\r\nExpired 22 Jan 2020\r\n\r\n\r\nSendi adalah struktur utama pergerakan manusia.\r\n\r\n\r\nDegenerasi sendi memburuk dengan bertambahnya usia, yang dapat menyebabkan perubahaan tulang rawan, penipisan pada tulang rawan atau tulang rawan menjadi hilang sehingga kemampuan membuat pelumas berkurang, akhirnya menyebabkan gesekan antar tulang yang pada akhirnya menghambat pergerakan sendi, menimbulkan ngilu / sakit sendi, ketidak leluasaan bergerak dan bengkak.\r\n\r\n\r\nSangat cocok untuk Orang yang menderita sakit pinggang, lutut, sendi, peradangan sendi lutut, leher atau tulang belakang.\r\n\r\n\r\nKomposisi :\r\n\r\n\r\nKalsium karbonat, Drynaria Rhizome, Ekstrak Astragalus Mongholicus.\r\n\r\n\r\nKhasiat :\r\n\r\n\r\n1.\r\nMeningkatkan pertumbuhan tulang\r\n2.\r\nMemperbaiki cedera tulang rawan\r\n3.\r\nMembantu penyembuhan tulang yang terluka\r\n4.\r\nMemulihkan luka jaringan otot\r\n5.\r\nMengurangi rasa sakit dan bengkak pada gejala osteoarthritis\r\n6.\r\nMeningkatkan fungsi gerakan sendi\r\n7.\r\nMenyembuhkan pembengkakan Pd persendian\r\n8.\r\nSendi luka\r\n9.\r\nMembantu pertumbuhan tulang\r\n\r\n\r\n\r\nCara pemakaian :\r\n\r\n\r\n2x2 capsule sehari. Anak 10-18thn 2x1 capsule TRIFLEX sehari\r\n\r\n\r\nisi : 60 capsules","rating":0}
{"no":0,"title":"FUFANG EJIAO JING Original impor","price":"220.000","seller":"Family993","sellerPlace":"Jakarta Utara","url":"https://www.bukalapak.com/p/kesehatan-2359/obat-suplemen/obat-obatan/7isouh-jual-fufang-ejiao-jing-original-impor?from=&product_owner=normal_seller","sold":0,"seen":366,"favorite":5,"updated":"2019-09-18 17:04:00","description":"Khasiat dan manfaat Wei Yi Wang Kapsul:\r\n- Menurunkan kadar gula dalam darah dengan cepat dan aman.\r\n- Membantu menjaga / menstabilkan kadar gula dalam darah.\r\n- Memperbaiki sel-sel pankreas yang rusak dan merangsang pertumbuhan sel-sel pankreas yang baru.\r\n\r\nKharakteristik Wei Yi Wang Kapsul:\r\n- Obat Herbal ini terdiri dari 2 warna kapsul yang mempunyai fungsi berbeda.\r\n- Kapsul berwarna hijau (Kapsul A) berfungsi untuk menurunkan kadar gula darah secara cepat dan aman.\r\n- Kapsul berwarna biru (Kapsul B) berfungsi untuk memperbaiki sel-sel pankreas dan merangsang pertumbuhan sel pankreas yang baru.\r\n\r\nDosis dan cara pakai Wei Yi Wang Kapsul:\r\n- Untuk Pengobatan, diminum secara bersamaan saat makan 3 kali sehari. Masing-masing 1 butir Kapsul A (Hijau) + 1 Kapsul B (Biru).\r\n- Untuk Perawatan.\r\nApabila kadar gula darah sudah turun mendekati normal, pemakaian kapsul A (Hijau) dapat dikurangi secara bertahap menjadi 2 kali atau bahkan 1 kali sehari.\r\nKapsul B (Biru) tetap diminum 3 kali sehari untuk memulihkan fungsi pankreas dalam memproduksi hormon insulin.\r\n\r\nPerhatian:\r\nSelama penggunaan obat ini jangan menggunakan obat diabetes lainnya secara bersamaan.\r\nBila badan terasa lemas, ini menandakan penurunan kadar gula penderita terlalu cepat. Maka pemakaian Kapsul A (Hijau) dapat dikurangi menjadi 2 kali sehari atau bahkan 1 kali sehari tergantung kondisi kadar gula pasien.\r\nSelama pemakaian pentang makan kacang hijau.\r\n\r\nCara penyimpanan:\r\nDisimpan di tempat yang kering dan sejuk pada suhu 25 - 30 derajat celcius.\r\nHindari sinar matahari langsung.\r\n\r\nSpesifikasi Wei Yi Wang Kapsul: \r\n1 box berisi 4 kotak @ 12 kapsul A dan 12 kapsul B.\r\n\r\nDiproduksi oleh: \r\nJiang Su Hai Hong Medicines Co., Ltd. China.","rating":0}
{"no":0,"title":"Qiang Gu Shu Jin Huo Luo Wan obat herbal ampuh mengatasi Asam urat Rematik nyeri sendi setara bio cypress","price":"75.000","seller":"Family993","sellerPlace":"Jakarta Utara","url":"https://www.bukalapak.com/p/kesehatan-2359/obat-suplemen/obat-obatan/8xnfsu-jual-qiang-gu-shu-jin-huo-luo-wan-obat-herbal-ampuh-mengatasi-asam-urat-rematik-nyeri-sendi-setara-bio-cypress?from=&product_owner=normal_seller","sold":2,"seen":950,"favorite":4,"updated":"2019-10-06 20:36:42","description":"Ready...\r\nQiang Gu Shu Jin Huo Luo Wan\r\n\r\n&amp;gt;&amp;gt; Produk Dijamin 100% Original Asli!!\r\n&amp;gt;&amp;gt; Pengiriman Cepat !!\r\n&amp;gt;&amp;gt; Packing Rapih !!\r\n\r\nBerkhasiat untuk :\r\n- membantu meringankan pegal linu\r\n- encok\r\n- meredakan sakit otot pinggang\r\n- Melancarkan Peredaran Darah\r\n- Membantu Memulihkan Stroke\r\n\r\nCara Minum : 3 x sehari @ 2 kapsul\r\n\r\nKemasan botol berisi 26 kapsul","rating":0}
{"no":0,"title":"Kapsul Daun Bidara Original","price":"25.000","seller":"Ria Herbal","sellerPlace":"Lamongan","url":"https://www.bukalapak.com/p/kesehatan-2359/obat-suplemen/obat-obatan/jlorgh-jual-kapsul-daun-bidara-original?from=&product_owner=normal_seller","sold":2126,"seen":1073,"favorite":18,"updated":"2019-10-15 13:37:51","description":"Harga untuk 1 hanger @ 20 sachet","rating":0}
{"no":0,"title":"Minyak Urut Oles Herbal Hajar Jahanam Black Stone ASLI","price":"150.000","seller":"store herbal","sellerPlace":"Jakarta Utara","url":"https://www.bukalapak.com/p/kesehatan-2359/obat-suplemen/obat-obatan/219siv9-jual-minyak-urut-oles-herbal-hajar-jahanam-black-stone-asli?from=&product_owner=normal_seller","sold":26,"seen":408,"favorite":12,"updated":"2019-10-13 07:53:15","description":"BLACKSTONE\r\nBuat istri selalu rindu dengan anda di Ranjang, Rasakan Tembakan Berkali-kali tanpa keluar dengan Blackstone ........Stok Selalu Ready \r\n\r\n\r\nBlackstone merupakan ramuan tradisional yang terbuat dari herbal atau tumbuhan obat. Diolah secara modern dan higienis dengan pengawasan seorang Herbalis yang terdaftar di Dinas Kesehatan. Selain efektif, Blackstone terbukti sangat aman untuk digunakan. \r\n\r\nTidak ada efek samping merugikan karena penggunaan Blackstone. obat herbal ini juga tidak menimbulkan ketergantungan.Sebelum di pasarkan kepada anda,Blackstone telah mengalami uji coba yang sangat lama di bawah pengawasan herbalis profesional,sehingga menjadikan Blackstone salah satu obat herbal oles terbaik di indonesia.\r\n\r\nJadi Jika Anda mengalami masalah ejakulasi dini,yang sangat mengganggu hubungan intim maka Blackstone adalah solusi yang dan akurat. Tidak hanya itu, selain mengatasi Ejakulasidini,Blackstone juga menyelamatkan keharmonisan rumah tangga Anda, dan harga diri Anda sebagai pria sejati yang selalu mampu memuaskn istri, Buat istri selalu rindu dengan anda di Ranjang, Rasakan Tembakan Berkali-kali tanpa keluar dengan Blackstone .\r\n\r\nManfaat Blackstone : \r\n-Untuk Mengatasi Ejakulasi Dini,alami\r\n- Membuat Pen!s Anda Lebih Keras\r\n- Memperbesar Ereks! Pen!s Anda\r\n- Membuat Anda Mampu Menahan Keluarnya Sp3rma\r\n- Pen!s Anda Tahan Terhadap Rangsangan\r\n- Anda Bisa Tahan Lebih Lama\r\n- Sebagai Antiseptik Untuk Pen!s\r\n- Baunya yang khas mampu merangsang lib!do Anda 3x lipat\r\n\r\nDETAIL PRODUK \r\nNama : Blackstone kemasan : botol ( lihat foto di atas )\r\nisi : 10ml di sertai cara pemakaian dalam kemasan\r\nBergabunglah Dengan Ratusan Konsumen Kami Yang berhasil Membahagiakan Istrinya","rating":0}
{"no":0,"title":"Karet Behel Power O / karet behel bulat / karet behel permanen","price":"20.000","seller":"Behelldental","sellerPlace":"Jakarta Barat","url":"https://www.bukalapak.com/p/kesehatan-2359/obat-suplemen/obat-obatan/1vi5va-jual-karet-behel-power-o-karet-behel-bulat-karet-behel-permanen?from=&product_owner=normal_seller","sold":422,"seen":67131,"favorite":212,"updated":"2019-10-15 14:57:24","description":"ORIGINAL TEBAL . BUKAN YG MURAH TIPIS !\r\n\r\nKaret Power O Kualitas Super, DIJAMIN TIDAK KECEWA\r\nHarga di atas adalah ORDER : 5 buah karet\r\n\r\nREADY SEMUA WARNA\r\n1 batang bisa dipakai untuk rahang atas bawah (Isi 26 lubang)\r\n\r\n- BEBAS PILIH WARNA\r\n- WARNA TAHAN LAMA\r\n- ELASTIS TIDAK MUDAH PUTUS\r\n\r\nBoleh Campur..tapi mohon tanya dulu ketersediaan stock..\r\ntanpa keterangan di kirim random, NO COMPLAIN","rating":0}
{"no":0,"title":"SAMYUNWAN WISDOM ASLI","price":"80.000","seller":"GGM HERBAL JAKARTA","sellerPlace":"Depok","url":"https://www.bukalapak.com/p/kesehatan-2359/obat-suplemen/obat-obatan/aa7ew9-jual-samyunwan-wisdom-asli?from=&product_owner=normal_seller","sold":7053,"seen":740,"favorite":8,"updated":"2019-10-11 07:54:23","description":"SAMYUNWAN DISINI TERBUKTI ASLI DARI WISDOM.\r\n*banyak jenis2 samyunwan yang beredar.. Kami MENJAMIN Produk yang kami jual ASLI dengan Hologram dan Segel Resmi WISDOM\r\n\r\nQ:Apa sih beda Samyun wan Wisdom dengan samyun wan lokal (dus yang menggunakan test bakar)?\r\nA:Samyun wan wisdom adalah produk impor yang melalui seleksi ketat saat masuk ke indonesia sehingga KEASLIANNYA pribadi lebih cocok menggunakan produk wisdom. karena banyak juga produk versi lokal yang beredar adalah produk ASPAL akibat ulah oknum oknum yang tidak bertanggung jawab. Oleh krn itu saya tidak berani menjual yang lokal karena alasan tersebut.\r\n\r\nQ:Apakah anda menjamin barang anda ASLI?\r\n: Saya jamin 100% ASLI\r\nYG VERSI LOKAL ITU YG BAKAR BUKAN DR WISDOM ASLI LOH \r\n\r\n\r\nORIGINAL STOK BARU , EXP PANJANG , HATI2 BANYAK DIJUAL MURAH TAPI KADALUARSA \r\n\r\n\r\nSamYunWan. 100% Original dan HALAL\r\n* Isi Kapsul : 20 Kapsul per Box untuk 10 Hari\r\nKapsul warna merah diminum 2 X sehari setelah makan. Ada 1 kapsul warna putih atau pink ( tergantung produksi pabrik saat itu ) diminum saat lelah saja (bonus)\r\n\r\nKHASIATNYA\r\n1. Menambah napsu makan dan membuat tubuh lebih berisi\r\n2. Meningkatkan Daya serap makanan yang masuk ke dalam tubuh Kita\r\n3. Berat Badan Kita akan cepat bertambah,karena apa yang kita makan\r\ndiserap cepat oleh tubuh\r\n4. Memperbaiki metabolisme tubuh\r\n5.Penyerapan makanan menjadi lebih sempurna","rating":0}
{"no":0,"title":"salep belerang sulfur obat penghilang panu kudis kurap gatal gatal scabies eksim alergi jerawat kutil tinea kaligata biduran kutil jamur exim 1 pcs","price":"7.000","seller":"Toko 3 Beruang","sellerPlace":"Kab. Bogor","url":"https://www.bukalapak.com/p/kesehatan-2359/obat-suplemen/obat-obatan/s36lj3-jual-salep-belerang-sulfur-obat-penghilang-panu-kudis-kurap-gatal-gatal-scabies-eksim-alergi-jerawat-kutil-tinea-kaligata-biduran-kutil-jamur-exim-1-pcs?from=&product_owner=normal_seller","sold":165,"seen":1892,"favorite":49,"updated":"2019-10-15 13:37:52","description":"Expire : Maret'2023 \r\nObat panu kudis kurap gatal gatal alergi jerawat jamur exim dll\r\nBerat : 15 gram","rating":0}
{"no":0,"title":"Zheng Gu Shui 30ml","price":"30.000","seller":"May 89","sellerPlace":"Jakarta Utara","url":"https://www.bukalapak.com/p/kesehatan-2359/obat-suplemen/obat-obatan/76ivj-jual-zheng-gu-shui-30ml?from=&product_owner=normal_seller","sold":123,"seen":2002,"favorite":21,"updated":"2019-10-12 21:44:15","description":"* Produk Dijamin 100% Original Asli!!\r\n* Pengiriman Cepat !!\r\n* Packing Rapih !!\r\n\r\nBerkhasiat untuk:\r\n* Membantu penyembuhan retak tulang\r\n* Keseleo\r\n* Meringankan rasa sakit rematik\r\n* Meredakan bengkak\r\n* Melancarkan sirkulasi darah\r\n\r\nCara pakai: oleskan beberapa kali sehari pada bagian yang sakit\r\n\r\nKemasan botol berisi 30 ml","rating":0}
{"no":0,"title":"obat struk","price":"295.000","seller":"Bagja De Nature","sellerPlace":"Cilacap","url":"https://www.bukalapak.com/p/kesehatan-2359/obat-suplemen/obat-obatan/15fvc0r-jual-obat-struk?from=&product_owner=normal_seller","sold":19,"seen":55,"favorite":18,"updated":"2019-04-13 22:30:45","description":"#Garansi Asli De Nature (resmi)\r\n#Packing Rapih dan Aman, RAHASIA TERJAMIN 100%.\r\n#Layanan Informasi dan Konsultasi bisa kontak langsung ke nomor CS kami.\r\n#Selama Iklan Tayang Stok ready\r\n# JADWAL PENGIRIMAN\r\n- SENIN s/d SABTU PUKUL 07.00 - 14.00 WIB\r\n- HARI BESAR / TANGGAL MERAH LIBUR PENGIRIMAN\r\n-Khusus POS pukul 09:00 WIB\r\n\r\nPaket obat stroke dari De nature yang aman dan berkualitas merupakan herbal terpercaya dalam penyembuhan sakit akibat penyumbatan pembuluh darah yang mengakibatkan stroke. \r\n\r\nHerbal Stroke De Nature, terdiri dari: \r\nObat Morici dan Centiloss Herbal de Nature \r\n\r\nKHASIAT :\r\nMenyembuhkan stroke iskemik dan hemoragik\r\nMengobati stroke ringan dan berat\r\nMengatsi penyumbatan pembuluh darah\r\n\r\nDETAIL PRODUK :\r\n1 Botol Morici isi 50 Kapsul\r\n1 Botol Centiloss Isi 50 Kapsul\r\n\r\nATURAN PAKAI :\r\nDi minum 3X sehari 1 jam sebelum makan sekali konsumsi 2 kapsul Stroke dan 2 kapsul Centiloss\r\n\r\nBARANG SELALU READY STOCK!!!!!","rating":0}
{"no":0,"title":"Jamu Kuat Vitalitas Pria Kopi Mangrove Segara","price":"170.000","seller":"IKBAR SALLIM AL ASYARI","sellerPlace":"Tulungagung","url":"https://www.bukalapak.com/p/kesehatan-2359/obat-suplemen/obat-obatan/1abz34m-jual-jamu-kuat-vitalitas-pria-kopi-mangrove-segara?from=&product_owner=normal_seller","sold":76,"seen":1445,"favorite":25,"updated":"2019-10-13 17:25:25","description":"BARANG SELALU READY!!! LANGSUNG ORDER SAJA\r\n\r\nKopi Mangrove Segara adalah Kopi alternatif terbuat dari buah mangrove pesisir Nusantara yg aman bagi lambung, tanpa kafein, dan kaya akan manfaat: mengobati diare, menghilangkan pegel keju linu, menghangatkan tubuh, menjaga stamina, meningkatkan vitalitas, melancarkan haid dll.\r\n\r\nPaket Kopi Mangrove Segara adalah penemuan terbaru utk mengatasi ejakulasi dini, menambah stamina saat berhubungan s3x (BAGI LAKI2), memperbaiki horomonal dalam tubuh, melancarkan haid, hingga membantu mendapatkan keturunan (BAGI PEREMPUAN). Sudah terbukti secara internasional diliput Metro TV, TRANS7, Jawa Pos, CNBC Nebraska Amerika, dll.\r\n\r\ninfo buka web resmi www*kpmsegara*id\r\n\r\nObat Kuat\r\njamu kuat\r\njamu kuat pria\r\njamu kuat tradisional\r\ncara agar tahan lama\r\ncara agar tahan lama di ranjang\r\njamu kuat lelaki\r\njamu tradisional pria\r\njamu kuat tradisional\r\njamu kuat pria\r\njamu tradisional pria\r\nramuan tradisional untuk pria\r\njamu tahan lama","rating":0}
{"no":0,"title":"SO263 HIU Bantugin - HIU Bantugin Herbal Penghancur Batu - Penghancur Batu Ginjal Gangguan Kemih - Suplemen Kesehatan Ginjal","price":"41.800","seller":"Juragan SixtyOne","sellerPlace":"Jakarta Pusat","url":"https://www.bukalapak.com/p/kesehatan-2359/obat-suplemen/obat-obatan/17wmiav-jual-so263-hiu-bantugin-hiu-bantugin-herbal-penghancur-batu-penghancur-batu-ginjal-gangguan-kemih-suplemen-kesehatan-ginjal?from=&product_owner=normal_seller","sold":31,"seen":155,"favorite":4,"updated":"2019-09-02 15:47:28","description":"HIU BANTUGIN - Herbal Penghancur Batu Ginjal / Gangguan Kemih\r\n\r\n\r\n\r\nInsya Allah berkhasiat :\r\n\r\n- Menjaga kesehatan ginjal\r\n\r\n- Meredakan nyeri pinggang\r\n\r\n- Melancarkan kencing\r\n\r\n- Mengobati radang ginjal\r\n\r\n- Mengobati radang saluran kencing\r\n\r\n- Menghancurkan batu ginjal dan batu kemih\r\n\r\n- Menghancurkan batu empedu\r\n\r\n- Mencegah pembentukan endapan ginjal\r\n\r\n\r\n\r\nIsi 60 kapsul\r\n\r\nPOM TR. 133 369 381\r\n\r\nHALAL LPPOM MUI No. 12270003591213\r\n\r\nDiproduksi oleh : Herbal Indo Utama","rating":0}
{"no":0,"title":"Grow-up USA","price":"45.000","seller":"tokobians","sellerPlace":"Tangerang Selatan","url":"https://www.bukalapak.com/p/kesehatan-2359/obat-suplemen/obat-obatan/pw4zd-jual-grow-up-usa?from=&product_owner=normal_seller","sold":1297,"seen":6776,"favorite":130,"updated":"2019-10-15 12:43:09","description":"\" GROW-UP USA\" suplemen multi peninggi badan\r\n-HORMON PERTUMBUHAN adalah hormon yang berperan dalam mengendalikan pertumbuhan otot dan organ lainya, mempengaruhi kecepatan pertumbuhan tubuh.\r\n-bila anda merasa bertubuh pendek sebaiknya mengkonsumsi \" GROW-UP\" .\r\n\r\n-\" GROW-UP\" adalah obat untuk peninggi badan untuk segala umur, produk ini tercipta dari inovasi terbaru yang di dukung dengan riset dan bukti.\r\n\r\n\" GROW-UP\" adalah obat herbal yang diambil dari rempah-rempah alam yang di peroses dengan teknologi mutahir oleh para ilmuwan di amerika serikat.\r\n\r\n-\" GROW-UP\" banyak dikonsumsi para olahragawan, angkatan atau militer untuk mempercepat pertumbuhan badan agar cepat tinggi dalam kadar proposional untuk memenuhi setandar international\r\n\r\n-secara klins setelah terciptanya \" GROW-UP\" banyak permintaan untuk di jual bebas ke halayak karena begitu hebatnya dan terbukti nyata.\r\nTanpa efek samping 100% aman.\r\n\r\n\" GROW-UP\" dikatakan obat multi karena bisa juga untuk memperkuat daya ingat atau IQ dan setamina badan agar tetap sehat, vit sepanjang di konsumsi para pelajar yang membutuhkan daya ingat dan konsentarasi tinggi.\r\n\r\n\" GROW-UP\" dapat di konsumsi pria dan wanita untuk segala umur dalam waktu 1 bulan tinggi badan anda akan bertambah 5-15cm.\r\n\r\nGROW-UP USA multi suplemen\r\nNegara Asal : Amerika Serikat\r\nisi 250capsul","rating":0}
{"no":0,"title":"Obat Wasir Ambeien Herbal","price":"500.000","seller":"De Nature Sehat","sellerPlace":"Cilacap","url":"https://www.bukalapak.com/p/kesehatan-2359/obat-suplemen/obat-obatan/10kxlw7-jual-obat-wasir-ambeien-herbal?from=&product_owner=normal_seller","sold":51,"seen":132,"favorite":34,"updated":"2019-07-16 10:26:00","description":"AMBEJOSS + SALWA\r\n\r\n2 botol ambejoss @50 kapsul\r\n2 Salep Salwa\r\n\r\nBarang selalu ready ya sist/gan. Tinggal kirim... (fast respond)\r\n\r\nPaket Ambejoss + Salep Salwa\r\nDiperuntukan untuk penderita wasir stadium II keatas yang sudah ada benjolannya.\r\n\r\nTANPA OPERASI\r\n\r\nCara Mengobati Wasir Secara Tradisional yaitu dengan Ambejoss De Nature\r\nIndonesia sebagai obat wasir tradisional yang dirancang secara khusus untuk\r\nsembuhkan wasir ringan maupun parah secara alami.\r\n\r\nUji klinis telah menunjukkan bahwa produk ini aman dan tidak memiliki efek\r\nsamping. Ambejoss De Nature Indonesia, Herbal Kami terbuat dari daun ungu\r\npilihan yang sudah banyak membantu mengobati pasien wasir atau ambeien.\r\nPemakaian Ambejoss secara rutin selama satu bulan bisa membantu mengobati wasir,\r\nbaik itu wasir stadium IV sekalipun. Untuk yang stadium II keatas yang sudah ada\r\nbenjolan di sekitar anus akibat pembengkakan, cara mengobati wasir luar kami\r\nsarankan juga untuk menggunakan Salep salwa. Salep salwa untuk wasir terbuat\r\ndari campuran herbal, diantaranya adalah propolis murni, minyak zaitun, binahong\r\ndan bahan lain yang membantu menyembuhkan wasir dari luar.\r\n\r\nharga 1 paket Rp 275.000 = 1 minggu masa pengobatan\r\nharga 2 paket Rp 500.000 = 2 minggu masa pengobatan\r\nharga 4 paket Rp 950.000 = 1 bulan masa pengobatan","rating":0}
{"no":0,"title":"Alat Bantu Jalan Tongkat kaki 3, kaki 4","price":"77.000","seller":"AKBAR MEDIKA","sellerPlace":"Bekasi","url":"https://www.bukalapak.com/p/kesehatan-2359/obat-suplemen/obat-obatan/4qlb1-jual-alat-bantu-jalan-tongkat-kaki-3-kaki-4?from=&product_owner=normal_seller","sold":658,"seen":14330,"favorite":620,"updated":"2019-10-15 11:59:31","description":"alat bantu jalan, Tongkat kaki 3, kaki 4\r\nMerk : SELLA\r\nBahan : Besi dilapisi chrom\r\nBerat aktual barang 0.8kg, dihitung volume setara 9kg\r\ndimensi : 26 cm x 26 cm x 75 cm : 6000 = 8.45kg","rating":0}
{"no":0,"title":"MONTALIN ORIGINAL Ampuh Mengobati Asam Urat Rematik Encok Pegal Linu Stroke","price":"60.000","seller":"Lyksans Shop","sellerPlace":"Bekasi","url":"https://www.bukalapak.com/p/kesehatan-2359/obat-suplemen/obat-obatan/1oxr1ln-jual-montalin-original-ampuh-mengobati-asam-urat-rematik-encok-pegal-linu-stroke?from=&product_owner=normal_seller","sold":222,"seen":381,"favorite":48,"updated":"2019-10-14 14:45:19","description":"LYKSANS SHOP - HERBAL ALAMI ORIGINAL 100%\r\nPengiriman Barang dari Hari Senin - Sabtu Jam 08:00 - 15:00 (Order lewat jam 15:00 kirim esok hari)\r\n\r\n- Kapsul ada logonya\r\n- Montalin ORIGINAL. (Lihat Gambar)\r\n- 1 Box berisi 10 sachet @ 4 kapsul, Kapsul warna Merah Muda, Isi KUNING (Lihat Gambar)\r\n- Ada Logo di Kapsul\r\n- Garansi UANG KEMBALI jika anda dapat produk berbeda dari gambar\r\n\r\nKHASIAT :untuk mengobati asam urat, stress, rematik menahun,kaki bengkak2,menurunkan kolesterol,otot kaku, meriang, melancarkan peredaran darah.\r\nPEMAKAIAN ; untuk pengobatan 1x sehari 2 kapsul\r\nPANTANGAN : jangan makan jeroan, emping dan kacang2 an,serta labu siam\r\nDIPRODUKSI : Pabrik Jamu Air Madu - Magelang\r\nPOM TR 053348358","rating":0}
{"no":0,"title":"Obat Kutil Kelamin Anpiloma De Nature","price":"250.000","seller":"Faqih Herbal Shop","sellerPlace":"Cilacap","url":"https://www.bukalapak.com/p/kesehatan-2359/obat-suplemen/obat-obatan/pemotr-jual-obat-kutil-kelamin-anpiloma-de-nature?from=&product_owner=normal_seller","sold":23,"seen":815,"favorite":19,"updated":"2019-10-15 09:27:15","description":"Obat Kutil Kelamin Anpiloma De Nature\r\n\r\nSalep Perontok Kutil di kelmain atau daerah tubuh luar lainnya, perontok tahi lalat.\r\n\r\nBentuk: Cair\r\n\r\nAturan Pakai:\r\nkocok dahulu sebelum digunakan. Menggunakan cotton bud oleskan pada area kutilnya saja. Diamkan selama 15 menit lalu bilas. lakukan 2-3 kali sehari. .\r\n\r\nBARANG SELALU READY. . SILAHKAN DI ORDER","rating":0}
{"no":0,"title":"Obat Kutil Kelamin Perontok Jengger Ayam Kutil Anus dan Kemaluan","price":"400.000","seller":"De Nature Sehat","sellerPlace":"Cilacap","url":"https://www.bukalapak.com/p/kesehatan-2359/obat-suplemen/obat-obatan/13znbrt-jual-obat-kutil-kelamin-perontok-jengger-ayam-kutil-anus-dan-kemaluan?from=&product_owner=normal_seller","sold":36,"seen":83,"favorite":28,"updated":"2019-10-03 19:40:33","description":"Obat Perontok Kutil Kelamin De Nature Untuk Pria Dan Wanita \r\n\r\nDalam paket obat kutil herbal ini terdiri dari 2 macam salep obat yang mempunyai fungsi berbeda-beda yaitu:\r\n\r\n#1Cream Perontok Anpiloma :\r\n\r\nsebagai obat luar berfungsi untuk merontokan kutil pada kemaluan pria dan wanita dengan cepat dan aman.\r\n\r\n#2.Salep Djie :\r\n\r\nsebagai obat luar berfungsi untuk mempercepat proses pengeringan luka dari kutil yang coplok setelah dioles cream Kutilos. Salep plus juga berfungsi sebagai anti-bakteri.\r\n\r\n#Paket Rapih\r\n#Rahasia dijamin\r\n#Aman Terdaftar di BPOM\r\n#Garansi Resmi dan Asli De Nature Idonesia","rating":0}
{"no":0,"title":"jahe merah plus propolis isi 12 sachet","price":"8.000","seller":"As Syifa herbal","sellerPlace":"Depok","url":"https://www.bukalapak.com/p/kesehatan-2359/obat-suplemen/obat-obatan/opy2y-jual-jahe-merah-plus-propolis-isi-12-sachet?from=&product_owner=normal_seller","sold":255,"seen":1237,"favorite":58,"updated":"2019-10-15 11:58:31","description":"kami menjual isi 1 renceng 12 sachet buka 1 sachet...\r\n\r\nJahe Merah Propolis (JMP) Plus Krimer\r\n21gr x 12 sachet per renceng\r\n\r\nAlami, Sehat, Nikmat\r\n\r\nMinuman Jahe Merah Pertama di Indonesia dengan kandungan Propolis yang akan meningkatkan kekebalan tubuh\r\nProduksi : MHS Tangerang - Indonesia\r\nNetto : 21 gr\r\n\r\nKhasiat:\r\nMenghangatkan badan\r\nmemulihkan stamina yang loyo\r\nMembasmi masuk angin\r\nMeningkatkan kekebalan tubuh\r\nMempercepat kesembuhan\r\n\r\nKomposisi:\r\nJahe Merah\r\nPropolis\r\nKrimer Nabati\r\nHabbatussauda\r\nSari Kurma\r\nSecang\r\nPurwoceng\r\nMinyak Zaitun\r\nGula Aren\r\nGula Tebu\r\ndan rempah-rempah lain s.d 100%","rating":0}
{"no":0,"title":"Foredi 1Box isi 3sachet Asli","price":"225.000","seller":"RUMAH HERBAL","sellerPlace":"Tangerang","url":"https://www.bukalapak.com/p/kesehatan-2359/obat-suplemen/obat-obatan/lsm31c-jual-foredi-1box-isi-3sachet-asli?from=&product_owner=normal_seller","sold":255,"seen":3768,"favorite":93,"updated":"2019-10-14 19:26:05","description":"(EXPIRED sept 2020 + STOCK BANYAK + SELALU READY, LANGSUNG ORDER SAJA GAK PERLU TANYA APAKAH STOK READY, JANGAN SIA-SIAKAN WAKTU ANDA)\r\n\r\n\r\n* Proses CEPAT, PRIVASI TERJAMIN, AMAN 100% ORIGINAL ASLI\r\n* Kirim Tiap hari senin s/d sabtu\r\n* Paket dikirim dari Stokist/Warehouse terdekat dari konsumen (Surabaya, Jogja, Jakarta, Kalimantan Timur, Medan) agar cepat sampai.\r\n\r\n\r\nSOLUSI DAHSYAT UNTUK TAMPIL SELALU PERKASA\r\nDEPKES BPOM RI. TR 132 673 781\r\n\r\nREKOMENDASI : BOYKE DIAN NUGRAHA\r\n(Pakar Kesehatan Reproduksi)\r\n\r\nCara pemakaian\r\n\r\n* Ingat: Kunci dari efektifitas adalah \"beri waktu\" agar ramuan meresap sempurna, jadi saran kami : oleskan minimal 2 jam sebelum hubungan.\r\n\r\n* Pada sebagian pria waktu yang dibutuhkan untuk meresap bisa lebih cepat.\r\n\r\n* Oleskan tipis 1/2 dari 1 sachet pada organ int*m pria : bagian kepala (jangan kena lubang) dan bagian bawah dari organ v*tal pria\r\n\r\n* Biarkan 1 jam sampai herbal bereaksi dan terasa hangat.\r\n\r\n* Kemudian cuci dengan air dan sabun sampai bersih.\r\n\r\n** Setelah dicuci bersih biarkan 0,5-1 jam lagi sampai rasa hangat mereda lalu siap untuk melakukan hubungan int*m (rasa hangat menandakan ramuan bekerja sempurna)\r\n\r\nSetelah dioleskan dan dicuci bersih manfaat obat akan bertahan hingga 8 jam.\r\n\r\nKeunggulan dibanding produk sejenis dipasaran :\r\n\r\n1. 100% LEGAL : Obat oles herbal anti eja kulasi-dini yang terdaftar resmi di BPOM dengan Nomor registrasi POM : 132 673 781\r\n2. 100% AMAN : Digunakan sebagai herbal oles luar, sehingga tidak memberikan efek samping negatif pada fungsi jantung, ginjal, otak seperti obat yang diminum.\r\n3. Mengurangi sensitifitas namun tidak 100% kebas karena tidak mengandung bahan kimia pemati rasa seperti kebanyakan produk pemakaian luar di pasaran ilegal.\r\n4. Satu-satunya Produk RESMI, ASLI buatan Indonesia yang UNIK dan bahkan satu-satunya herbal oles di dunia.\r\n5. Memperlama durasi hubungan intimm.\r\n6. TANPA menimbulkan mati rasa totale (masih sensitif).\r\n7. Tidak ada efek samping yang merugikan.\r\n8. Melindungi kontaminasi kuman pada waktu hubungan int*m.\r\n9. Satu-satunya Rekomendasi PAKAR ternama : BOYKE DIAN NUGRAHA\r\n(bukan rekomendasi tukang jual obat/sales/member/distributor)\r\n\r\nJAMINAN 100% ASLI ORIGINAL!","rating":0}
{"no":0,"title":"Kinoki White 1 BOX (isi 10bh)","price":"14.900","seller":"Yangunik","sellerPlace":"Depok","url":"https://www.bukalapak.com/p/kesehatan-2359/obat-suplemen/obat-obatan/3fbt0-jual-kinoki-white-1-box-isi-10bh?from=&product_owner=normal_seller","sold":291,"seen":3643,"favorite":157,"updated":"2019-10-09 21:18:59","description":"Kinoki White adalah produk yang berbentuk koyok dan berfungsi untuk proses detoxifikasi dan pemulihan kesehatan untuk menghisap toksin, bahan kimia dan racun dari dalam tubuh serta memperkuat imunitas tubuh karna dapat memperlancar saluran darah.\r\nToxin yang menumpuk dalam tubuh akan menyebabkan disfungsi sistem tubuh dan menimbulkan berbagai macam penyakit.\r\n\r\nFungsi Kinoki White selain detoxifikasi atau pembuangan racun adalah: meningkatkan energi atau tenaga, mengurangi stress, menghilangkan rasa nyeri pada bagian tubuh, memperlancar peredaran darah, mengatasi sulit tidur (insomnia), meningkatkan konsentrasi dan meningkatkan fungsi metabolisme tubuh.\r\n\r\nCara Pemakaian:\r\n- Buka plester Kinoki White.\r\n- Kinoki White (berupa bantalan kecil warna putih) tempelkan bagian yang ada tulisan pada plester.\r\n- Tempelkan plester dengan posisi Kinoki White di tengah-tengah telapak kaki.\r\n- Gunakan sebelum tidur, dan biarkan 5-8 jam(selama Anda Tidur) agar racun dalam tubuh dapat di serap.\r\n- Kinoki White Foot dapat digunakan di bagian lain yang terasa sakit.\r\n\r\nSemakin banyak racun yang ada di tubuh anda, maka hasil pada kinoki pads akan semakin lebih gelap. Setelah memakai kinoki white, kaki akan terasa lebih ringan.\r\n\r\nOh ya, 1 Box Kinoki White berisi 10bh plester dan 10bh Kinoki White Pads, artinya untuk 10 kali pemakaian.\r\n\r\nCara kembali ke toko ini >>>/yangunik","rating":0}
{"no":0,"title":"detoxic asli rusia obat anti parasit","price":"165.000","seller":"nita","sellerPlace":"Jakarta Selatan","url":"https://www.bukalapak.com/p/kesehatan-2359/obat-suplemen/obat-obatan/1iazy0k-jual-detoxic-asli-rusia-obat-anti-parasit?from=&product_owner=normal_seller","sold":29,"seen":979,"favorite":28,"updated":"2019-10-07 15:36:40","description":"Ready stok.. 1botol isi 30kapsul\r\n\r\nPROMO 3bns1\r\n\r\nGejala pertama yang menunjukkan adanya parasit di dalam tubuh:\r\n\r\nBau mulut;Reaksi alergi (ruam, mata berair, hidung meler);Ruam dan kemerahan pada kulit;Sering pilek, sakit tenggorokan, hidung tersumbat;Keletihan kronis (Anda cepat lelah melakukan sesuatu);Sering sakit kepala;Sembelit atau diare;Nyeri pada persendian dan otot;Sering merasa gugup, gangguan tidur, dan makan;Lingkaran hitam di bawah mata dan kantung mata.\r\n\r\nJika Anda merasakan setidaknya salah satu dari gejala yang tercantum di atas - dengan kemungkinan 99 persen dapat kita katakan bahwa ada parasit dalam tubuh Anda. Dan sangat penting bagi Anda untuk menyingkirkan parasit itu segera!\r\n\r\nSituasi saat ini berkenaan dengan pengobatan untuk mengobati serangan parasit cukup rumit. Sampai saat ini, hanya ada satu obat di pasaran yang memungkinkan Anda menyingkirkan parasit secara tuntas.\r\n\r\nObat anti parasit yang disebutDetoxicini dikembangkan dengan kerja sama Institut Parasitologi dan sekelompok ilmuwan muda independen kami. Pada saat yang sama, kami meneliti lebih dari dua lusin obat lainnya. Namun dalam proses pengembangannya, diketahui bahwaDetoxicadalah yang paling efektif.\r\n\r\nDetoxicterbuat dari ekstrak Artemia, perpaduan unik dari empedu beruang, ekstrak Ferrule Junggar, jus buah sumak dan 20 bahan tambahan lainnya. Dalam proses pembuatan dan pengujian, produk ini terbukti sangat efektif. \r\n\r\nDetoxic adalah produk efektif yang bekerja dengan membantu kita menghilangkan semua parasit yang mungkin kita miliki dalam sistem kita dalam tiga puluh hari penggunaan sehari-hari atau kurang.","rating":0}
{"no":0,"title":"Guci Pusaka Salep Kulit","price":"10.000","seller":"JHS SHOP","sellerPlace":"Bandung","url":"https://www.bukalapak.com/p/kesehatan-2359/obat-suplemen/obat-obatan/kfettu-jual-guci-pusaka-salep-kulit?from=&product_owner=normal_seller","sold":189,"seen":920,"favorite":3,"updated":"2019-10-15 07:51:14","description":"Salep Multiguna\r\n\r\nMencegah atau mengobati berbagai macam penyakit kulit, peradangan kulit akibat berbagai macam sebab, dan membersihkan atau menghilangkan bekas bekasnya, seperti misalnya:\r\n\r\nLuka bakar, kulit pecah - pecah dan kasar (tangan, kaki, bibir), sengatan matahari, luka, infeksi, gigitan serangga.\r\nKutu air, bisul, panu, kudis, kurap, cacar, sariawan, kuku cantengan, biang keringat, gatal gatal, alergi, kulit mati yang hitam (selangkangan atau ketiak contohnya), peradangan kulit, peradangan telinga, dan penyakit kulit lainnya.\r\nWasir, susah buang air besar.\r\n\r\nMempercepat masak jerawat dan membersihkan bekas bekasnya.\r\n\r\nCocok untuk bayi, karena nyaman pada kulit, aman kalau tertelan atau kena mata.\r\n\r\nUntuk kecantikan, dapat digunakan sebagai cream malam, untuk pelembab, membersihkan, menghaluskan, memutihkan, dan mengencangkan kulit.\r\n\r\nSalep Kulit Multiguna Guci Pusaka tidak menimbulkan efek samping karena terbuat dari bahan tumbuh tumbuhan alami yang berkhasiat dan tidak merugikan kesehatan.\r\n\r\nKomposisi\r\nAmaranthus Spinosus 15%\r\nAndrographis Folium 7,5%\r\nCentella Asiatica 15%\r\nCurcuma Domesticae Rhizoma 10%\r\nOleum Sesame Nucifera 30%\r\nStrychnos Ligustrina 5%\r\nTinospora Cortex 7,5%\r\n\r\nKelompok Pengguna\r\nUntuk bayi, anak anak, dewasa, laki laki, atau perempuan.\r\n\r\nCara Penggunaan\r\nOleskan pada kulit atau kulit muka.\r\n\r\nInfo Kemasan yang Tersedia\r\nSatu dus, berisikan 12 pot x 14 gram\r\nSatu pot @ 14 gram\r\n\r\nInfo Daftar POM/Depkes\r\nDEPKES RI NO. TR 953778591","rating":0}
{"no":0,"title":"TERMURAH ! Madu Arab Alshifa / Al Shifa As syifa Natural Honey 500gram","price":"80.000","seller":"palingmurah","sellerPlace":"Majalengka","url":"https://www.bukalapak.com/p/kesehatan-2359/obat-suplemen/obat-obatan/1hykr1-jual-termurah-madu-arab-alshifa-al-shifa-as-syifa-natural-honey-500gram?from=&product_owner=normal_seller","sold":49,"seen":853,"favorite":24,"updated":"2019-10-15 04:56:26","description":"INFO : jika ukuran 500g kosong, kami kirimkan ukuran 250g x 2pcs,, isi bersih tetap sama 500g\r\n\r\n\r\nMadu arab AL SHIFA\r\n- Diolah dengan teknologi yang modern dan dikemas ke dalam Botol Kaca , sehingga tetap bersih, jernih, dan higienis saat dikonsumsi\r\n-Madu impor dari Saudi Arabia ini dijamin 100 % keaslian dan kemurniannya oleh Saudi Arabian Standards Organization (SASO) dan telah memperoleh penghargaan produk berkualitas tinggi dari lembaga tersebut selama lebih dari 10 tahun\r\n- Bermanfaat untuk menjaga stamina tubuh, mempercepat pemulihan pasca sakit, memelihara kesehatan Anda dan keluarga, mengurangi efek yang ditimbulkan oleh racun, dan membantu perkembangan otak bayi\r\nKomposisi : Madu berasal dari lebah yang menghisap Tanaman bunga kurma yang berasal dari timur tengah dan juga tanaman bidara dari semenanjung arab\r\n\r\nMadu alshifa 500 gram\r\n\r\nProduksi : saudi arabia\r\n\r\nMADU Arab sangat terkenal, dan dikategorikan madu dengan kualitas nomer 1 yang beredar di Indonesia, madu ini terkenal karena mempunyai khasiat yang luar biasa.\r\n\r\nKhasiat ini diperoleh dikarenakan beberapa sebab. antara lain:\r\n\r\n1 Karena kandungan air Madu Arab jauh lebih rendah dibanding madu Indonesia.\r\nJuga karena faktor makanan lebahnya, yaitu Bunga Pohon Kurma dan Bunga Pohon Shidr. Kurma terkenal sebagai makanan yang multivitamin, sedang Bunga Pohon SHIDR (sejenis Bidara) terkenal karena banyak memiliki khasiat penyembuh.\r\n2 Proses pembuatan yang hati-hati, hingga bebas dari proses fermentasi dan hal-hal lain yang bisa merusak manfaat madu itu.\r\n\r\nMadu Alshifa adalah madu import dari negara Saudi Arabia yang dikemas dalam botol transparan. Madu ini berkhasiat untuk menyembuhkan berbagai macam penyakit dan dapat juga dipergunakan sebagai makanan pelengkap dan campuran roti dll\r\n\r\nNetto: 500gram","rating":0}
{"no":0,"title":"obat sakit gigi super cepat ampuh obati gigi berlubang nyeri sembuh tuntas obat tetes herbal aman depkes","price":"69.000","seller":"HERBAL FARMA","sellerPlace":"Jakarta Barat","url":"https://www.bukalapak.com/p/kesehatan-2359/obat-suplemen/obat-obatan/9pr3lm-jual-obat-sakit-gigi-super-cepat-ampuh-obati-gigi-berlubang-nyeri-sembuh-tuntas-obat-tetes-herbal-aman-depkes?from=&product_owner=normal_seller","sold":122,"seen":12858,"favorite":286,"updated":"2019-10-14 16:48:30","description":"OBAT SAKIT GIGI SUPER AMPUH\r\n\r\nObat herbal untuk sakit gigi, 1-9menit sembuh dan tidak kambuh lagi.\r\n\r\nKomposisi :\r\n- Kemuning (Murraya Paniculata)\r\n- Habbatussauda (Nigella Sativa)\r\n- Vitamin\r\n- Zat garam alami\r\n- Berbagai macam mineral alami lainnya.\r\n\r\nKhasiat :\r\n- Sakit gigi berlubang\r\nDapat menyembuhkan sakit gigi dalam waktu 1-9 menit\r\n\r\ncara pemakaian :\r\n1. bersihkan gigi dengan cara berkumur air hangat sampai semua sisa makanan keluar dari lubang gigi\r\n2. Tetesi super green plus SG sebanyak 2 tetes pada lubang gigi atau gunakan kapas yang diolesi super green plus SG.\r\n3. Tempelkan kapas yang diolesi SG ke gigi / lubang gigi\r\n\r\nAgar sakit gigi tidak berulang dan memperkuat kembali akar gigi lakukan hal diatas secara berulang sebanyak minimal 6 kali selama 1 jam (setiap 10 menit, kapas diganti) atau pada malam hari sebelum tidur, lubang gigi diberi kapas + super green plus SG, keesokan harinya baru dilepas. Selama 3 malam berturut-turut.\r\n\r\nIsi 10 ml\r\nDEPKES RI PIRT Produksi : PT. Lima Bintang Putra Perkasa\r\nJakarta - Indonesia\r\nUntuk : Indonesia Herbal Center.","rating":0}
{"no":0,"title":"Pembalut AVAIL Day Use (Biru)","price":"21.000","seller":"Toko Pribumi","sellerPlace":"Surabaya","url":"https://www.bukalapak.com/p/kesehatan-2359/obat-suplemen/obat-obatan/km8f0-jual-pembalut-avail-day-use-biru?from=&product_owner=normal_seller","sold":942,"seen":671,"favorite":14,"updated":"2019-10-10 12:55:41","description":"Avail Biru 1 BALL = isi 10 Bungkus\r\n\r\nSelain digunakan sebagai pembalut wanita di saat datang bulan, Pembalut Herbal Avail mempunyai banyak manfaat, antara lain :\r\n\r\n* Mengatasi rasa sakit pada saat haid (senggugut)\r\n\r\n* Mengatasi keputihan, gatal-gatal, dan bau tak sedap\r\n\r\n* Mengatasi sakit di persendian selama haid\r\n\r\n* Memperlancar buang angin\r\n\r\n* Membasmi kuman/bakteri\r\n\r\n* Mengobati wasir (hemorhoid)\r\n\r\n* Mengatasi masalah datang bulan yang tidak teratur\r\n\r\n* Membasmi kuman dan bakteri\r\n\r\n* Mencegah myom dan kista serta dapat menghancurkannya\r\n\r\n* Mencegah kanker rahim dan kanker payudara\r\n\r\n* Sebagai penutup luka dan bisul\r\n\r\n* Menyembuhkan masuk angin, perut kembung, dan badan pegal-pegal\r\n\r\n* Dapat digunakan sebagai pengompres demam\r\n\r\n* Mengatasi susah buang air besar\r\n\r\n* Dapat digunakan sebagai penghilang bau badan, bau sepatu dan helm\r\n\r\n* Menambah keharmonisan hubungan suami istri\r\n\r\n* Sangat baik digunakan oleh wanita yang baru melahirkan, karena mempercepat pengeluaran darah kotor serta mempercepat penyembuhan luka bekas jahitan.","rating":0}
{"no":0,"title":"TERMURAH! Absorbable CALCIUM 1200 mg + Vit. D 1000 IU Isi 100 Softgels Dari Puritans Pride - Kalsium","price":"165.000","seller":"GudangSuplemen","sellerPlace":"Jakarta Barat","url":"https://www.bukalapak.com/p/kesehatan-2359/obat-suplemen/obat-obatan/1u5zi-jual-termurah-absorbable-calcium-1200-mg-vit-d-1000-iu-isi-100-softgels-dari-puritans-pride-kalsium?from=&product_owner=normal_seller","sold":118,"seen":5829,"favorite":172,"updated":"2019-10-14 10:05:34","description":"Dari semua mineral yang bekerja untuk meregulasi sistem-sistem dalam tubuh, Calcium adalah yang terpenting!. \r\n\r\nAkhirnya, suplemen kalsium cair dalam bentuk softgels yang praktis telah hadir!. \r\nKurang dari 30 menit setelah dicerna, setiap softgel langsung larut secara cepat melepaskan Calcium cair. Tiap sajian (dua softgel) diperkaya dengan Vitamin D3 25mcg atau ekuivalen dengan 1000 IU. \r\n\r\nKerapuhan tulang secara bertahap terjadi sejak usia dewasa, dan menjadi lebih serius saat mencapai usia 50 tahun. Pada wanita, perubahan hormon setelah menopause memperparah kondisi ini, Tulang yang secara alamiah berkurang massanya ini, menjadi rapuh. \r\n\r\nSekitar 99 persen dari kalsium dalam tubuh kita berada di dalam tulang dan gigi kita. Setiap hari, kita kehilangan kalsium melalui kulit, kuku, rambut, keringat, urine dan feses, tapi tubuh kita tidak dapat memproduksi kalsium baru. Ketika tubuh tidak mendapatkan cukup kalsium dari asupan makanan, maka tubuh akan mengambilnya dari tulang kita. Itulah sebabnya, seiring dengan usia, tulang menjadi keropos.\r\n\r\nManfaat Puritans Pride Absorbable Calcium 1200 mg + Vit. D3, a.l: \r\n- Calcium dan Vitamin D membantu menjaga kesehatan tulang bagi orang dewasa.\r\n- Mencegah dan meringankan osteoporosis \r\n- Membantu mengatur detak jantung \r\n- Calcium juga berperan dalam kontraksi otot & impuls saraf.\r\n- Vitamin D membantu menjaga sistem kekebalan\r\n\r\nLihat gambar terlampir untuk perbandingan tulang yang sehat dan tulang yang keropos karena osteoporosis.\r\n\r\nAturan Pakai: 2 softgel per hari sesudah makan, atau sesuai anjuran dokter \r\n\r\n--- Mencegah lebih baik daripada mengobati ---","rating":0}
{"no":0,"title":"Ovuma Penyubur Kandungan Cepat Hamil","price":"165.000","seller":"HerbaCare Official","sellerPlace":"Jakarta Barat","url":"https://www.bukalapak.com/p/kesehatan-2359/obat-suplemen/obat-obatan/10q14lv-jual-ovuma-penyubur-kandungan-cepat-hamil?from=&product_owner=normal_seller","sold":26,"seen":52,"favorite":7,"updated":"2019-05-22 15:07:05","description":"* Barang ready stok\r\n\r\novuma - herbal penyubur kandungan\r\n\r\n100% herbal alami berkhasiat\r\n\r\nKhasiat:\r\n1. Menyuburkan kandungan\r\n2. Menyehatkan dan memperkuat kandungan\r\n3. Meningkatkan kinerja hormon estrogen dan progesteron\r\n4. Memicu proses ovulasi\r\n5. Mengatasi berbagai masalah kewanitaan seperti keputihan dan infeksi jamur/bakteri\r\n6. Melancarkan haid\r\n7. Mengatasi gangguan haid seperti mual, muntah, kram perut atau sakit perut tidak tertahan saat haid\r\n\r\n\r\nDetail Produk:\r\nNama: Ovuma\r\nKemasan: Botol (lihat foto diatas)\r\nIsi: 45 kapsul @ 500 mg\r\nIjin BPOM: POM TR. 093 301 521\r\nHalal MUI 05","rating":0}
{"no":0,"title":"Ovuma - Obat Herbal Alami Penyubur Kandungan Dan Agar Cepat Hamil","price":"165.000","seller":"HerbaCare Official","sellerPlace":"Jakarta Barat","url":"https://www.bukalapak.com/p/kesehatan-2359/obat-suplemen/obat-obatan/10q14mp-jual-ovuma-obat-herbal-alami-penyubur-kandungan-dan-agar-cepat-hamil?from=&product_owner=normal_seller","sold":28,"seen":48,"favorite":7,"updated":"2019-05-22 15:07:08","description":"* Barang ready stok\r\n\r\novuma - herbal penyubur kandungan\r\n\r\n100% herbal alami berkhasiat\r\n\r\nKhasiat:\r\n1. Menyuburkan kandungan\r\n2. Menyehatkan dan memperkuat kandungan\r\n3. Meningkatkan kinerja hormon estrogen dan progesteron\r\n4. Memicu proses ovulasi\r\n5. Mengatasi berbagai masalah kewanitaan seperti keputihan dan infeksi jamur/bakteri\r\n6. Melancarkan haid\r\n7. Mengatasi gangguan haid seperti mual, muntah, kram perut atau sakit perut tidak tertahan saat haid\r\n\r\n\r\nDetail Produk:\r\nNama: Ovuma\r\nKemasan: Botol (lihat foto diatas)\r\nIsi: 45 kapsul @ 500 mg\r\nIjin BPOM: POM TR. 093 301 521","rating":0}
{"no":0,"title":"Synplus C Time 500 30tbl","price":"250.000","seller":"Ivandy Arifin","sellerPlace":"Surabaya","url":"https://www.bukalapak.com/p/kesehatan-2359/obat-suplemen/obat-obatan/1t68l4r-jual-synplus-c-time-500-30tbl?from=&product_owner=normal_seller","sold":0,"seen":0,"favorite":0,"updated":null,"description":"Vitamin C adalah vitamin yang esensial bagi tubu. Tubuh dapat menyerap vitamin C hingga 1500 mg dan jumlah ini dapat digunakan untuk mencegah dan mengobati skorbut.","rating":0}
{"no":0,"title":"DISKONGILA Obat Alternatif Osteoporosis Colostrum Joint Formul","price":"4.987.000","seller":"yogas store","sellerPlace":"Wonosobo","url":"https://www.bukalapak.com/p/kesehatan-2359/obat-suplemen/obat-obatan/1t8jtz5-jual-diskongila-obat-alternatif-osteoporosis-colostrum-joint-formul?from=&product_owner=normal_seller","sold":19,"seen":46,"favorite":15,"updated":"2019-10-12 15:56:46","description":"HABISKAN STOK\r\n\r\nNOTE : MOHON KONFIRMASI KETERSEDIAAN STOK TERLEBIH DAHULU SEBELUM ORDER.\r\n\r\n.\r\n WASPADA ! APAKAH ANDA MENGALAMI GEJALA OSTEOPHOROSIS SEPERTI BERIKUT ?\r\n\r\nPada awal penyakit, tidak ada gejala, namun seiring berjalannya waktu, muncul:\r\n nyeri punggung bawah dan \r\n nyeri leher, \r\n postur bungkuk, dan \r\n penurunan tinggi badan secara bertahap. \r\n Pada kasus lain tanda awal yaitu patah tulang (iga, pergelangan tangan, atau panggul). \r\n Tulang belakang dapat patah (menjadi lebih rata terkompresi) dan patah, yang merupakan patah tulang tersering. \r\n Patah tulang panggul dapat menyebabkan cacat terparah.\r\n\r\nObati Sekarang juga Dengan Solusi Tulang Keropos (Osteophorosis) Herbal Smart Detox Synergy\r\n\r\nPaket Herbal ini juga bermanfaat untuk:\r\n Mempercepat penyembuhan.\r\n Membantu menjaga kadar gula dalam darah.\r\n Mengurangi kebutuhan insulin.\r\n Meningkatkan metabolisme lemak dalam tubuh.\r\n Memperbaiki dan mempercepat pertumbuhan sel untuk memperlambat efek penuaan.\r\n Membantu penyembuhan luka pada otot, jaringan tulang dan tulang rawan, kolagen kulit dan jaringan saraf.\r\n Memperbaiki jaringan penghubung saraf untuk meningkatkan konsentrasi dan ketajaman perhatian\r\n\r\n\r\nREADY STOK \r\n\r\nPilihan Ekspedisi: JNT &amp; Gosend &amp; Grab Instant\r\nKhusus Gosend &amp; Grab Instant pemesanan sebelum jam 14.00 .\r\nTerima Kasih","rating":0}
{"no":0,"title":"TERMURAH!!! MODRES FOAM WITH PU 10x10","price":"40.000","seller":"Perdana Alkes","sellerPlace":"Sukoharjo","url":"https://www.bukalapak.com/p/kesehatan-2359/obat-suplemen/obat-obatan/z4nyl-jual-termurah-modres-foam-with-pu-10x10?from=&product_owner=normal_seller","sold":1167,"seen":1381,"favorite":15,"updated":"2019-10-02 18:53:25","description":"Modres Foam with PU\r\nyaitu foam PU dan lapisan PU film (anti tembus keluar cairannya,\r\nPU Film ini tahan air dan moisture vapor permeable)\r\nadalah dressing yang berbahan baku poliuretan, strukturnya berpori sehingga membantu penyerapan lebih banyak dan cepat.\r\n\r\nDressing / Pembalut Luka dg foam untuk menampung exudat/pus pada luka sehingga mengoptimalkan penyembuhan luka serta mempercepat epitelisasi luka.\r\nGel akan terbentuk setelah penyerapan cairan luka untuk menjaga agar permukaan luka tetap lembab yang akan kondusif untuk terbentuknya jaringan granulasi dan epitelisasi.\r\nFoam bersifat lembut, elastis, nyaman dan bisa mengurangi tekanan pada luka, tidak berperekat, bisa dipotong sesuai ukuran luka.\r\n\r\nIndikasi:\r\n- Untuk Luka dg exudat sedikit sampai sedang termasuk luka kaki, luka decubitus, luka ganggren, ulcus, luka jahitan, donor site dan luka kanker\r\n- Luka bakar Grade 1 & 2\r\nHarga per pcs\r\nPerdana Alkes","rating":0}
{"no":0,"title":"KAPSUL PANKRO 180 KAPSUL","price":"350.000","seller":"BMCA PUSAT","sellerPlace":"Bekasi","url":"https://www.bukalapak.com/p/kesehatan-2359/obat-suplemen/obat-obatan/13hmu4w-jual-kapsul-pankro-180-kapsul?from=&product_owner=normal_seller","sold":91,"seen":534,"favorite":9,"updated":"2019-10-14 10:12:15","description":"Kapsul Pankro : Dalam satu botol terdapat 2 macam kapsul : Warna Merah-Coklat untuk memperbaiki sel beta pankreas dan warna coklat-coklat untuk menurunkan kadar gula darah\r\n\r\nIsi 180 Kapsul :\r\nSelama konsumsi pankro dilarang konsumsi obat diabetes dari tempat lain\r\naturan minum sudah terdapat dalam duz pankro\r\nuntuk kesembuhan konsumsilah secara rutin antara 6-10 bulan.","rating":0}
{"no":0,"title":"Herbal Keladi Tikus herbal Kanker Tumor Miom Kista","price":"80.000","seller":"Cantik97","sellerPlace":"Jakarta Barat","url":"https://www.bukalapak.com/p/kesehatan-2359/obat-suplemen/obat-obatan/8ugs4g-jual-herbal-keladi-tikus-herbal-kanker-tumor-miom-kista?from=&product_owner=normal_seller","sold":6,"seen":776,"favorite":11,"updated":"2019-09-15 22:09:25","description":"ready stok\r\n\r\nKeladi tikus\r\nDengan formulasi yang sinergis membuat keladi tikus semakin berkhasiat Mencegah dan mengobati kanker dan tumor\r\n\r\nIsi : 60 kapsul\r\nBPOM TR : 133 373 041\r\nProdusen : Herbal Indo Utama\r\n\r\nKeladi Tikus adalah herbal 100% alami yang diformulasikan secara khusus untuk mencegah dan mengobati kanker dan tumor beserta gejala-gejalanya dengan efek farmakologi yang potensial menjadikan herbal Keladi Tikus semakin berkhasiat. Penggunanan jangka lama tidak menimbulkan efek samping.\r\n\r\nInsyallah berkhasiat\r\n\r\nMencegah dan mengobati kanker\r\nMenghambat pertumbuhan sel kanker\r\nMelawan sel kanker\r\nMengurangi rasa nyeri\r\nMengurangi efek buruk kemoterapi\r\nMeningkatkan daya tahan tubuh\r\nMengobati kista dan mioma\r\n\r\nKomposisi\r\n\r\nTyphonium flagelliforme/keladi tikus\r\nAndrographis peniculata/sambiloto\r\nHedyotis corymbosa/rumput mutira\r\nCurcuma zedoaria/temu putih\r\n\r\nAturan minum\r\n\r\nPengobatan 3 x sehari 3-5 kapsul diminum sampai sembuh\r\nUntuk pengobatan optimal minum sampai 10 botol, untuk stadium lanjut memerlukan waktu 3-5 bulan\r\nPencegahan / pemeliharaan 2 x sehari 2 kapsul.\r\nBagi anda yang juga menkonsumsi obat kimia, obat herbal di minum 1-2 jam sebelum / setelah meminum obat kimia\r\nTidak dianjurkan bagi penderita ibu hamil dan anak-anak dibawah 2 tahun\r\n\r\nAnjuran (terapi pendukung)\r\n\r\nMemperbanyak minum air putih\r\nOlahraga teratur dan istirahat yang cukup\r\nPola makan gizi seimbang\r\nHindari stress, jangan merokok dan jangan meminum alcohol\r\nKonsumsi buah-buahan dan sayuran (kaya anti oksidan)\r\nHindari zat-zat pencetus kanker (karsinogen)\r\nBaik dikombinasikan dengan herba sarang semut\r\nLakukan terapi hijamah / bekam\r\nBersabarlah dan berharaplah kesembuhan hanya dari Allah","rating":0}
{"no":0,"title":"Phyto Fiber ( 15 sachet )","price":"300.000","seller":"Family993","sellerPlace":"Jakarta Utara","url":"https://www.bukalapak.com/p/kesehatan-2359/obat-suplemen/obat-obatan/7jd2t8-jual-phyto-fiber-15-sachet?from=&product_owner=normal_seller","sold":13,"seen":740,"favorite":1,"updated":"2019-10-05 17:36:06","description":"exp. 02/2018\r\nFungsi Phyto fiber :\r\n* melancarkan BAB\r\n* mengatasi masalah sembelit\r\n* memperbaiki sistem pencernaan\r\n* menurunkan kolestrol jahat dlm darah\r\n* menstabilkan glukosa darah\r\n* menekan perasaan ingin makan\r\n* menurunkan berat badan\r\n* merampingkan &amp; melangsingkan bdn\r\n* memperbaiki kwalitas tidur\r\n* memperbaiki keadaan kulit\r\n* menyingkirkan toksin yg terkumpul dalam badan\r\n* memperbaiki daya pemikiran &amp; konsentrasi\r\n* memperbaiki sistem imunisasi\r\n* mencegah kanker\r\n* mencegah masalah kesehatan kronis\r\n* meringankan sakit badan\r\n* memperkuat organ tubuh &amp; awet muda\r\n* menjaga kesegaran &amp; senantiasa bertenaga\r\n\r\nBuktikan sendiri cara kerjanya sangat baik untuk DETOX racun dalam tubuh\r\n\r\nDosis\r\nUntuk Langsing cukup 1 Sachet - sebelum makan siang\r\n1 Sachet - sebelum makan malam\r\n\r\nUntuk kesehatan/Detox cukup 1 Sachet sebelum makan malam","rating":0}
{"no":0,"title":"OVARY NUTRITION GREEN WORLD/OBAT KISTA/HAID TIDAK LANCAR/MIOM/","price":"280.000","seller":"okeshopjkt","sellerPlace":"Jakarta Timur","url":"https://www.bukalapak.com/p/kesehatan-2359/obat-suplemen/obat-obatan/25b08d-jual-ovary-nutrition-green-world-obat-kista-haid-tidak-lancar-miom?from=&product_owner=normal_seller","sold":13,"seen":1012,"favorite":11,"updated":"2019-10-13 11:21:41","description":"Ovary Nutrition Capsule\r\n(Produk sdh FDA - Halal)\r\n\r\nOvarium merupakan organ fisiologis penting bagi wanita.\r\nOvarium yang sehat tidak hanya dapat mengatur hormon wanita, menjaga kecantikan, kesehatan dan vitalitas tetapi juga menunda penuaan.\r\nTingkat hormon wanita selalu menentukan apakah manopause perempuan dapat ditunda atau tidak dan juga menentukan terjadinya mastoplasia dan status kesehatan rahim.\r\nOvarium perlu diperhatikan kebutuhan nutrisinya.\r\n\r\nOvarium Nutrition Capsule dapat mengatur tingkat hormon wanita secara efektif, memelihara ovarium, menunda periode klimaterik dan menghambat penuaan.\r\n\r\nKomposisi : \r\nExtract of Black Soy Bean, Ganoderma Lucidium Spora, Soy Isoflavones.\r\n\r\nKhasiat :\r\n1. Mencegah kegagalan fungsi ovarium.\r\n2. Mengurangi keropos tulang dan mencegah osteoporosis.\r\n3. Meningkatkan vitalitas otak, meningkatkan daya ingat, memperkuat otak dan kecerdasan, mencegah pikun dan menghambat penuaan.\r\n4. Membuat kulit berkilau, elastis, memiliki warna yang bagus dan menambah kecantikan.\r\n5. Memperbesar sel telur, sehingga menjadi solusi bagi yg ingin hamil\r\n6. Utk mengatur hormon wanita\r\n7. Atur menstruasi\r\n8. Masalah keputihan, kista. Miyum\r\n9. Membantu pemulihan dari penyusutan indung telur\r\n10. Sangat disarankan pada penderita peradangan ovary\r\n11. Orang yang pra manopouse\r\n12. Orang yang ingin menunda penuaan\r\n13. Orang yang banyak jerawat\r\n\r\nKelompok pemakai :\r\n1. Wanita yang menderita insomnia, sering bermimpi dan mudah emosi.\r\n2. Wanita menopause dengan kadar hormonnya menurun.\r\n3. Wanita yang menginginkan kulit elastis dan sempurna.\r\n4. Wanita yang ingin memperbaiki kehidupan seksual mereka.\r\n5. Wanita yang berniat untuk mencegah kemandulan, gangguan fibrokistik, kanker payudara, kista, miyum dan osteoporosis.","rating":0}
{"no":0,"title":"Obat Telat Datang Bulan - Telat Menstruasi - Menstruasi Tidak Teratur - Walatra Bersih Wanita","price":"170.000","seller":"Handayani Herbal","sellerPlace":"Tangerang","url":"https://www.bukalapak.com/p/kesehatan-2359/obat-suplemen/obat-obatan/d6lji2-jual-obat-telat-datang-bulan-telat-menstruasi-menstruasi-tidak-teratur-walatra-bersih-wanita?from=&product_owner=normal_seller","sold":0,"seen":458,"favorite":2,"updated":"2019-07-21 10:54:46","description":"[[ FREE ONGKIR PESAN DIATAS 1 BOTOL ]]\r\n\r\nProduk herbal terkini diformulasikan khusus untuk membantu berbagai masalah kesehatan reproduksi wanita, Walatra Bersih Wanita. Diolah dengan teknologi terkini NANO TEKNOLOGI dengan tujuan membantu penyerapan khasiat dari bahan-bahan obat lebih tepat sasaran dengan mengubahnya ke partikel-partikel lebih kecil agar lebih mudah terserap tubuh. Walatra Bersih Wanita juga bagus untuk memulihkan kesuburan wanita.\r\n\r\n*) Komposisi\r\n\r\nKunyit.\r\nManjakani.\r\nKayu Manis.\r\nDaun Sirih.\r\n\r\n*) Khasiat Walatra Bersih Wanita\r\n\r\nMengandung nutrisi yang bagus untuk menyehatkan organ vital.\r\nMelancarkan peredaran darah ke organ reproduksi secara maksimal.\r\nMeningkatkan kesuburan dan kesehatan organ intim Anda.\r\nMampu meningkatkan libido dan produksi sel telur.\r\nMelindungi sel telur dari kerusakan dan zat berbahaya.\r\nMengandung kadar folat tinggi yang mampu meningkatkan ovulasi.\r\nMeningkatkan energi dan sistem kekebalan tubuh.\r\nMengandung zat stimulasi yang membantu meningkatkan kesuburan.\r\nMengatasi keputihan abnormal hingga kembali normal.\r\nMemiliki aktivitas antiseptik, desinfektan maupun anti jamur.\r\n\r\n*) Aturan Pakai\r\n\r\nDiminum 3x sebanyak 2 kapsul seteleh makan.\r\n\r\n*) DETAIL PRODUK **\r\n\r\n** Walatra Bersih Wanita\r\n** Isi : 100 kapsul.\r\n** Harga resmi : Rp. 170.000,-\r\n** Produk terjamin 100% Original.\r\n** LEGALITAS HALAL MUI, BPOM TR 173307361.","rating":0}
{"no":0,"title":"Treadmill manual 6 fungsi mencegah obesitas","price":"2.980.000","seller":"pira jaya","sellerPlace":"Jakarta Utara","url":"https://www.bukalapak.com/p/kesehatan-2359/obat-suplemen/obat-obatan/8mluv-jual-treadmill-manual-6-fungsi-mencegah-obesitas?from=&product_owner=normal_seller","sold":8,"seen":2144,"favorite":58,"updated":"2019-10-09 06:12:56","description":"NB: lagi peromo warna biru selagi persediaan masi ada lagi turun harga treadmil manual 004,Jangan Biarkan Obesitas Mengancam Hidup Anda! Cegah dgn Pola hidup sehat &amp; Olahraga Rutin dgn TREADMILL dirumah! Kesehatan Investasi Terpenting utk Hidup!!\r\n\r\nMenerima COD WILAYAH BANDUNG dan sekitarnya!\r\nCatatan :\r\n- Antar + Pasang ada biaya tambahan\r\n- Harga tertera Belum termasuk biaya antar + pasang\r\n- Biaya antar akan disesuaikan jarak jauh atau dekatnya kota Anda.\r\n- harga Alat fitnes kami lebih Hemat dari harga TV/ Mall dgn Kualitas Barang yg sama.\r\n\r\nTreadmill manual 6fungsi, Tidak hanya bisa digunakan untuk walking, jogging, running saja, Treadmill 5fungsi ini dilengkapi dengan Massager, twister, push up membuat sesi latihan menjadi lebih variatif\r\nFungsi Massager untuk menghancurkan lemak yang berada didaerah perut, punggung, paha, betis, tangan secara cepat, dijamin!! (Gunakan setelah sesi latihan treadmilll)\r\nFungsi Twister untuk mengencangkan daerah perut (Gunakan setelah sesi latihan treadmill)\r\nDengan 6 fungsi membuat latihan menjadi lebih bervariatif, penurunan kadar lemak oleh massager membuat perbedaan pada tubuh anda dengan sangat cepat, dan dari stepper dan twister pembentukan pada otot perut dan pengencangan di bagian pantat kebawah (termasuk paha, betis) menjadi 2x lebih maksimal...\r\nSpesifikasi :\r\n-Manual Treadmill\r\n-Dimensi 126cm x 65cm x 147cm\r\n-Run Area 120cm x 35cm (Karpet)\r\n-Foldable mode/Bisa dilipat\r\n-Incline 15% / Setting tanjakan\r\n-Function : Walking, jogging, running, massager, stepper, twister, push up, roper\r\n-Digital monitor : Timer, speed, distance, calories, heart pulse\r\n-Memiliki roda agar mudah di pindahkan","rating":0}
{"no":0,"title":"Jeli Gamat Gold Gamat Emas Jeli 250 Ml Timun Laut Sama Seperti Gold G QNC Luxor Bio Gold","price":"65.000","seller":"Obat Herbal Original","sellerPlace":"Tangerang Selatan","url":"https://www.bukalapak.com/p/kesehatan-2359/obat-suplemen/obat-obatan/9yiqge-jual-jeli-gamat-gold-gamat-emas-jeli-250-ml-timun-laut-sama-seperti-gold-g-qnc-luxor-bio-gold?from=&product_owner=normal_seller","sold":9,"seen":839,"favorite":11,"updated":"2019-10-14 21:29:08","description":"Jeli Gamat Gold G 250ml\r\n\r\n\r\ngamat gold G sea cucumber jelly 250 ml\r\n\r\n\r\nInsya Allah Bisa digunakan untu membantu mengobati :\r\n\r\n\r\nLUPUS\r\n\r\n\r\nMAAG\r\n\r\n\r\nMIGRAIN\r\n\r\n\r\nNYERI SENDI\r\n\r\n\r\nPARU PARU\r\n\r\n\r\nPENDARAHAN\r\n\r\n\r\nPERUT KEMBUNG\r\n\r\n\r\nRADANG\r\n\r\n\r\nSAKIT PINGGANG\r\n\r\n\r\nSESAK NAFAS\r\n\r\n\r\nVARISES\r\n\r\n\r\nTUMOR\r\n\r\n\r\nSINUSITIS\r\n\r\n\r\nLUKA\r\n\r\n\r\nSTROKE\r\n\r\n\r\nKOLESTEROL\r\n\r\n\r\nHEPATITIS/LIVER\r\n\r\n\r\nDLL\r\n\r\n\r\nCARA PENGGUNAAN:\r\n\r\n\r\n2-3 sendok makan 3 kali sehari\r\n\r\n\r\nGamat gold terbuat dari bahan bahan alami, warna dan penampakan dapat sedikit berbeda satu batch dengan batch lainnya.\r\n\r\n\r\nHET (Harga Eceran tertinggi) : Rp.125.000","rating":0}
{"no":0,"title":"DA HUO LUO WAN mengobati gejala stroke .mati rasa..rematik.kaki tangan kesemutan","price":"185.000","seller":"SK SHOP","sellerPlace":"Jakarta Barat","url":"https://www.bukalapak.com/p/kesehatan-2359/obat-suplemen/obat-obatan/k1qah6-jual-da-huo-luo-wan-mengobati-gejala-stroke-mati-rasa-rematik-kaki-tangan-kesemutan?from=&product_owner=normal_seller","sold":5,"seen":115,"favorite":1,"updated":"2019-10-12 06:39:38","description":"PRODUK DIJAMIN 100% ORIGINAL ASLI\r\n&amp;amp;amp;amp;amp;amp;amp;amp;amp;amp;amp;gt;PENGIRIMAN CEPAT\r\n&amp;amp;amp;amp;amp;amp;amp;amp;amp;amp;amp;gt;PACKING RAPIH\r\n&amp;amp;amp;amp;amp;amp;amp;amp;amp;amp;amp;gt; EXP 13-02-2020\r\n\r\nDa Huo Luo Wan berkhasiat :\r\n-meredakan masuk angin dan rasa sakit,\r\n-berdahak,\r\n-memperlancar peredaran darah,\r\n-Digunakan untuk penderita stroke yang disebabkan oleh kelumpuhan, kaki lemas sakit atau lumpuh, otot atau nadi terasa ditahan, nyeri kaki atau pinggang dan luka memar, tidak nyaman disaat jalan kaki, lumpuh dada dan gejala yang lain.\r\n\r\nTerbuat dari bahan - bahan herbal alami yang aman dikonsumsi tanpa adanya efek samping yang merugikan.\r\n\r\nStroke terjadi diantaranya karena : \r\n- Terjadinya penyempitan pembuluh darah karena luka\r\n- Luka yang terjadi pada otak karena terbentur benda keras atau terjatuh\r\n- Darah beku menghentikan aliran darah ke area otak\r\n\r\nEfektik untuk :\r\n- Penyakit rematik\r\n- Sakit pinggang atau kaki keseleo\r\n- Memperlancar peredaran darah (untuk penderita stroke)\r\n- Penyakit pendarahan otak, perubahan sirkulasi darah otak dapat menyebabkan terjadinya kelumpuhan\r\n- Mengatasi masuk angin dan memperlancar sirkulasi darah sehingga dapat mengembalikan kesehatan anda\r\n\r\nPenelitian Komposisi :\r\n- Da Huo Luo Wan memiliki kemampuan lebih dibanding dengan produk lain diantarannya :\r\n- Kemampuan untuk melebarkan pembuluh darah dan mencegah terjadinya kekurangan aliran darah didalam jantung\r\n- Kemampuan untuk menjaga terjadinya infeksi, rasa sakit berlebihan atau dalam kondisi kritis\r\n- Untuk penderita kelumpuhan stoke (berfungsi untuk mengubah pengerasan aorta di pembuluh darah)\r\n- Berfungsi untuk menambah aliran darah didalam otak\r\n\r\nBPOM No : TI 144 448 311\r\nCara Pakai Sehari 1 - 2 kali masing - masing 1 bola lilin diseduh dengan air hangat\r\n\r\nKemasan : Setiap box terdapat 6 bola lilin. Setiap bola lilin @3.5 gr\r\n\r\nDiimpor oleh : SOHC PT. Sky One Healthcare\r\n\r\nProduksi oleh : \r\nsinopharm group fengliaoxing (foshan) pharmaceutical co. Ltd","rating":0}
{"no":0,"title":"Kapsul Daun Insulin Isi 120 Kapsul Obat Diabetes Dan Penurun Gula Darah","price":"26.000","seller":"Obat Herbal Original","sellerPlace":"Tangerang Selatan","url":"https://www.bukalapak.com/p/kesehatan-2359/obat-suplemen/obat-obatan/fiqlu5-jual-kapsul-daun-insulin-isi-120-kapsul-obat-diabetes-dan-penurun-gula-darah?from=&product_owner=normal_seller","sold":137,"seen":1017,"favorite":41,"updated":"2019-10-14 17:27:38","description":"Kapsul Daun Insulin isi 120 kapsul murah dan original.\r\n\r\n\r\nKemasan Baru Kapsul Daun Insulin Herbamedika\r\n\r\n\r\nKhasiat :\r\n\r\n\r\n\r\nMenurunkan kadar gula dalam darah\r\n\r\nMengobati diabetes\r\n\r\nMenurunkan tekanan darah tinggi\r\n\r\nMengobati penyakit liver\r\n\r\nMengobati penyakit tenggorokan\r\n\r\nMenyehatkan kandung kemih\r\n\r\nKaya anti oksidan\r\n\r\nMenyehatkan ginjal\r\n\r\n\r\n\r\n\r\nKomposisi :\r\n\r\n\r\nSerbuk Daun Insulin\r\n\r\n\r\nAturan pakai :\r\n\r\n\r\nPencegahan : 1-2 kapsul 2x sehari\r\n\r\n\r\nPengobatan : 2-3 kapsul 2x sehari\r\n\r\n\r\nDiproduksi oleh :\r\n\r\n\r\nHERBAMEDIKA - JAKARTA\r\n\r\n\r\nDinkes RI izin IKOT No. 442/1077 Kes/V/10\r\n\r\n\r\nHappy Shopping\r\n\r\n\r\n","rating":0}
{"no":0,"title":"montalin pega linu obat asam urat asli original harga per box","price":"37.000","seller":"Toko Kita","sellerPlace":"Tangerang Selatan","url":"https://www.bukalapak.com/p/kesehatan-2359/obat-suplemen/obat-obatan/1dbiib5-jual-montalin-pega-linu-obat-asam-urat-asli-original-harga-per-box?from=&product_owner=normal_seller","sold":7,"seen":183,"favorite":1,"updated":"2019-08-17 23:05:37","description":"Original.. siap return bila tidak asli !\r\n\r\nDistributor tunggal online.. ready banyak\r\n\r\n\r\nJam operasional\r\nSenin - jumat : 08.00 14.00 (atc diatas pukul 14.00 kirim esok hari)\r\nSabtu, minggu dan tanggal merah OFF\r\n\r\nKami distributor, barang yang kami dapat langsung dari produsen, gambar yang tertera REAL PICTURE, dengan kamera sendiri bukan mengambil dari internet, barang ready banyak, yang tertera dietalase artinya READY ya.\r\n\r\nAsli.. siap return * !!","rating":0}
{"no":0,"title":"Obat Darah Tinggi Paling Ampuh Abetens Dapat Menurunkan Tensi Darah Dengan Cepat","price":"25.000","seller":"Obat Herbal Original","sellerPlace":"Tangerang Selatan","url":"https://www.bukalapak.com/p/kesehatan-2359/obat-suplemen/obat-obatan/9sjozh-jual-obat-darah-tinggi-paling-ampuh-abetens-dapat-menurunkan-tensi-darah-dengan-cepat?from=&product_owner=normal_seller","sold":8,"seen":164,"favorite":5,"updated":"2019-10-02 16:49:37","description":"Obat Penurun darah tinggi ampuh abetens.\r\n\r\n\r\nKhasiat Abetens :\r\n\r\n\r\nMembantu menurunkan tekanan darah tinggi\r\n\r\n\r\nKomposisi :\r\n\r\n\r\n\r\noleum allium sativum bulbus\r\n\r\n