{"no":0,"title":"Obat luka operasi KAPSUL KUTUK 30cap original","price":"27.500","seller":"alfian Fahrezalvin","sellerPlace":"Malang","url":"https://www.bukalapak.com/p/kesehatan-2359/obat-suplemen/obat-obatan/1vbyy9l-jual-obat-luka-operasi-kapsul-kutuk-30cap-original?from=&product_owner=normal_seller","sold":0,"seen":8,"favorite":1,"updated":"2019-07-01 12:25:20","description":"membantu penyembuhan luka pasca operasi","rating":0}
{"no":0,"title":"LACTO B (OBAT DIARE UNTUK ANAK)","price":"245.000","seller":"ONEPLUS MANIA","sellerPlace":"Jakarta Timur","url":"https://www.bukalapak.com/p/kesehatan-2359/obat-suplemen/obat-obatan/5aiwqz-jual-lacto-b-obat-diare-untuk-anak?from=&product_owner=normal_seller","sold":22,"seen":810,"favorite":11,"updated":"2019-10-14 15:18:37","description":"(HARGA PERBOX / 40 SACHET)\r\n==============================\r\nLACTO B (OBAT DIARE UNTUK ANAK)\r\n==============================\r\n* Lactic Acid Bacterial menghasilkan asam organik yang menghambat bakteri merugikan, sehingga dapat membantu memperbaiki ketidakseimbangan flora usus pada diare.\r\n*Lactobacilli menghasilkan enzim -Galaktosidase, untuk menghidrolisa laktosa menjadi glukosa dan galaktosa.\r\n* Lacto-B dapat mengurangi lactose intolerance (diare akibat mengkonsumsi susu formula yang mengandung laktosa).\r\n* Vitamin B dapat membantu keseimbangan flora usus.\r\n\r\nDESKRIPSI\r\nKomposisi Per Sachet mengandung : Energi 3,4 Kalori, Karbohidrat 0,6 gram, Protein 0,02 gram, Lemak total 0,1 gram, Vitamin C 10 mg, Vitamin B1 0,5 mg, Vitamin B2 0,5 mg, Vitamin B6 0,5 mg, Niacin 2 mg.\r\n\r\nINDIKASI\r\nLactic Acid Bacterial menghasilkan asam organik yang menghambat bakteri merugikan, sehingga dapat membantu memperbaiki ketidakseimbangan flora usus pada diare.\r\nLactobacilli menghasilkan enzim -Galaktosidase, untuk menghidrolisa laktosa menjadi glukosa dan galaktosa.\r\nLacto-B dapat mengurangi lactose intolerance (diare akibat mengkonsumsi susu formula yang mengandung laktosa).\r\nVitamin B dapat membantu keseimbangan flora usus.\r\n\r\nKEMASAN\r\nSachet 1 gram x 40's\r\n\r\nDOSIS\r\n- Dibawah 1 tahun : 2 sachet per hari.\r\n- Usia 1 sampai 6 tahun : 3 sachet per hari.\r\n- Dapat diberikan langsung (rasa enak) atau dicampur dengan susu, makanan bayi atau air.\r\nDikonsumsi bersamaan dengan makanan atau tidak\r\n\r\nPABRIK\r\nNovell Pharmaceutical Laboratories.","rating":0}
{"no":0,"title":"LACTO B - LACTO-B","price":"245.000","seller":"ONEPLUS MANIA","sellerPlace":"Jakarta Timur","url":"https://www.bukalapak.com/p/kesehatan-2359/obat-suplemen/obat-obatan/wd30zc-jual-lacto-b-lacto-b?from=&product_owner=normal_seller","sold":16,"seen":144,"favorite":2,"updated":"2019-08-19 15:05:49","description":"LACTO B / LACTO-B (HARGA PERBOX)\r\n===============================\r\nLactic Acid Bacterial menghasilkan asam organik yang menghambat bakteri merugikan, sehingga dapat membantu memperbaiki ketidakseimbangan flora usus pada diare.\r\nLactobacilli menghasilkan enzim Galaktosidase, untuk menghidrolisa laktosa menjadi glukosa dan galaktosa.\r\nLacto-B dapat mengurangi lactose intolerance (diare akibat mengkonsumsi susu formula yang mengandung laktosa).\r\nVitamin B dapat membantu keseimbangan flora usus.\r\n\r\nDESKRIPSI\r\nPer Sachet mengandung : Energi 3,4 Kalori, Karbohidrat 0,6 gram, Protein 0,02 gram, Lemak total 0,1 gram, Vitamin C 10 mg, Vitamin B1 0,5 mg, Vitamin B2 0,5 mg, Vitamin B6 0,5 mg, Niacin 2 mg.\r\n\r\nINDIKASI\r\nLactic Acid Bacterial menghasilkan asam organik yang menghambat bakteri merugikan, sehingga dapat membantu memperbaiki ketidakseimbangan flora usus pada diare.\r\nLactobacilli menghasilkan enzim Galaktosidase, untuk menghidrolisa laktosa menjadi glukosa dan galaktosa.\r\nLacto-B dapat mengurangi lactose intolerance (diare akibat mengkonsumsi susu formula yang mengandung laktosa).\r\nVitamin B dapat membantu keseimbangan flora usus.\r\n\r\nKEMASAN\r\nLacto-B sachet 1 gram x 4 x 10's\r\n\r\nDOSIS\r\n- Dibawah 1 tahun : 2 sachet per hari.\r\n- Usia 1 sampai 6 tahun : 3 sachet per hari.\r\n- Dapat diberikan langsung (rasa enak) atau dicampur dengan susu, makanan bayi atau air.\r\n\r\nPABRIK\r\nNovell Pharmaceutical Laboratories.\r\n\r\n#lacto-b #lacto b #lactob #","rating":0}
{"no":0,"title":"Bi Yan Tuan obat alergi hidung - sinusitis - sesak napas","price":"70.000","seller":"Cinuang shop","sellerPlace":"Jakarta Barat","url":"https://www.bukalapak.com/p/kesehatan-2359/obat-suplemen/obat-obatan/1v88rub-jual-bi-yan-tuan-obat-alergi-hidung-sinusitis-sesak-napas?from=&product_owner=normal_seller","sold":0,"seen":14,"favorite":0,"updated":"2019-09-18 17:36:48","description":"Penjelasan Singkat Bi yan Tuan:\r\n\r\n- Melancarkan saluran pernafasan\r\n- Mengobati Chronic rhintis dan Sinusitis\r\n- Mengobati infeksi pada hidung dan alergi\r\n- Mengobati batuk berdahak akibat sinus\r\n- Mengobati asma dan bronchitis\r\nBi Yan Tuan dibuat dari 100% herbal alami yang berguna melancarkan saluran pernafasan pada hidung serta menjaga kesehatan rongga hidung dan sinus.\r\n\r\nKhasiat:\r\n\r\nBi Yan Tuan terbukti dapat menyembuhkan penyakit chronic rhintis (peradangan pada selaput lendir dalam hidung) yang disebabkan oleh alergi, virus, bakteri atau iritasi. Peradangan tersebut membuat produksi lendir berlebih yang menyebabkan hidung meler, pilek, dan hidung tersumbat. Chronic Rintis yang disebabkan oleh alergi memberikan gejala tambahan seperti bersin - bersin, hidung gatal, batuk, pusing, dan lelah\r\n\r\nBi Yan Tuanjuga terbukti dapat mengobati penyakit sinusitis (peradangan pada sinus) yang terjadi akibat infeksi dari virus, bakteri, atau jamur. Gejala Sinusitis seperti : pilek, batuk (terutama pada saat malam), nafas bau, kehilangan penciuman, demam, sakit kepala (sakit seperti ditekan pada bagian belakang mata), Hidung tersumbat, dan sakit tengorokan. Sinusitis dapat berubah dari akut menjadi kronis apa bila sudah mengalami gejala sinusitis akut lebih dari 4 bulan.\r\n\r\nSelain itu Bi YanTuan juga efektif mengobati infeksi pada hidung, alergi pada saluran pernafasan, penyumbatan saluran pernafasan, batuk, asma, dan bronchitis.\r\n\r\nTerbukti:\r\n\r\nFormula obat Bi Yan Tuan berdasarkan ilmu pengobatan tradisional yang telah dibuktikan bertahun - tahun lalu, yang sekarang telah dibuktikan melalui uji coba dan tes diperkirakan keberhasilan Bi Yan Tuan sampai dengan 95,18% dalam menyembukan penyumbatan pada saluran pernafasan sinusitis akut dan kronis.","rating":0}
{"no":0,"title":"SidoMuncul Libidione Meningkatkan Vitalitas & Stamina Pria","price":"125.000","seller":"Indo_Health","sellerPlace":"Jakarta Selatan","url":"https://www.bukalapak.com/p/kesehatan-2359/obat-suplemen/obat-obatan/1sq5yio-jual-sidomuncul-libidione-meningkatkan-vitalitas-stamina-pria?from=&product_owner=normal_seller","sold":80,"seen":736,"favorite":20,"updated":"2019-10-09 16:00:26","description":"Pengiriman PRIVASI silahkan pilih via JNE !!!\r\n\r\n\r\nBeberapa bahan seperti ginseng, tribulus terrestris, dan eurycoma longifoli (tongkat ali) sudah diketahui khalayak umum sebagai bahan utama yang biasa digunakan dalam pembuatan obat stamina pria. Bahan-bahan ini dipercaya membantu meningkatkan stamina dan vitalitas kaum pria dewasa. Sementara ginko bilofa folium dapat membantu melancarkan aliran darah serta meningkatkan daya ingat dan kewaspadaan.\r\n\r\n\r\nKapsul Libidione merupakan salah satu dari sekian ratus produk herbal yang diproduksi oleh Sido Muncul yang telah berdiri sejak 1951. Perusahaan jamu nasional ini sudah berkomitmen mengembangkan produk-produk berbahan baku yang aman, rasional, serta jujur berdasarkan penelitian. Untuk itu Libidione juga telah mendapatkan pengakuan dari lembaga BPOM yang membuktikan obat ini aman untuk dikonsumsi.\r\n\r\n\r\nKhasiat Libidione :\r\n\r\n\r\n-Membantu meningkatkan gairah, vitalitas dan stamina pria dewasa\r\n\r\n\r\n-Memperlancar sirkulasi dan peredaran darah di dalam tubuh\r\n\r\n\r\n-Menjaga kebugaran dan kesehatan tubuh.\r\n\r\n\r\n-Meningkatkan kualitas dan kuantitas hormone testoteron secara alami dan mengatasi masalah masalah pria dewasa.\r\n\r\n\r\n-Meningkatkan daya ingat otak.\r\n\r\n\r\nKomposisi :\r\n\r\n\r\n\r\nEkstrak Ginko Biloba Folium . 80 mg\r\n\r\nGinseng . 40 mg\r\n\r\nTribulus Terrestris . 250 mg\r\n\r\nHippocampus . 8 mg\r\n\r\nEurycoma Longifoli . 25 mg\r\n\r\n\r\n\r\n\r\nCara Pakai:\r\n\r\n\r\nDewasa: 3 x 1 kapsul setiap hari, selama 1 2 bulan\r\n\r\n\r\nSuplemen: 1 x 1 kapsul setiap hari\r\n\r\n\r\nIsi : 30 kapsul","rating":0}
{"no":0,"title":"IMBOOST FORCE SUPLEMEN DAYA TAHAN TUBUH","price":"170.000","seller":"ONEPLUS MANIA","sellerPlace":"Jakarta Timur","url":"https://www.bukalapak.com/p/kesehatan-2359/obat-suplemen/obat-obatan/wyp7uu-jual-imboost-force-suplemen-daya-tahan-tubuh?from=&product_owner=normal_seller","sold":3,"seen":63,"favorite":1,"updated":"2019-07-27 21:57:05","description":"IMBOOST FORCE SUPLEMEN DAYA TAHAN TUBUH\r\n========================\r\nTerapi penunjang untuk infeksi saluran pernafasan akut atau kronik.\r\nMencegah kambuhnya infeksi, infeksi genital (kandidiasis dan vaginitis).\r\n\r\nDESKRIPSI\r\nPer tablet : Echinaceae 250 mg, Black elderberry 400 mg, Zn pikolinat 10 mg.\r\n\r\nINDIKASI\r\nTerapi penunjang untuk infeksi saluran pernafasan akut atau kronik.\r\nMencegah kambuhnya infeksi, infeksi genital ( kandidiasis dan vaginitis ).\r\n\r\nKEMASAN\r\nKaplet salut selaput 3 x 10's.\r\n\r\nDOSIS\r\n3 x sehari 1 kaplet.\r\n\r\nPABRIK\r\nSoho\r\n\r\n#imboost #imboostforce #imboostforcetable #suplemendayatahantubuh #suplemenimboost #suplemenimboostforce","rating":0}
{"no":0,"title":"Obat untuk cedera Otot jin sui gu jiau wan Original","price":"175.000","seller":"Sinar Jaya","sellerPlace":"Jakarta Barat","url":"https://www.bukalapak.com/p/kesehatan-2359/obat-suplemen/obat-obatan/2de8rkw-jual-obat-untuk-cedera-otot-jin-sui-gu-jiau-wan-original?from=&product_owner=normal_seller","sold":0,"seen":0,"favorite":0,"updated":"2019-10-13 12:11:46","description":"Jin Sui Gu Jiao Wan\r\n\r\n- Radix Panax Gingseng 20mg\r\n- Marine Collagen 35mg\r\n- Radix Achyranthis Bidentatae 35mg\r\n- Herba Pyrolae Calliantha 50mg\r\n- Radix Clematidis Sinensis 30mg\r\n- Radix morindae Officinalis 30mg\r\n- Rizhoma Gastrodiae Elata 50mg\r\n\r\nIndikasi:\r\nDigunakan secara tradisional untuk melegakan sakit sendi, arthristis, rematik, sakit punggung/belakang, sakit pinggang & kelemahan badan, menguatkan tulang & otot, melegakan keletihan.\r\nsangat manjur untuk mengatasi cedera otot.\r\n\r\nPemakaian:\r\n1-2 caps setiap kali, dua kali sehari\r\n\r\nPerhatian:\r\nwanita hamil dan anak-anak dibawah 8 tahun tidak diperkenankan mengkonsumsi obat ini.\r\n\r\nProduksi:\r\nTanjong Pagar, Singapore\r\n\r\nIsi 20 caps softgell\r\nExp nov 2022","rating":0}
{"no":0,"title":"Obat Sakit Pinggang - Encok - Sakit Punggung","price":"200.000","seller":"JS Herbal","sellerPlace":"Jakarta Timur","url":"https://www.bukalapak.com/p/kesehatan-2359/obat-suplemen/obat-obatan/13r3n2f-jual-obat-sakit-pinggang-encok-sakit-punggung?from=&product_owner=normal_seller","sold":0,"seen":14,"favorite":0,"updated":"2019-10-14 07:12:57","description":"Ready Stock, silahkan langsung atc\r\nBayar hari ini, langsung kirim\r\nProduk 100% Asli\r\n\r\nJadwal Pengiriman :\r\n\r\n- Pengiriman menggunakan JNE paling lambat jam 15.00 WIB (dikirim dari gudang tasikmalaya)\r\n- Pengiriman menggunakan POS paling lambat jam 13.30 WIB (dikirim dari gudang tasikmalaya)\r\n- Gosend Same Day dan J&T paling lambat jam 13.00 WIB (dikirim dari Jakarta Timur)\r\n\r\nSamulinpro sehat sendi adalah suplemen kesehatan yang di formulasikan secara khusus untuk menutrisi sekaligus efektif mengatasi berbagai permasalahan sendi yang bersifat ringan hingga parah sekalipun. Produk kesehatan yang di produksi oleh CV. Jogja Natural Herbal ini sendiri bersifat aman tanpa efek samping, lantaran selain telah terdaftar resmi di lembaga kesehatan RI, juga suplemen kesehatan ini juga terbuat dari 100% bahan alami secara menyeluruh tanpa terkontaminasi campuran kimia sedikitpun.\r\n\r\nKomposisi :\r\n\r\n- 60% akar kuning (Arcangelisia flava)\r\n- 20% bratawali (Tinospora Crispa L.)\r\n- 20% daun salam (syzygium polyanthum)\r\n\r\nNamun yang lebih istimewanya dari obat herbal walatra sehat sendi dibanding suplemen kesehatan sendi lainnya adalah, walatra sehat sendi hanya terbuat dari 100% bahan ekstrak alami terbaik dengan rasio pengekstrakan sebesar 7:1, menggunakan teknologi canggih masa kini yakni menggunakan teknologi nano. Sehingga suplemen ini di percaya memiliki efektifitas khsiat 3x kali lebih kuat dibandingkan dengan suplemen kesehatan sendi lainnya.\r\n\r\nManfaat dan khasiat samulinpro sehat sendi\r\n\r\nBerikut adalah berbagai kebaikan dan manfaat yang terkandung dalam walatra sehat sendi:\r\n\r\n- Menjaga kesehatan sendi dan tulang secara menyeluruh.\r\n- Menjadi nutrisi terbaik untuk sendi.\r\n- Mencegah osteoporosis atau pengapuran tulang.\r\n- Meredakan sakit sendi.\r\n- Mempercepat proses penyembuhan patah tulang.\r\n- Mengobati cedera pada sendi.\r\n- Mengatasi radang sendi.\r\n- Meningkatkan fungsi sendi.\r\n\r\n*Disclaimer: Khasiat atau kesembuhan yang dihasilkan mungkin dapat berbeda-beda. Tergantung dari seberapa parah kondisi tubuh dan penyakitnya\r\n\r\nKonsumsi dengan rutin dan barengi dengan perubahan pola hidup menjadi lebih sehat. Konsumsi makanan pendukung dan hindari makanan penyebab.","rating":0}
{"no":0,"title":"OBAT GINJAL KRONIK","price":"649.000","seller":"ONEPLUS MANIA","sellerPlace":"Jakarta Timur","url":"https://www.bukalapak.com/p/kesehatan-2359/obat-suplemen/obat-obatan/228bynd-jual-obat-ginjal-kronik?from=&product_owner=normal_seller","sold":0,"seen":29,"favorite":2,"updated":"2019-09-15 20:10:06","description":"OBAT GINJAL KRONIK \r\n==================\r\nIndikasi\r\nterapi insufisiensi ginjal kronik bersama dengan diet tinggi kalori-rendah protein, pada retensi yang terkompensasi atau tidak terkompensasi","rating":0}
{"no":0,"title":"CAL-95 (SUPLEMEN KESEHATAN TULANG)","price":"163.000","seller":"ONEPLUS MANIA","sellerPlace":"Jakarta Timur","url":"https://www.bukalapak.com/p/kesehatan-2359/obat-suplemen/obat-obatan/3rmxfv-jual-cal-95-suplemen-kesehatan-tulang?from=&product_owner=normal_seller","sold":18,"seen":752,"favorite":16,"updated":"2019-10-12 18:25:52","description":"Cal - 95 suplemen makanan yang berfungsi untuk membantu memelihara kesehatan tulang.\r\n\r\nKomposisi: \r\nCoral Ca 500 mg, natural soy isoflavone 20 mg, vitamin D3 200 iu, vitamin K1 25 mcg, Mg 100 mg, Zn 5 mg, boron 1 mg\r\n\r\nIndikasi: \r\nTerapi suportif osteoporosis karena berbagai sebab, misalnya pasca menopause, senilis,atau diinduksi oleh kortikosteroid; sebagai konsekuensi dari gastrektomi atau imobilisasi. Peningkatan kebutuhan akan Ca, misalnya anak pada masa pertumbuhan hamil dan laktasi\r\n\r\nDosis: \r\n1-2 kaplet/hari\r\n\r\nPemberian Obat: \r\nBerikan sesudah makan\r\n\r\nPerhatian: \r\nGangguan ginjal. Jangan diberikan bersama produk yang kaya serat\r\n\r\nKemasan: \r\nKaplet 5 x 6\r\n\r\nPabrik:\r\nLapi","rating":0}
{"no":0,"title":"Pleaster Kutil/ Mata Ikan/ Obat Kutil","price":"20.000","seller":"Toko Obat Herbal Alami 5758","sellerPlace":"Jakarta Utara","url":"https://www.bukalapak.com/p/kesehatan-2359/obat-suplemen/obat-obatan/1lrorg-jual-pleaster-kutil-mata-ikan-obat-kutil?from=&product_owner=normal_seller","sold":212,"seen":8076,"favorite":89,"updated":"2019-10-15 11:03:29","description":"Shuiyangsuan Benfen Tiegao - Plester Kutil / Mata Ikan / Caplak\r\n\r\n\r\nKami jamin produk 100% Original Asli\r\n\r\nProduk Ready Stock.\r\n\r\nKirim Cepat &amp;amp;amp;amp;amp; Packing Rapih.\r\n\r\nKhasiat dan Kegunaan :\r\n\r\n\r\n*Menyembuhkan kutil Dan mata Ikan\r\n\r\n\r\nCara pakai :\r\n\r\n\r\n*Bersihkan bagian yang Sakit kutil Atau mata Ikan dengan alkohol setelah Itu biarkan kering lalu tempelkan plester kutil.\r\n\r\n\r\n*Disarankan 1 (1X24jam) Hari sekali ganti plester kutil.\r\n\r\n\r\n*Setiap Kali ganti plester kutil diharuskan membersihkan bekas Obat plester kutil sebelumnya yg menempel pada kutil,setelah itu Baru ditempel dengan plester yang Baru.\r\n\r\n\r\n\r\nSelesai pengobatan rendam dengan air hangat agar kulit mati dan kutil kering bisa lepas dengan sendirinya\r\n\r\n\r\n\r\n\r\n*Disarankan 1 Kali pengobatan memakai 6-12 plester tergantung kondisi kutil .\r\n\r\n\r\nSatu kotak isi 6 pcs\r\n\r\n\r\nDijamin kutil tidak balik lagi dan lepas dengan akarnya,ikuti petunjuk pemakaian di atas.\r\n\r\n\r\nExp date : Tahun 2020 bulan 5","rating":0}
{"no":0,"title":"Daun Ungu - Izin POM - Obat Herbal Wasir / Ambeien - Produsen Herbal Indo Utama - HIU","price":"45.000","seller":"HERBAL SEHAT","sellerPlace":"Sleman","url":"https://www.bukalapak.com/p/kesehatan-2359/obat-suplemen/obat-obatan/k8nyr-jual-daun-ungu-izin-pom-obat-herbal-wasir-ambeien-produsen-herbal-indo-utama-hiu?from=&product_owner=normal_seller","sold":56,"seen":2942,"favorite":51,"updated":"2019-10-07 05:56:38","description":"Kapsul Herba Daun Ungu\r\nIzin : POM \r\nIsi : 60 Kapsul @500 mg\r\n\r\nKomposisi : \r\nTiap kapsul mengandung ekstrak Graptophllium folium400 mg\r\n\r\nAturan Minum : \r\nDiminum 3x sehari 1-3 kapsul\r\n\r\nManfaat : Meringankan Wasir / Ambeien\r\n\r\nPenyimpanan:\r\nDisimpan pada tempat yang sejuk dan terhindar dari sinar matahari langsung","rating":0}
{"no":0,"title":"Kapsul Kemangi Isi 120 Obat Herbal Bau Mulut Dan Bau Badan","price":"26.000","seller":"Obat Herbal Original","sellerPlace":"Tangerang Selatan","url":"https://www.bukalapak.com/p/kesehatan-2359/obat-suplemen/obat-obatan/11qaz83-jual-kapsul-kemangi-isi-120-obat-herbal-bau-mulut-dan-bau-badan?from=&product_owner=normal_seller","sold":32,"seen":768,"favorite":28,"updated":"2019-10-15 09:01:22","description":"Kapsul Daun Kemangi herbamedika isi 120 kapsul obat bau badan dan bau mulut dan juga dapat mengobati ejakulasi dini\r\n\r\nKemasan Baru Kapsul Kemangi Herbamedika\r\n\r\nManfaat Kapsul Kemangi Herbamedika\r\n- Mengobati Ejakulasi Dini\r\n- Meredakan demam dan masuk angin\r\n- Menyehatkan mata dan mulut\r\n- Menghilangkan bau badan\r\n- Anti inflamasi\r\n- Menopouse\r\n- Mencegah batuk\r\n- Mengatasi Keputihan\r\n- Merangsang Sel Telur\r\n- Antiradang\r\n- Kesehatan Jantung\r\n- Mengatasi Stroke\r\n\r\n\r\nKomposisi Kapsul Kemangi Herbamedika\r\n- Serbuk Daun Kemangi Pilihan\r\n\r\n\r\nAturan Pakai Kapsul Kemangi Herbamedika\r\n- Pencegahan : 1 2 kapsul 2 x sehari\r\n- Pengobatan : 2 3 kapsul 2 x sehari\r\n\r\n\r\nIsi Kemasan Kapsul Kemangi Herbamedika\r\n- 120 kapsul\r\n\r\n\r\nProdusen Kapsul Kemangi Herbamedika\r\n- Herbamedika\r\n\r\n\r\nLegal dari Kapsul Kemangi Herbamedika\r\n- DINKES RI IZIN IKOT NO : TERTERA DIKEMASAN","rating":0}
{"no":0,"title":"Tenlung Pemutih","price":"24.500","seller":"herbalaku","sellerPlace":"Semarang","url":"https://www.bukalapak.com/p/kesehatan-2359/obat-suplemen/obat-obatan/9lub7-jual-tenlung-pemutih?from=&product_owner=normal_seller","sold":605,"seen":2321,"favorite":115,"updated":"2019-10-09 11:36:37","description":"TENLUNG PEMUTIH KULIT (edisi botol terbaru)\r\n\r\nPara wanita yang merasa KURANG PeDe dengan warna kulit yg tidak cerah, INI DIA JAMU PALING LARIS DAN PALING BANYAAAK PEMINATNYA.\r\nTERBUKTI ! \r\nKALAU ADA YANG ALAMI KENAPA TIDAK...^^\r\n\r\nMerupakan satu-satunya perawatan kulit ALAMI yang bekerja dari dalam tubuh yang mengandung mutiara yang sudah terkenal dan terbukti efektif untuk memutihkan kulit, teh hijau yang berfungsi untuk antioksida yang berguna untuk melindungi kulit dari sinar matahari dan mencegah terjadinya kanker kulit, mengandung vitamin E ALAMI dari sari kedelai dan gandum untuk kebutuhan regenerasi sel-sel kulit, yaitu mengganti sel kulit lama dengan sel kulit baru. Maksud dari kulit baru adalah warna asal kulit sebelum terkena sinar matahari. Selain itu kulit jadi lebih kencang, lebih bersih dan juga merata.\r\n\r\nMengandung temu giring untuk menghilangkan JERAWAT, FLEK HITAM, BEKAS LUKA DAN PEMBERSIH KULIT.\r\n\r\n\r\nPERBEDAAN PRODUK TENLUNG PEMUTIH KULIT BERUPA KAPLET DENGAN PRODUK DARI LUAR :\r\n\r\nPRODUK PERAWATAN DARI LUAR :\r\n1. Berfungsi untuk mengelupaskan kulit dan tidak berfungsi untuk menganti sel, untuk itu semakin lama kulit akan semakin menipis dan bisa menyebabkan kanker kulit.\r\n2. Kadang-kadang terdapat zat kimia yang berbahaya seperti mercury dan hidroquinon\r\n3. Tidak bisa rata keseluruh tubuh\r\n4. Tidak berfungsi lama ( bila pemakaian dihentikan kulit akan semakin kusam dan berkerut\r\n5. Bila dipakai terus menerus kulit akan tipis dan rusak.\r\n\r\n\r\nPRODUK TENLUNG PEMUTIH KULIT :\r\n1. Berfungsi untuk meregenerasikan kulit karena mengandung sari kedelai dan gandum yang diyakini banyk sekali kadar vitamin E yang merupakan makanan dari sel kulit.\r\n2. Tidak mengandung zat kimia (karena tidak ada zat kimia untuk pemutih kulit atau perawatan kulit yang diminum).\r\n3. Bisa merata keseluruh tubuh\r\n4. Bisa lama mempertahankan kelembutan, dan kehalusan kulit","rating":0}
{"no":0,"title":"LACTO B PER SATU SACHET 1 G DARI NOVEL","price":"6.000","seller":"vitaminmurahdotcom","sellerPlace":"Jakarta Selatan","url":"https://www.bukalapak.com/p/kesehatan-2359/obat-suplemen/obat-obatan/7ukown-jual-lacto-b-per-satu-sachet-1-g-dari-novel?from=&product_owner=normal_seller","sold":1606,"seen":2994,"favorite":50,"updated":"2019-10-15 04:00:47","description":"LACTO B PER SATU SACHET 1 G DARI NOVEL\r\nORIGINAL & NON RETUR\r\nexpired date 10/2019\r\n\r\nLactic Acid Bacterial menghasilkan asam organik yang menghambat bakteri merugikan, sehingga dapat membantu memperbaiki ketidakseimbangan flora usus pada diare.\r\nLactobacilli menghasilkan enzim -Galaktosidase, untuk menghidrolisa laktosa menjadi glukosa dan galaktosa.\r\nLacto-B dapat mengurangi lactose intolerance (diare akibat mengkonsumsi susu formula yang mengandung laktosa).\r\nVitamin B dapat membantu keseimbangan flora usus.\r\n\r\nKomposisi Per Sachet mengandung : Energi 3,4 Kalori, Karbohidrat 0,6 gram, Protein 0,02 gram, Lemak total 0,1 gram, Vitamin C 10 mg, Vitamin B1 0,5 mg, Vitamin B2 0,5 mg, Vitamin B6 0,5 mg, Niacin 2 mg.\r\n\r\nDOSIS\r\n- Dibawah 1 tahun : 2 sachet per hari.\r\n- Usia 1 sampai 6 tahun : 3 sachet per hari.\r\n- Dapat diberikan langsung (rasa enak) atau dicampur dengan susu, makanan bayi atau air.\r\n\r\nDikonsumsi bersamaan dengan makanan atau tidak masalah.\r\n\r\n\r\nCATATAN PENTING:\r\nPengiriman ditentukan oleh penjual TIDAK BOLEH COMPLAIN. Misal JNE akan di kirimkan dengan TIKI atau sebaliknya. Tidak terikat dan tidak boleh complain. Penjual bebas menentukan pengiriman yang digunakan. Pembeli TIDAK BOLEH COMPLAIN dan memberikan FEEDBACK NEGATIF. \r\nJika ada permintaan khusus dari pembeli untuk spesifik kurir HARAP MENCANTUMKAN NOTES pada waktu pemesanan cth : WAJIB JNE atau WAJIB TIKI. Diluar itu pemesanan akan diproses sesuai dengan ketentuan Penjual.\r\n\r\n-- Dengan MEMBELI maka pembeli dianggap SETUJU dengan kebijakan toko --\r\nMohon untuk baca ketentuan pada \"catatan toko\"","rating":0}
{"no":0,"title":"Grow Up USA Original - Peninggi Badan","price":"45.000","seller":"Rumah Kosmetik","sellerPlace":"Surabaya","url":"https://www.bukalapak.com/p/kesehatan-2359/obat-suplemen/obat-obatan/1m2knm-jual-grow-up-usa-original-peninggi-badan?from=&product_owner=normal_seller","sold":99,"seen":1760,"favorite":94,"updated":"2019-10-15 12:44:58","description":"\" GROW-UP USA\"\r\nSuplemen Multi Peninggi Badan\r\n\r\n-HORMON PERTUMBUHAN adalah hormon yang berperan dalam mengendalikan pertumbuhan otot dan organ lainya, mempengaruhi kecepatan pertumbuhan tubuh.\r\n-bila anda merasa bertubuh pendek sebaiknya mengkonsumsi \" GROW-UP\" .\r\n\r\n-\" GROW-UP\" adalah obat untuk peninggi badan untuk segala umur, produk ini tercipta dari inovasi terbaru yang di dukung dengan riset dan bukti.\r\n\r\n\" GROW-UP\" adalah obat herbal yang diambil dari rempah-rempah alam yang di peroses dengan teknologi mutahir oleh para ilmuwan di amerika serikat.\r\n\r\n-\" GROW-UP\" banyak dikonsumsi para olahragawan, angkatan atau militer untuk mempercepat pertumbuhan badan agar cepat tinggi dalam kadar proposional untuk memenuhi setandar international\r\n\r\n-secara klins setelah terciptanya \" GROW-UP\" banyak permintaan untuk di jual bebas ke halayak karena begitu hebatnya dan terbukti nyata.\r\nTanpa efek samping 100% aman.\r\n\r\n\" GROW-UP\" dikatakan obat multi karena bisa juga untuk memperkuat daya ingat atau IQ dan setamina badan agar tetap sehat, vit sepanjang di konsumsi para pelajar yang membutuhkan daya ingat dan konsentarasi tinggi.\r\n\r\n\" GROW-UP\" dapat di konsumsi pria dan wanita untuk segala umur dalam waktu 1 bulan tinggi badan anda akan bertambah 5-15cm.\r\n\r\nReady Segel Merah\r\nPAKET ISI : 250 Caps","rating":0}
{"no":0,"title":"Tribulus/ Tri Bulus Bubuk Asli 250 Gram","price":"35.000","seller":"H&amp;Y Media Belanja","sellerPlace":"Malang","url":"https://www.bukalapak.com/p/kesehatan-2359/obat-suplemen/obat-obatan/251p94-jual-tribulus-tri-bulus-bubuk-asli-250-gram?from=&product_owner=normal_seller","sold":69,"seen":1220,"favorite":43,"updated":"2019-10-05 05:28:39","description":"MANFAAT TRIBULUS secara umum, yaitu :\r\n1. Meningkatkan vitalitas badan.\r\n2. Melancarkan peredaran darah\r\n3. Mencegah penyakit jantung\r\n4. Merangsang pembentukan ASI\r\n5. Membantu menangani alergi badan\r\n6. Memperbaiki penglihatan\r\n7. Menurunkan gula darah, dll\r\nCara Konsumsi :\r\nsetengah sendok teh bubuk tribulus diseduh dengan segelas air panas.\r\nNetto : 250 gram","rating":0}
{"no":0,"title":"AFOLAT (ASAM FOLAT) 400 MG / SUPLEMEN & VITAMIN IBU HAMIL","price":"1.900","seller":"Toko WR MANDIRI","sellerPlace":"Jakarta Timur","url":"https://www.bukalapak.com/p/kesehatan-2359/obat-suplemen/obat-obatan/hvbf1-jual-afolat-asam-folat-400-mg-suplemen-vitamin-ibu-hamil?from=&product_owner=normal_seller","sold":1776,"seen":19308,"favorite":413,"updated":"2019-10-14 15:54:06","description":"AFOLAT TABLET SUPLEMENT PROMIL DAN IBU HAMIL\r\nHARGA 1 STRIP ISI 10 TABLET : TERTERA YA GAN\r\nSTOK PRODUK .....&amp;amp;amp;gt; READY STOCK,.\r\nSILAHKAN LANGSUNG DIPESAN AJA YA GAN\r\n------------------------------------\r\nTERIMA KASIH, SUKSES DAN SEHAT SELALU UNTUK ANDA","rating":0}
{"no":0,"title":"kapsul ikan gabus pujimin","price":"155.000","seller":"wiyono","sellerPlace":"Tangerang Selatan","url":"https://www.bukalapak.com/p/kesehatan-2359/obat-suplemen/obat-obatan/15m9li-jual-kapsul-ikan-gabus-pujimin?from=&product_owner=normal_seller","sold":239,"seen":2440,"favorite":68,"updated":"2019-10-14 05:05:17","description":"Pujimin Kapsul Albumin \r\nDiproduksi oleh CV. MIN MAKASSAR\r\nKemasan : Botol isi 30 kapsul.\r\n\r\nKhasiat :\r\nKapsul ini mengandung albumin, asam amino serta mineral untuk membantu proses penyembuhan dan meningkatkan kekebalan tubuh secara alamiah. Hipoalbumin yang disertai edema yang ditemukan pada pasien kritis, luka bakar, post-operatif, pre-eclampsia maupun penyakit kronis ( hati, ginjal, paru-paru dan kencing manis/luka dekubitus maupun ODHA ), kesemuanya itu terkait dengan penurunan daya tahan tubuh, infeksi, dan proses penyembuhan yang lama. \r\n\r\nKapsul ini dapat diberikan sebagai protein alternatif, sumber albumin untuk mengatasi hipoalbumin dan membantu proses penyembuhan.\r\n\r\nPetunjuk Pemakaian :\r\nPada keadaan hipoalbumin diberikan 3 x 2 kapsul/hari dan dilanjutkan dengan pemberian 3 x 1 kapsul untuk mempertahankan kesehatan. Sebagai suplemen dapat dikonsumsi 1 x 1 kapsul/hari.\r\n\r\nPertanyaan \r\nWiyono#albumin#ikan#ikankutuk#ikangabus#pujimin#albumin#kutuk#gabus#ikankutuk#ektrakikangabus#ekstrakkutuk#obat#luka#operasi#kapsulikankutuk#kapsul#ikankutuk#obatpaskaoperasi","rating":0}
{"no":0,"title":"Obat Jamur Kuku Cantengan Jengger Ayam - Super Green Plus JK7","price":"60.000","seller":"herbal murah","sellerPlace":"Serang","url":"https://www.bukalapak.com/p/kesehatan-2359/obat-suplemen/obat-obatan/97sg2a-jual-obat-jamur-kuku-cantengan-jengger-ayam-super-green-plus-jk7?from=&product_owner=normal_seller","sold":187,"seen":5432,"favorite":120,"updated":"2019-10-13 06:42:19","description":"GRATIS ONGKIR dengan Kode \r\nBUKASICEPAT\r\n\r\n\r\nREADY STOK LANGSUNG DI ORDER SAJA\r\n\r\n\r\nHATI HATI BARANG TIRUAN KAMI MENJUAL PRODUK ORIGINAL \r\n\r\nBasmi Jamur Dan Parasit Lainnya\r\n\r\nManfaat Utama :\r\nJamur kuku, ketombe / jamur kepala, kutu air, kulit bersisik, kaki pecah-pecah, panu, eksim, kutil jengger ayam, herpes, buras (ruam putih di wajah) hilangkan noda hitam di kulit, anti nyamuk, dan juga untuk menghaluskan dan melembutkan kulit.\r\n\r\nKeunggulan :\r\n- Aman untuk semua umur\r\n- Aman jika tertelan\r\n- Melembutkan kuku yg masuk / menusuk daging, menghindarkan dari operasi pengangkatan kuku\r\n\r\nKomposisi :\r\n- Ekstrak getah palma\r\n- Ekstrak alstonia sholaris\r\n- Ekstrak gandapura\r\n- Ekstrak peppermint\r\n- Ekstrak daun sirih\r\n- Minyak serai\r\n- Minyak lengkuas\r\n\r\nIsi +/- 10 ml\r\nDEPKES RI SP No. 15308090500\r\nLaporan Hasil Uji (Test Report) Tidak Berbahaya No. 3164/LHU/Bd/LAK-BBIA/VIII/2007\r\nDiproduksi oleh : PT. Lima Bintang Putra Perkasa\r\nUntuk : Indonesia Herbal Center","rating":0}
{"no":0,"title":"Minyak Ikan PDO Cair","price":"275.000","seller":"Pusat Gudeg Kaleng","sellerPlace":"Jakarta Utara","url":"https://www.bukalapak.com/p/kesehatan-2359/obat-suplemen/obat-obatan/1cjxr-jual-minyak-ikan-pdo-cair?from=&product_owner=normal_seller","sold":56,"seen":3935,"favorite":52,"updated":"2019-10-11 11:06:21","description":"Minyak Ikan PDO tersedia dalam bentuk cair.\r\n\r\nPDO (Pure Deep Ocean) adalah minyak ikan dari jenis ikan yang hidup di laut yang dalam (DEEP OCEAN) di Indonesia bagian timur yang kedalamannya tidak tertembus sinar matahari dan terbebas dari pencemaran lingkungan dan diolah secara murni (PURE), alamiah, hygienis, dan bermutu tanpa bahan kimia sehingga dapat dikonsumsi untuk segala umur tanpa menimbulkan efek samping.\r\n\r\nPDO Minyak Ikan mengandung Fish Oil dimana terkandung Asam Lemak Essensial (EFA) yang terdiri dari Omega 3 (EFA, DHA dan ALA), Omega 6 (LA, GLA, Omega 7 dan Omega 9 (OA)\r\n\r\nPDO cair sangat bagus untuk membantu proses penyembuhan berbagai macam penyakit seperti diabetes, paru-paru, stroke, jantung, kencing manis, dll\r\n\r\nKeunggulan Minyak Ikan PDO :\r\n1. Menyembuhkan berbagai macam penyakit seperti : tekanan darah tinggi, tekanan darah rendah, asam urat, diabetes militus, asma, jantung koroner, stroke, hepatitis, kanker payudara, kanker hati, leukmia, kanker rahim, kanker paru-paru, dll\r\n2. Menyembuhkan maagh kronis dan menormalkan kadar asam lambung\r\n3. Meningkatkan kecerdasan otak\r\n5. Menjaga kesehatan, stamina dan daya tahan tubuh\r\n7. Menyuburkan kandungan\r\n8. Mengandung semua unsur yang penting/ berkhasiat untuk tubuh, yaitu : Omega 3, 6 &amp;amp;amp;amp; 9 dan diperkaya dengan Vitamin E\r\n9. Dapat dikonsumsi untuk segala umur\r\n10. Telah mengantongi ijin BPOM RI : POM SD. 091 336 551 dan Sertifikat Halal MUI No. 01281097490214\r\n\r\n*** Aturan Pakai :\r\nDewasa : 3 x 1 sendok makan\r\nAnak-anak : 2 x 1 sendok teh\r\nIsi 100ml\r\n\r\n*** Hati-hati dengan Barang Tiruan !!!\r\nDapatkan produk yg Asli di toko kami Pdo Minyak Ikan/ Pusat Gudeg Kaleng\r\n\r\nNB :\r\n*** Pesanan masuk sebelum jam 16.00 kami kirim di hari yang sama (khusus JNE, TIKI, J&amp;amp;amp;amp;T, Gosend)\r\nBisa Kirim via Gosend Gojek &amp;amp;amp;amp; Grab Parcel bisa nyampe di hari yang sama (khusus wilayah JABODETABEK)\r\n*** Melayani pembelian secara Langsung datang ke Toko kami \"Pusat Gudeg Kaleng\" di Jl. Plumpang Semper Raya No. 13 Plumpang Jakarta Utara.\r\n\r\n\"Selamat Berbelanja\"","rating":0}
{"no":0,"title":"MINYAK URUT ASAI (CAP GUNUNG HIJAU)","price":"24.000","seller":"May 89","sellerPlace":"Jakarta Utara","url":"https://www.bukalapak.com/p/kesehatan-2359/obat-suplemen/obat-obatan/jymyc-jual-minyak-urut-asai-cap-gunung-hijau?from=&product_owner=normal_seller","sold":205,"seen":4433223,"favorite":111,"updated":"2019-10-06 04:46:16","description":"Produk Dijamin 100% Original Asli\r\n\r\nMINYAK URUT ASAI (CAP GUNUNG HIJAU) ASLI !\r\n\r\n\r\nKhasiat dan kegunaan:\r\n\r\n\r\n\r\nUntuk melegakan sakit otot\r\n\r\nSakit sendi yang berkaitan dengan sakit rematik\r\n\r\nSakit pinggang\r\n\r\nSakit kepala\r\n\r\nSakit perut\r\n\r\nSakit tulang\r\n\r\nGatal pada kulit\r\n\r\n\r\n\r\n\r\nCara pakai :\r\n\r\n\r\n\r\nGosok pada tempat yang sakit 3 hingga 4 kali sehari.\r\n\r\n\r\n\r\n\r\nKomposisi:\r\n\r\n\r\n\r\nMethyl salicylate 88%\r\n\r\nCamphor 6%\r\n\r\n\r\n\r\n\r\nKemasan botol berisi 24ml\r\n\r\n\r\nProduksi : Wellmetech Pharmaceutical Industries SDN BHD.\r\n\r\n\r\nMalaysia\r\n\r\n\r\nImportir : CV. Sinar Mutiara\r\n\r\n\r\nPOM QI 064601351\r\n\r\n\r\nOBAT LUAR TIDAK UNTUK DIMINUM","rating":0}
{"no":0,"title":"Kondom sutra merah isi 12 - alat kontrasepsi","price":"17.300","seller":"Happy Life Forever","sellerPlace":"Bandung","url":"https://www.bukalapak.com/p/kesehatan-2359/obat-suplemen/obat-obatan/19syki-jual-kondom-sutra-merah-isi-12-alat-kontrasepsi?from=&product_owner=normal_seller","sold":224,"seen":2751,"favorite":81,"updated":"2019-10-14 12:57:00","description":"Packing aman (privacy terjamin)","rating":0}
{"no":0,"title":"obat urut LONG SHAN TIE DA YAO CU","price":"100.000","seller":"DAPUR MARKET","sellerPlace":"Jakarta Barat","url":"https://www.bukalapak.com/p/kesehatan-2359/obat-suplemen/obat-obatan/jof7uc-jual-obat-urut-long-shan-tie-da-yao-cu?from=&product_owner=normal_seller","sold":666,"seen":206,"favorite":5,"updated":"2019-10-08 19:53:15","description":"(GARANSI 100% PRODUK ORIGINAL RAMUAN HERBAL)\r\n\r\nHADIR DI BUKALAPAK\r\n\r\nOBAT URUT LONG SHAN TIE DA YAO CU merupakan obat gosok/urut herbal yang terbuat dari bahan ramuan pengobatan tradisional china untuk melancarkan peredaran darah, mengobati sendi terkilir akibat olahraga atau cedera traumatis lainnya seperti terkilir/keseleo, salah urat, otot ketarik, rematik, sakit pinggang, memar, mengurangi pembengkakan dan rasa sakit.\r\n\r\nPemakaian : semprotkan/olesin pada bagian yang memar, bengkak, sakit atau di urut pada bagian yang keseleo terkilir.\r\n\r\nJangan terkena bagian kulit luka yang lecet\r\n\r\nKeterangan :\r\nAwas obat keras\r\nkhusus pemakaian luar !!!\r\nTidak boleh di minum.\r\n\r\nbarang sesuai di gambar thanks.","rating":0}
{"no":0,"title":"Angong Niuhuang Wan","price":"1.950.000","seller":"yaris store","sellerPlace":"Malang","url":"https://www.bukalapak.com/p/kesehatan-2359/obat-suplemen/obat-obatan/1kliz5y-jual-angong-niuhuang-wan?from=&product_owner=normal_seller","sold":91,"seen":50,"favorite":0,"updated":"2019-09-10 17:42:06","description":"Angong Niuhuang Wan berkhasiat untuk meningkatkan daya tahan tubuh, meningkatkan sistem syaraf, dan melancarkan peredaran darah. Resep Rahasia Angong berasar dari jaman Qing Dinasti. Angong telah diproduksi oleh Beijing Tong Ren Tang Lebih dari ratusan tahun. Karena kualitasnya yang luar biasa dan khasiatnya yang sangat mandjur Angong Niuhuang Wan mendapatkan penghargaan Medali emas untuk \"Best Quality Product\" pada tahun 1974 dan 1994 oleh pemerintah China.\r\n\r\nKhasiat Kegunaan:\r\n- Untuk mengatasi stroke\r\n- Memulihkan kesehatan pasca stroke\r\n- Menurunkan demam dan suhu tubuh tinggi dengan cepat\r\n- Mengatasi edema otak, epilepsi, pendarahan otak, radang selaput otak.\r\n- Menurunkan demam yang tinggi pada anak maupun orang dewasa (apabila dalam 3 hari demam tidak turun segera hubungi dokter)\r\n- Mencegah atau menghilangkan kejang - kejang akibat panas yang tinggi, stroke atau radang selaput otak.\r\n- Memulihkan kesadaran diri atau koma akibat stroke dan panas yang tinggi\r\n- Kecelakaan atau benturan pada otak seperti : menghentikan pendarahan pada otak, mengurangi edema pada otak (cairan diotak), dan mengatasi gegar otak.\r\n- Menyembuhkan berbagai penyakit serebrovaskular akut seperti randang selaput otak dengan efektif dan tidak ada efek samping berbahaya.\r\n- Melancarkan peredaran darah dengan menghacurkan bekuan darah atau darah yang menggumpal.","rating":0}
{"no":0,"title":"Obat Tumor Ganas | Sari Minyak Buah Merah Papua asli 125Ml","price":"205.000","seller":"Bambang Hadi Siswanto","sellerPlace":"Jakarta Barat","url":"https://www.bukalapak.com/p/kesehatan-2359/obat-suplemen/obat-obatan/16nr8l-jual-obat-tumor-ganas-sari-minyak-buah-merah-papua-asli-125ml?from=&product_owner=normal_seller","sold":149,"seen":4277,"favorite":108,"updated":"2019-10-15 12:56:18","description":"Minyak Buah Merah Papua Asli adalah yang bahan dasarnya Buah Merah Asli Papua bukan dari daerah lain. PT. PRIMA SOLUSI MEDIKAL MENJAMIN 100% Minyak buah merah kami ASLI - Sudah melalui uji klinis, BPOM, LIPI dan MUI Obat Minyaik buah Papua sangat ampuh untuk obat: MIOM, KISTA, Hipertensi, Stroke, Kolesterol, HIV AIDS, Jantung dslb.\r\n\r\nBanyak yang sembuh dan Cocok, jangan ragu2 untuk order. Terima Kasih. \r\n\r\nKhasiat Minyak Buah Merah Papua: \r\n1. Obat Stroke, Syaraf lumpuh, wajah peyot pasca stroke, tangan dan kaki tidak bisa gerak \r\n2. Obat flek paru-paru karena merokok atau terkena virus TBC \r\n3. Obat kanker paru-paru, Paru -paru basah, batuk tidak sembuh-sembuh\r\n4. Obat Miom baik ukuran besar atau kecil sembuh tuntas\r\n5. Obat Kista baik ukuran kecil atau besar sembuh total\r\n6. Obat stamina perokok atau obat membantu memperbaiki pernafasan akibat rokok\r\n7. obat perokok berat ( obat special khusus perokok untuk membersihkan flex paru-paru dan membantu pernafasan para perokok berat)\r\n8. Obat kanker (semua jenis kanker) , obat tumor (semua jenis benjolan di tubuh) \r\n9. Obat stroke, obat jantung, lemah jantung, dada suka deg-degan\r\n9. obat kekebalan tubuh biar tidak mudah sakit dan tertular virus\r\n10. obat meningkatkan stamina dan vitalitas baik untuk kaum pria dewasa\r\n11. obat memperbaiki system pencernaan, susah BAB \r\n12. suplemen yg sangat baik untuk kesehatan mata karena tingginya pro-vitamin A\r\n13. obat menetralisir zat-zat radikal bebas\r\n14. obat turunkan kolesterol LDL dan meningkatkan HDL\r\n15. obat menghambat pertumbuhan sel kanker dan membunuh kanker ganas\r\n16. obat memperlancar proses metabolisme tubuh\r\n10. obat meningkatkan daya tahan tubuh dan mempercepat proses penyembuhan dari sakit\r\n11. Pendamping Pengobatan Pasien HIV AIDS untuk Imunitas/kekebalan daya tahan tubuh, memblokir virus HIV dan AIDS, Meningkatkan daya tahan terhadap serangan virus, membuat gemuk kembali pasien HIV.\r\n\r\nNama Produk : MBM Minyak Buah Merah Papua (Pandanus conoideus lam)\r\nKomposisi : Pandanus conoideus lam 750mg\r\n\r\nIsi kemasan : 125Ml\r\n\r\nBUAH MERAH PAPUA ASLI HANYA DISINI! \r\nHARGA RESMI 1 BOTOL BUAH MERAH PAPUA isi 125ML ADALAH Rp. 205.000,- Jika ada yang menjual lebih murah atau lebih mahal secara tidak wajar sudah melanggar ketentuan harga resmi PT. Prima Solusi Medikal\r\n\r\n#buahmerah #buahmerahpapua #minyakbuahpapua #buahmerahasli #buahmerahpapuaasli #buahmerahwamena #obatbuahmerah #obatbuahmerahpapua #obatbuahmerahpapuaasli #stroke #miom #kista #kanker #tumor #HIV #AIDS #TBC #paru #Kolesterol #pascastroke #lumpuh #wajah #peyot #obat #buah #merah #papua #wamena #asli #perokok #kankerparu #kankerserviks #kankerrahim #kankerusus #benjolanpayudara #tumorpayudara #payudara #cancer\r\n\r\nMinyak Buah Merah kini bisa Anda beli secara Online di BUKALAPAK. \r\nMinyak Buah Merah Papua Asli adalah yang bahan dasarnya Buah Merah Asli Papua bukan dari daerah lain. KAMIN MENJAMIN 100% Minyak buah merah kami ASLI -Sudah melalui uji klinis, BPOM, LIPI dan MUI Obat Minyaik buah Papua sangat ampuh untuk obat: MIOM, KISTA, Hipertensi, Stroke, Kolesterol, HIV AIDS, Jantung dslb Banyak yang sembuh dan Cocok, jangan ragu2 untuk order. Terima Kasih. \r\n\r\nKhasiat Minyak Buah Merah Papua: \r\n1. Obat Stroke\r\n2. Obat flek paru-paru\r\n3. Obat kanker paru-paru\r\n4. Obat Miom\r\n5. Obat Kista\r\n6. Obat stamina perokok atau obat membantu memperbaiki pernafasan akibat rokok\r\n7. obat perokok berat ( obat special khusus perokok untuk membersihkan flex paru-paru dan membantu pernafasan para perokok berat)\r\n8. Obat kanker, obat tumor, obat stroke, dan obat jantung\r\n9. obat kekebalan tubuh\r\n10. obat meningkatkan stamina dan vitalitas\r\n11. obat memperbaiki system pencernaan\r\n12. suplemen yg sangat baik untuk kesehatan mata karena tingginya pro-vitamin A\r\n13. obat menetralisir zat-zat radikal bebas\r\n14. obat turunkan kolesterol LDL dan meningkatkan HDL\r\n15. obat menghambat pertumbuhan sel kanker\r\n16. obat memperlancar proses metabolisme tubuh\r\n10. obat meningkatkan daya tahan tubuh dan mempercepat proses penyembuhan dari sakit\r\n11. Pendamping Pengobatan Pasien HIV AIDS untuk Imunitas/kekebalan daya tahan tubuh.\r\n\r\nNama Produk : MBM Minyak Buah Merah Papua (Pandanus conoideus lam)\r\nKomposisi : Pandanus conoideus lam 750mg\r\n\r\nIsi kemasan : 125Ml\r\n\r\nUNTUK HASIL MAKSIMAL DISARANKAN MINUM RUTIN SELAMA 2-3 BULAN\r\n\r\nKomposisi : Pandanus conoideus lam 750mg\r\nDosis Minyak Buah Merah: \r\nPencegahan 1 sendok makan\r\nPengobatan penyakit ringan : 1 sendok makan 2-3 kali per hari\r\nPengobatan penyakit berat : 2 sendok makan 2-3 kali perhari\r\n(Konsumsi 1 jam sebelum makan atau 2 jam setelah makan)","rating":0}
{"no":0,"title":"Obat Ambien salep Wasir Dragonrear Ampuh","price":"159.000","seller":"apotek barokah","sellerPlace":"Jakarta Barat","url":"https://www.bukalapak.com/p/kesehatan-2359/obat-suplemen/obat-obatan/lj1qr-jual-obat-ambien-salep-wasir-dragonrear-ampuh?from=&product_owner=normal_seller","sold":114,"seen":5671,"favorite":205,"updated":"2019-10-14 10:36:54","description":"1 PAKET OBAT AMBEIEN/WASIR AMPUH + 1 KRIM WASIR HERBAL\r\n\r\nTanda-tanda / Gejala ambeien wasir:\r\n\r\nBiasanya Penderita Mengalami Pendarahan saat BAB\r\nPenderita Merasa Ada Ganjalan Disekitar Anus saat BAB.\r\nPenderita Akan Merasa gatal Disekitar Anus karena akibat bakteri yang membuat infeksi.\r\n\r\nProduk Dijamin 100% Original Asli!! Pengiriman Cepat !! Packing Rapih !! CHINESE ZHIGENDUAN\r\nkemasan botol isi 50 kapsul \r\nPOM TR. 063 360 411 PT. TJAHAJA BARU SURABAYA\r\n\r\nKhasiat: Membantu Menyembuhkan / Meringankan Gejala Wasir \r\nPT SINAR HERBA RADIX POM QI : 134 709 051\r\n\r\nAturan pakai :\r\n\r\nkapsul Ambien\r\nminum 2 kapsul sehari 3 kali\r\nusahakan pakai air hangat\r\n\r\nsalep\r\noleskan salep pada daerah yang terkena wasir 2 kali sehari\r\n\r\nSemua barang di Etalase Ready, Silahkan Langsung di Order aja Boss \r\n\r\nKami akan berikan yang terbaik untuk anda, Terimakasih\r\n\r\nBest Regard","rating":0}
{"no":0,"title":"obat kuat pria","price":"230.000","seller":"indriana","sellerPlace":"Jepara","url":"https://www.bukalapak.com/p/kesehatan-2359/obat-suplemen/obat-obatan/1x5z011-jual-obat-kuat-pria?from=&product_owner=normal_seller","sold":38,"seen":18,"favorite":10,"updated":"2019-10-13 07:48:01","description":"Deskripsi Herpadi Obat Herbal Kapsul Tahan Lama Anti Ejakulasi Dini\r\nBagaimana jika seorang AKTOR pemeran FILM DEWASA membocorkan Rahasianya kepada Anda? Bayangkan! Hanya dengan 3 Menit Anda meluangkan waktu untuk membaca tulisan dibawah ini. Cukup beri kami 3 Menit , dan kami akan Membongkar Rahasia para Aktor pemeran Film Dewasa yang selama ini bisa bertahan Berjam-jam dalam melangsungkan Hubungan Seks\r\n\r\nSebagai seorang pria yang sudah beristri. Kami tahu harapan terbesar Anda sebagai seorang suami adalah mampu membahagiakan dan memuaskan istri Anda. Kami yakin betul, karena kami juga pernah berada di posisi Anda. Pada saat kami berada di posisi Anda, terdapat 3 hal yang kami khawatirkan. Yaitu, tidak bisa tahan lama ketika berhubungan, hanya beberapa menit sudah ejakulasi dan istri tidak puas.\r\n\r\nKami tidak sedang mengkondisikan diri untuk berada di posisi Anda. Kami memang sungguh-sungguh berempati terhadap kondisi yang pernah kami rasakan pada saat itu. Ya, kami tahu apa yang Anda rasakan. Maka dari itulah kami sangat berempati dengan kondisi tersebut. Adanya kesamaan rasa yang Anda dan kami rasakan pada saat itu. Pada akhirnya mendorong kami untuk mencari sebuah solusi yang aman, efektif dan tentunya dengan harga terjangkau.\r\n\r\nSingkat cerita, kami yang mempunyai misi untuk mengorbitkan para pria menjadi Tangguh, Gagah dan Perkasa menemukan solusi mujarab agar para pria bisa Tahan Lama ketika Berhubungan. Adalah Herpadi, Herbal Penyembuhan Ejakulasi Dini. Obat kuat herbal ini difungsikan untuk mengatasi Ejakulasi Dini. Sebagai obat Anti Ejakulasi Dini yang aman, Herpadi ini diolah secara higienis dan kompleks. Sehingga terciptalah Obat Kuat Herbal yang bukan hanya aman, namun juga efektif dalam mengatasi Ejakulasi Dini.\r\n\r\nJika selama ini Anda hanya mampu bertahan beberapa menit saja saat melakukan penetrasi. Maka dengan Herpadi Anda bisa tahan 1-2 jam tanpa keluar sperma. Dalam kondisi ini, Anda akan diuntungkan. Karena Anda bisa memuaskan istri Anda, hingga dia orgasme berkali-kali. Selain sebagai obat herbal Anti Ejakulasi Dini. Herpadi juga mempunyai khasiat lain yang akan mendukung fungsi-fungsi seksual untuk bekerja lebih baik, sehingga ereksi yang didapat menjadi lebih besar dan juga keras.\r\n\r\n7 Alasan Kenapa Anda Harus Menggunakan Herpadi\r\nBukan hanya kami, bahkan para responden lain juga benar-benar sudah membuktikan khasiat nyata dari Herpadi. Setelah mengkonsumsi Herpadi sesuai dengan dosis dan cara penggunaan yang tepat, kami bisa bertahan bersenggama selama 1-2 jam tanpa ejakulasi.\r\n\r\nSebelum kami memasarkan secara masal, telah lebih dulu kami lakukan uji coba khasiat Herpadi untuk mengetahui berapa lama tingkat kesembuhan pasien dan seberapa besar Herpadi membantu mengatasi Ejakulasi Dini yang diderita. Baca Selengkapnya-Sejarah Obat Kuat Herbal Herpadi &amp;amp;amp;gt;&amp;amp;amp;gt;&amp;amp;amp;gt;\r\n\r\nDari apa yang kami dan para responden yang terlibat survei rasakan. Setelah mengkonsumsi Obat Kuat Herbal Herpadi, maka dapat kami simpul kan 7 alasan kenapa Anda juga harus menggunakan Herpadi.\r\n\r\nEfektif Mengatasi Ejakulasi Dini\r\nSebagai obat Anti Ejakulasi Dini, sudah barang tentu manfaat utamanya adalah mengatasi Ejakulasi Dini. Cara Mengidentifikasi Ejakulasi Dini adalah, apabila Anda sudah mengeluarkan sperma padahal istri Anda belum terpuaskan\r\nKASIAT NYATA PRODUK HERBAL HERPADI:\r\n- Mengatasi ejakulasi dini, disfungsi ereksi / impotensi\r\n- Mempertahankan ereksi agar tahan lama\r\n- Mengontrol ejakulasi yang akan terjadi\r\n- Menjadikan ereksi lebih keras dan besar\r\n- Pen-is anda akan tahan terhadap berbagai rangsangan\r\n- Membantu merangsang gairah sexsual\r\n- Ejakulasi yang terjadi akan lebih nikmat\r\n\r\nKEMASAN; BOTOL\r\nISI; 50 KAPSUL\r\nIJIN BPOM TR143377591\r\nDI PRODUKSI OLEH:\r\nCV NATURAFIT THIBBUN NABAWI-SRAGEN-INDONESIA","rating":0}
{"no":0,"title":"obat kuat oles oil hajar jahanam","price":"250.000","seller":"indriana","sellerPlace":"Jepara","url":"https://www.bukalapak.com/p/kesehatan-2359/obat-suplemen/obat-obatan/1x5pldn-jual-obat-kuat-oles-oil-hajar-jahanam?from=&product_owner=normal_seller","sold":36,"seen":26,"favorite":9,"updated":"2019-10-13 07:47:54","description":"Cara Penggunaan Readymax spray:\r\n\r\n1. Kocok botol terlebih dahulu\r\n2. Pakailah tiap kali mau berhubungan saja\r\n3. semprotkan sedikit Readymax ke kepala alat vtal lalu ratakan sampai leher, semprotkan 2 \r\nkali ke bagian bawah batang alat vital, ratakan\r\n4. Rasa hangat Readymax tidak langsung terasa dan akan terasa +- 10 menit setelah \r\npemakaian\r\n5. Tunggu minimal 45 menit. Setelah 45 menit rasa hangat akan hilang. Lalu cuci dengan sabun \r\nhingga bersih\r\n6. Readymax bisa berfungsi dengan baik setelah 45 menit, namun hasil paling baik jika \r\nmenunggu setelah 2 jam, dan Readymax masih bisa berfungsi sampai 12 jam.\r\n\r\n\r\nDetail Produk:\r\n-Nama: Readymax\r\n-kemasan: botol (lihat foto di atas)\r\n-Isi 15 ml\r\n-Ijin Edar: Depkes. RI: IKOT 352/00040/V-2.\r\n-Disertai cara pakai dalam kemasan","rating":0}
{"no":0,"title":"Lamandel Botol 200gr - meningkatkan nafsu Makan dan kecerdasan","price":"25.000","seller":"Ajwa Herbal Surabaya","sellerPlace":"Surabaya","url":"https://www.bukalapak.com/p/kesehatan-2359/obat-suplemen/obat-obatan/25byt-jual-lamandel-botol-200gr-meningkatkan-nafsu-makan-dan-kecerdasan?from=&product_owner=normal_seller","sold":208,"seen":1198,"favorite":72,"updated":"2019-10-12 13:27:13","description":"Isi: 200 gr\r\nIzin Depkes RI: POM TR. Produsen/Merk: IKOT Herba Bagoes\r\n\r\nLamandel adalah ramuan tanaman obat dengan rasa segar yang berkhasiat untuk meredakan sakit tenggorokan, gangguan amandel, dan menambah nafsu makan.\r\n\r\nLamandel juga bermanfaat untuk:\r\n- Meredakan radang tenggorokan,\r\n- Meningkatkan nafsu makan,\r\n- Meningkatkan daya tahan tubuh,\r\n- Meningkatkan konsentrasi,\r\n- Membantu meredakan batuk &amp;amp;amp;amp;amp;amp;amp;amp;amp; pilek.\r\n\r\nLamandel baik untuk balita, anak-anak, dan dewasa.\r\n\r\nKomposisi Lamandel:\r\n- Daun Pegagan,\r\n- Pecut Kuda,\r\n- Temulawak,\r\n- Gula.\r\n\r\nLamandel tersedia dalam 2 varian:\r\n- Lamandel Botol - berisi 200 gram serbuk lamandel\r\n- Lamandel Box - berisi 12 sachet siap seduh.\r\n\r\nPerhatian!!\r\nTidak cocok untuk ibu hamil","rating":0}
{"no":0,"title":"Teh daun Tin 40gr","price":"13.500","seller":"Nasir Herbal Jakarta","sellerPlace":"Jakarta Selatan","url":"https://www.bukalapak.com/p/kesehatan-2359/obat-suplemen/obat-obatan/pcsv2t-jual-teh-daun-tin-40gr?from=&product_owner=normal_seller","sold":103,"seen":561,"favorite":14,"updated":"2019-10-07 17:16:41","description":"Manfaat Buah Tin\r\n\r\nMembunuh virus, jamur dan bakteri jahat dalam tubuhMemicu pembentukan Hemoglobin atau sel darah merah\r\nMemperlancar sistem pencernaan\r\nMeningkatkan kesehatan jantung mengurangi resiko jantung koroner Membantu pertumbuhan tulang dan gigi mencegah pengeroposan dalam tulang Menurunkan nyeri pada penyakit asam urat Mengurangi sesak nafas bagi penderita asma Menstabilkan tekanan darah Mengurangi resiko kanker Dapat digunakan sebagai pengganti susuSebagai obat bagi penderita insomnia Menyeimbangkan kadar kolesterol dalam darah Mengandung zat penangkal tumor Mengontrol kandungan gula dalam darahObat untuk luka luar Menghilangkan jerawat pada wajah Dapat dijadikan masker untuk menghaluskan kulit wajahDapat dijadikan pengganti gula Sebagai obat usus dan lambung Mengandung zat antioksidan Meninggikan tubuh secara alami Mengatasi susah buang air besar Baik untuk penderita wasir dan ambeien Mengotai penyakit abses dan bisul Menangkal radikal bebas Dapat meluruhkan batu ginjalMeningkatkan sistem\r\n\r\nCara penyajian\r\nmasukan secukupnya teh faun tin ke dalam 1cangkir/gelas \r\nseduh dengan air mendidih secukupnya aduk dan tunggu hingga air berubah warna\r\nminum selagi hangat 21gelas perhari\r\nExpired date:9/2020","rating":0}
{"no":0,"title":"Teh Celup Daun Sirsak (Izin Dinkes) - UD Raya Kudus - Teh Herbal","price":"13.000","seller":"HERBAL SEHAT","sellerPlace":"Sleman","url":"https://www.bukalapak.com/p/kesehatan-2359/obat-suplemen/obat-obatan/4r7ii-jual-teh-celup-daun-sirsak-izin-dinkes-ud-raya-kudus-teh-herbal?from=&product_owner=normal_seller","sold":431,"seen":2147,"favorite":95,"updated":"2019-10-13 18:36:14","description":"Isi : 20 celup\r\n\r\nProdusen : UD Raya Kudus\r\n\r\nKhasiat daun sirsak :\r\nMembunuh sel-sel kanker tanpa mengganggu sel-sel sehat dalam tubuh\r\nMenyerang sel kanker secara aman dan efektif, tanpa rasa mual, berat badan turun, rambut rontok seperti yang terjadi pada kemotherapy\r\nMelindungi sistem kekebalan tubuh dan mencegah dari infeksi yang mematikan\r\nSecara efektif memilih target dan membunuh sel-sel jahat dari 12 tipe kanker yang berbeda seperti, kanker, Usus besar, payudara, prostat, paru-paru, pankreas, serviks, dan leukimia\r\nDalam memperlambat pertumbuhan sel kanker, daya kerjanya 10.000 kali lebih kuat dibanding andriamycin dan terapi kemo yang biasa digunakan\r\nMenambah kekebalan tubuh dan mencegah asam urat\r\nMembantu proses penyembuhan atau perawatan penyakit\r\nAnti tumor atau kanker","rating":0}
{"no":0,"title":"Kapsul kuda mesir Platinum","price":"50.000","seller":"Hg sejahtera","sellerPlace":"Depok","url":"https://www.bukalapak.com/p/kesehatan-2359/obat-suplemen/obat-obatan/z340a7-jual-kapsul-kuda-mesir-platinum?from=&product_owner=normal_seller","sold":102,"seen":1101,"favorite":21,"updated":"2019-10-14 12:12:45","description":"Harga tertera 1 BOX ISI 10 sacset @2 kapsul","rating":0}
{"no":0,"title":"ULTRA RIPPED FAF 180 CAPS ULTIMATE NUTRITION","price":"429.900","seller":"IvanZ Supplement","sellerPlace":"Jakarta Barat","url":"https://www.bukalapak.com/p/kesehatan-2359/obat-suplemen/obat-obatan/p4w9a-jual-ultra-ripped-faf-180-caps-ultimate-nutrition?from=&product_owner=normal_seller","sold":357,"seen":6147,"favorite":227,"updated":"2019-10-14 13:17:02","description":"ULTIMATE NUTRITION ULTRA RIPPED FAF 180 CAPS.","rating":0}
{"no":0,"title":"GARANSI/JAMU EMPOT EMPOT SUPER/ RAMUAN MADURA ASLI/ PELENGKAP TONGKAT AJIMAT MADURA/OBAT KEPUTIHAN/MENGEMBALIKAN OTOT KEWANITAAN","price":"60.000","seller":"deni ardian","sellerPlace":"Bandar Lampung","url":"https://www.bukalapak.com/p/kesehatan-2359/obat-suplemen/obat-obatan/3lrv3-jual-garansi-jamu-empot-empot-super-ramuan-madura-asli-pelengkap-tongkat-ajimat-madura-obat-keputihan-mengembalikan-otot-kewanitaan?from=&product_owner=normal_seller","sold":314,"seen":12093,"favorite":332,"updated":"2019-10-12 15:04:52","description":"KUALITAS BAGUS.ORIGINAL BUKAN YANG PALSU..REAKSI OKE PUNYA...BUKAN YANG ABAL ABAL ATAU YANG PIL KECIL KECIL..INI YANG KAPSUL EMPOT SUPER PUNYA..LIHAT TESTIMONI RIBUAN ORANG SUDAH MEMBUKTIKAN KEAMPUHANNYA...\r\n\r\nJamu Empot Empot Super Ramuan Madura Asli Pelengkap Tongkat Ajimat Madura.\r\n\r\nHARGA EMPOT EMPOT SUPER 60 RIBU/BOTOL\r\n\r\nGARANSI UANG KEMBALI JIKA PRODUK KAMI TERBUKTI PALSU. \r\n\r\nUNTUK PENGIRIMAN JANGAN KHAWATIR KARENA PACKING KAMI SANGAT RAPI SEHINGGA TIDAK AKAN PECAH/RUSAK DALAM PENGIRIMAN. JIKA RUSAK AKAN KAMI GANTI DENGAN YANG BARU.\r\n\r\nEMPOT SUPER \r\n\r\ntestimoni empot super\r\n\r\n\r\nTESTIMONI EMPOT SUPER\r\n\r\nSelain tongkat ajimat madura yang fenomenal,saat ini kami juga menyediakan jamu empot empot super madura yang sangat dahsyat dan fantastis,karena Jamu Empot Empot Super Ramuan Madura ini bisa menjadi pelengkap ramuan Tongkat Ajimat Madura,empot empot madura ini,juga bisa untuk pengganti tongkat ajimat madura,bagi mereka yang masih perawan atau gadis,dan tidak mungkin menggunakan tongkat ajimat madura,karena cara pemakaian tongkat madura dimasukan kedalam vagina,maka empot-empot madura ini mampu menjadi solusinya,khasiatnya sama dengan tongkat ajimat madura,mencegah keputihan dan lendir yang berlebihan,mengencangkan kembali otot-otot kewanitaan yang mulai mengendur setelah melahirkan,dan yang paling dahsyat,bisa membuat dinding otot kewanitaan berdenyut-denyut sehingga membuat suami atau pasangan anda ketagihan Empot Empot Super Ramuan Madura ini sudah terdaftar di DEP KES,sehingga anda tidak perlu takut atau ragu untuk mencoba kedahsyatan Jamu Empot Empot Super Ramuan Madura ini.\r\nAnda pasti akan takjub setelah meminum Jamu Empot Empot Super Ramuan Madura ini,karena vagina bisa mencengkram serta menjadi keset,selain itu Jamu Empot Empot Super Ramuan Madura ini juga mampu menghilangkan penyakit kewanitaan,dan membersihkan organ dalam -lendir pada vagina akan keluar setelah meminum Jamu Empot Empot Super Ramuan Madura ini dan otomatis vagina jadi bersih dan tidak menimbulkan bau yang tidak sedap.\r\n\r\nJamu Empot Empot Super Ramuan Madura ini tanpa efek samh semua usia,baik yang sudah menikah ataupun yg masih gadis atau perawan. Jamu Empot Empot Super Ramuan Madura ini membuat pasangan atau suami anda menjadi ketagihan dan betah saat berhubungan intim.\r\n\r\nUntuk wanita yang baru melahirkan,Jamu Empot Empot Super Ramuan Madura ini sangat cocok,karena mampu membuat vagina menjadi rapet,legit dan keset,sehingga anda tidak perlu khawatir suami anda akan mencari wanita lain.Apalagi jika anda juga menggunakan TONGKAT AJIMAT MADURA,pasti hasilnya akan lebih dahsyat. Jamu Empot Empot Super Ramuan Madura ini 100% Aman,tanpa efek samri bahan alami,bukan dari bahan kimia\r\n\r\nKemasan : 1 botol berisi 60 kapsul\r\n\r\nTESTIMONI EMPOT AYAM SUPER 1\r\n\r\nTESTIMONI EMPOT AYAM SUPER 2\r\n\r\nCara Pakai JAMU EMPOT SUPER :\r\n\r\nJamu Empot Empot Super Ramuan Madura ini diminum Dua kali sehari pagi dan sore,langsung 3 kapsul sekali minum.\r\n\r\nKHASIAT Jamu Empot Empot Super Ramuan Madura Asli\r\n* memperkuat otot-otot vagina\r\n* membuat denyut-denyut istimewa pada vagina\r\n* mengerasakan otot vagina\r\n* manambah dan meningkatkan gairah seks.\r\n* menghilangkan bau bau yang tidak sedap.\r\n* membuat vagina bisa bergetar empot empot dan si pria pasti suka menikmatinya.","rating":0}
{"no":0,"title":"Neo Rheumacyl cream merah","price":"11.500","seller":"Toko Obat DIZA","sellerPlace":"Jakarta Timur","url":"https://www.bukalapak.com/p/kesehatan-2359/obat-suplemen/obat-obatan/bdvbmo-jual-neo-rheumacyl-cream-merah?from=&product_owner=normal_seller","sold":88,"seen":477,"favorite":7,"updated":"2019-10-14 16:39:29","description":"Neo Rheumacyl Cream Muscle &amp;amp;amp;amp; Joint - 30 gr merupakan cream yang dapat meredakan nyeri otot, nyeri sendi, keseleo dan pegal-pegal akibat aktivitas sehari-hari atau olah raga. Panas pada cream ini dapat meresap ke dalam otot sehingga memberi efek melenturkan otot.","rating":0}
{"no":0,"title":"BIO 7 Seven","price":"200.000","seller":"khazanahherbal","sellerPlace":"Bekasi","url":"https://www.bukalapak.com/p/kesehatan-2359/obat-suplemen/obat-obatan/3vb23z-jual-bio-7-seven?from=&product_owner=normal_seller","sold":424,"seen":3605,"favorite":79,"updated":"2019-10-13 18:11:03","description":"BIO7 (BIOSEVEN) adalah ramuan jamu herbal 100% alami dari hasil proses ekstraksi rempah-rempah nusantara dengan bioteknologi nano.\r\n\r\nSaran-saran :\r\n1. Untuk selalu melakukan Medical ChekUp secara rutin agar bisa terkontrol dan mengetahui perkembangan penyakit yg diidap.\r\n2. Bandingkan hasil dianosa Medis sebelum dan sesudah Mengkonsumsi BIO7.\r\n\r\nRekomendasi bahwa BIO7 itu Herbal Ajaib dan mujarab sebagai :\r\n1. Antioksidan\r\n2. Antibody\r\n3. Anti Kanker\r\n4. Anti Depresan ( stres )\r\n5. Fitokimia\r\n6. Fitonutrient ( Asupan Nutrisi organ &amp;amp;amp;amp;amp;amp;amp;amp; sel tubuh )\r\n7. Mengandung PREBIOTIK\r\n8. Mengandung DHA ( kecerdasan anak )\r\n9. Mengandu Vitamin A, D, E, K, B6, B12 dan Vitamin lainnya.\r\n10. Pengobatan Menyeluruh seluruh Organ Tubuh Manusia. ( Waktu yang Lama tp Pasti )\r\n11. Sumber Vitalitas Organ &amp;amp;amp;amp;amp;amp;amp;amp; Tubuh\r\n12. dan masih banyak manfaat yg Terkandung .\r\n\r\nKOMPOSISI BIO7 :\r\n\r\n1. Oryza Sativa Glutinosa 375 mg\r\n2. Saccharum Officinarum 375 mg\r\n3. Curcuma xanthorriza Rhizoma 150 mg\r\n4. Pandanus Amaryllfolius 75 mg\r\n5. Uncaria Gambir Folium 75 mg\r\n6. Nigella Sativa Semen 75 mg\r\n7. Syzygiu Polyanthum Folium 75 mg\r\n8. Rose (flos, folium) 30 mg\r\n9. Chrysantemum (flos,folium) 30 mg\r\n10. Garcinia Mangostana Percarpium 75 mg\r\n11. Ragi 66 mg\r\na. Saccharum Officinarum 20 mg\r\nb. Imperata Radix 18 mg\r\nc. Curcuma Xanthorrhiza Rhizoma 14 mg\r\nd. Oryza Sativa 14 mg\r\ne. Alli Sativi Bulbus 2 mg\r\nf. Aqua 15 ml\r\n\r\nATURAN PAKAI :\r\nDEWASA : 15 TETES 3X SEHARI / SEBELUM MAKAN ( PERUT KOSONG )\r\nANAK-ANAK : 3-5 TETES 2 X SEHARI","rating":0}
{"no":0,"title":"Keto conazole cream salep jamur","price":"6.000","seller":"Toms Shop","sellerPlace":"Jakarta Barat","url":"https://www.bukalapak.com/p/kesehatan-2359/obat-suplemen/obat-obatan/18aahim-jual-keto-conazole-cream-salep-jamur?from=&product_owner=normal_seller","sold":102,"seen":318,"favorite":11,"updated":"2019-10-14 16:52:20","description":"Ketoconazole adalah obat yang digunakan untuk mengatasi infeksi jamur pada kulit. Misalnyakurappada kaki, badan, atau lipat paha, panu, dermatitis seboroik. Salep antijamur ini mampu membunuh jamur penyebab infeksi, sekaligus mencegahnya tumbuh kembali.","rating":0}
{"no":0,"title":"Hufagrip Pilek","price":"15.000","seller":"Toko Obat DIZA","sellerPlace":"Jakarta Timur","url":"https://www.bukalapak.com/p/kesehatan-2359/obat-suplemen/obat-obatan/bme1hm-jual-hufagrip-pilek?from=&product_owner=normal_seller","sold":65,"seen":330,"favorite":7,"updated":"2019-09-22 21:46:20","description":"Hufagripp\r\nparacetamol,ephedrin HCl,chlorpheniramini maleas,glycerylis gualacolas.\r\n\r\nIntroduksi :\r\nHufagripp,larutan dengan aroma khas yang disukai anak-anak; berfungsi menghilangkan flu; tidak mengandung senyawa salicyl yang menyebabkan tukak lambung; kombinasi anti pyretika, anti histaminika dan spasmolitika; berupa syrup; bekerja lebih cepat dan lebih tepat; disediakan khusus untuk anak-anak.\r\n\r\nKomposisi :\r\nTiap sendok teh (5 ml) mengandung :\r\nParacetamol 120 mg\r\nEphedrin HCI 5 mg\r\nChlorpheniramini maleas 2 mg\r\nGlycerylis guaiacolas 50 mg\r\n\r\nIndikasi :\r\nMenghilangkan gejala flu yang disertai panas,sakit kepala,allergi,pilek dan batuk.\r\n\r\nAturan Pakai:\r\nDibawah 2 tahun : 3 x sehari 1/2 sendok teh.\r\n2-6 tahun : 3 x sehari 1 sendok teh.\r\n6 12tahun : 3 x sehari 2 sendok teh.","rating":0}
{"no":0,"title":"Kuku bima Tribulus NF","price":"58.000","seller":"Sido Muncul Store","sellerPlace":"Jakarta Selatan","url":"https://www.bukalapak.com/p/kesehatan-2359/obat-suplemen/obat-obatan/1ydvbs-jual-kuku-bima-tribulus-nf?from=&product_owner=normal_seller","sold":160,"seen":2494,"favorite":62,"updated":"2019-09-30 18:11:23","description":"Suplemen herbal bagi pria dengan tambahan ekstrak tribulus untuk meningkatkan penampilan fisik, meningkatkan hormon testoteron secara alami, dan memperlamcar peredaran darah, sehingga menambah vitalitas. \r\n\r\nKomposisi :\r\nEkstrak Tribulus terrestris 300 mg, Panax Ginseng 40 mg, Eurycomae Radix 25 mg, Hippocampus 8 mg, Zingiberis Rhizoma 20 mg, dan bahan-bahan lain sampai dengan 650 mg per kapsul. \r\n\r\nManfaat :\r\n Mengatasi masalah-masalah seksual pada pria, misalnya: ejakulasi dini, disfungsi ereksi, dan kurang tenaga.\r\n Meningkatkan rangsangan seksual.\r\n Meningkatkan vitalitas dan keperkasaan.\r\n Meningkatkan kualitas sperma.\r\n Meningkatkan kesuburan.\r\n\r\nAturan minum :\r\n Untuk mengatasi masalah khusus pria: 2 kapsul setiap malam.\r\n Untuk meningkatkan kemampuan pria: 1 kapsul 2 x sehari selama diperlukan.\r\n Untuk menjaga kesehatan: 1 kapsul sehari selama diperlukan.\r\n\r\nKemasan :\r\nBotol isi 40 kapsul transparan.","rating":0}
{"no":0,"title":"Obat Jantung Kolesterol Tensi Darah Tinggi Paling Ampuh Jakotens Asli Dan Alami","price":"35.500","seller":"Obat Herbal Original","sellerPlace":"Tangerang Selatan","url":"https://www.bukalapak.com/p/kesehatan-2359/obat-suplemen/obat-obatan/9r8qbl-jual-obat-jantung-kolesterol-tensi-darah-tinggi-paling-ampuh-jakotens-asli-dan-alami?from=&product_owner=normal_seller","sold":6,"seen":122,"favorite":4,"updated":"2019-10-01 11:38:02","description":"Obat Jantung Kolesterol paling Ampuh hampir sama dengan jamkho yang harganya jauh lebih mahal tapi khasiat sama saja.\r\n\r\n\r\nKolesterol (lemak terlalu jenuh) merupakan salah satu zatyang sangat penting bagi tubuh, namun lemak jenuh ini sangat berbahaya jika kolesterol dalam tubuh jumlahnya sangat tinggi atau berlebihan karena dapat memicu penyakit lain, seperti penyakit jantung, stroke, darah tinggi, dan lain-lain.\r\n\r\n\r\nJika anda sedang mencari obat darah tinggi, jantung dan kolesterol yang bisa memberikan kesembuhan total, tidak ada efek samping, dan tidak memberikan ketergantungan maka anda berada pada tempat yang tepat karena disini kami menyediakan obat herbal khusus untuk menyembuhkan penyakit kolesterol, darah tinggi, dan jantung yang telah teruji dengan riset dan formula terbaik,Obat herbal kolesterolini terbuat dari bahan alami 100% herbal tanpa bahan kimia yang kini hadir dan tersedia untuk pengobatan penderita kolesterol, kesehatan yang sangat ampuh dan manjuruntuk pengobatan herbal karena telah teruji klinis dan terbukti khasiatnyasehingga MaduJakotensmenjadi pilihan yang sangat tepat sebagai obat herbal kolesterol, jantung, dan darah tinggi (hipertensi).\r\n\r\n\r\nkhasiat dan Kegunaan MaduJakotens :\r\n\r\n\r\nMembantu melancarkan sirkulasi darah\r\n\r\n\r\nMengurangi kadar lemak dalam darah\r\n\r\n\r\nMenurunkan kadar gula dalam darah\r\n\r\n\r\nMembantu menormalkan tekanan darah\r\n\r\n\r\nKomposisi Kapsul Jakotens :\r\n\r\n\r\nCentella AsiaticaCitrus Aurantifolia FrejusCurcuma Xarehoriza RhizomaAllium Sativum BulbusGynura Segetum FoliumAndrographis paniculataZingiber Officinale RhizomaSanchus Arvensis\r\n\r\n\r\nAnjuran :\r\n\r\n\r\nPerbanyak minum air putih dan menjaga olah raga secara teratur.\r\n\r\n\r\nAturan Pakai :\r\n\r\n\r\n1-2 sendok makan di campur dengan air -/+ 150ml, aduk hingga rata.\r\n\r\n\r\ndiminum sehari 2 kali sebelum dan sesudah makan.\r\n\r\n\r\nHalal LP-POM MUI No. 760410\r\n\r\n\r\nNetto 100ml","rating":0}
{"no":0,"title":"Scount Penyubur sperma pria memperbanyak menyuburkan","price":"230.000","seller":"Rumah Herbal","sellerPlace":"Jakarta Selatan","url":"https://www.bukalapak.com/p/kesehatan-2359/obat-suplemen/obat-obatan/tpnd9u-jual-scount-penyubur-sperma-pria-memperbanyak-menyuburkan?from=&product_owner=normal_seller","sold":20,"seen":205,"favorite":2,"updated":"2019-10-14 15:19:11","description":"PROMO HARI INI !!!\r\n\r\n- BELI 1 - GRATIS 1 Kopi Virex 