{"no":0,"title":"Gambir Kalimantan Padat 100% Asli","price":"25.000","seller":"Borneo Accessories","sellerPlace":"Balikpapan","url":"https://www.bukalapak.com/p/kesehatan-2359/obat-suplemen/obat-obatan/s62oj-jual-gambir-kalimantan-padat-100-asli?from=&product_owner=normal_seller","sold":122,"seen":2770,"favorite":76,"updated":"2019-10-14 10:57:01","description":"Gambir Kalimantan padat 100% asli\r\nBahan : Getah Kayu Gambir Kalimantan\r\nUkuran : +/- 8x8x2mm\r\n1 keping bisa dipakai 10-15 kali\r\nPaket berisi 1 keping Gambir Kalimantan \r\n\r\nGambir Kalimantan padat adalah obat oles khusus untuk pria paling terkenal di pulau Kalimantan. Sejak dahulu telah di pakai oleh suku Dayak Kalimantan dan masyarakat Serawak Malaysia. Terbuat 100% dari bahan alami Getah Kayu Gambir yang didapatkan dari pedalaman hutan Kalimantan.\r\n\r\nManfaat dari Gambir Kalimantan :\r\n- Mampu membuat pria tampil perkasa dan tahan lama di ranjang sampai berjamjam lamanya\r\n- Membantu mengatasi masalah lemah syahwat dan membuat Mr-P lebih keras\r\n- Sangat dianjurkan bagi pria yang memiliki nafsu besar akan tetapi tenaga kurang\r\n- Dapat menahan sperma keluar cepat sewaktu berhubungan seksual\r\n- Menjaga keharmonisan hubungan pasangan suami istri\r\n\r\nGambir Kalimantan sangat aman di pakai karena mengandung 100% bahan alami tanpa bahan kimia. Pemakaiannya juga sangat mudah, cukup di oles di bagian alat vital sebelum berhubungan intim sehingga aman dan bebas efek samping. \r\n\r\nCara Pemakaian:\r\n1. Rendam kepingan Gambir dengan 2-5 tetes air hingga air tampak keruh \r\n2. Gosok-gosok di telapak tangan\r\n3. Oleskan secara merata dari kepala hingga pangkal Mr-P\r\n3. Tunggulah kira-kira sekitar 15-20 menit hingga terasa hangat\r\n4. Setelah itu cuci Mr-P dengan sabun dan bilas dengan air biasa sampai bersih\r\n5. Anda sudah siap bersenggama dan menikmati hubungan seksual \r\n6. Jika durasi hubungan intim dirasa sudah cukup namun anda belum juga ejakulasi, minum air putih untuk mempercepat keluarnya sperma\r\n7. Reaksi obat efektif hingga 3-5 jam setelah proses pengolesan \r\n\r\nTidak dianjurkan apabila alat vital sedang iritasi atau luka. OBAT LUAR, HANYA UNTUK DIOLES, BUKAN UNTUK DIMINUM!!\r\n\r\nORDER SEKARANG &amp;amp; BUKTIKAN KHASIATNYA!! TIDAK LOYO, KERAS &amp;amp; TAHAN LAMA, TANPA EFEK SAMPING","rating":0}
{"no":0,"title":"Wantong-Wan Tong-Ser-buk-Jamu-Obat-Pegal Linu-Reumatik-Asam Urat-Asli","price":"90.000","seller":"AlgazSHop","sellerPlace":"Bekasi","url":"https://www.bukalapak.com/p/kesehatan-2359/obat-suplemen/obat-obatan/1gx9ctr-jual-wantong-wan-tong-ser-buk-jamu-obat-pegal-linu-reumatik-asam-urat-asli?from=&product_owner=normal_seller","sold":8,"seen":248,"favorite":5,"updated":"2019-10-14 23:30:28","description":"W-A-NT-O-N-G S-ER-BU-K KEMASAN BARU PER OKTOBER 2018, KARENA KEMASAN LAMA SUDAH CUKUP BANYAK DIPALSUKAN SEHINGGA PABRIK MEMBUAT KEMASAN BARU YANG LEBIH EKSLUSIF. SEBAIKNYA HINDARI PEMBELIAN KEMASAN LAMA KARENA ADA RESIKO ANDA MENDAPATKAN BARANG PALSU.\r\n\r\nJamu W-A-NT-O-NG-ser-buk asli 100% kemasan baru dijamin 100% asli, kemasan baru seperti yang pada foto.. ciri wantong serbuk asli sebagai berikut:\r\n- memiliki segel hologram herbalindo\r\n- ada gosokan berhadian (jika mendapatkan hadiah bisa menukarkan kpd kami)\r\n- pada sachet terdapat ciri keaslian seperti pada gambar.\r\n\r\nUntuk lebih jelas bisa melihat pada gambar. \r\n\r\n\r\nKhasiat dari W-a-n-To-ng-Serbuk :\r\n- Mengobati Asam Urat\r\n- Rheumatik\r\n- Pegel Linu\r\n- Sakit Pinggang\r\n- Pundak dan Leher Terasa Kaku dan Sakit\r\n- Kaki & Tangan Kesemutan \r\n\r\n\r\nATURAN MINUM :\r\n- Minum secara teratur 2x1 bungkus sehari, diseduh dengan 100ml air panas, lalu aduk hingga rata.\r\n- Dapat dicampur dengan Madu dan Jeruk Nipis.\r\n\r\nKEMASAN : 1 Box isi 30 sachet @ 7gr\r\nPRODUKSI : PJ HERBALINDO SM -INDONESIA\r\n\r\nPERHATIAN!! hindari makanan yang berupa kacang-kacangan, jeroan, labu siam serta kurangan minum kopi dan merokok .supaya penyakit yang anda derita cepat sembuh.\r\n\r\nPANTANGAN ! Tidak dianjurkan bagi Wanita Hamil dan Menyusui.","rating":0}
{"no":0,"title":"Obat Asma Obat Flek Obat Sesak Nafas Paling Laris Madu Asmafas","price":"18.500","seller":"Obat Herbal Original","sellerPlace":"Tangerang Selatan","url":"https://www.bukalapak.com/p/kesehatan-2359/obat-suplemen/obat-obatan/a3q2y7-jual-obat-asma-obat-flek-obat-sesak-nafas-paling-laris-madu-asmafas?from=&product_owner=normal_seller","sold":45,"seen":600,"favorite":11,"updated":"2019-10-15 04:58:57","description":"Obat asma paling laris obat batuk obat sesak nafas terbaik madu asmafas.\r\n\r\n\r\nMadu Asmafas adalah madu herbal seperti jahe merah, ekstrak mint nigellasativa & herbal lainnya hingga 100% dengan komposisi yang tepat sehingga mempunyai khasiat dengan spesifikasi khusus membantu mengatasi gangguan pernafasan, paru-paru, asthma & sesak nafas.\r\n\r\n\r\nInsya Allah Berkhasiat :\r\n\r\n\r\n\r\nMembantu meringankan asthma dan sesak nafas\r\n\r\nMemperbaiki kerusakan/obstruksi, bronkhi/anti radang tenggorokan yang disebabkan penyakit bronkitis\r\n\r\nMengurangi dan membuang lendir/ekspektoran\r\n\r\nMeningkatkan daya tahan tubuh dalam melawan alergi/imunostimulator\r\n\r\n\r\n\r\n\r\nKomposisi :\r\n\r\n\r\nMadu, Habbatussauda, Sari Kurma, Propolis, Jahe Merah (Zingiber Officinale), selaginella, Ekstrak Mint dan herbal lain hingga 100%.\r\n\r\n\r\nAturan Minum :\r\n\r\n\r\n1 th-5 th : 1 sdt 2x sehari\r\n\r\n\r\n5 th-12 th : 1 sdm 3x sehari\r\n\r\n\r\n12 th keatas : 2-3 sdm 3x sehari\r\n\r\n\r\nNetto : 150 gram\r\n\r\n\r\nBerat Pengiriman : 230 gram\r\n\r\n\r\nDepkes. 2073\r\n\r\n\r\nProduksi :\r\n\r\n\r\nCV. Jasmine Food Internasional\r\n\r\n\r\nBekasi - Indonesia","rating":0}
{"no":0,"title":"Minuman Kesehatan Untuk Mengurangi Kadar Kolesterol - Lemona Original Asli - Minuman Sehat Alami - Kolesterol Langsung Turun","price":"238.000","seller":"Henhen Asix Store","sellerPlace":"Bekasi","url":"https://www.bukalapak.com/p/kesehatan-2359/obat-suplemen/obat-obatan/qho5hh-jual-minuman-kesehatan-untuk-mengurangi-kadar-kolesterol-lemona-original-asli-minuman-sehat-alami-kolesterol-langsung-turun?from=&product_owner=normal_seller","sold":6,"seen":216,"favorite":3,"updated":"2019-10-15 16:41:39","description":"Ready Stock ZHU COriginal Asli\r\nBeli 1 Free gantungan Kunci\r\nBeli 5 Free Tumbler\r\n\r\nHidup Sehat Jangan Ditunda.\r\nBersama Lemona Hidup Sehat Alami.\r\n\r\nApa saja sih manfaat sari lemon murni dari ZHU C??? Kepoin yukkk ...\r\n1. Menurunkan berat badan\r\n2. Menurunkan kolesterol\r\n3. Mengobati asam urat\r\n4. Membersihkan racun hati\r\n5. Masker lemon dapat mencerahkan kulit kusam\r\n6. Mengatasi kulit kering\r\n7. Mencegah terjadinya kanker\r\n\r\nSelain itu ZHU C 100% murni sari lemon juga aman untuk Ibu Hamil dan Ibu menyusui. ini beberapa manfaatnya diantaranya : \r\n1. Pasokan asi yang sehat\r\n2. Mencegah pencernaan bayi\r\n3. Bagus untuk kulit\r\n4. Asi yang bersih untuk bayi\r\n5. Meredakan sakit tenggorokan.","rating":0}
{"no":0,"title":"Obat Impotensi Kapsul Climax","price":"65.000","seller":"Pranata Top","sellerPlace":"Jakarta Pusat","url":"https://www.bukalapak.com/p/kesehatan-2359/obat-suplemen/obat-obatan/o57ros-jual-obat-impotensi-kapsul-climax?from=&product_owner=normal_seller","sold":7,"seen":145,"favorite":4,"updated":"2019-10-11 13:51:02","description":"Climax,Obat Kuat dan Vitalitas Alami\r\n\r\nClimax, Obat Kuat Alami, Herbal untuk impotensi, Obat Lemah Syahwat Alami, Power dan vitalitas. Obat untuk Kebugaran ini mengandung zat-zat yang bersifat tonic, analeptic, adaptogen dan aphrodisiak. Obat Aphrodisiak Alami Yaitu zat yang berguna untuk menghasilkan tenaga, menyegarkan tubuh, meningkatkan stamina dan vitalitas tubuh, serta menanggulangi problema seksualitas. Insya Allah.\r\n\r\n\r\n\r\nKomposisi Obat Kuat Alami:\r\n\r\nNigella sativa, Pure Honey, Gingseng, Zingiber officinale, Piper ningrum, Pimpinella pruatjan Molk, Kandungan herba lain\r\n\r\n\r\nVolume/ isi Obat Kuat Alami:\r\n\r\n83 kapsul @500mg\r\nSertifikatCangkang Kapsul Halal LPPOM-MUI:\r\nMUI No. 00140012700600\r\n\r\nManfaat Obat Kuat Alami:\r\n\r\nMelancarkan peredaran darah ke alat vital.\r\nMeningkatkan stamina dan vitalitas.\r\nMembantu mengobati frigiditas, impotensi dan gangguan seksual.\r\nMembantu meningkatkan kualitas hubungan suami istri.\r\nMenjaga kebugaran dan kesehatan.\r\n\r\nAturan pakai Obat Kuat Alami:\r\n\r\nSuplemen harian: 2x1-2 kapsul/hari\r\n\r\nKebutuhan khusus : 2-3 kapsul di minum 15 menit sebelum berhubungan\r\n\r\nLebih terasa khasiatnya jika kapsul dibuka, campur dengan 1 gelas air hangat, madu dan telur.\r\n\r\nKapsul diminum 1 jam sebelum makan","rating":0}
{"no":0,"title":"Jamu Jakban Kapsul Jakarta Bandung Asli Original Jamu Kuat Tahan Lama","price":"55.000","seller":"AlgazSHop","sellerPlace":"Bekasi","url":"https://www.bukalapak.com/p/kesehatan-2359/obat-suplemen/obat-obatan/qq2sd4-jual-jamu-jakban-kapsul-jakarta-bandung-asli-original-jamu-kuat-tahan-lama?from=&product_owner=normal_seller","sold":104,"seen":2688,"favorite":49,"updated":"2019-10-13 22:32:37","description":"Harga Di ATas Adalah Harga 1 Box Isi 10 Sachet 1 Sachet 2 Kapsul.\r\nProduk Asli Original\r\nJamu Jakarta Bandung adalah jamu untuk penambah stamina dan energi tubuh, terkenal dengan sebutan jamu JAKBAN, produksi CV. Jamu Moro Sehat Banjarnegara, terbuat dari tumbuhan herbal alami, seperti : Sanrego, ginseng, Maca, Dll.\r\n\r\nSilahkan Di Order Gan, Barang Ready Stock, Untuk Khasiat Jangan Di Ragukan Lagi, Dijamin Kuat Dan Tahan Lama. Barang Yang Kami Jual 100% Original. Khasiatnya Bakal terbukti Setelah Mencoba Produk Tersebut.","rating":0}
{"no":0,"title":"kapsul semut afrika original - jamu kapsul semut afrika 9","price":"75.000","seller":"AlgazSHop","sellerPlace":"Bekasi","url":"https://www.bukalapak.com/p/kesehatan-2359/obat-suplemen/obat-obatan/17en7ez-jual-kapsul-semut-afrika-original-jamu-kapsul-semut-afrika-9?from=&product_owner=normal_seller","sold":2,"seen":252,"favorite":2,"updated":"2019-10-03 15:54:19","description":"Isi 9 Sachet. 1 Sachet 2 Kapsul.\r\n\r\n\r\nSilahkan Di Order Gan, Barang Ready Stock, Untuk Khasiat Jangan Di Ragukan Lagi, Dijamin Kuat Dan Tahan Lama. Barang Yang Kami Jual 100% Original. Khasiatnya Bakal terbukti Setelah Mencoba Produk Tersebut.","rating":0}
{"no":0,"title":"Jamu-Kapsul-Semut-Afrika-Original-Africa-Blackant-Asli9","price":"75.000","seller":"AlgazSHop","sellerPlace":"Bekasi","url":"https://www.bukalapak.com/p/kesehatan-2359/obat-suplemen/obat-obatan/s4fpbc-jual-jamu-kapsul-semut-afrika-original-africa-blackant-asli9?from=&product_owner=normal_seller","sold":45,"seen":1924,"favorite":24,"updated":"2019-10-10 18:56:57","description":"Pastikan Produk Yang anda Beli Original \r\nJangan Tergiur Harga Murah Tapi Kesehatan anda Menjadi Taruhannya \r\n\r\nIsi 9 Sachet. 1 Sachet 2 Kapsul total 18 kapsul \r\n\r\nPastikan Obat Yang Anda Konsumsi ORIGINAL \r\n\r\nReady Juga Yang Isi 15 Sachet @ 30 Kapsul, Cek Aja Lapak Kami.\r\n\r\nDemi Kesehatan Anda Gunakan Obat Herbal yang Original Berkualitas Terpercaya\r\n\r\nSilahkan Di Order Aja, Barang Ready Stock, Untuk Khasiat Jangan Di Ragukan Lagi, Dijamin Kuat Dan Tahan Lama. Barang Yang Kami Jual 100% Original. Khasiatnya Bakal terbukti Setelah Mencoba Produk Tersebut.","rating":0}
{"no":0,"title":"gamat Gold g","price":"90.000","seller":"Herbal ORIGINAL","sellerPlace":"Depok","url":"https://www.bukalapak.com/p/kesehatan-2359/obat-suplemen/obat-obatan/3ltz17-jual-gamat-gold-g?from=&product_owner=normal_seller","sold":24,"seen":1175,"favorite":24,"updated":"2019-07-25 19:40:01","description":"Banyak jenis penyakit yang terobati dengan lebih cepat melalui konsumsi rutin jelly gamat gold G atau see cucumber dan berikut adalah beberapa gangguan kesehatan yang herba tripang ini sanggup menjadi obatnya yaitu:\r\n\r\nStroke.\r\nJantung.\r\nKencing manis, luka ganggren.\r\nPenyakit kanker.\r\nTumor.\r\nKelemahan ginjal ( gagal ginjal ).\r\nSirosis hepatis.\r\nRadang sendi, asam urat dan rematik.\r\nWasir atau ambeien.\r\nTulang keropos ( osteoporosis).\r\nISPA, flus, radang, sinusitis.\r\nPenyakit asma.\r\nAlergi kulit. Seperti aksim, gatal, kadas dan kudis.\r\nMenurunkan tekanan darah tinggi /hipertensi.\r\nMengatasi darah rendah.\r\nMenurunkan kadar kolesterol jahat yang tinggi.\r\nPenyumbatan dan penyempitan pembuluh darah.\r\nPenurunan fungsi lever.\r\nMembantu mengatasi kerontokan rambut.\r\nMasalah prostat ( susah buang air kecil ).\r\nBagus di minum orang sehat untuk meningkatkan kekebalan tubuh.\r\n\r\nKenapa JELLY GAMAT GOLD G merk paling di rekomendasikan.\r\n\r\nKehebatan akan khasiat dan manaaf tripang emas atau sea cucumber membuat banyak produsen obat herbal tradisional berloma menggunakan gamat gold sebagai bahan pembuat produk obat yang paling banyak di gunakan, salah satunya adalah merk Jelly gama gold G , merupakan produk hasil olah tripang emas paling populer dan paling di cari saat ini karena banyak testimoni positif dari konsumen penggunanya, hal ini karena beberapa faktor pendukung seperti:\r\n\r\nGamat atau tripang yang di gunakan adala varietas terbaik atau sticophus varie.\r\nKonsentrasi tripang yang di gunakan menggunakan sistemolah modern dan higienis.\r\nBanyak testimoni konsumen yang tersebar dan banyak di posting di berbagai situs web dan blog.\r\nBanyak agen dan penjula jelly gamat golg G memasang iklan online khususnya di google, ini membuktikan jelly gamat banyak pencarinya.\r\nDi dukung oleh perusahaan besar yang memiliki agenda dan komitmen tinggi membudidayakan tripang emas.\r\n\r\nNB: info ini saya dapatkan dari berbagai sumber di internet.\r\nDosis aturan minum/konsumsi jelly gamat gold G.\r\n\r\nUntuk memperoleh hasil penyembuhan yang maksimal maka. Cobalah ikuti beberapa saran dosis aturan minum atau konsumsinya berikut ini:\r\n\r\nTujuan menjaga kesehatan.\r\n\r\n2~3 sendok, 1 atau 2 kali sehari.\r\n\r\nTujuan terapi penyakit ringan.\r\n\r\n3 sendok makan 2 kali sehari ( pagi~sore/malam ).\r\n\r\nTujuan terapi penyakit berat/kronis.\r\n\r\n3~4 sendok makan perhari. Setiap 4 jam sekali.","rating":0}
{"no":0,"title":"Bee Pollen Plus Royal Jelly untuk Jantung Koroner","price":"210.000","seller":"Rimba Raya","sellerPlace":"Malang","url":"https://www.bukalapak.com/p/kesehatan-2359/obat-suplemen/obat-obatan/ayw08i-jual-bee-pollen-plus-royal-jelly-untuk-jantung-koroner?from=&product_owner=normal_seller","sold":37,"seen":859,"favorite":32,"updated":"2019-10-10 09:23:46","description":"Perpaduan 4 produk lebah, bee pollen, cuka madu (madu yang telah difermentasi), propolis, serta royal jelly. Bee Pollen Plus Jantung Koroner lebih terfokus pada anda yang memiliki ganguan pada peredaran darah ataupun pembuluh darah, berikut ini gejala awal ganguan pada masalah penyumbatan pembuluh darah :\r\n- Napas pendek\r\n- Loyo \r\n- Tidur sering mendengkur\r\n- Saat tangan tertindih mudah kesemutan\r\n- Jantung mudah berdebar\r\n- Tertekan dan nyeri pada daerah sekitar dada\r\n- Pusing, migrain, mudah lupa, mudah lelah, sulit tidur, susah kosentrasi, dll\r\n\r\nBerikut Ini Beberapa Penyakit Yang Disebabkan Ganguan Pada Pembuluh Darah Yang Terjadi Pada Organ Tubuh Tertentu :\r\n- Stroke (akibat dari pembuluh darah yang tersumbat di otak)\r\n- Jantung Koroner (akibat dari pembuluh darah yang tersumbat di organ jantung)\r\n- Diabetes (salah satu akibat jika pembuluh darah tersumbat di pankreas)\r\n- Penyakit Ginjal (salah satu akibat jika tersumbat di daerah ginjal)\r\n- Ganguan Enzimatik Dan Hormonal (proses penuaan dini, ganguan panca indra, persendian, tendon, otot, darah, kulit, tulang, saraf, kesuburan, menstruasi, nyeri haid, dll yang diakibat dari tersumbatnya pembuluh darah di daerah kelenjar)\r\n\r\nGaris Besar Kinerja Bee Pollen Plus Jantung Koroner:\r\nHasil Tes Kolesterol Jahat dan zat lain dalam darah hanya bisa mengetahui zat yang terlarut dalam darah, namun tidak dapat mengetahui kerak-kerak yang menempel di dinding pembuluh darah, zat-zat yang larut dalam darah mudah dilarutkan dengan obat dokter, namun tidak untuk kerak yang merupakan akumulasi timbunan lemak sejak manusia balita, yang menempel pada pembuluh darah. Bee Pollen Plus untuk Jantung Koroner efektif membersihkan kerak yang menempel dalam pembuluh darah sehingga pembuluh darah elastis dan peredaran darah menjadi lancar, sehingga gejala awal di atas serta ganguan kesehatan yang menyangkut tidak lancarnya peredaran darah akan segera hilang.","rating":0}
{"no":0,"title":"SERBUK / TEPUNG MORINGA KELOR ORGANIK 1 KG","price":"85.000","seller":"Shofwan Hadi","sellerPlace":"Kab. Mojokerto","url":"https://www.bukalapak.com/p/kesehatan-2359/obat-suplemen/obat-obatan/pmm3v-jual-serbuk-tepung-moringa-kelor-organik-1-kg?from=&product_owner=normal_seller","sold":119,"seen":2165,"favorite":77,"updated":"2019-10-15 00:28:02","description":"Serbuk Daun Kelor murni tanpa gagang daun yang diolah dengan metode khas Moringa Indonesia. Salah satu keunggulan MoringaVA dibanding dengan serbuk daun Kelor lainnya adalah kehalusan serbuk yang mencapai 500 mesh. Kehalusan serbuk sangat berpengaruh terhadap penyerapan nutrisi oleh tubuh, sehingga semakin halus serbuk akan semakin cepat dan mudah terserap oleh tubuh.\r\n\r\nSuper Nutrisi yang terkandung dalam serbuk daun kelor dapat dengan cepat bekerja sesuai fungsinya masing-masing untuk melakukan pembersihan racun dalam tubuh (detoxifikasi), membangun ulang sel-sel organ vital tubuh, melindungi seluruh tubuh dari radikal bebas dan meningkatkan daya tahan tubuh.\r\n\r\nNutrisi : Antioksidan, Antiinflamasi, Asam Amino, Mulivitamin dan Mineral, chlorophyll, phytonutrien.\r\n\r\nPenggunaan sebagai campuran minuman (teh, kopi, jamu, juice, sirup, madu) dan makanan (aneka sayuran, nasi goreng, kue, agar-agar, puding, dll ), serta bahan pengisi kapsul.\r\n\r\n\r\n\r\nKhasiat dan Manfaat : Serbuk Daun Kelorina merupakan suplemen alami, sumber antioksidan alami, asam amino essensial, multivitamin dan mineral, serta sumber asupan nutrisi tinggi alami lainnya bagi tubuh. Secara enpiris maupun hasil penelitian ilmiah, serbuk daun Kelor juga terbukti berhasil mengatasi malnutrisi (gizi buruk), berkhasiat obat untuk beragam penyakit degeneratif, digunakan sebagai anti kanker, anti tumor, anti diabetes, anti hipertensi, peluruh lemak jahat kolesterol -, detoksifikasi, tonic penguat jantung, bahkan direkomendasikan untuk pengidap HIV/AIDS.","rating":0}
{"no":0,"title":"Hufagrip flu","price":"17.000","seller":"Toko Obat DIZA","sellerPlace":"Jakarta Timur","url":"https://www.bukalapak.com/p/kesehatan-2359/obat-suplemen/obat-obatan/bmdo16-jual-hufagrip-flu?from=&product_owner=normal_seller","sold":307,"seen":472,"favorite":14,"updated":"2019-10-07 18:40:15","description":"KOMPOSISI :\r\nTiap sendok takar (5 ml) mengandung : paracetamol 120 mg; pseudoephedrin HCl 7,5 mg; chlorpheniramine maleate 0,5 mg; glyceryl guaiacolate 50 mg\r\n\r\nINDIKASI :\r\nMeringankan gejala-gejala flu seperti: demam; sakit kepala; hidung tersumbat dan bersin-bersin yang disertai batuk berdahak\r\n\r\nKEMASAN :\r\nNetto 60 ml\r\n\r\nDOSIS :\r\nAnak dibawah 2 tahun :(menurut petunjuk dokter)\r\nAnak 2 - 6 tahun : 3 x sehari 1 sendok takar (5 ml)\r\nAnak 6 - 12 tahun : 3 x sehari 2 sendok takar (10 ml)","rating":0}
{"no":0,"title":"Cal 95 Calcium isi 30","price":"155.000","seller":"Milk Shop","sellerPlace":"Bandung","url":"https://www.bukalapak.com/p/kesehatan-2359/obat-suplemen/obat-obatan/9lgbic-jual-cal-95-calcium-isi-30?from=&product_owner=normal_seller","sold":126,"seen":1235,"favorite":26,"updated":"2019-10-13 13:11:21","description":"Cal - 95 suplemen makanan yang berfungsi untuk membantu memelihara kesehatan tulang.\r\n\r\nKomposisi: \r\nCoral Ca 500 mg, natural soy isoflavone 20 mg, vitamin D3 200 iu, vitamin K1 25 mcg, Mg 100 mg, Zn 5 mg, boron 1 mg\r\n\r\nIndikasi: \r\nTerapi suportif osteoporosis karena berbagai sebab, misalnya pasca menopause, senilis,atau diinduksi oleh kortikosteroid; sebagai konsekuensi dari gastrektomi atau imobilisasi. Peningkatan kebutuhan akan Ca, misalnya anak pada masa pertumbuhan hamil dan laktasi\r\n\r\nDosis: \r\n1-2 kaplet/hari\r\n\r\nPemberian Obat: \r\nBerikan sesudah makan\r\n\r\nPerhatian: \r\nGangguan ginjal. Jangan diberikan bersama produk yang kaya serat\r\n\r\nKemasan: \r\nKaplet 5 x 6","rating":0}
{"no":0,"title":"salep sf pks sf","price":"9.000","seller":"AMC OnlineShop","sellerPlace":"Jakarta Pusat","url":"https://www.bukalapak.com/p/kesehatan-2359/obat-suplemen/obat-obatan/epju2o-jual-salep-sf-pks-sf?from=&product_owner=normal_seller","sold":6603,"seen":1202,"favorite":20,"updated":"2019-10-15 08:32:19","description":"salep pks sf , untuk mengobati gatal-gatal alergi\r\npks yang packing ijo juga ada, bisa inbox ya","rating":0}
{"no":0,"title":"Obat Exim Basah Kering Kadas Kurap Kudis","price":"295.000","seller":"De Nature Sehat","sellerPlace":"Cilacap","url":"https://www.bukalapak.com/p/kesehatan-2359/obat-suplemen/obat-obatan/12tkasj-jual-obat-exim-basah-kering-kadas-kurap-kudis?from=&product_owner=normal_seller","sold":18,"seen":54,"favorite":18,"updated":"2019-05-10 00:23:39","description":"Bersih Darah, Eximtas, Exclear merupakan obat gatal eksim basah dan kering dari De Nature Indonesia yang terbukti ampuh untuk sembuhkan penyakit eksim pada kulit dengan cepat dan aman tanpa efek samping. Eksim adalah kelainan kulit dengan ciri peradangan atau bengkak, kemerahan, dan rasa gatal. Walaupun tidak menular, kelainan ini menyebabkan rasa tidak nyaman pada bagian kulit yang terkena.\r\n\r\nDETAIL PRODUK:\r\n- 1 botol KAPSUL BD Isi 50 kapsul\r\n- 1 botol EXIMTAS Isi 50 kapsul\r\n- BONUS De Nature Salep EXCLEAR\r\n\r\nMENGOBATI :\r\n- Obat Gatal \r\n- Eksim Basah Dan Kering\r\n- Gatal Alergi\r\n- Gatal Menular\r\n- Gatal Selangkangan\r\n\r\n~Stock Selalu Ready\r\n~Garansi Asli De Nature Indonesia (RESMI)\r\n~Packing Rapih dan Aman, RAHASIA TERJAMIN 100%\r\n~Proses Cepat dan Terjamin\r\n~RAHASIA TERJAMIN\r\n~HATI-HATI PRODUK PALSU!!!\r\n~Produk Asli De Nature Hanya dikirim dari Majenang, Cilacap, Jawa Tengah!!!\r\n~Kemasan bersegel Hologram!!!\r\n\r\nATURAN PAKAI :\r\n\r\n- Sehari 3 x 2 kapsul setiap 1 jam sebelum makan di minum secara bersamaan.\r\n- Salep EXCLEAR 2 kali sehari (pagi dan malam menjelang tidur)\r\n\r\n- IZIN BPOM KAPSUL BD : TR 163 398 401\r\n- IZIN BPOM EXIMTAS : TR 163 397 881\r\n- IZIN UKOT DINKES RI No. 503/1259/2016/2\r\n- SERTA BERSERTIVIKAT HALAL MUI","rating":0}
{"no":0,"title":"ULTIMATE NUTRITION BCAA 500MG 120 CAPS","price":"289.000","seller":"IvanZ Supplement","sellerPlace":"Jakarta Barat","url":"https://www.bukalapak.com/p/kesehatan-2359/obat-suplemen/obat-obatan/p4w8v-jual-ultimate-nutrition-bcaa-500mg-120-caps?from=&product_owner=normal_seller","sold":143,"seen":4111,"favorite":99,"updated":"2019-10-15 16:29:22","description":"ULTIMATE NUTRITION BCAA 500MG 120CAPS.. ULTIMATE NUTRITION BCAA 500MG 120CAPS..","rating":0}
{"no":0,"title":"Obat gatal dan Asma Kapsul Tokek ASLI","price":"99.000","seller":"Joe Luqmany Shop","sellerPlace":"Banyumas","url":"https://www.bukalapak.com/p/kesehatan-2359/obat-suplemen/obat-obatan/bgcjd6-jual-obat-gatal-dan-asma-kapsul-tokek-asli?from=&product_owner=normal_seller","sold":890,"seen":1949,"favorite":38,"updated":"2019-10-15 09:59:06","description":"Kemasan baru isi 50 kapsul.\r\n\r\nTokek sangat berkhasiat untuk mengobati segala penyakit kulit, seperti gatal, kudis, eksim dll. Mengobati asma, Bahkan HIV AIDS.\r\n\r\nKapsul berisi 100% daging tokek yang sudah dihaluskan, tanpa bahan campuran lainnya.\r\n\r\nKami berani memberi harga murah, karena tokek berasal dari penangkaran dan juga perburuan langsung dari alam.\r\n\r\nMinumlah 2 kapsul 3x sehari, Semoga lekas sembuh.\r\n\r\nSilahkan diorder.\r\n\r\n40 Manfaat dan Khasiat Daging Tokek untuk Kesehatan, Kecantikan\r\n1. Mengobati Kulit Gatal\r\n2. Menyembuhkan Tumor dan Kanker\r\n3. Membuat Badan Lebih Bertenaga\r\n4. Meningkatkan Gairah Seks\r\n5. Mempercepat Proses Penyembuhan Luka\r\n6. Menghilangkan Bekas Luka\r\n7. Memudarkan Flek Hitam\r\n8. Menghaluskan Kulit Badan\r\n9. Membuat Awet Muda\r\n10. Membuka Pancaran Aura\r\n11. Menyembuhkan Tumor dan Kanker \r\n12.Membuat Badan Lebih Bertenaga\r\n13. Meningkatkan Gairah Seks\r\n14. Mempercepat Proses Penyembuhan Luka\r\n15. Membantu kerja jantung\r\n16.Memperbaiki metabolisme tubuh\r\n17. Membantu proses regenerasi sel\r\n18. Menghilangkan kelelahan akut\r\n19. Stabilkan emosi\r\n20. Menambah nafsu makan\r\n21. Menghilangkan stress\r\n22. Mencegah kerusakan sel\r\n23. Mengobati radang\r\n24. Mengobati asma\r\n25. Mencegah gangguan paru-paru\r\n26. Meningkatkan imun\r\n27. Obat HIV/AIDS\r\n28. Menghilangkan Bekas Luka\r\n29. Memudarkan Flek Hitam\r\n30. Menghaluskan Kulit Badan\r\n31. Membuat Awet Muda\r\n32. Membuka Pancaran Aura\r\n33. Mencegah jerawat\r\n34. Menyembuhkan jerawat\r\n35. Menghilangkan bekas jerawat yang susah hilang\r\n36. Melembabkan kulit dan Melembutkan kulit \r\n37. Membantu mengangkat daki\r\n38. Mengatasi kerutan di wajah\r\n39. Melembabkan bibir\r\n40. Menguatkan akar rambut\r\n\r\nsumber: manfaat. id","rating":0}
{"no":0,"title":"scabimit e 30 gr","price":"53.000","seller":"apotek Berkah","sellerPlace":"Jakarta Timur","url":"https://www.bukalapak.com/p/kesehatan-2359/obat-suplemen/obat-obatan/21b8jd4-jual-scabimit-e-30-gr?from=&product_owner=normal_seller","sold":39,"seen":231,"favorite":7,"updated":"2019-10-14 22:13:47","description":"harga per tube, pengambilan d atas 6, harga grosir","rating":0}
{"no":0,"title":"Tongkat Madura","price":"30.000","seller":"TIMUR JAYA","sellerPlace":"Jakarta Barat","url":"https://www.bukalapak.com/p/kesehatan-2359/obat-suplemen/obat-obatan/2065dj-jual-tongkat-madura?from=&product_owner=normal_seller","sold":367,"seen":7465,"favorite":95,"updated":"2019-10-13 13:51:48","description":"Khasiat Tongkat Asli Madura:\r\nMengangkat lendir dan kotoran yang ada di dalam miss V\r\nMenjadikan miss V rapat, kencang dan bersih.\r\nMengatasi keputihan pada wanita\r\nMemperkuat otot-otot kewanitaan\r\nMenghilangkan gatal-gatal akibat jamur dan bau tak sedap\r\nMemuaskan pasangan saat berhubungan intim\r\nKomposisi\r\nManjakani, daun sirih, delima putih, callae, pharameriae cortex, gausumae folium dan bahan-bahan lain yang merupakan warisan leluhur di tanah Madura \r\nJawa Timur.\r\n\r\nKemasan\r\nJamu Tongkat Madura Asli Jokotole kemasan coklat hijau atau sering disebut Tongkat Madura Super (kualitas super) ini, berisi 1 buah tongkat (stick) dengan panjang 12 cm yang berbentuk oval dan berwarna putih.\r\n\r\nCara Pakai Tongkat Madura:\r\nCukup masukkan Tongkat Madura ke dalam miss V 5cm dari panjang tongkat selama 3 menit, lalu keluarkan lagi. Tongkat Madura juga bisa digunakan 1 jam sebelum berhubungan intim untuk menambah kenikmatan.\r\nPerawatan Tongkat Madura\r\nSetelah dipakai, cuci hingga bersih dengan air, lalu keringkan dan simpan di tempat sejuk dan kering. \r\n\r\nBisa 6 x pakai.\r\n\r\nPerhatian\r\nTidak dianjurkan untuk wanita yang masih gadis / virgin.\r\n\r\nProdusen: \r\nJokotole Madura, Indonesia","rating":0}
{"no":0,"title":"Neozep Forte","price":"2.500","seller":"mandjur","sellerPlace":"Jakarta Pusat","url":"https://www.bukalapak.com/p/kesehatan-2359/obat-suplemen/obat-obatan/47o8rw-jual-neozep-forte?from=&product_owner=normal_seller","sold":175,"seen":494,"favorite":12,"updated":"2019-10-08 19:09:37","description":"Neozep Forte digunakan sebagai obat pereda flu yang bekerja meredakan nyeri, menurunkan panas, menghilangkan hidung tersumbat, dan memiliki efek antihistamin untuk menghilangkan alergi.\r\n\r\nCara Kerja Obat : Bekerja sebagai analgesik-antipiretik, dekongestan hidung dan antihistamin.\r\n\r\nKhasiat :\r\nUntuk meringankan gejala flu seperti demam, sakit kepala, hidung tersumbat dan bersin-bersin\r\n\r\nCara Pakai :\r\nDewasa : 1 tablet diminum 3 - 4 kali sehari\r\nAnak 6 - 12 tahun : 1/2 tablet diminum 3 - 4 kali sehari atau menurut petunjuk dokter\r\n\r\nKomposisi :\r\nTiap tablet mengandung :\r\nFenilpropanolamin HCl 15 mg.\r\nKlorfeniramin Maleat 2 mg.\r\nParasetamol 250 mg.\r\nSalisilamida 150 mg.\r\n\r\nKemasan : 1 Strip @ 4 tablet\r\n\r\nProduksi : PT. Darya-Varia LaboratorianTbk\r\n\r\nBPOM No : Reg. No. DTL 1504523110A1","rating":0}
{"no":0,"title":"Syrup Herbal JAMKHO 100ml PT Mahkota Dewa Indonesia","price":"58.500","seller":"Shafa Marwa Sawangan Depok","sellerPlace":"Depok","url":"https://www.bukalapak.com/p/kesehatan-2359/obat-suplemen/obat-obatan/ppr23v-jual-syrup-herbal-jamkho-100ml-pt-mahkota-dewa-indonesia?from=&product_owner=normal_seller","sold":248,"seen":1112,"favorite":37,"updated":"2019-10-13 07:15:25","description":"JAMKHO berkhasiat membantu menurunkan kholesterol dengan aman, cepat serta nyaman.\r\n\r\n\r\nJAMKHO bisa membantu juga menurunkan kadar asam urat.\r\n\r\n\r\n‘’‘’‘'Membantu meningkatkan kadar kholesterol HDL (kholesterol yg baik).\r\n\r\n\r\n‘’‘’‘'JAMKHO membantu menurunkan kadar kholesterol LDL (kholesterol yang jahat).\r\n\r\n\r\n‘’‘Mampu juga membantu menurunkan trigliserida.\r\n\r\n\r\nBahan yang digunakan dalam JAMKHO merpakan bahan herbal yang 100% alami sehingga tidak ada tambahan bahan kimia berbahaya didalamnya\r\n\r\n\r\nJAMKHO merupakan obat herbal yang memiliki efek yang cepat, dalam hal ini JAMKHO mampu menurunkan kadar kolesterol jahat dalam tubuh hanya dalam waktu satu hari dan ini bukan hanya bualan terbukti dengan pasien yang telah mengalaminya sendiri\r\n\r\n\r\nSelain dapat menurunkan kadar kolesterol secara cepat, penurunannya juga terjadi secara signifikan yakni dari 232,98 menjadi 196 dan hal itu telah dibuktikan melalui riset\r\n\r\n\r\nUntuk prosesnya sindiri, JAMKHO menggunakan teknologi yakni bioteknologi nano sehingga Jamkho dapat diserap dengan cepat oleh tubuh\r\n\r\n\r\nKemudian alasan selanjutnya ialah JAMKHO merupakan obat herbal yang diracik oleh seorang ahli herbal yang terkemuka dan berpengalam dalam bidangnya bahkan sejak tahun 1999 karenanya khasiat dari obat ini sudah tidak diragukan lagi. Terlebih lagi Ibu Ning Harmanto yang merupakan ahli obat herbal yang meracik Jamkho tersebut telah menjadi seorang ahli obat herbal yang diakui oleh Internaional\r\n\r\n\r\nJAMKHO merupakan obat herbal yang legal dan telah terdaftar di BPOM dan telah mendapatkan izin serta nomor registrasi yakni TR. 133 672 511 sehingga anda tidak perlu merasa risau dan akan selalu merasa aman dengan adanya izin dari BPOM. Selain izin dari BPOM, Jamkho juga terlah diakui dan mendapat sertifikasi dari tingakat Internasional yakni HAACP yang merupakan singkatan dari Hazard analysis and critical control points dan good manufacturing practice atau GMP","rating":0}
{"no":0,"title":"kapsul mengkudu herbal qhi","price":"45.000","seller":"HERBAL RUQIYAH_QHI","sellerPlace":"Kab. Mojokerto","url":"https://www.bukalapak.com/p/kesehatan-2359/obat-suplemen/obat-obatan/cxjvdg-jual-kapsul-mengkudu-herbal-qhi?from=&product_owner=normal_seller","sold":119,"seen":281,"favorite":3,"updated":"2019-08-07 01:01:21","description":"Kapsul mengkudu \"Ruqyah QHi \"\r\n\r\nInsya Allah untuk mengobati\r\n\r\nGangguan kejiwaan\r\nDepresi\r\nMenstabilkan kadar gula\r\nMemelihara fungsi ginjal\r\nMencegah ketegangan ataw Strees\r\nMemulihkan tenaga dalam tubuh\r\nAnti Hestemik\r\nMenurunkan tekanan darah\r\nMemperbaiki kualitas tidur dll.\r\n\r\nIsi 60 kapsul,harga 50.000\r\n\r\nHERBAL PENYAKIT DEPRESI, SULIT TIDUR, GELISAH, GALAU, STRESS DAN GILA\r\n\r\nUstad Perdana Akhmad Lakoni\r\n\r\nSaya punya ramuan ajiib tuk orang gila yang suka marah marah dan ngamuk juga sulit tidur.\r\n\r\nSetelah saya racik ramuannya ajaib dari malam sampe pagi ini tidurnya nyenyak sekali dan kondisinya kembali normal (tidak ngamuk dan marah marah lagi) gangguan jiwa 6 tahun sembuh padahal sebelumnya sulit tidur dan selalu gelisah. Sebenarnya penyebab ngamuknya orang gila karena ga bisa tidur yg membuat syarafnya tegang semua.\r\n\r\nSaya buka buka mbah google ternyata pacekap kaya zat Serotonin yang bermanfaat untuk mengurangi gejala-gejala depresi. Serotonin juga akan diubah menjadi melatonin pada malam hari sehingga menjaga kualitas tidur menjadi lebih baik.\r\n\r\n\r\nGangguan kejiwaan itu sebagian besar diakibatkan oleh depresi, dengan konsumsi herbal buah mengkudu/pacekap akan menormalkan kembali syaraf otak yg tegang dan menenangkan jiwa.\r\n\r\nRacikan yang saya buat adalah saya ambil 7 kapsul pacekap saya buka dan masukkan dalam 1 botol kecil air mineral. Lalu saya kocok sampe 200x dan saya ruqyah lalu minumkan dengan pasien gila.\r\n\r\nMinumkan juga 3 kapsul pacekap plus 1 kapsul habbatussauda pagi, siang dan malam yg sudah diruqyah.\r\n\r\nMinumkan 3 sendok madu yg sudah diruqyah setiap mau tidur dan pagi hari sebelum makan.\r\n\r\nInsya Allah saya sudah menelpon usyadz Subur agar segera meracik herbal kapsul ekstrak mengkudu produk Quranic Healing.\r\nkami agen mau order hub:WA","rating":0}
{"no":0,"title":"Obat Madu Herbal Stamina Pria Phuceng Jamu Penambah Kuat","price":"399.000","seller":"OBAT KUAT 99","sellerPlace":"Jakarta Utara","url":"https://www.bukalapak.com/p/kesehatan-2359/obat-suplemen/obat-obatan/1a0erd6-jual-obat-madu-herbal-stamina-pria-phuceng-jamu-penambah-kuat?from=&product_owner=normal_seller","sold":3,"seen":135,"favorite":47,"updated":"2019-10-07 15:18:52","description":"Penting!!\r\nBaca deskripsi sebelum membeli\r\nReady stok silahkan langsung klik Beli\r\n\r\n1 botol Rp. 249.000\r\n2 botol Rp. 399.000 ( lebih Hemat 100 ribu)\r\n\r\nJaminan Kualitas Madu Phuceng\r\nProduk *Madu Phuceng* Kami sudah Terjamin\r\nHALAL [ Legalitas MUI ]\r\nSEHAT [ Ijin dari DINKES ]\r\nAMAN [Ijin dari BPOM ]\r\n\r\nMenjadi pria sehat dan kuat baik fisik dan rohani merupakan dambaan kita semua. Stamina dan vitalitas tinggi sangat diperlukan untuk menjadi insan pria seutuhnya. Juga jantan dan perkasa untuk keharmonisan rumah tangga dan kebahagiaan pasangan.\r\n\r\nPhuceng dibuat dari berbagai macam bahan herbal terpilih yang difokuskan untuk mengatasi masalah stamina dan vitalitas pria d_w_S_. Terdiri dari kombinasi madu, purwoceng, jahe merah, dan beberapa jenis herbal lainnya.\r\n\r\nKhasiat Phuceng\r\n1. Meningkatkan Stamina &amp;amp;amp;amp;amp;amp;amp;amp;amp;amp;amp;amp; Vitalitas Pria.\r\n2. Meningkatkan Kadar Hormon Testosteron.\r\n3. Meningkatkan Libido dan Pembangkit Gairah.\r\n4. Membantu Mengurangi Ejakuasi Dini.\r\n5. Melancarkan Peredaran Darah.\r\n6. Mengatasi Lemah Syahwat &amp;amp;amp;amp;amp;amp;amp;amp;amp;amp;amp;amp; 4L (Lemah, Letih, Lesu, Lemas).\r\n\r\nCara Konsumsi\r\nPhuceng dapat dikonsumsi dengan 2 cara. Pertama: bisa diminum secara langsung, atau Kedua: bisa dicampur dengan segelas air putih hangat.\r\n\r\nKonsumsi Phuceng 2 x 2 sendok makan per hari.\r\nPagi setelah bangun tidur dan malam sebelum tidur / 1 jam sebelum hubungan suami istri.\r\n\r\nUntuk hasil maksimal, konsumsi rutin minimal selama 1 minggu.\r\n\r\nUntuk hasil terbaik, teruskan konsumsi sampai 1 bulan. Setelah itu anda akan merasakan efek yang luar biasa.\r\n\r\nSatu botol Phuceng bisa dikonsumsi selama 10-14 hari.\r\n\r\nKarena menggunakan bahan-bahan herbal alami terpilih, Phuceng sangat aman untuk dikonsumsi oleh pria dewasa.\r\nBahkan phuceng boleh dikonsumsi oleh pria diatas usia 50 tahun. Phuceng juga sudah mendapat izin BPOM dengan nomor POM TR. 183 610 431.\r\n\r\nPerlu diketahui produk Pria Dewasa sangat sulit mendapatkan izin BPOM. Jadi bila sudah mendapatkan izin BPOM berarti produknya benar-benar aman.\r\n\r\nTidak membuat jantung dag dig dug, tidak menyebabkan efek samping. 100% Aman Untuk Dikonsumsi Jangka Pendek atau Jangka Panjang.","rating":0}
{"no":0,"title":"samyunwan-sam yun wan-obat herbal penggemuk badan","price":"35.000","seller":"LAPAK ASLI HERBAL BINTANG 88","sellerPlace":"Jakarta Utara","url":"https://www.bukalapak.com/p/kesehatan-2359/obat-suplemen/obat-obatan/1byj8yj-jual-samyunwan-sam-yun-wan-obat-herbal-penggemuk-badan?from=&product_owner=normal_seller","sold":12,"seen":180,"favorite":4,"updated":"2019-09-08 09:11:05","description":"Samyun Wan / Samyunwan / Sam Yun Wan BPOM - Obat Gemuk Herbal\r\n\r\nEXP Date : 2022\r\n\r\nAWAS BARANG TIRUAN \r\n\r\n-Kami Jamin PRODUK ORIGINAL / ASLI\r\n-Pengiriman Cepat &PACKING rapih \r\n-GARANSI UANG KEMBALI jika barang yang kami kirim tidak sampai tujuan\r\n\r\nIsi Kapsul : 20 Kapsul per Box untuk 10 Hari\r\nKapsul warna merah diminum 2 X sehari setelah makan. Ada 1 kapsul warna putih atau pink ( tergantung produksi pabrik saat itu ) diminum saat lelah saja (bonus)\r\n\r\nKHASIATNYA\r\n1. Menambah napsu makan dan membuat tubuh lebih berisi\r\n2. Meningkatkan Daya serap makanan yang masuk ke dalam tubuh Kita\r\n3. Berat Badan Kita akan cepat bertambah,karena apa yang kita makan\r\ndiserap cepat oleh tubuh\r\n4. Memperbaiki metabolisme tubuh\r\n5.Penyerapan makanan menjadi lebih sempurna\r\n\r\nPERHATIAN\r\nDilarang bagi :\r\n1. Ibu hamil dan menyusui\r\n2. Anak 0-10 tahun\r\n3. Orang yg memiliki maag akut\r\n\r\nPT SENTOSA USAHA MANDIRI\r\nPOM TI 004 515 915","rating":0}
{"no":0,"title":"Kapsul kosong isi 50pcs","price":"15.000","seller":"Sale_seller","sellerPlace":"Jakarta Utara","url":"https://www.bukalapak.com/p/kesehatan-2359/obat-suplemen/obat-obatan/s2zh1-jual-kapsul-kosong-isi-50pcs?from=&product_owner=normal_seller","sold":210,"seen":2278,"favorite":73,"updated":"2019-10-14 07:27:25","description":"Kapsul kosong untuk meminum essential oil. \r\nYang tidak bisa meminum oil langsung atau terlalu banyak tetes yang harus diminum, bisa dimasukkan kedalam kapsul kosong ini dulu.","rating":0}
{"no":0,"title":"Obat Batuk Menahun","price":"295.000","seller":"De Nature Sehat","sellerPlace":"Cilacap","url":"https://www.bukalapak.com/p/kesehatan-2359/obat-suplemen/obat-obatan/15aiy2v-jual-obat-batuk-menahun?from=&product_owner=normal_seller","sold":6,"seen":123,"favorite":31,"updated":"2019-07-16 10:25:54","description":"aru-paru merupakan organ tubuh yang berperan penting bagi kehidupan. Paru-paru berfungsi untuk tempat pertukaran karbondioksida dan oksigen dalam tubuh yang merupakan pernapasan manusia. Oksigen sangat dibutuhkan setiap tubuh manusia, sedangkan untuk karbondioksida adalah hasil proses pernapasan yang dikeluarkan tubuh. Jika pernapasan manusia tidak lancar meskipun hanya hitungan menit bisa membuat seseorang meninggal dunia.\r\n\r\nSegera atasi dengan produk kami, mempercepat dan meredakan batuk yg Anda derita secara cepat aman dan tanpa efek samping! Untuk hasil yg maksimalnya kami menyarankan Anda mengonsumsi selama 4-8minggu, 1paket tsb untuk penggunaan kurang lebih 7hari.\r\n\r\nAturan minum:\r\nDetopar 3x2 kapsul sehari\r\npipeca 3x2 kapsul sehari\r\n\r\n-Kapsul Herbal Detopar =&gt; Membersihkan Paru-Paru perokok / Minum Alkohol, Batuk Kering, Batuk Basah, TBC.\r\n\r\n-Kapsul Herbal Pipeca Membantu Pengobatan Penyakit Dalam, Virus, Bakteri, Kanker, Memperbaiki Sirkulasi Darah\r\nDan Untuk Penyakit Dalam,Dll.\r\n\r\nUntuk aturan pakai DLL, Nanti sudah lengkap di kemasan botol ataupun dalam paketanya.","rating":0}
{"no":0,"title":"SALEP KL SUPER BERKHASIAT - SALEP HL PI KANG WANG - SALEP GATAL - JERAWAT- EKSIM - CACAR AIR","price":"34.200","seller":"UFAIROH","sellerPlace":"Kab. Bekasi","url":"https://www.bukalapak.com/p/kesehatan-2359/obat-suplemen/obat-obatan/13pa3ei-jual-salep-kl-super-berkhasiat-salep-hl-pi-kang-wang-salep-gatal-jerawat-eksim-cacar-air?from=&product_owner=normal_seller","sold":32,"seen":652,"favorite":10,"updated":"2019-10-14 15:28:27","description":"KEMASAN BARU..!!\r\n\r\n\r\nExp 09- 2021 alias aman\r\n\r\n\r\nKhasiat dan kegunaan obat Salep KL/ PI Kang Wang, Ketoconazole cream:\r\n\r\n\r\n\r\nMengobati penyakit kulit yang disebabkan jamur seperti panu, kadas, kudis, kurap, gudik, scadies.\r\n\r\nDapat digunakan untuk mengobati jerawat dan bekas jerawat\r\n\r\nMengobati gatal-gatal yang disebabkan alergi\r\n\r\nMengurangi efek iritasi kulit dari penggunaan kosmetik yang salah.\r\n\r\nMengobati gatal pada s*langkangan\r\n\r\n\r\n\r\n\r\nAturan pakai :\r\n\r\n\r\n\r\nUntuk gatal-gatal : bersihkan area kulit yang terinfeksi gatal, lalu oleskan salep KL di area yang gatal 3 kali sehari\r\n\r\nUntuk jerawat : Oleskan salep KL pada bagian yang berjerawat saja. sebaiknya digunakan pada malam hari\r\n\r\n\r\n\r\n\r\nKemasan berisi 7 gr","rating":0}
{"no":0,"title":"Cal 95","price":"161.000","seller":"Nics Formula","sellerPlace":"Jakarta Barat","url":"https://www.bukalapak.com/p/kesehatan-2359/obat-suplemen/obat-obatan/19ftcqj-jual-cal-95?from=&product_owner=normal_seller","sold":28,"seen":348,"favorite":3,"updated":"2019-10-14 12:37:48","description":"Call 95 isi 30 kaplet @1100mg. Produk Lapi. Exp 10/23","rating":0}
{"no":0,"title":"Alat Pijat Kayu Kerokan Batok Kelapa","price":"6.000","seller":"lukman hakim","sellerPlace":"Malang","url":"https://www.bukalapak.com/p/kesehatan-2359/obat-suplemen/obat-obatan/ur3c5-jual-alat-pijat-kayu-kerokan-batok-kelapa?from=&product_owner=normal_seller","sold":94,"seen":2163,"favorite":65,"updated":"2019-10-10 19:30:38","description":"Alat Pijat Kayu Kerokan Batok Kelapa\r\n\r\nAlat pijat roda tradisional untuk melancarkan peredaran darah, relaksasi, dan mengurangi lelah. Dengan desain yg bersahabat, mudah digunakan, bisa dipakai kapan saja & dimana saja. Cara menggunakan dengan Kerokkan secara pelan-pelan ke bagian tubuh yang dikehendaki, khususnya yang sedang mengalami masuk angin. \r\n\r\nUkuran :\r\nPanjang 15 cm\r\n\r\nPETUNJUK PEMESANAN\r\n- Silakan bisa langsung menggunakan fitur BELI yang tersedia di Bukalapak. Pembelian aman dan terpercaya :)\r\n- Sertakan selalu kode serta seri barang yang diminati pada keterangan pembelian yang ada\r\n- Akan lebih baik jika bisa menggunakan kolom diskusi / pesan pada Bukalapak untuk menanyakan stok barang terlebih dahulu\r\n\r\nTERIMA KASIH","rating":0}
{"no":0,"title":"cream obat kulit gatal jamur kadas kudis eksim panu jamur dll 100 % ampuh","price":"70.000","seller":"TOKO MAHKOTA","sellerPlace":"Jakarta Pusat","url":"https://www.bukalapak.com/p/kesehatan-2359/obat-suplemen/obat-obatan/2jwfu0-jual-cream-obat-kulit-gatal-jamur-kadas-kudis-eksim-panu-jamur-dll-100-ampuh?from=&product_owner=normal_seller","sold":59,"seen":4242,"favorite":40,"updated":"2019-10-14 11:41:05","description":"Barang ready stock selalu.............\r\nKhasiat salep impor \r\n\r\nTerbukti berfungsi memberantas / menghilangkan jamur kulit\r\nDigunakan pada infeksi kulit yang di sebabkan oleh bakteri, seperti kurap dikaki, tangan, badan dan paha.\r\nGatal pada sela-sela jari dan selangkangan.\r\nMengobati jerawat dan membantu menghilangkan bekas jerawat.\r\n\r\nCara pakai dan dosis :\r\nBersihkan terlebih dahulu daerah yang terinfeksi gatal dan jamur dengan menggunakan air hangat.\r\nOleskan salep gatal KL di area yang gatal secara tipis dan merata\r\nPakailah sesering mungkin agar hasil lebih maksimal.\r\nJaga kebersihan tubuh (khususya pada area yang terinfeksi) anda agar terhindar dari gatal-gatal dan jamur kulit yang lebih parah lagi.\r\n\r\nKhasiat :\r\n- Sebagai cream antiseptic efektif membunuh bakteri dan jamur penyebab gatal-gatal, kurap, kudis dan panu\r\n- Dapat digunakan juga untuk mengatasi jerawat pada wajah\r\n*Untuk jerawat : Oleskan salep KL pada bagian yang berjerawat saja. sebaiknya digunakan pada malam hari\r\n\r\nKemasan : botol berisi cream\r\n\r\nKomposisi :\r\nKetoconazole 10 mg\r\nPropionate clobetasol 0.25 mg\r\nNeomycin sulfate 5000 units\r\nKemasan : isi 7 gram.\r\nDiproduksi Oleh Kunming Dihon Pharmaceutical Co. Ltd P.R.C - China\r\nKemenkes RI PKL Kemasan: 1 botol salep berisi 7 gram.","rating":0}
{"no":0,"title":"KINOKI GOLD-GINGER","price":"25.000","seller":"SK SHOP","sellerPlace":"Jakarta Barat","url":"https://www.bukalapak.com/p/kesehatan-2359/obat-suplemen/obat-obatan/o7r6pj-jual-kinoki-gold-ginger?from=&product_owner=normal_seller","sold":149,"seen":955,"favorite":21,"updated":"2019-10-12 15:37:57","description":"KINOKI GOLD BOX GINGER SALT(coklat), 1 PLASTIK ISI 2, AROMA HERBAL\r\n(1 box isi 10 buah)\r\n\r\nUNTUK ANDA YG PERDULI KUALITAS,kinoki gold premium dengan bahan2 yg lebih baik dan berkwalitas.pembersih bantalan kaki detoks menyerap kotoran dan racun dari tubuh Anda saat Anda tidur! Pads berisi tumbuh-tumbuhan dan bahan alam lainnya yang lembut dan aman. meningkatkan kesehatan dan energi baru. Hanya rekatkan pad ke telapak kaki anda sebelum tidur, lalu keluarkan di pagi hari. Anda akan terkejut dengan residu racun yang telah di keluarkan dari tubuh anda! 1dus berisi 10 bungkus dengan almunium foil,yg memastikan kwalitas lbh terjamin.\r\n\r\nDetox Foot Patch adalah cara alami untuk membantu tubuh anda dalam menghapus logam berat, sisa metabolik, racun, parasit mikroskopik, lendir, kimia, selulit dan banyak lagi.\r\n\r\nFUNGSI :\r\n\r\nDetoksifikasi pembalut tubuh anda, menghilangkan kotoran, meningkatkan tenaga, mengurangkan stres dan kecemasan, meningkatkan sirkulasi, dan menghilangkan rasa sakit dan nyeri. Detoksifikasi dengan Kinoki juga meningkatkan kwalitas tidur anda, meredakan sakit kepala, meningkatkan tumpuan mental dan konsentrasi, ditambah meningkatkan metabolisme dan mengurangkan keletihan dan kegemukan\r\n\r\nCARA MENGGUNAKAN :\r\n\r\n1. Tempelkan bagian yang ada tulisan ke plester yang telah disediakan,\r\n\r\n2. Lalu tempelkan plester tersebut, dengan posisi Detox Foot Patch berada di tengah-tengah telapak kaki.\r\n\r\n3. Gunakan sebelum tidur, dan biarkan 5-8 jam(selama Anda Tidur) agar racun dalam tubuh dapat di serap","rating":0}
{"no":0,"title":"MINYAK ANGIN POYSIAN ASLI THAILAND","price":"24.500","seller":"FLORENSIA SHOP","sellerPlace":"Jakarta Pusat","url":"https://www.bukalapak.com/p/kesehatan-2359/obat-suplemen/obat-obatan/1cnl7s-jual-minyak-angin-poysian-asli-thailand?from=&product_owner=normal_seller","sold":185,"seen":1147,"favorite":25,"updated":"2019-10-14 22:10:01","description":"Khasiatnya :\r\n- mengobati mabuk2 waktu dijalan, pusing2, puyeng2, mual2\r\n- menghangatkan badan\r\n- melegakan saat perut kembung atau masuk angin\r\n- sebagai penyegar karena wanginy yang enak\r\n- mengobati hidung tersumbat, pilek, meler2 jadi lega\r\nkomposisi formula yang terkandung :\r\n- Eucalyptus Oil 8.5%\r\n- Menthol 42.0%\r\n- Camphor 16.4%\r\n- Borneol 6.1%","rating":0}
{"no":0,"title":"Habbasyifa (Minyak Habbatussauda'/Jintan Hitam) 90 Kapsul","price":"28.000","seller":"MULIA SHOP","sellerPlace":"Surabaya","url":"https://www.bukalapak.com/p/kesehatan-2359/obat-suplemen/obat-obatan/62f4jh-jual-habbasyifa-minyak-habbatussauda-jintan-hitam-90-kapsul?from=&product_owner=normal_seller","sold":222,"seen":834,"favorite":14,"updated":"2019-10-14 21:07:07","description":"Isi : 100 Kapsul @600 mg\r\nIzin Depkes RI: POM TR 113 323 461\r\nProdusen/Merk: CV. Syifa Herbal Alami\r\nExpire Date: 5 Februari 2021\r\n\r\nHabbasyifa adalah minyak habbatusauda dalam kapsul dari Habbasyi yang di dapat dari proses cold pressure, sehingga menghasilkan minyak yang berkualitas.\r\n\r\nHabbatussauda' atau jintan hitam adalah biji hitam yang telah di kenal ribuan tahun lalu, habbatussauda dapat memelihara daya tahan tubuh.\r\n\r\nKeunggulan :\r\n# Harga 2 kali lipat lebih murah dibandingkan produk lain.\r\n# Dikemas secara higienis.\r\n# Menggunakan kardus sehingga tidak tertembus sinar UV.\r\n# Menggunakan alat khusus sehingga mempunyai isi yang tepat kurang lebih 600 mg.\r\n# Menggunakan cangkang kapsul yang halal (Sertifikat Halal Cangkang Kapsul LP POM MUI No. 00140016360701)\r\n\r\nManfaatnya :\r\n- Menyembuhkan jantung.\r\n- Stroke.\r\n- Gangguan Lambung.\r\n- Penyakit Liver.\r\n- Penyakit Reumatik dan Asam urat.\r\n- Membuang dan Menetralisir Racun Dalam Tubuh.\r\n- Memperbaikin Sistem Saluran Pencernaan dan Pernapasan, Gangguan Asma.\r\n- Menyeimbangkan Hormon.\r\n- Penguat Sistem Kekebalan Tubuh.\r\n- Anti Tumor/Kanker dan Peradangan.\r\n- Memperkuat daya ingat dan konsentrasi.\r\n- Mencegah Batu Ginjal.\r\n- Menormalkan Tekanan Darah.\r\n- Menurunkan Kolesterol.\r\n- Meningkatkan Produksi ASI.\r\n- Mencegah Penyumbatan Pembuluh Darah.\r\n- Dan lain-lain\r\n\r\nAturan Pakai:\r\nKesehatan & stamina : 1x2 kapsul / hari\r\nPenyakit ringan : 2x2 kapsul / hari\r\nPenyakit kronis : 2x3 kapsul / hari\r\nAnak-anak : 1x1 kapsul / hari","rating":0}
{"no":0,"title":"VITAL EAR OIL 10 ML / OBAT TETES TELINGA ANTISEPTIK","price":"15.000","seller":"Toko WR MANDIRI","sellerPlace":"Jakarta Timur","url":"https://www.bukalapak.com/p/kesehatan-2359/obat-suplemen/obat-obatan/l89lx-jual-vital-ear-oil-10-ml-obat-tetes-telinga-antiseptik?from=&product_owner=normal_seller","sold":38,"seen":4838,"favorite":49,"updated":"2019-10-12 17:06:55","description":"VITAL EAR OIL 10 ML / OBAT TETES TELINGA ANTISEPTIK\r\nHARGA 1 PCS VITAL EAR OIL 10 ML = TERTERA\r\nSTOK PRODUK PER 12 NOVEMBER 2015 .......&gt; READY STOCK,.\r\n--------------------------------------------\r\nKOMPOSISI PRODUK :\r\n- THYMOL\r\n- OL. MENTHAE\r\n- OL. CHAMPORA\r\n\r\nINDIKASI PENGGUNAAN :\r\n- Otitis eksterna (radang liang telinga luar)\r\n- Otitis media (radang rongga gendang telinga)\r\n\r\nDOSIS PENGGUNAAN :\r\nTeteskan 3 - 4 kali sehari\r\nPRODUKSI : \r\nPT. MEDIKON PRIMA LABORATORIES,\r\nTANGGERANG - INDONESIA","rating":0}
{"no":0,"title":"Aslene Orlistat 120 mg","price":"275.000","seller":"Vallen Shop","sellerPlace":"Surabaya","url":"https://www.bukalapak.com/p/kesehatan-2359/obat-suplemen/obat-obatan/mkv7ru-jual-aslene-orlistat-120-mg?from=&product_owner=normal_seller","sold":2470,"seen":221,"favorite":5,"updated":"2019-10-13 23:22:48","description":"Aslene Orlistat 120 mg\r\n\r\nSuplement Pelanggsing Badan","rating":0}
{"no":0,"title":"SEX-Sx Sexx WANITA LIQUID ORIGINAL GAIRAH ASLI","price":"174.000","seller":"Negasu","sellerPlace":"Jakarta Selatan","url":"https://www.bukalapak.com/p/kesehatan-2359/obat-suplemen/obat-obatan/24w3nao-jual-sex-sx-sexx-wanita-liquid-original-gairah-asli?from=&product_owner=normal_seller","sold":38,"seen":740,"favorite":9,"updated":"2019-09-29 15:54:23","description":"Cukup ditaruh di air minum apa saja kecuali susu dan air kelapa muda, lebih baik dalam air mineral, teh, jus, sirup atau di minuman yang bersoda. - Satu botol bisa di pakai untuk berkali kali, dan dalam waktu 2 3 menit setelah di minum maka langsung bereaksi pada target anda seperti tepar dan terkapar . Isi 25ml","rating":0}
{"no":0,"title":"PL AVIX--75","price":"16.000","seller":"APOTIK_46","sellerPlace":"Jakarta Utara","url":"https://www.bukalapak.com/p/kesehatan-2359/obat-suplemen/obat-obatan/1fcppp5-jual-pl-avix-75?from=&product_owner=normal_seller","sold":514,"seen":213,"favorite":1,"updated":"2019-09-26 08:13:28","description":"harga tertera untuk ecer satuan pertablet\r\nbarang ready kualitas ok.dijamin asli 100% original\r\nexp.panjang","rating":0}
{"no":0,"title":"zudaifu obat eksim Psoriasis jerawat ruam jamur kudis kurap beri beri","price":"49.000","seller":"Makema","sellerPlace":"Bandung","url":"https://www.bukalapak.com/p/kesehatan-2359/obat-suplemen/obat-obatan/k9wo23-jual-zudaifu-obat-eksim-psoriasis-jerawat-ruam-jamur-kudis-kurap-beri-beri?from=&product_owner=normal_seller","sold":90,"seen":900,"favorite":41,"updated":"2019-10-13 11:57:18","description":"Akhirnya solusi untuk Eksim, Rosacea, Psoriasis, Jerawat, Keratosis Pilaris, ruam misterius, Infeksi Jamur, Kaki Atlet, Kurap Ring, dan banyak lagi!\r\nIni adalah produk baru. Kami telah menggunakan ini secara pribadi dan setelah hasil yang luar biasa, kami berbagi ini dengan orang-orang dan mendapatkan ulasan ini telah dijuluki \"The Miracle Cream\". Kami telah melihat eksim yang mengerikan hanya dalam 3 hari. Rosacea telah menghilang. Ia bahkan membantu menyembuhkan jerawat. Ketika kami mendengar umpan balik dan melihat sebelum dan sesudah foto kami tahu kami harus membaginya dengan Anda.\r\n\r\nSalep herbal Cina ini dapat digunakan untuk mengobati Psoriasis, Eksim, Jerawat, Keratosis Pilaris (KP), Rosacea, ruam dan berbagai masalah kulit lainnya. Zudaifu juga disinfektan untuk infeksi jamur seperti psoriasis, Capitis, tinea, kudis, kurap, tinea, dan beri-beri.\r\n\r\nUntuk menggunakan: Oleskan lapisan tipis pada area yang terkena dan pijat perlahan sampai benar-benar terserap. Ulangi dua kali sehari.\r\n\r\nBahan: Sophorae Flavesgentis radix (ramuan obat anti-inflamasi Cina), Stermonae radix (ramuan obat anti-bakteri dan antijamur Cina), Cnidii Fructus (ramuan obat Cina yang membunuh parasit), Kochiae Fructus (ramuan obat Cina yang digunakan untuk membersihkan panas dan menghilangkan kelembaban) , Menthae Haplocalycis herba (ramuan obat Cina untuk ruam), Ekstrak, Chlorhexidine acetate (pembersih kulit untuk luka), Asam Stearic, Sulfat Monostearat, Glycerol Vineargear, Petrolatum, Air Murni.\r\n\r\nCatatan untuk Ibu menyusui: produk ini dapat menyebabkan penurunan pasokan susu. Tidak direkomendasikan untuk digunakan selama kehamilan\r\n\r\nPERINGATAN : Hindari mata dan area di sekitar mata. The Menthae Haplocalycis adalah mint dan akan menyebabkan sensasi terbakar di mata","rating":0}
{"no":0,"title":"Obat Asam Urat obat Rematik Secumber Dan Basella Denature paling manjur","price":"295.000","seller":"juragan Obat Herbal","sellerPlace":"Cilacap","url":"https://www.bukalapak.com/p/kesehatan-2359/obat-suplemen/obat-obatan/1ft8q1-jual-obat-asam-urat-obat-rematik-secumber-dan-basella-denature-paling-manjur?from=&product_owner=normal_seller","sold":461,"seen":1326,"favorite":16,"updated":"2019-10-14 16:56:42","description":"Obat Asam Urat / Obat Rematik terbatu dari De Nature Samurago dan Habatop Herbal Manjur alami De Nature Efektif untuk Sakit Asam Urat.\r\n\r\nObat Asam Urat De Nature Paling Ampuh 100% Herbal Alami\r\n\r\nObat Asam Urat De Nature terdiri dari Kapsul Samurago dan kapsul Habatop . Kedua produk ini merupakan kombinasi yang sangat tepat untuk menyembuhkan penyakit asam urat dan menurunkan kadar asam urat yang tinggi pada tubuh secara alami karena terbuat dari 100% bahan herbal yang aman tanpa efek samping\r\n\r\nKhasiat:\r\n\r\nMencegah dan Membantu mengobati asam urat dan kolesterol\r\n\r\nMenurunkan kadar asam urat dan kolesterol dalam darah\r\n\r\nMenurunkan lemak jenuh trigliserida\r\n\r\nMengatasi rasa nyeri dan bengkak di persendian\r\n\r\nMembantu Menghilangkan pegal dan kaku pada kaki, lutut, siku dan tangan\r\n\r\nMelancarkan sirkulasi darah","rating":0}
{"no":0,"title":"Salep Perontok Kutil Kelamin Wanita Dan Pria Yang Alami De Nature","price":"250.000","seller":"juragan amanah","sellerPlace":"Cilacap","url":"https://www.bukalapak.com/p/kesehatan-2359/obat-suplemen/obat-obatan/1xgx47m-jual-salep-perontok-kutil-kelamin-wanita-dan-pria-yang-alami-de-nature?from=&product_owner=normal_seller","sold":16,"seen":15,"favorite":0,"updated":"2019-09-30 12:59:27","description":"SALEP ANPILOMA DE NATURE UNTUK MERONTOKAN KUTIL KELAMIN, KUTIL ANUS DAN KUTIL DI PAHA ATAU SELANGKANGAN WANITA ( PEREMPUAN ) DAN PRIA ( LAKI LAKI ) YANG ALAMI\r\n\r\n* IZIN UKOT DINKES RI No. 503/1259/2016/2\r\n* BERSERTIFIKAT HALAL DARI MUI\r\n* IZIN BPOM RI\r\n\r\nPaket :\r\n# 1 Cairan Perontok (Dioles 2x sehari)\r\n\r\nObat Kutil Kelamin Herbal yang Aman dan Ampuh Sembuhkan Kutil Pada kemaluan pria atau Kutil Pada Miss V, pantat, paha, kantung buah zakar, selangkangan, dan organ tubuh lainnya. Kutil rontok Dalam 3 sampai 5 Hari Tanpa Efek Samping dan Ketergantungan Obat. Hal tersebut dibuktikan dengan terdaftarnya produk ini di DINKES RI No. 442/00060/V-2.\r\n\r\nKHASIAT :\r\n- Sebagai antivirus\r\n- Menjaga kesehatan tubuh\r\n- Menghilangkan Kutil Kelamin Secara Tuntas\r\n- Untuk merontokan kutil\r\n- Menghilangkan tahi lalat\r\n- Membantu memelihara kesehatan tubuh\r\n\r\nAturan Pakai:\r\n*Gunakan Cream Perontok Terlebih Dahulu diamkan selama 15-30mnt 2x sehari setelah kutil mulai rontok atau mengelupas (biasanya 2 hari pemakian cream perontok)\r\n\r\nTags :\r\n#obatkutilkelamin\r\n\r\n#salepkutilkelamin\r\n\r\n#perontokkutil\r\n\r\n#obatoleskutil\r\n\r\n#penghilangtahilalat\r\n\r\n#obatkutilkelamindenature\r\n\r\n#denature\r\n\r\n#obatkutilkelamin\r\n\r\n#obatkutilkelamindenature\r\n\r\n#obatkutilwajah\r\n\r\n#obatkutildantahilalat\r\n\r\n#obatkutilswisslotion\r\n\r\n#obatkutiltanpaefeksamping\r\n\r\n#obatkutilkelaminherbal\r\n\r\n#obatkutilkelaminwanita","rating":0}
{"no":0,"title":"Bee Pollen Plus Royal Jelly untuk Fatty Liver","price":"210.000","seller":"Rimba Raya","sellerPlace":"Malang","url":"https://www.bukalapak.com/p/kesehatan-2359/obat-suplemen/obat-obatan/c6dhn1-jual-bee-pollen-plus-royal-jelly-untuk-fatty-liver?from=&product_owner=normal_seller","sold":14,"seen":824,"favorite":16,"updated":"2019-10-10 09:22:58","description":"Fatty Liver adalah perlemakan di organ hati, gejalanya mirip dengan sakit maag, tetapi diberi obat sakit mag tidak kunjung sembuh. Ini karena 70% akar permasalahannya di liver yang berlemak dan toksin, sehingga enzim yang dihasilkan tidak normal. Makanan yang masuk ke lambung sebelum tercerna sudah keburu basi sehingga mengeluarkan gas yang menyebabkan sebah, kembung, mual, merangsang produksi asam lambung tinggi, luka di lambung, asam lambung naik ke esofagus, tenggorokan panas, kadang menekan diafragma, nyeri di ulu hati, kadang menekan jantung sehingga sesak dan jantung berdebar, migren pusing dan sebagainya. Produk ini sangat berguna untuk mengatasi permasalahan diatas. \r\n\r\n*Bila lambung telah luka atau terjadi radang di liver (hepatitis) harus dikombinasi dengan Madu Propolis Infeksi","rating":0}
{"no":0,"title":"Kapsul Obat Hernia","price":"55.000","seller":"MEDIKA JAYA 88","sellerPlace":"Jakarta Barat","url":"https://www.bukalapak.com/p/kesehatan-2359/obat-suplemen/obat-obatan/ui93p3-jual-kapsul-obat-hernia?from=&product_owner=normal_seller","sold":8,"seen":236,"favorite":1,"updated":"2019-09-16 15:38:41","description":"KAPSUL HERNIA\r\nISI 60 KAPSUL\r\n==============\r\nInsya Allah berkhasiat:\r\n1. Membantu mengatasi hernia\r\n2. Mengencangkan otot-otot meridian bawah (perut, pinggul, selakangan)\r\n3. Menguatkan organ dalam (usus, lambung, ginjal dan lain-lain)\r\n\r\nTerapi Pendukung:\r\n* Hindari makanan atau minuman yang bergas, bersifat lembab dan dingin\r\n* Hindari beban kerja yang terlalu berat\r\n\r\nKomposisi:\r\n* Minyak Samin\r\n* Jahe Merah\r\n* Adas\r\n* Lada Hitam\r\n* Telur Ayam\r\n* Fenugreek\r\n\r\nAturan Pakai:\r\nDiminum 3 x 2-3 kapsul/hari","rating":0}
{"no":0,"title":"Herbal Obat Kolesterol-Darah Tinggi-Diabetes - GarlicSauda Plus Propolis - Minyak Bawang Putih Plus Propolis","price":"27.000","seller":"Rahmi","sellerPlace":"Kab. Bandung","url":"https://www.bukalapak.com/p/kesehatan-2359/obat-suplemen/obat-obatan/xvqyb8-jual-herbal-obat-kolesterol-darah-tinggi-diabetes-garlicsauda-plus-propolis-minyak-bawang-putih-plus-propolis?from=&product_owner=normal_seller","sold":1,"seen":108,"favorite":4,"updated":"2019-07-01 20:22:14","description":"Obat Herbal Kolesterol,Darah Tinggi,Diabetes : GarlicSauda + Propolis\r\n\r\nGarlic Sauda Plus Propolis merupakan perpaduan seimbang antara minyak Habbatussauda, minyak zaitun, minyak bawang putih (garlic) dan propolis. Perpaduan ini di dalam tubuh dapat mencairkan endapan-endapan toksid, meluruhkan lemak jenuh dalam pembuluh darah dan mengandung antibiotik tinggi, sehingga jika mengkonsumsi Garlic Sauda Plus Propolis sebelum hijamah (bekam), tubuh akan terasa fit dan toksid akan mudah keluar, bahkan Garlic Sauda Plus Propolis dapat meluruhkan batu ginjal dan batu empedu.\r\n\r\nKhasiat Garlic Sauda Plus Propolis :\r\n\r\n- Menormalkan tekanan darah tinggi (hipertensi) \r\n- Menurunkan kadar kolesterol \r\n- Memecahkan batu empedu dan batu ginjal \r\n- Mengobati batuk, pilek, asma, bronchitis, TBC, dll \r\n- Mencegah dan mengobati stroke \r\n- Mencegah serangan jantung \r\n- Membunuh sel tumor dan kanker (payudara, kista, mioma, dll) \r\n- Mengatasi nyeri saat menstruasi dan mengontrol siklus menstruasi. \r\n\r\n\r\nAturan Pakai :\r\nUntuk menjaga stamina : 2 kapsul/ hari\r\nUntuk sakit ringan : 3 x 1 kapsul/ hari\r\nUntuk sakit kronis : 3 x 2 kapsul/ hari\r\nUntuk anak-anak : 2 x 1 kapsul/ hari","rating":0}
{"no":0,"title":"OBAT FLU BATUK RADANG TENGGOROKAN","price":"55.000","seller":"Cantik97","sellerPlace":"Jakarta Barat","url":"https://www.bukalapak.com/p/kesehatan-2359/obat-suplemen/obat-obatan/10ho5qg-jual-obat-flu-batuk-radang-tenggorokan?from=&product_owner=normal_seller","sold":8,"seen":1326,"favorite":22,"updated":"2019-09-19 08:34:07","description":"Obat = FLU, BATUK, RADANG TENGGOROKAN ATURAN MINUM = 3 X SEHARI. MASING MASING 1 SESUDAH MAKAN YAITU = ELSIRON, RHEMAFAR, TOPCILIN","rating":0}
{"no":0,"title":"MADU HITAM RATU LEBAH","price":"35.000","seller":"Herbal ORIGINAL","sellerPlace":"Depok","url":"https://www.bukalapak.com/p/kesehatan-2359/obat-suplemen/obat-obatan/8sfp6f-jual-madu-hitam-ratu-lebah?from=&product_owner=normal_seller","sold":54,"seen":1142,"favorite":14,"updated":"2019-10-12 16:07:45","description":"madu hitam ratu lebah adalah madu hitam yg di kombinasikan dg propolis sehingga menimbulkan reaksi yg lebih di banding madu hitam biasa..\r\n\r\ndiantara khasiat madu ratu lebah adalah untuk mengobati penyakit seperti :\r\n\r\n- diabetes\r\n- kolestrol\r\n- hipertensi\r\n- kurang stamina\r\n- pegal linu\r\n- capek2\r\n- meningkatkan imunitas\r\n- menjaga stamina\r\n- multivitamin\r\n- dll","rating":0}
{"no":0,"title":"obat jantung herbal","price":"45.000","seller":"Ayo Sehat","sellerPlace":"Tangerang Selatan","url":"https://www.bukalapak.com/p/kesehatan-2359/obat-suplemen/obat-obatan/spdnx3-jual-obat-jantung-herbal?from=&product_owner=normal_seller","sold":4,"seen":233,"favorite":3,"updated":"2019-10-14 15:31:43","description":"obat jantung yang baik mencegah serangan jantung secara mendadak aman dikonsumsi setiap hari karena terbuat dari bahan alami herbal.\r\n\r\n\r\nMinyak Kelapa Ijo Murni Vco Kelapa Hijau Mengurangi resiko Penyakit Jantung.\r\n\r\nKautsar VCO adalah produk herbal dalam bentuk minyak yg terbuat dari 100 persen minyak VCO (Virgin Coconut Oil) dari kelapa hijau yg diolah tanpa pemanasan dan tanpa bahan kimia.\r\n\r\nMinyak kelapa VCO mengandung asam laurat tinggi yang bermanfaat mengatasi beragam masalah kesehatan seperti: diabetes mellitus, kolesterol, virus jantung koroner, asam hepatitis, berat badan berlebih, osteoporosisi, kanker maupun influenza. \r\n\r\nDalam tubuh manusia, asam laurat akan diubah menjadi monolaurin, sebuah senyawa, monogliserida yang mampu menghancurkan lapisan lipid virus, seperti HIV, herpes,influenza dan bakteri berbahaya yang lain. \r\n\r\nAturan pakai :\r\nDEWASA\r\nKesehatan : 2 x 1 sendok makan/hari\r\nPengobatan : 3 X 2 sendok makan/hari\r\n\r\nANAK - ANAK\r\nKesehatan : 1 x 1 sendok makan/hari\r\nPengobatan : 3 X 1 sendok makan/hari\r\n\r\nLainnya :\r\n- Untuk sakit gigi :\r\n1-2 sendok makan digunakan untuk berkumur selama 1-2 menit, ulangi setiap 3 jam sekali sampai sembuh\r\n- Untuk mengurangi bakteri mulut, bau mulut, menyehatkan dan memutihkan gigi :\r\n1-2 sendok makan gunakan untuk berkumur selama 1-2 menit setiap pagi dan malam setelah gosok gigi.\r\n- Untuk perawatan kulit dan rambut :\r\nOleskan 3x sehari setelah mandi dan sebelum mandi\r\n- Untuk penyakit kulit dan luka :\r\nOleskan 3x sehari setelah mandi dan sebelum tidur\r\n\r\nKomposisi : Minyak kelapa perasan pertama (VCO / Virgin Coconut Oil)\r\n\r\nIsi : 250ml","rating":0}
{"no":0,"title":"Promo Semen Booster - Herbal untuk Mani Encer","price":"200.000","seller":"Kedai Herbal Terapi","sellerPlace":"Jakarta Selatan","url":"https://www.bukalapak.com/p/kesehatan-2359/obat-suplemen/obat-obatan/o3yc7s-jual-promo-semen-booster-herbal-untuk-mani-encer?from=&product_owner=normal_seller","sold":24,"seen":72,"favorite":3,"updated":"2019-10-08 10:25:58","description":"Ingin Segera Hamil? Anda pria yang tidak subur? Semen booster solusi kehamilan dengan mengentalkan sperma dan menyuburkan pria.\r\n\r\nSolusi air mani atau sperma encer, 0bat herbal sperma encer, mengentalkan sperma, meningkatkan kesuburan pria, meningkatkan kualitas air mani, meningkatkan libido sehingga Anda bisa beraksi liar di atas ranjang akibat gairah seksual yang mengebu-gebu.\r\n\r\nAir sperma yang Anda keluarkan saat ezakulasi adalah indeks kesehatan seksual Anda. Air sperma banyak namun tidak kental, ini adalah kondisi yang buruk. Percuma apabila produksi sperma didalam testis banyak namun air sperma yang Anda keluarkan saat ezakulasi encer. Air sperma encer adalah kondisi yang sangat buruk dan ini akan mempengaruhi kejantanan dan kesuburan. Bahkan, banyak wanita yang terangsangan secara visual apabila pasangannya menyemburkan air sperma yang kental dan banyak.\r\n\r\nAgar sperma tidak encer dan untuk bisa mendapatkan air sperma yang lebih kental, pastikan tubuh Anda mendapatkan asupan mineral dan vitamin yang dibutuhkan tubuh untuk menghasilkan air sperma yang sehat dan kental. Seng, magnesium dan selenium adalah jenis mineral yang sangat penting dan dibutuhkan oleh tubuh dalam menjaga kesehatan air sperma, sehingga kondisi sperma selalu terjaga kualitasnya dan kekentalannya.\r\n\r\nManfaat nyata Semen Booster Kapsul: \r\nMengentalkan air mani atau sperma.\r\nMenyehatkan dan menyuburkan sperma\r\nMeningkatkan potensi untuk merasakan kenikmatan seksual, tidak hanya sekali tapi berulang kali.\r\nMenjadikan ezakulasi jauh dan jauh lebih nikmat\r\nMenjadikan erexi kuat, kencang dan keras\r\nMemperbanyak produksi sperma 300%.\r\n\r\nDetail Produk:\r\nNama: Semen Booster\r\nKemasan: Botol (lihat foto diatas)\r\nIsi: 60 kapsul @ 5