{"no":0,"title":"di ovan .160mg.","price":"75.000","seller":"Rudi Adiyatna","sellerPlace":"Jakarta Timur","url":"https://www.bukalapak.com/p/kesehatan-2359/obat-suplemen/obat-obatan/2cxt39h-jual-di-ovan-160mg?from=&product_owner=normal_seller","sold":0,"seen":0,"favorite":0,"updated":"2019-10-10 07:41:10","description":"harge tertera untuk satu box isi 3strip@10tablet.\r\n\r\n#barangori","rating":0}
{"no":0,"title":"JAMU GODOG KONDANG WARAS HABIS BERSALIN","price":"8.000","seller":"Pesona herbal","sellerPlace":"Bekasi","url":"https://www.bukalapak.com/p/kesehatan-2359/obat-suplemen/obat-obatan/15mzvd4-jual-jamu-godog-kondang-waras-habis-bersalin?from=&product_owner=normal_seller","sold":20,"seen":161,"favorite":4,"updated":"2019-09-18 19:27:36","description":"Jamu Godog Kondang Waras Habis Bersalin merupakan jamu tradisional yang berkhasiat dan bermanfaat :\r\nUntuk melancarkan air susu ibu.\r\nTambah darah.\r\nMencegah keputihan.\r\nMemulihkan tenaga.\r\nAturan pakai :\r\n1bungkus di rebus dengan 5 gelas air, hingga tinggal 3 gelas air .\r\ndiminum secara teratur pada pagi dan sore hari. Hanya digunakan untuk sekali rebus. Dan rasakan manfaatnya","rating":0}
{"no":0,"title":"MANJAKANI SK12 suplemen kesehatan daerah intim wanita","price":"135.000","seller":"healthy999","sellerPlace":"Jakarta Barat","url":"https://www.bukalapak.com/p/kesehatan-2359/obat-suplemen/obat-obatan/1mj0apn-jual-manjakani-sk12-suplemen-kesehatan-daerah-intim-wanita?from=&product_owner=normal_seller","sold":2,"seen":38,"favorite":0,"updated":"2019-10-05 23:43:11","description":"NAMA : Manjakani\r\n\r\n\r\nNETTO : 60 Butir\r\n\r\n\r\nATURAN PAKAI MANJAKANI\r\n\r\n\r\n\r\nUntuk merapatkan organ intim\r\n\r\n\r\n\r\n\r\nSetiap 4 hari 1-2 butir, dimasukkan ke dalam Miss V\r\n\r\n\r\n\r\nUntuk keputihan Ringan - Sedang\r\n\r\n\r\n\r\n\r\nSetiap 4 hari 1-2 butir, dimasukkan ke dalam Miss V\r\n\r\n\r\n\r\nUntuk keputihan Berat\r\n\r\n\r\n\r\n\r\nSetiap hari 2-3 butir dimasukkan ke dalam Miss V sampai sembuh.\r\n\r\n\r\n\r\nPerawatan bagi Gadis / perawan\r\n\r\n\r\n\r\n\r\nDiminum 5 hari berturut-turut setelah haid, dosis sekali minum 3butir / hari. Diminum cukup sehari 1x.\r\n\r\n\r\n\r\nProgram Hamil:\r\n\r\n\r\n\r\n\r\nBersihkan keputihan dahulu dengan majakani sampai sebelum haid. Saat sedang haid, berhenti pakai majakani.\r\n\r\n\r\nJika sudah selesai haid, masukkan majakani ke miss V seminggu 1-2 kali @1butir. Setelah itu stop pakai majakaninya\r\n\r\n\r\ndan mulai berhubungan. Tunggu haid bulan berikutnya. Jika masih haid, ulangi lagi tahap sebelumnya.\r\n\r\n\r\nJika sudah tidak haid lagi, silahkan di test.\r\n\r\n\r\n\r\nUntuk wasir\r\n\r\n\r\n\r\n\r\nSaat wasir mulai kambuh, haluskan 1 butir manjakani lalu campurkan 1-2 tetes air minum.\r\n\r\n\r\nKemudian oleskan pada area sekitar dubur / area wasir. Untuk hasil maximal diminum juga 3 butir/ hari.\r\n\r\n\r\nJika wasir sudah membaik masukkan manjakani 2 butir ke dalam dubur sebanyak 2x dalam seminggu.\r\n\r\n\r\nDan diminum 3 butir hari untuk mempercepat proses penyembuhan.\r\n\r\n\r\nUntuk pengobatan, diamkan saja beberapa hari. Nanti majakani akan menyatu dengan keputihan dan akan keluar lagi\r\n\r\n\r\ndengan sendirinya (keluarnya antara1-4 hari kemudian, tergantung dengan banyaknya cairan keputihan yang ada didalam miss V).\r\n\r\n\r\nMajakani akan keluar menyerupai gumpalan-gumpalan kapas basah berwarna putih / putih kekuning-kuningan.(Semakin putih warnanya,\r\n\r\n\r\nitu tanda bakteri miss Vnya sedikit. Tapi jika keluarnya dgn warna yang semakin kuning, itu tanda miss V sedang banyak bakterinya)\r\n\r\n\r\nPemakaian majakani ini tergantung dari kebutuhan karena miss V tiap orang berbeda-beda, tergantung hormon orang tersebut.\r\n\r\n\r\nJadi cuma kamu yang tahu kapan saja kamu butuh memakai majakani.","rating":0}
{"no":0,"title":"jamu diabetes JAMSI 100 Asli","price":"100.000","seller":"HERBALPLUS","sellerPlace":"Jakarta Barat","url":"https://www.bukalapak.com/p/kesehatan-2359/obat-suplemen/obat-obatan/1blj9jl-jual-jamu-diabetes-jamsi-100-asli?from=&product_owner=normal_seller","sold":0,"seen":31,"favorite":1,"updated":"2019-09-16 07:57:18","description":"----\r\nApa itu JAMSI (Jamu Diabetesi) ?\r\nJAMSI adalah Minuman fermentasi yang terbuat dari bahan-bahan alami dan kemudian diolah dengan teknologi Nano agar menghasilkan ramuan herbal yang mudah diserap oleh tubuh sehingga khasiatnya bisa cepat Anda rasakan.\r\n\r\nBagaimana rasanya?\r\nJAMSI memiliki rasa yang sedikit pahit, manis, asem dan langsung terasa hangat di badan.\r\n\r\nKenapa Harus Memilih JAMSI ?\r\n- Saat JAMSI larut ke dalam sistem pencernaan maka kandungan bakteri saccharomyces (bakteri baik pemakan gula) akan melakukan oksidasi merubah gula menjadi air serta merubahnya menjadi energi.\r\n- Dapat memperbaiki kinerja pankreas sehingga pankreas dapat bekerja lebih maksimal dalam memproduksi insulin yang bertugas menetralisir kadar gula dalam tubuh.\r\n- Tidak menyebabkan ketergantungan , hanya saja setelah gula darah normal kami sarankan untuk menjaga pola makan atau bisa juga tetap mengkonsumsi JAMSI 1 sloki setiap harinya\r\n\r\nAturan pakai:\r\n1 x 1 sendok makan per hari atau\r\n3 x 2 sendok makan per hari jika perlu (maksimum)\r\n\r\nDiproduksi oleh PT. Mahkotadewa Indonesia\r\nNetto / isi: 100 ml\r\nPOM TR 133 672 711\r\n--------------------------------\r\n\r\nHATI2 PRODUK PALSU DENGAN HARGA MURAH. KAMI TIDAK BERTANGGUNG JAWAB ATAS KEASLIAN PRODUK YANG DI JUAL DI BAWAH HARGA KETENTUAN PRODUSEN YAITU 100-RB / BOTOL!!!","rating":0}
{"no":0,"title":"Cing fung san bai boa cing fung san","price":"150.000","seller":"sinar gemilang shop","sellerPlace":"Jakarta Utara","url":"https://www.bukalapak.com/p/kesehatan-2359/obat-suplemen/obat-obatan/2dcy59v-jual-cing-fung-san-bai-boa-cing-fung-san?from=&product_owner=normal_seller","sold":0,"seen":1,"favorite":0,"updated":"2019-10-12 23:20:57","description":"Exp 06-2021\r\nPRODUK DIJAMIN 100%original asli\r\nHARGA SATUAN (eceran)\r\nCara Pakai \r\n\r\nDiminum dengan air hangat setiap 4 jam.\r\n-Untuk bayi usia dibawah 1 tahun 1/2 botol\r\n-usia 1 tahun keatas minum 1-2 botol \r\n\r\nBayi yang sehat dianjurkan minum sebulan 2 kali untuk mencegah terkena penyakit.\r\n\r\nKhasiat: \r\nMembantu anak - anak meredakan pilek, batuk yang disertai reak, demam, masuk angin, perut kembung, muntah susu, diare, serta pada bayi yang mengalami kaget\r\n\r\nCara Penyimpanan \r\nSimpan ditempat sejuk dan kering, terlindung dari cahaya matahari\r\n\r\nKemasan \r\n1 kotak isi 12 botol @0,26grm\r\n\r\nDiproduksi Oleh Fujian Guangzhou","rating":0}
{"no":0,"title":"obat jantung atau dan shen pill","price":"129.000","seller":"sinar gemilang shop","sellerPlace":"Jakarta Utara","url":"https://www.bukalapak.com/p/kesehatan-2359/obat-suplemen/obat-obatan/2bp6ak6-jual-obat-jantung-atau-dan-shen-pill?from=&product_owner=normal_seller","sold":0,"seen":5,"favorite":0,"updated":"2019-10-09 07:53:03","description":"Compound Danshen Dripping Pills - Fu Fang Dan Shen Ti Yen\r\n\r\nKHASIAT:\r\n- Membantu mengobati penyakit jantung coroner, terutama bila ada penyumbatan pembuluh darah\r\n\r\nKOMPOSISI:\r\n- Danshen (Radix Salviae Miltiorrhizae), Sanqi (Radix Notoginseng) and borneol\r\n\r\nCARA PEMAKAIAN:\r\n- Jika sedang kambuh atau ada penyumbatan, Sehari 3 x 10 pil kecil (1 sedotan)\r\n- Untuk menjaga kesehatan, seminggu 1x\r\n\r\nTASLY PHARMACEUTICAL GROUP CO LTD\r\n\r\nNB : Tanyakan stock terlebih dahulu sebelum membeli","rating":0}
{"no":0,"title":"Bentrap Garansi ORIGINAL Minuman Khusus Pria Dewasa Isi 5 Sachet","price":"335.000","seller":"Ringgi","sellerPlace":"Jakarta Timur","url":"https://www.bukalapak.com/p/kesehatan-2359/obat-suplemen/obat-obatan/1xzd4vj-jual-bentrap-garansi-original-minuman-khusus-pria-dewasa-isi-5-sachet?from=&product_owner=normal_seller","sold":0,"seen":37,"favorite":0,"updated":"2019-08-01 17:48:40","description":"Barang selalu ready stock\r\n100% Original\r\n\r\nPenjelasan singkat tentang BENTRAP\r\n\r\nApa BENTRAP?\r\nBENTRAP itu formula khusus dari gingseng merah korea. Berfungsi melancarkan peredaran darah, meregenerasi sel dan mengatasi disfungsi seksual pria. Bagus buat yang nggak kuat dan nggak tahan lama. Aman buat penderita diabetes.\r\n\r\nCara konsumsi?\r\nDikonsumsi 4 jam sebelum hubungan intim, hubungan bisa sensasional. Efeknya sampai 3 hari, minum 1 saset bisa resposif berulang ulang dalam kurun waktu 3 hari.\r\n\r\nAman nggak?\r\nJelas aman, karena BENTRAP diracik dengan teknologi stemsel, kandungan gingseng merah korea, merupakan formula yang sangat langka, karena hanya bisa di panen dalam 5 tahun sekali. BENTRAP tidak membuat jantung berdebar, karena efek yang ditimbulkan adalah efek formulasi, bukan kimiawi.\r\n\r\nKok mahal?\r\nHitungannya nggak mahal pak. Bapak beli 1 saset, bisa responsif sampai 3 hari, dibandingkan bapak beli obat kuat 1 kapsul kadang harganya bisa 100rb/150rb, hanya sekali buat hubungan intim. Dan belum tentu aman secara kesehatan dan efek sampingnya. Murah atau mahal itu relatif, dibandingkan dengan efek yang ditimbulkan.\r\n\r\nApakah sudah banyak yang merasakan khasiatnya?\r\nSudah..banyak pengguna Bentrap merasa puas dan joss.\r\n\r\n1 box isi 5 sachet","rating":0}
{"no":0,"title":"brainack.500mg.","price":"375.000","seller":"Rudi Adiyatna","sellerPlace":"Jakarta Timur","url":"https://www.bukalapak.com/p/kesehatan-2359/obat-suplemen/obat-obatan/2cxwce5-jual-brainack-500mg?from=&product_owner=normal_seller","sold":0,"seen":1,"favorite":0,"updated":"2019-10-10 08:17:16","description":"harga tertera untuk satu box isi 3 strip@10tab.\r\n\r\n#barangori","rating":0}
{"no":0,"title":"diovan.160mg.","price":"70.000","seller":"Rudi Adiyatna","sellerPlace":"Jakarta Timur","url":"https://www.bukalapak.com/p/kesehatan-2359/obat-suplemen/obat-obatan/2deq736-jual-diovan-160mg?from=&product_owner=normal_seller","sold":0,"seen":0,"favorite":0,"updated":"2019-10-13 15:43:54","description":"harga tertera untuk satu box isi 3 strip@10tab..\r\n\r\n#barangori","rating":0}
{"no":0,"title":"Obat Penghilang Lemak Perut - Lemak Paha - Minuman Pelangsing Alami De Lemon ASLI Sari Lemon","price":"100.000","seller":"Susi Fatmawati","sellerPlace":"Jakarta Barat","url":"https://www.bukalapak.com/p/kesehatan-2359/obat-suplemen/obat-obatan/1t2049b-jual-obat-penghilang-lemak-perut-lemak-paha-minuman-pelangsing-alami-de-lemon-asli-sari-lemon?from=&product_owner=normal_seller","sold":3,"seen":21,"favorite":0,"updated":"2019-10-10 15:28:13","description":"*BARANG SELALU READY STOCK\r\n*LANGSUNG KLIK BELI SEKARANG, KAMI LANGSUNG PROSES DAN DI KIRIM HARI INI JUGA\r\n*KEASLIAN OBAT TERJAMIN\r\n*AMAN DAN TANPA EFEK SAMPING\r\n*BERGARANSI UANG KEMBALI 100%, JIKA BARANG TIDAK SAMPAI TUJUAN ATAUPUN RUSAK\r\n\r\n>Pengiriman dilakukan sampai jam 14.30 WIB\r\n>Hari minggu tidak melakukan pengiriman, tapi tetap menerima orderan dan dikirim pada hari senin\r\n\r\n**Keterangan Produk\r\nNama Produk : LEMON MIX\r\nIsi : 500 ml\r\nKomposisi : Sari Lemon Asli & Madu Royal Jelly\r\nHarga Eceran : Rp. 100.000/botol\r\nHarga Grosir : minimal beli 6, dapat potongan harga Rp. 5.000/botol\r\nDi Produksi : CV. SAMI MANDJOER\r\nLegalitas : POM TR 193629421 dan sertifikat HALAL\r\n\r\nLEMON MIX merupakan KEMASAN BARU dari DE LEMON, HARGA dan KHASIAT TETAP SAMA\r\n\r\nLEMON MIX merupakan suplemen kesehatan herbal yang mampu mengatasi berbagai jenis penyakit. Selain untuk mengatasi berbagai jenis penyakit, LEMON MIX ini di formulasikan khusus untuk membantu menurunkan berat badan secara cepat dan aman tanpa efek samping.\r\n\r\nLEMON MIX terbuat dari sari lemon asli dipadukan dengan campuran Madu royal Jelly tanpa adanya campuran bahan kimia yang berbahaya. De Lemon ini di produksi oleh CV. SAMI MANDJOER di proses secara higienis & Steril sehingga aman untuk di konsumsi. Selain itu juga, LEMON MIX ini sudah terdaftar di BPOM RI dengan nomor regestrasi 193629421 serta telah memiliki sertifikat HALAL dari MUI.\r\n\r\n**kandungan : Protein, Serat, Vitamin C, Vitamin A, Vitamin B6, Vitamin B12, Vitamin D, Vitamin E, & Vitamin K, Folat, Asam pantotenat, Riboflavin, Thiamin, Mineral, Kalori, Natrium, Kalium, Karbohidrat, Glukosa, Kalsium, Zat besi Dan Magnesium.\r\n\r\n**Khasiat dan Manfaat LEMON MIX\r\no)Sumber vitamin C yang sangat tinggi\r\no)Dapat menurunkan Berat badan dengan cepat\r\no)Mengatasi berbagai jenis penyakit\r\no)Bagus untuk kulit (mencerahkan kulit, menghilangkan jerawat dll)\r\no)Meningkatkan metabolisme tubuh\r\no)Meningkatkan daya tahan tubuh\r\no)Mengatasi masalah pencernaan\r\no)Mengatasi flu dan batuk\r\no)Mengatasi radang tenggorokan\r\no)Menghentikan pendarahan\r\no)Menghilangkan racun dalam tubuh\r\no)Melancarkan sirkulasi darah\r\no)Menormalkan tekanan darah \r\no)Melindungi tubuh dari infeksi\r\no)Meningkatkan kesehatan jantung\r\no)Mengatasi masalah pada jantung\r\no)Menyegarkan Mulut (bau mulut/napas)\r\n\r\n**Aturan Konsumsi\r\n-Diminum Setiap Saat Sesuai Selera, bisa di minum kapanpun (Pagi, Siang, Sore & Malam)\r\n-Untuk Kesehatan : 1-2x sehari diminum saat perut kosong (campurkan kedalam air hangat )\r\n-Untuk Diet 2x sehari\r\n\r\n*AMAN DI KONSUMSI BAGI WANITA HAMIL DAN IBU MENYUSUI*\r\n\r\nDisclaimer : Reaksi/khasiat obat herbal ini setiap individu berbeda-beda, tergantung tingkat keparahan penyakitnya, respon tubuh, pola makan, faktor lingkungan dan usia.","rating":0}
{"no":0,"title":"BALSEM OTOT GELIGA 20 G","price":"8.400","seller":"Toko WR MANDIRI","sellerPlace":"Jakarta Timur","url":"https://www.bukalapak.com/p/kesehatan-2359/obat-suplemen/obat-obatan/10mm5o-jual-balsem-otot-geliga-20-g?from=&product_owner=normal_seller","sold":65,"seen":1257,"favorite":15,"updated":"2019-10-12 16:22:14","description":"BALSEM OTOT GELIGA 20 GRAM\r\nHARGA 1 PCS BALSEM OTOT GELIGA 20 GRAM : TERTERA\r\nSTOK PRODUK ,......> READY STOCK,.\r\nSILAHKAN LANGSUNG DIPESAN AJA LANGSUNG YA GAN\r\n-------------------------------------\r\nTERIMA KASIH, SUKSES DAN SEHAT SELALU UNTUK ANDA","rating":0}
{"no":0,"title":"Paramex","price":"2.500","seller":"mandjur","sellerPlace":"Jakarta Pusat","url":"https://www.bukalapak.com/p/kesehatan-2359/obat-suplemen/obat-obatan/7nsde6-jual-paramex?from=&product_owner=normal_seller","sold":767,"seen":1039,"favorite":11,"updated":"2019-10-10 00:10:42","description":"Khasiat : \r\n- Efektif meredakan rasa nyeri\r\n- Efektif mengurangi peradangan\r\n- Efektif digunakan untuk sakit kepala, migrain dan sakit gigi\r\n\r\nParamex merupakan obat yang digunakan untuk meringankan rasa nyeri seperti nyeri akibat sakit kepala, migrain, dan efektif juga untuk mengobati sakit gigi. Paramex mengandung Paracetamol yang bekerja efektif sebagai analgesik dan antipiretik untuk meredakan rasa nyeri dan menurunkan panas demam, selain itu kandungan Propyphenazone nya bekerja efektif sebagai antiinflamasi untuk mengurangi peradangan, sedangkan kandungan Caffein dan Dexchlorpheniramine bekerja untuk mencegah rasa kantuk dan termasuk golongan obat antihistamin.\r\n\r\nCara Pakai :\r\nDewasa dan Anak anak diatas 12 tahun : 2 - 3 kali sehari 1 tablet\r\n\r\nPerhatian :\r\n- Jangan melebihi dosis yang dianjurkan\r\n- Hati hati penggunaan pada penderita porphyria akut karena dapat menimbulkan porphyrinogenic\r\n- Bila setelah 5 hari nyeri tidak hilang, segera hubungi dokter atau Unit Pelayanan Kesehatan\r\n- Obat ini dapat menyebabkan kantuk\r\n- Penggunaan pada penderita yang mengkonsumsi alcohol dapat meningkatkan resiko kerusakan hati\r\n\r\nKontra indikasi :\r\n- Penderita dengan gangguan fungsi hati\r\n- Penderita dengan hipersensitif terhadap salah satu komponen\r\n\r\nEfek Samping : Penggunaan dosis besar dan jangka lama menyebabkan kerusakan hati\r\n\r\nKomposisi\r\nTiap tablet mengandung :\r\n- Paracetamol 250 mg\r\n- Propyphenazone 150 mg\r\n- Caffeine 50 mg\r\n- Dexchlorpheniramine Maleate 1 mg\r\n\r\nKemasan : Strip isi 4 tablet\r\n\r\nDiproduksi Oleh : Konimex pharmaceutical laboratories\r\n\r\nBPOM No : DTL 7813003810 A1","rating":0}
{"no":0,"title":"PARAMEX SAKIT KEPALA ISI 4 TABLET","price":"2.300","seller":"Toko WR MANDIRI","sellerPlace":"Jakarta Timur","url":"https://www.bukalapak.com/p/kesehatan-2359/obat-suplemen/obat-obatan/pgakg-jual-paramex-sakit-kepala-isi-4-tablet?from=&product_owner=normal_seller","sold":262,"seen":917,"favorite":6,"updated":"2019-10-14 14:24:51","description":"PARAMEX SAKIT KEPALA ISI 4 TABLET \r\nHARGA PARAMEX 1 STRIP ISI 4 TABLET = TERTERA\r\nSTOK PRODUK .....> READY STOCK\r\n------------------------------------------------\r\nKOMPOSISI PRODUK :\r\n- Propifenazon / propyphenazone 150 mg, \r\n- Parasetamol / paracetamol 250 mg, \r\n- Deksklorfeniramini maleate / dexchlorpheniramine maleate 1 mg, \r\n- Kafein anhidrat / anhydrous caffeine 50 mg.\r\n\r\nINDIKASI PENGGUNAAN PRODUK :\r\nSakit kepala, migren, sakit gigi, nyeri menstruasi, flu, reumatisme, neuralgia (nyeri saraf) & skiatika (pinggang pegal, linu panggul), demam.\r\n\r\nDOSIS PENGGUNAAN OBAT :\r\nDewasa & anak berusia lebih dari 12 tahun : 2-3 kali sehari 1-2 tablet.\r\nAnak berusia 6-12 tahun : 2-3 kali sehari -1 tablet.\r\nAnak berusia 1-6 tahun : 2-3 kali sehari - tablet.\r\nDikonsumsi bersamaan dengan makanan.\r\n\r\nKEMASAN PRODUK :\r\n1 DUS ISI 25 STRIP. 1 STRIP ISI 4 TABLET.\r\nPRODUKSI : PT. KONIMEX","rating":0}
{"no":0,"title":"Teh Celup Daun Sirsak Plus","price":"15.000","seller":"Hikmah Herbal","sellerPlace":"Jakarta Timur","url":"https://www.bukalapak.com/p/kesehatan-2359/obat-suplemen/obat-obatan/70xce8-jual-teh-celup-daun-sirsak-plus?from=&product_owner=normal_seller","sold":306,"seen":2934,"favorite":54,"updated":"2019-10-12 20:03:29","description":"Teh Celup Daun Sirsak Plus \r\n\r\nMinuman menyehatkan alami bagi kesehatan,mengobati penyakit kanker dan tumor pada umumnya sebagai antibakteri dalam tubuh,menurunkan tekanan darah,menambah imunitas,mencegah asam urat,bagi pria menambah jumlah dan memperkuat sel benih.\r\n\r\nCara Penyajian :\r\nSatu kantong teh celup daun sirsak di masukkan ke dalam satu gelas air panas yang baru mendidih dan di biarkan selama beberapa saat sampai berwarna pekat dan perlu tambahkan gula sesuai selera.\r\n\r\nAturan Pakai :\r\n\r\nDi minum 2 X sehari\r\n\r\nPagi dan Sore\r\n\r\nPesanan Anda siap kami kirim hari ini juga setelah kami mendapatkan invoice pemesanan. Kami packing menggunakan Dus/Box yang rapih dan kuat supaya prodak yang kami kirim sampai ke tangan pembeli dalam kondisi baik.","rating":0}
{"no":0,"title":"Teh Rumput Teki isi 24 Sachet","price":"250.000","seller":"iwan hendra gunawan","sellerPlace":"Purwakarta","url":"https://www.bukalapak.com/p/kesehatan-2359/obat-suplemen/obat-obatan/h1hog-jual-teh-rumput-teki-isi-24-sachet?from=&product_owner=normal_seller","sold":250,"seen":11851,"favorite":437,"updated":"2019-10-05 08:24:33","description":"Sesuai Bpom nama \"teh rumput teki \" berubah jadi \"Teh Teki\"\r\nbarang yg tayang otomatis tersedia...\r\n- Membantu Melancarkan Haid Yang Tidak Lancar\r\n- Membantu Mengatasi Keputihan\r\n- Memberikan Rasa Kesat Dan Elastic Di organ kewanita'an Serta Dapat Mencegah Kanker Serviks\r\nterbuat dari bahan alami dan diproses secara higienis,sehingga menghasilkan ramuan tradisonal yg lengkap dan sangat mudah diserap tubuh,hingga reaksi yang dihasilkanpun cepat dan sisa ampas dapat digunakan sebagi : masker wajah,bobok di payudara(untuk merangsang pengeluaran (ASI), menghilangkan flex karena pengaruh KB,bekas jerawat\r\nisi kemasan 12 sachet x 2,5gr berat 80gr\r\ncara pemakaian di seduh seperti teh celup\r\njangan menggunakan air mendidih cukup air panas termos dan dispencer aja\r\nsatu sachet bisa untuk 3x pemakaian\r\nanjuran jangan terlalu pekat seduhannya..\r\n\r\nkomposisi\r\nRumput teki,Benalu ketepeng,Daunteh hijau,Bunga melati putih\r\ninformasi lainnya untuk wil subang bisa hub Rumah Herbal pagaden\r\n\r\nharga di atas adalah untuk 2 kotak @ 12sachet\r\n\r\n\r\nMUI 17120017880615\r\nPOM TR 173 202 781\r\n\r\nDistributor PT.Manggata Utama Ind\r\n\r\nCatatan : barang yang ada di Etalase dan masih tayang otomatis barang tersedia \r\nTeh Rumput Teki...berubah Nama jadi \"Teh Teki\" dengan produsen dan barang yg sama...","rating":0}
{"no":0,"title":"Pembalut kain yuspin night use","price":"130.000","seller":"butikbeauty","sellerPlace":"Jakarta Barat","url":"https://www.bukalapak.com/p/kesehatan-2359/obat-suplemen/obat-obatan/1iojpy-jual-pembalut-kain-yuspin-night-use?from=&product_owner=normal_seller","sold":40,"seen":1530,"favorite":59,"updated":"2019-10-02 11:42:28","description":"KENALAN SAMA PEMBALUT YUSPIN NAPKINS YUK SAY... Apa itu yuspin ckoth Napkins??\r\nJawaban nya adalah : Pembalut yang dibuat dari kain, TANPA bahan kimia (dioxin, klorin dan Pulp/serbuk kayu), No pewangi, dan 100% aman, sehat dan hemat.\r\n\r\nOke, kita bahas yuk satu satu tentang Pembalut yuspin cloth napkins.\r\nYuspin cloth napkins adalah pilihan tepat untuk wanita cermat. Yuspin adalah pembalut wanita yg berbahan baku kain yg didesain khusus dgn lapisan paling luar terbuat dari bahan kaos pilihan dan bermutu tinggi, lembut dan dingin sehingga tidak menyebabkan iritasi bagi pengguna. Lapisan dalam berbahan baku handuk lembut dan berdaya setap tinggi dgn kualitas pilihan sehingga tidak panas saat digunakan dan dilapisi dgn bahan anti bocor yg bisa menahan agar tidak tembus. Bebas dari berbagai campuran bahan kimia berbahaya sehingga tidak menimbulkan iritasi, nyaman dipakai disegala cuaca dan kondisi, SEHAT, AMAN dan HEMAT karena dapat digunakan kembali berkali-kali setelah dicuci (kurleb hingga 2 thn). \r\n\r\nYang mau bebas dari resiko kanker serviks, yuk sayang kita beralih kepembalut kain yuspin. Pilihan SEHAT untuk wanita SMART.\r\n\r\nYUSPIN NIGHT USE\r\n-Size (dibentangkan): Panjang:30cm X Lebar:20cm\r\n-Spek : daya tampung 110 cc cairan\r\n-Setiap pack berisi 6 lembar","rating":0}
{"no":0,"title":"Sandal kesehatan sandal bakiak dop Nikita","price":"14.000","seller":"Sulistyo","sellerPlace":"Sukoharjo","url":"https://www.bukalapak.com/p/kesehatan-2359/obat-suplemen/obat-obatan/vhfpd-jual-sandal-kesehatan-sandal-bakiak-dop-nikita?from=&product_owner=normal_seller","sold":135,"seen":2490,"favorite":103,"updated":"2019-10-02 12:39:20","description":"Sandal kesehatan Nikita, sandal dop duri besar, adalah sandal kesehatan yang dibuat khusus untuk merangsang refleksi telapak kaki. Sandal kesehatan relfleksi kaki Nikita ini memiliki sekitar 60 tonjolan yang masing-masing tonjolan memiliki tugas akupresur pada titik-titik refleksi telapak kaki. \r\n\r\nEfek menyegarkan dari tonjolan sandal kesehatan ini berhubungan langsung dengan titik-titik refleksi yang tersambung ke seluruh bagian tubuh. Ketika titik-titik relfeksi ini terangsang melalui pemijatan, maka seluruh tubuh anda merasa lebih segar.\r\n\r\nBahan:\r\nSandal kesehatan Nikita ini dibuat dari bahan plastik lentur tapi kuat. Bagian bawahnya dirancang anti selip, sehingga anda tidak mudah terjatuh ketika memakai sandal ini melintasi ubin atau permukaan lantai yang licin sekalipun. \r\n\r\nStatus Stok dan Ukuran:\r\nSecara keseluruhan ada 4 ukuran\r\nUkuran S (37/38) - Panjang sandal: 24 cm \r\nUkuran M (39/40) - Panjang sandal: 25 cm \r\nUkuran L ( 41/42) - Panjang sandal: 26 cm \r\nUkuran XL (43/44) - Panjang sandal: 27 cm \r\nSilahkan tentukan ukuran dalam kolom keterangan\r\n\r\nWarna:\r\nPelapak tidak menjamin ketersediaan semua warna, pembeli dimohon tidak memberi prioritas pada 1 warna saja, untuk pilihan warna mohon juga ditulis alternatifnya jika warna yg dipesan tidak tersedia. Contohnya, Keterangan: warna hitam, kl tdk ada, warna bebas. \r\n\r\n*JIKA WARNA YANG DIMINTA TIDAK TERSEDIA, PESANAN ANDA TETAP AKAN KAMI KIRIM DENGAN WARNA YANG ADA.","rating":0}
{"no":0,"title":"Jamu Montok Pembesar Payudara","price":"50.000","seller":"Razak Ramuan Madura","sellerPlace":"Bangkalan","url":"https://www.bukalapak.com/p/kesehatan-2359/obat-suplemen/obat-obatan/8by6v6-jual-jamu-montok-pembesar-payudara?from=&product_owner=normal_seller","sold":160,"seen":6412,"favorite":181,"updated":"2019-10-07 18:36:29","description":"amu montok payudara alami ini berkhasiat untuk :\r\n membantu pertumbuhan sel dan memperlancar peredaran darah di payudara sehingga membantu membesarkan dan memperindah payudara agar kelihatan montok dan indah.\r\n membantu mengencangkan payudara yang kendor / kurang sehat menjadi segar, kencang dan montok seperti waktu usia muda dulu.\r\n Membentuk posisi payudara sehingga tampak ideal\r\n\r\nCara minum : sehari diminum dua kali, yaitu pada pagi dan petang hari. Di minum sehari dua kali dengan air hangat, minum dua butir di pagi hari satu jam sesudah sarapan dan sesudah makan malam.","rating":0}
{"no":0,"title":"Minyak Ikan Salmon Original With Omega 3 Turunkan Kolesterol ASLI 100%","price":"21.900","seller":"Gerai Langgeng Herbal","sellerPlace":"Solo","url":"https://www.bukalapak.com/p/kesehatan-2359/obat-suplemen/obat-obatan/4ae4v-jual-minyak-ikan-salmon-original-with-omega-3-turunkan-kolesterol-asli-100?from=&product_owner=normal_seller","sold":1505,"seen":13810,"favorite":544,"updated":"2019-10-12 14:04:04","description":"Pesan dari kami:\r\n- Awas Minyak Ikan Salmon MURAH tapi PALSU\r\n- Lebih baik beli Minyak Ikan Salmon dengan harga sedikit lebih mahal, tetapi ORIGINAL / ASLI 100%\r\n\r\nIsi: 50 kapsul\r\nIzin Depkes RI POM SProdusen/Merk: Ad Dawa Product\r\n\r\nKomposisi :\r\nMinyak Ikan Salmon 100%\r\n\r\nAturan pakai :\r\nPenyembuhan : 3x2 kapsul/hari\r\nPenjagaan : 3x1 kapsul/hari\r\nBalita : 1 kapsul/hari\r\n\r\nKandungan &amp;amp;amp;amp; khasiat minyak ikan salmon :\r\n- Omega 3 hingga 70% yang dapat menurunkan kolesterol buruk (LDL) dan menaikan kolesterol baik (HDL)\r\n- Meningkatkan sel-sel darah merah hingga 47% \r\n- Memperbaiki retina mata\r\n- Menanggulangi ashma\r\n- DHA yang dapat mempertajam daya pikir, sehingga tidak mudah lupa dan cerdas\r\n- EPA yang mampu mencegah kanker, pembekuan darah, stroke, hipertensi\r\n- Karatenoid astaxanthin, zat anti aging, dan antioksidan yang berlipat ganda lebih kuat dengan Vitamin C dan Vitamin E\r\n- Sumber protein untuk masa pertumbuhan anak dan pembentukan badan yang berisi\r\n- Vitamin A dan D","rating":0}
{"no":0,"title":"jelly gamat Gold g 320ml","price":"90.000","seller":"Herbal ORIGINAL","sellerPlace":"Depok","url":"https://www.bukalapak.com/p/kesehatan-2359/obat-suplemen/obat-obatan/61ftmt-jual-jelly-gamat-gold-g-320ml?from=&product_owner=normal_seller","sold":133,"seen":2136,"favorite":52,"updated":"2019-10-10 14:13:25","description":"Banyak jenis penyakit yang terobati dengan lebih cepat melalui konsumsi rutin jelly gamat gold G atau see cucumber dan berikut adalah beberapa gangguan kesehatan yang herba tripang ini sanggup menjadi obatnya yaitu:\r\n\r\nStroke.\r\nJantung.\r\nKencing manis, luka ganggren.\r\nPenyakit kanker.\r\nTumor.\r\nKelemahan ginjal ( gagal ginjal ).\r\nSirosis hepatis.\r\nRadang sendi, asam urat dan rematik.\r\nWasir atau ambeien.\r\nTulang keropos ( osteoporosis).\r\nISPA, flus, radang, sinusitis.\r\nPenyakit asma.\r\nAlergi kulit. Seperti aksim, gatal, kadas dan kudis.\r\nMenurunkan tekanan darah tinggi /hipertensi.\r\nMengatasi darah rendah.\r\nMenurunkan kadar kolesterol jahat yang tinggi.\r\nPenyumbatan dan penyempitan pembuluh darah.\r\nPenurunan fungsi lever.\r\nMembantu mengatasi kerontokan rambut.\r\nMasalah prostat ( susah buang air kecil ).\r\nBagus di minum orang sehat untuk meningkatkan kekebalan tubuh.\r\n\r\nKenapa JELLY GAMAT GOLD G merk paling di rekomendasikan.\r\n\r\nKehebatan akan khasiat dan manaaf tripang emas atau sea cucumber membuat banyak produsen obat herbal tradisional berloma menggunakan gamat gold sebagai bahan pembuat produk obat yang paling banyak di gunakan, salah satunya adalah merk Jelly gama gold G , merupakan produk hasil olah tripang emas paling populer dan paling di cari saat ini karena banyak testimoni positif dari konsumen penggunanya, hal ini karena beberapa faktor pendukung seperti:\r\n\r\nGamat atau tripang yang di gunakan adala varietas terbaik atau sticophus varie.\r\nKonsentrasi tripang yang di gunakan menggunakan sistemolah modern dan higienis.\r\nBanyak testimoni konsumen yang tersebar dan banyak di posting di berbagai situs web dan blog.\r\nBanyak agen dan penjula jelly gamat golg G memasang iklan online khususnya di google, ini membuktikan jelly gamat banyak pencarinya.\r\nDi dukung oleh perusahaan besar yang memiliki agenda dan komitmen tinggi membudidayakan tripang emas.\r\n\r\nNB: info ini saya dapatkan dari berbagai sumber di internet.\r\nDosis aturan minum/konsumsi jelly gamat gold G.\r\n\r\nUntuk memperoleh hasil penyembuhan yang maksimal maka. Cobalah ikuti beberapa saran dosis aturan minum atau konsumsinya berikut ini:\r\n\r\nTujuan menjaga kesehatan.\r\n\r\n2~3 sendok, 1 atau 2 kali sehari.\r\n\r\nTujuan terapi penyakit ringan.\r\n\r\n3 sendok makan 2 kali sehari ( pagi~sore/malam ).\r\n\r\nTujuan terapi penyakit berat/kronis.\r\n\r\n3~4 sendok makan perhari. Setiap 4 jam sekali.","rating":0}
{"no":0,"title":"jamu nifas peluntur jamu telat datang bulan jamu kapsul super madura dijamin manjur","price":"75.000","seller":"DHORE INDONESIA","sellerPlace":"Bangkalan","url":"https://www.bukalapak.com/p/kesehatan-2359/obat-suplemen/obat-obatan/kppecw-jual-jamu-nifas-peluntur-jamu-telat-datang-bulan-jamu-kapsul-super-madura-dijamin-manjur?from=&product_owner=normal_seller","sold":38,"seen":1765,"favorite":25,"updated":"2019-10-10 18:05:37","description":"jamu peluntur telat datang bulan ini \r\n\r\nkhasiat jamu ini \r\n# membantu untuk pengaturan haid \r\n#menyembuhkan haid yang tidak teratur \r\n#membantu menyembuhkan nyeri saat haid\r\n#membantu mengatasi telat datang bulan \r\n\r\nlarangan !!\r\n\r\n# tidak untuk wanita hamil karena dapat menyebabkan keguguran","rating":0}
{"no":0,"title":"Neo Propolis Exist","price":"250.000","seller":"GP Herbal Bandung","sellerPlace":"Bandung","url":"https://www.bukalapak.com/p/kesehatan-2359/obat-suplemen/obat-obatan/xjo66-jual-neo-propolis-exist?from=&product_owner=normal_seller","sold":8173,"seen":14939,"favorite":3687,"updated":"2019-10-12 21:12:53","description":"HARGA 1 BOX ISI 7 BOTOL\r\n\r\nNeo Propolis Exist Wecando adalah propolis yang di proses secara nano technology sehingga menghasilkan propolis yang bening tanpa mengandung lilin lebah (0% Bee Wax), Menurut penelitian propolis yang mengandung lilin lebah apa bila dikonsumsi untuk jangka waktu lama akan mengakibatkan gangguan pada kesehatan terutama dinding dinding system pencernaan bahkan lilin lebah pada sebagian orang dapat menyebabkan alergi\r\n\r\nFungsi dan Manfaat Neo Propolis Exist bagi tubuh\r\neksternal (sebagai anti bakteri dan anti oksidan)\r\ninternal (meningkatkan sistem kekebalan tubuh)\r\n\r\nKeunggulaan Neo Propolis Exist\r\n1. Berbahan dasar 100% green propolis Brazil\r\n2. Dengan proses Super critical Ekstraksi tanpa residu\r\n3. Mengandung 6% flavonoid(36 jenis asam amino)\r\n4. Propolis tidak ada batasan dosis yang mengikat\r\n5. Dikonsumsi pada saat perut kosong lebih baik karena akan lebih cepat diserap oleh tubuh\r\n6. Baik untuk ibu hamil, menyusui, bayi dan balita\r\n7. Dapat digabung dengan resep dokter dengan selisih waktu 1 jam\r\n8. Dalam kotak kemasanya terdapat nomor telepon Dokter ahli untuk berkonsuktasi jika di perlukan\r\n\r\nKandungan Neo Propolis Exist\r\nAsam amino, Vitamin-vitamin dan Bioflavonoids\r\n\r\nLegalitas Neo Propolis Exist \r\nBPOM propolis BRAZIL\r\nSertifikasi produksi standar GMP\r\nSertifikasi halal\r\n\r\nNeo Propolis Exist Dapat Membantu Menyembuhkan Penyakit :\r\nNeo Propolis Exist sangat berkhasiat untuk beberapa penyakit seperti Kolesterol , Triglyceride, Hipertensi , Diabetes Melitus, Asam Urat , Asma , Liver, Sakit Jantung, Ginjal, Maag, Sinusitis, Telinga bernanah, Ambeien luar dan dalam, Penyakit kulit, Katarak, Narkoba, Stroke, Rheumatik, Kanker, Tumor, Luka benda tajam, Luka bakar, Jerawat dan Pilek.\r\n\r\nCara Pakai\r\nTeteskan Neo Propolis Exist pada gelas air, dapat juga diteteskan dibawah lidah untuk reaksi lebih cepat.\r\nUntuk penggunaan harian dosis 2 -3 tetes sebanyak 3x sehari\r\nUntuk pengobatan penyakit penyakit 3 15 tetes 3 -5x sehari\r\nUntuk pengobatan luar oleskan pada area yang sakit (luka, memar, borok, infeksi, dll\r\n\r\nIsi: 7 Botol @6mL\r\n\r\nHappy Shoping","rating":0}
{"no":0,"title":"kalung + gelang magnet kesehatan terapi magnetic medicine Dark Gray BM01","price":"200.000","seller":"rinaolshop","sellerPlace":"Jakarta Barat","url":"https://www.bukalapak.com/p/kesehatan-2359/obat-suplemen/obat-obatan/1lvvng-jual-kalung-gelang-magnet-kesehatan-terapi-magnetic-medicine-dark-gray-bm01?from=&product_owner=normal_seller","sold":25,"seen":2430,"favorite":48,"updated":"2019-08-31 22:02:44","description":"silahkn cantumkan pilihan kalung yg agan mau \r\npanjang kalung 55cm\r\npanjang gelng 22 cm\r\njgn khatir bisa di potong jika lebar an\r\nKalung Gelang Magnetic Kesehatan 2 in 1( Bio Magnetic Medicine Healthy Bracelet) \r\n\r\nMeningkatkan kesehatan Anda dengan cara yang aman dan alami\r\n\r\nTerapi bio-elektro magnetic akan menormalkan kembali medan magnet dal tubuh, memperbaiki ketidak seimbangan sel-sel dan menyembuhkan dari berbagai masalah kesehatan. Diantaranya termasuk: Arthitis, Rematik, Radang Sendi, otot dan Pundak, Nyeri Punggung, Tengkuk, Nyeri Head, Stress, Tekanan Darah Tinggi, Penyakit Sirkulasi Darah, Dan Jaringan, Diabetes, Masalah Kegemukan, Penyakit Pernafasan, Asthma, dan Batuk, Sakit Kepala, Migran, Cedera Syaraf dan otot, Kelelahan dan kurang Tenaga.\r\n\r\nKalung Gelang Magnet Kesehatan 2 in 1( Magnetic Medicine) \r\nManfaat Kalung Gelang Magnet Kesehatan ( Magnetic Medicine) : \r\n- Melancarkan system peredaran darah\r\n- Mengatasi gangguan asma dan bronchitis\r\n- Mengaktifkan sel-sel dan meningkatkan metabolisme\r\n- Mengatasi masalah darah tinggi dan darah rendah\r\n- Mengatasi Penyakit Jantung koroner\r\n- Meningkatkan kemampuan \r\n- Membantu mengatasi rematik dan asam urat\r\n- Membantu pembuangan racun dalam darah\r\n- Mengatasi insomnia, migrain, vertigo\r\n- Meningkatkan fungsi otak dan daya konsentrasi\r\n- Mengurangi resiko kanker akibat radikal bebas\r\n- Mengatasi gangguan pencernaan, hati dan lambung.Pembunuh Terselubung Versus Terapi Magnet\r\nElectro magnetic fields ( EMFs) adalah radiasi yang ditimbulkan oleh alat elektronik seperti hand-phone, relay tower komunikasi, stasiun pemancar, komputer, televisi, microwave, oven, pembangkit listrik, peralatan elektronik, x-rays dll. Efek negatif dari radiasi teknologi terkini tersebut secara diam-diam merusak kesehatan, menimbulkan penyakit, bahkan bisa mengakibatkan kematian.\r\n\r\nTubuh manusia adalah suatu sistem radio yang terbuka yang membentuk berbagai frekwensi elektromagnetik yang secara alami","rating":0}
{"no":0,"title":"Greenco Slim Green Coffee","price":"160.000","seller":"Ibnu Abdel Aziz Herbal","sellerPlace":"Pamekasan","url":"https://www.bukalapak.com/p/kesehatan-2359/obat-suplemen/obat-obatan/1rwa6v-jual-greenco-slim-green-coffee?from=&product_owner=normal_seller","sold":72,"seen":4770,"favorite":145,"updated":"2018-10-06 05:38:40","description":"GREENCO SLIM\r\nGreen coffee bean extract\r\n\r\nTerbuat dari bahan 100% extract kopi hijau import alami yang banyak di gunakan di negara tetangga seperti USA,Canada,Australia, dll. \r\nKini hadir di Indonesia.\r\n\r\nManfaat Greenco Slim:\r\n1. Merangsang tubuh membakar lemak extra tubuh.\r\n2. Menetralisir zat penyebab kerontokan rambut.\r\n3. Menekan rasa lapar.\r\n4. Melembabkan kulit.\r\n5. Sebagai Anti Oksidant.\r\n\r\nSetiap kapsul mengandung 500mg extract kopi hijau.\r\n\r\nAturan pakai:\r\n2X1 Kapsul perhari\r\n30 menit sebelum makan.\r\n\r\nNB: \r\nTidak direkomendasikan untuk anak-anak.\r\nWanita hamil, wanita menyusui dan penderita diabetes dianjurkan berkonsultasi kepada Dokter terlebih dahulu. \r\n\r\nTubuh Sehat Ideal dengan Greenco Slim.","rating":0}
{"no":0,"title":"Minyak Batu Sai Kong ( Cap Naga Kembar ) 30 ml","price":"27.500","seller":"Toko Obat Herbal Alami 5758","sellerPlace":"Jakarta Utara","url":"https://www.bukalapak.com/p/kesehatan-2359/obat-suplemen/obat-obatan/1lrzjv-jual-minyak-batu-sai-kong-cap-naga-kembar-30-ml?from=&product_owner=normal_seller","sold":385,"seen":4210,"favorite":68,"updated":"2019-10-15 11:01:31","description":"Minyak Batu Sai Kong ( Cap Naga Kembar ) 30 ml.\r\n\r\n\r\nProduk Ready Stock.\r\n\r\nProduk dijamin 100% Original Asli.\r\n\r\nPengiriman Cepat & Packing Rapih.\r\n\r\nBerkhasiat untuk :\r\n\r\n\r\n\r\nMengurangi luka ringan\r\n\r\nCantengan\r\n\r\nLecet\r\n\r\nMemar\r\n\r\nBengkak\r\n\r\nLuka jatuh\r\n\r\nGatal-gatal akibat digigit serangga\r\n\r\n\r\n\r\n\r\nCara pakai: basahi kapas dengan minyak batu sai kong, kemudian gosokkan di bagian yang luka/bengkak\r\n\r\n\r\nKemasan botol berisi 30ml\r\n\r\n\r\nPerhatian :\r\n\r\n\r\n\r\njauhkan dari jangkauan anak-anak\r\n\r\njika sakit berlanjut hubungi dokter\r\n\r\nkocok sebelum dipakai\r\n\r\n\r\n","rating":0}
{"no":0,"title":"Eye Massager Terapi alat pijat mata","price":"89.900","seller":"EFEKTIF","sellerPlace":"Jakarta Utara","url":"https://www.bukalapak.com/p/kesehatan-2359/obat-suplemen/obat-obatan/l4mgx-jual-eye-massager-terapi-alat-pijat-mata?from=&product_owner=normal_seller","sold":387,"seen":10020,"favorite":732,"updated":"2019-09-05 14:40:13","description":"Mata Lelah karna sering di Depan Komputer atau Baca Buku Terlalu Lama??\r\nPasti buat agan & Sista gak nyaman saat beraktivitas..\r\nYuk Coba Terapi Mata Cukup 1 hari 15-20 menit biar bikin Mata menjadi segar kembali.\r\nSalon - Salon Ternama sudah menggunak Alat ini untuk Terap Mata..\r\nhmm jadi agan & Sista sekarang gak perlu kesalon untuk terapi mata ^_^\r\n\r\nPraktis Bisa dibawa kemana - Mana, Cocok banget untuk yang hoby Touring & sering keluar kota mengendarai Mobil.. Simpan di Mobil/Motor anda, saat Lelah bisa digunakan ^_^\r\n\r\nStudi penelitian membuktikan bahwa magnet mempunyai efek yang luar biasa terhadap organ-organ dan sistem syaraf dalam tubuh manusia ketika ia diterapkan pada titik-titik akupunktur dapat mengaktifkan tisu pada sel,memperlebar kapilari darah,menambah supplai oksigen.\r\n\r\nMampu memberikan energy yang dimasukan ke dalam tubuh untuk memperlancar peredaran darah. Sehingga kita dapat terhindar dari penyakit bahkan pula mengobati penyakit. sudah di akaui dapat membantu mengatasi berbagai masalah kesehatan. Dengan hanya mengguanakan alat pijat mata kesehatan selama 30menit perhari, maka anda mendapatkan manfaat yang sama dengan pijat refleksi tanpa harus mengeluarkan biaya yang besar. Dapat dipakai kapan pun dan dimana pun.","rating":0}
{"no":0,"title":"madu super tonik","price":"23.000","seller":"Hg sejahtera","sellerPlace":"Depok","url":"https://www.bukalapak.com/p/kesehatan-2359/obat-suplemen/obat-obatan/8xqe06-jual-madu-super-tonik?from=&product_owner=normal_seller","sold":214,"seen":1688,"favorite":32,"updated":"2019-10-09 20:13:50","description":"dpt mengatasi lemah syahwat,ejakulasi dini \r\n7x lebih dahsyat.gunakan sesuai petunjuk","rating":0}
{"no":0,"title":"refill strip kolesterol easy touch","price":"140.000","seller":"sintia store","sellerPlace":"Jakarta Timur","url":"https://www.bukalapak.com/p/kesehatan-2359/obat-suplemen/obat-obatan/12ntvl-jual-refill-strip-kolesterol-easy-touch?from=&product_owner=normal_seller","sold":59,"seen":570,"favorite":37,"updated":"2019-09-28 14:01:30","description":"refill strip kolesterol easy touch\r\nkemenkes RI akl 10101902216","rating":0}
{"no":0,"title":"Alkohol Swab. OneSwabs. One Swabs. Kapas Alcohol Pads. Tissu Alkohol Tissue. Alcohol Swab. Alkohol Pads. OM","price":"10.000","seller":"MITRA ALKES","sellerPlace":"Bekasi","url":"https://www.bukalapak.com/p/kesehatan-2359/obat-suplemen/obat-obatan/ly3i0q-jual-alkohol-swab-oneswabs-one-swabs-kapas-alcohol-pads-tissu-alkohol-tissue-alcohol-swab-alkohol-pads-om?from=&product_owner=normal_seller","sold":211,"seen":510,"favorite":15,"updated":"2019-10-10 04:02:34","description":"Alkohol Swab / Alkohol Tissu \r\nMerk : One Med / OneSwabs\r\nSatuan : Box \r\nKemasan : \r\n100 Lembar per box\r\n24 Box per Karton.","rating":0}
{"no":0,"title":"Amino 2000 Ultimate 40 tabs Eceran","price":"68.000","seller":"IvanZ Supplement","sellerPlace":"Jakarta Barat","url":"https://www.bukalapak.com/p/kesehatan-2359/obat-suplemen/obat-obatan/1l070a-jual-amino-2000-ultimate-40-tabs-eceran?from=&product_owner=normal_seller","sold":60,"seen":1360,"favorite":48,"updated":"2019-10-13 02:24:39","description":"Amino 2000 Ultimate nutrition 40 tabs Eceran","rating":0}
{"no":0,"title":"minyak sereh cap scorpio 100ml","price":"17.400","seller":"Myoneshopping","sellerPlace":"Jakarta Barat","url":"https://www.bukalapak.com/p/kesehatan-2359/obat-suplemen/obat-obatan/b01yxi-jual-minyak-sereh-cap-scorpio-100ml?from=&product_owner=normal_seller","sold":155,"seen":339,"favorite":9,"updated":"2019-10-14 21:47:47","description":"Minyak sereh cap scorpio\r\n\r\nKhasiat:\r\n-meredakan bengkak\r\n-mengusir nyamuk\r\n-sebagai obat gosok\r\n\r\n- Stok barang selalu tersedia di tempat kami\r\n- stok barang merupakan barang original, bukan barang oplosan atau black market\r\n-Pengiriman produk dapat menggunakan gosend, grabparcel, JNE, J&T, dan wahana untuk area jabodetabek.\r\n\r\n- untuk pengiriman diluar jabodetabek area disarankan menggunakan wahana untuk menghindari penolakan dari pihak logistik\r\n\r\nTerima kasih","rating":0}
{"no":0,"title":"ORIGINAL-HENDEL-FOREX-OBAT-HERBAL-KUAT-PEMBESAR-VITAL-ALAT-PRIAVAKUM","price":"165.000","seller":"windyputri7","sellerPlace":"Jakarta Barat","url":"https://www.bukalapak.com/p/kesehatan-2359/obat-suplemen/obat-obatan/1mkcvez-jual-original-hendel-forex-obat-herbal-kuat-pembesar-vital-alat-priavakum?from=&product_owner=normal_seller","sold":21,"seen":486,"favorite":7,"updated":"2019-09-28 09:06:47","description":"Belanja hemat?Produk berkualitas?Disini aja yuks..Jangan lupa baca deskripsi dulu yah\r\n\r\nJAMINAN PENJUALAN PRODUK BERMUTU KUALITAS IMPORT NO.1 \r\nTUTUP EMBOS. KAPSUL EMAS\r\n\r\nNB : BARANG ORIGINAL.\r\n\r\nHENDEL FOREX ORIGINAL. TUTUP EMBOS BUKAN POLOS ( FAKE) \r\nKAPSUL GOLD (EMAS) \r\n\r\nREADY STOK BURUAN DI ORDER GAN !!!\r\nKAMI PASTIKAN PRODUK YANG KAMI KIRIMKAN ASLI SESUAI GAMBAR DAN DISKRIPSI.\r\n\r\nCIRI-CIRI FOREX USA ORIGINAL :\r\n- KAPSUL BERWARNA KUNING EMAS (GOLD)\r\n- ADA HOLOGRAM DI STIKER BOTOL.\r\n- LUBANG BOTOL TERSEGEL ALUMUNIUMFOIL.\r\n- ISI 30 KAPSUL/BOTOL.\r\n- 100% BAHAN HERBAL ALAMI\r\n\r\nPRODUK ORIGINAL DAPAT DI LIHAT DETAIL PADA GAMBAR / FOTO PROFIL, DIJAMIN ASLI TANPA EDITAN DAN PASTINYA SAMA DENGAN YANG KAMI KIRIM KE PEMBELI.\r\n\r\nAYO GAN BURUAN PERBAIKI PERFORMA ALAT V!TAL ANDA SEKARANG JUGA DENGAN SUPLEMEN HERBAL FOREX HENDEL USA ASLI.\r\n\r\nCUKUP DI MINUM 2 KALI SEHARI, PAGI SESUDAH SARAPAN 1 KAPSUL DAN MALAM SEBELUM TIDUR 1 KAPSUL FOREX GOLD. RASAKAN PERUBAHAN PADA KEHIDUPAN PALING PRIBADI ANDA SEMAKIN HARMONIS.\r\n\r\nSELAMAT MENCOBA PRODUK FOREX ASLI-ORIGINAL DARI TOKO KAMI, THANKS\r\n\r\nJika barang pesanan anda sudah datang Mohon konfirmasikan barang diterima Mohon kerjasamanya","rating":0}
{"no":0,"title":"DECOLGEN MEREDAKAN GEJALA FLU ISI 4 TABLET","price":"1.800","seller":"vitaminmurahdotcom","sellerPlace":"Jakarta Selatan","url":"https://www.bukalapak.com/p/kesehatan-2359/obat-suplemen/obat-obatan/1m4xdv6-jual-decolgen-meredakan-gejala-flu-isi-4-tablet?from=&product_owner=normal_seller","sold":77,"seen":104,"favorite":9,"updated":"2019-10-15 09:33:31","description":"BARANG ORIGINAL NON RETUR. EXP DATE : 12/2020","rating":0}
{"no":0,"title":"Obat Telat Bulan - Paket 3 Kompliet","price":"1.300.000","seller":"Alficy Store by Alenna Farma","sellerPlace":"Indramayu","url":"https://www.bukalapak.com/p/kesehatan-2359/obat-suplemen/obat-obatan/29jka18-jual-obat-telat-bulan-paket-3-kompliet?from=&product_owner=normal_seller","sold":10,"seen":682,"favorite":13,"updated":"2019-10-15 08:04:01","description":"PENTING!!! Mohon agar Deskripsi Di baca sampai selesai.\r\n\r\n\r\n\r\nSelamat datang di lapak kami Alficy Store, Kami menawarkan solusi tepat untuk Anda, tentang cara menuntaskan masalah yg sedang Anda hadapi saat ini.Jaminan produk berkualitas baik, di sajikan sudah dengan Resep dokter, Sangat Aman untuk di konsumsi,Pemakaian mudah, Bisa di lakukan sendiri, Resiko dan Efek samping yg Minim.Selamat berbelanja, Semoga Bermanfaat.\r\n\r\n\r\n\r\nPaket 3 Terdiri dari :\r\n\r\n\r\n\r\n8 tablet Cytotex,\r\n\r\n\r\n\r\n8 Kapsul pembersih rahim,\r\n\r\n\r\n\r\n6 Pereda nyeri saat kontraksi,\r\n\r\n\r\n\r\n6 tablet Antibiotik untuk mencegah infeksi pada rahim.\r\n\r\n\r\n\r\nUntuk aturan pakainya kami informasikan setelah barang sampai ke tangan Anda.\r\n\r\n\r\n\r\nPenting!!! Sebelum melakukan pemesanan,Kami sangat sarankan agar Anda konsultasi terlebih dahulu.\r\n\r\n\r\n\r\nCatatan : Produk dan Deskripsi barang sesuai foto.\r\n\r\n\r\n\r\nUntuk pengiriman melalui J&T Senin-Minggu batas kirim pukul 19:30\r\n\r\n\r\n\r\nUNTUK PENGIRIMAN MELALUI Expedisi J&T,AGAR TIDAK MENGGUNAKAN RESI OTOMATIS,AGAR KETERANGAN BARANG BISA DI kasih.\r\n\r\n\r\n\r\nTips : Hindari pembelian dengan mengalihkan transaksi pembelian melalui WA,SMS,Telp.Transaksi Aman dan nyaman hanya melalui BukaLapak.Terima kasih.\r\n\r\n\r\n\r\nAlenna Farma tidak membuka toko lain, selain rekan mitra : Alficy Store, All Farmacy, & Mitra Sehat.\r\n\r\nStop!!! Menggunakan foto tanpa izin, Alenna Farma sangat Wellcome Menerima Dropship.","rating":0}
{"no":0,"title":"JAMU URAT MADU HITAM BLACK PER BOX ISI 10 BUNGKUS SACHET","price":"42.900","seller":"AZaLea","sellerPlace":"Kab. Bekasi","url":"https://www.bukalapak.com/p/kesehatan-2359/obat-suplemen/obat-obatan/22yagv8-jual-jamu-urat-madu-hitam-black-per-box-isi-10-bungkus-sachet?from=&product_owner=normal_seller","sold":13,"seen":282,"favorite":3,"updated":"2019-10-14 15:41:49","description":"beli yg banyak..exp panjang\r\n\r\nisi per box isi 10 sachet\r\nasli boss\r\nsilakan order..barang langka.\r\n\r\nAnda sedang mencari sebuah solusi untuk mengatasi masalah anda dengan pasangan anda saat di ranjang ??? atau anda ingin menunjukkan dan memberikan pelayanan yang maksimal terhadap pasangan anda, agar tetap tahan lama saat melakukan hubungan seksual dan bahkan bisa kuat berkali kali dalam semalam. Sangat mudah sekali, \r\ncukup dengan mengkonsumsi JamuUrat Madublack asli 30 menit sebelum melakukan hubungan dengan pasangan anda.\r\n\r\nManfaat Urat Mdu Black Asli:\r\n\r\n*Meningkatkan dan menambah stamina pria\r\n*Menyembuhkan impotensi atau disfungsi seksual pada Pria\r\n*Mengentalkan sperma\r\n*Melancarkan sirkulasi darah dalam tubuh\r\n*Menambah dan meningkatkan ketahan ereksi\r\n*Bisa tetap berdiri meskipun sudah keluar sperma/setelah senggama\r\n*Meningkatkan keharmonisan dalam rumah tangga atau hubungan\r\n*Membuat pasangan semakin bangga dengan suaminya\r\n\r\nKomposisi Jamu Kuat Urat Madu Black Asli:\r\n\r\nEkstrak Miristica \r\nFragrancEkstrak YohimbinEkstrakEurycoma \r\nLongifolia \r\nRadixZingiber \r\nRhizoma\r\nCurcumae","rating":0}
{"no":0,"title":"Obat Kutil Kelamin Herbal DeNature","price":"950.000","seller":"deNature Obat Herbal","sellerPlace":"Cilacap","url":"https://www.bukalapak.com/p/kesehatan-2359/obat-suplemen/obat-obatan/dr38iz-jual-obat-kutil-kelamin-herbal-denature?from=&product_owner=normal_seller","sold":62,"seen":677,"favorite":17,"updated":"2019-10-13 00:01:57","description":"Obat Kutil kelamin mujarab dari De Nature merupakan obat herbal yang diracik khusus untuk mengobati penyakit Kutil kelamin.<br/>Mencari Obat Kutil kelamin , Obat Kutil kelamin herbal mungkin menjadi jawaban Anda. Untuk pengobatan penyakit Kutil kelamin disini menggunakan Obat Kutil kelamin De Nature herbal yang telah dipercaya oleh ratusan orang bahkan ribuan orang yang telah membuktikan ke ampuhannya. Penyebab Kutil kelamin adalah virus yang biasa disebut Human Papiloma Virus atau disingkat menjadi HPV. Virus ini menghinfeksi lapisan permukaan kulit sehingga kutil bisa berada pada kulit. Ada lebih dari 100 jenis virus HPV, tetapi hanya beberapa yang dapat menyebabkan Kutil kelamin. Kutil kelamin ini perlu Anda waspadai, karena penyakit Kutil kelamin merupakan penyakit menular. Sebaiknya segera melakukan pengobatan Kutil kelamin Anda dan jangan biarkan penyakit Kutil kelamin Anda terus tumbuh dan membesar dibagian kelamin.","rating":0}
{"no":0,"title":"FREE ONGKIR !!! Bonus: Gelang Kesehatan - Ginsamyong Dark Brown Bersertifikat Hyundai Medical Korea - Kalung Gelang Kesehatan Made In South Korea","price":"1.460.000","seller":"Bielle Shop","sellerPlace":"Tangerang","url":"https://www.bukalapak.com/p/kesehatan-2359/obat-suplemen/obat-obatan/2tgqx-jual-free-ongkir-bonus-gelang-kesehatan-ginsamyong-dark-brown-bersertifikat-hyundai-medical-korea-kalung-gelang-kesehatan-made-in-south-korea?from=&product_owner=normal_seller","sold":386,"seen":44986,"favorite":1406,"updated":"2019-10-11 18:24:28","description":"PAKET LENGKAP:\r\n1 Kalung Ginsamyong\r\n3 Gelang Ginsamyong\r\n1 Gelang Giok\r\n1 Sertifikat SAMSUNG Korea\r\n1 Tali Cadangan\r\n\r\nGinsamyong dengan Sinar Infra Merah Jarak Jauhnya yang dipancarkan mampu:\r\n\r\nMenghancurkan gumpalan minyak dan kotoran, menjadikan darah Anda menjadi encer.\r\nMenghilangkan racun dalam tubuh, menjadikan darah Anda menjadi bersih.\r\nMeregenerasi sel-sel darah dengan getaran-getaran dari gelombang Sinar Infra Merah Jarak Jauhnya.\r\nMemecah molekul-molekul air dalam darah menjadi ukuran-ukuran kecil, menjadikan sirkulasi darah Anda menjadi lebih baik.\r\nMengaktifkan molekul-molekul air dalam darah Anda, menjadikan darah Anda mendapat cukup suplai oksigen.\r\n\r\nGinsamyong sangat cocok untuk tetap menjaga darah Anda tetap sehat, yang berarti tubuh Anda tetap terjaga kesehatannya.\r\n\r\nGinsamyong Kalung dan Gelang Kesehatan adalah batu mulia alami yang benyak mengandung bahan-bahan mineral alami seperti: Magnesium, Silicon, Sodium, Calcium, Besi, Natrium , dan 20 jenis mineral alami lainnya, sebagai bahan alami yang memancarkan Sinar Infra Merah Jarak Jauh yang paling murni.\r\nGinsamyong Kalung dan Gelang Kesehatan membangkitkan Energi Aura (Qi) Anda yang memberikan energy positif dan umur panjang bagi pemakainya.","rating":0}
{"no":0,"title":"Bioterra Sari Buah (Herbal Probiotik) - biotera - bio tera - bio terra","price":"70.000","seller":"HERBAL SEHAT","sellerPlace":"Sleman","url":"https://www.bukalapak.com/p/kesehatan-2359/obat-suplemen/obat-obatan/409ip-jual-bioterra-sari-buah-herbal-probiotik-biotera-bio-tera-bio-terra?from=&product_owner=normal_seller","sold":94,"seen":3111,"favorite":60,"updated":"2019-10-15 12:26:46","description":"Izin :\r\n\r\nPOM RI : Psi Bersih : 250 ml\r\n\r\nProdusen : Probioterra Lestari Sidoarjo\r\n\r\nKANDUNGAN BIOTERRA SARIBUAH\r\nKultur bakteri probiotik Lactobacillus sp., Bifidobacterium dan Staphylococcus thermophillus\r\n\r\nLactobacillus sp. berkhasiat meredakan rasa nyeri, mencegah dan melawan kanker, mencegah dan melawan tumor, meningkatkan kekebalan tubuh, memperbaiki sistem pencernaan, mengembalikan keseimbangan fisiologis, menjadi alternatif untuk diet sehat karena kandungan gizinya tinggi sedangkan kandungan lemaknya rendah, menurunkan risiko infeksi candida, serta mencegah osteoporosis. \r\n\r\nBifidobacterium berkhasiat mencegah perkembangbiakan bakteri jahat dan organisme patogen, menghasilkan vitamin, memperbaiki fungsi liver, mempermudah penyerapan nutrisi dan gizi, membersihkan usus, darah, dan hati dari toksin berbahaya, serta meningkatkan sistem kekebalan tubuh.\r\nAir kelapa\r\n\r\nAir kelapa berkhasiat menjaga suhu tubuh, mengembalikan cairan tubuh yang hilang, membawa nutrisi dan oksigen ke sel, meningkatkan metabolisme, menaikkan berat badan bagi orang kurus, meningkatkan sistem kekebalan tubuh, detoksifikasi dan melawan virus, membersihkan saluran pencernaan, mengontrol gula darah, membantu tubuh memerangi virus penyebab flu, herpes dan AIDS, menyeimbangkan PH darah dan mengurangi risiko kanker, mengobati batu ginjal dan gangguan saluran kencing, memperbaiki proses sirkulasi darah, mengobati mual dan masuk angin, membantu tubuh mengatur tekanan darah dan fungsi organ jantung, menurunkan demam, serta mempercepat kenaikan trombosit bagi penderita Demam Berdarah Dengue.\r\nSusu\r\n\r\nSusu yang dilibatkan dalam fermentasi air kelapa bermanfaat memproduksi vitamin, meningkatkan nilai gizi, membantu pertumbuhan tubuh, memproduksi antibiotik alami yang melawan virus dan jamur, menurunkan kadar kolesterol LDL, menghambat pertumbuhan kuman, serta mengurangi kerut wajah.\r\nAir yang diembunkan\r\n\r\nAir embun berkhasiat mencerahkan kulit, mencegah keriput, membantu kerja ginjal, meningkatkan efisiensi kerja seluruh organ tubuh, menguatkan otot dan tulang, memasok banyak oksigen ke dalam tubuh, membuang racun dari dalam tubuh, meningkatkan daya tahan tubuh, menyembuhkan penyakit ginjal, menghilangkan jerawat, mengatasi masalah pencernaan, menurunkan berat badan bagi orang gemuk, menurunkan kolesterol jahat (LDL), mengencerkan darah, dan melancarkan BAB.\r\nGula nira\r\n\r\nGula nira berkhasiat untuk terapi asma, anemia, lepra/kusta, untuk mempercepat pertumbuhan anak, meringankan batuk yang disertai demam, makanan yang baik bagi penderita tifus, mengurangi panas pankreas, menguatkan jantung, dan membantu pertumbuhan gigi.\r\nKunyit\r\n\r\nKunyit berkhasiat mengobati diabetes melitus, tifus, usus buntu, disentri, diare, keputihan, perut mulas, sakit lambung, asma, amandel, alzheimer (penyakit pikun), panas dalam, gatal-gatal, cangkrang, penyakit kulit, sariawan, rematik, dan kolesterol. Kunyit dapat memperlancar haid dan ASI, membantu perawatan kulit, membasmi jerawat dan ketombe, serta melawan kanker dan tumor.\r\nTemulawak\r\n\r\nTemulawak berkhasiat mengatasi sariawan, susah buang air besar, nyeri saat haid, maag, sembelit, eksim, gangguan liver, demam malaria, hepatitis, sakit ginjal, asma, batuk, jerawat, radang sendi, rematik, pegal linu, radang kantung empedu, batu empedu, radang lambung, dan radang saluran nafas. Temulawak dapat meningkatkan produksi ASI, menurunkan kadar kolesterol jahat, menambah nafsu makan, menghilangkan bau badan, serta memperbaiki fungsi pencernaan dan fungsi hati.\r\nStrawberry\r\n\r\nStrawberry berkhasiat menurunkan kadar kolesterol jahat (LDL), mencegah stroke, mencegah alergi dan radang, menghaluskan kulit, mencegah penuaan dini, meredakan diare, menurunkan tekanan darah tinggi, menekan pertumbuhan tumor ganas, mencegah leukemia, baik untuk kesehatan otak, mencegah anemia, mengurangi risiko bayi lahir prematur dan berkelainan jantung, mengatasi penyakit jantung, penyakit mata, dan jerawat, mencegah pertumbuhan sel kanker, mencegah risiko diabetes, mencegah radang sendi, melawan serangan radikal bebas, memutihkan gigi, menghilangkan bau mulut.\r\nPisang\r\n\r\nPisang berkhasiat melancarkan peredaran darah, menyehatkan usus, mengatasi masalah gangguan usus dan pencernaan, mengobati sakit liver, menutrisi otak, menambah tenaga, mengobati anemia, mengobati bekas gigitan nyamuk, memberi asupan nutrisi pada janin, menghaluskan kulit, mengobati luka bakar, menurunkan berat badan bagi orang gemuk, mengatasi diabetes, berak darah, batuk darah, disentri, diare, panas dalam, sariawan, sembelit, borok, herphes, kutil, dan migren.\r\nBit\r\nBit berkhasiat mengatasi gangguan liver dan kantong empedu, menghancurkan sel tumor dan kanker, memperkuat fungsi darah dan mengatasi anemia, memproduksi sel-sel darah merah, menurunkan kadar kolesterol jahat (LDL), membersihkan racun dalam tubuh, memperkuat sistem peredaran darah dan sistem kekebalan, melawan infeksi dan radang, mengatasi masalah batu ginjal, memberi tenaga dan menyeimbangkan tubuh, menurunkan tekanan darah tinggi, menyehatkan jantung dan pembuluh darah, mengobati wasir, mengatasi kecanduan narkoba dan alkohol.\r\n\r\n\r\nMANFAAT BIOTERRA SARIBUAH\r\nMencegah dan mengobati penyakit akibat virus\r\n\r\nDiantaranya: AIDS, hepatitis A, hepatitis B, Demam Berdarah Dengue (DBD), influenza, SARS (sindron pernafasan akut), polio, flu burung, flu babi, kanker, tumor, antraks, campak, smallfox (cacar), belekan (mata bengkak dan memerah), gondong, herphes.\r\nMencegah dan mengobati penyakit akibat bakteri, kuman dan jamur\r\n\r\nDiantaranya: Meningitis, kolera, radang selaput otak, tetanus, tuberkulosis, batuk rejan (pertusis), kandidiasis, trikomoniasis, giardiasis, amebiasis, kudis, kutu pubis, panu, kurap, buras, eksim, bisul, kusta, ketombe, cacar air.\r\nMencegah dan mengobati penyakit akibat kolesterol\r\n\r\nDiantaranya: Stroke, jantung koroner, jantung, darah tinggi, darah rendah.\r\nMencegah dan mengobati masalah pada darah\r\n\r\nDiantaranya: Asam urat, ambeien (wasir), anemia, leukemia, diabetes (gula darah), talasemia, sklerosis, kuning pada bayi, kanker darah, rematik, ketidakseimbangan PH darah.\r\nMencegah dan mengobati penyakit saluran pencernaan\r\n\r\nDiantaranya: Maag, diare, radang usus, usus buntu, sembelit, kanker lambung, kanker usus besar, batu empedu, dll.\r\nMencegah dan mengobati penyakit saluran pernafasan\r\n\r\nDiantaranya: Batuk, pilek, pneumonia, radang paru-paru, paru-paru basah, radang tenggorokan, bronkitis, faringitis, bronkietasis, infeksi saluran nafas atas, difteri, dll.\r\nMencegah dan mengobati penyakit tulang\r\n\r\nDiantaranya: Tulang keropos (osteoporosis), artritis, ankilosis, osteomalacia, rickets, rakitis.\r\n\r\nTakaran Pemakaian\r\n\r\nPengobatan\r\nDewasa : 1 sendok takar (5 ml), 3x sehari\r\nAnak : 1 sendok takar (5 ml), 3x sehari\r\nPencegahan\r\nDewasa : 1 sendok takar (5 ml), 1x sehari\r\nAnak : 1 sendok takar (5 ml), 1x sehari\r\n\r\n- Untuk penyakit kulit, oleskan secukupnya pada bagian kulit yang sakit dan sekitarnya. Lakukan sampai sembuh.\r\nUntuk penyakit mata dan telinga, teteskan langsung pada bagian yang sakit. Lakukan sampai sembuh.\r\nUntuk penyakit mulut dan tenggorokan, campur BioTerra dengan air lalu gunakan untuk berkumur. Lakukan sampai sembuh.\r\n\r\nAnjuran:\r\n\r\n- BioTerra dapat diminum langsung, dapat pula dicampur air putih, teh, jeruk, susu, sirup, madu, habbatussauda, sari kurma, dan minuman herbal lain dengan atau tanpa es.\r\nSangat dianjurkan minum BioTerra dicampur madu dan air kelapa.\r\nJika minum obat dari dokter, beri selang waktu 2 3 jam, kemudian minum BioTerra.\r\nDianjurkan konsumsi BioTerra selama 2 bulan pertama secara rutin. Setelah itu cukup dengan konsumsi dosis pencegahan atau jika perlu saja.\r\nBila sakit terasa bertambah pada awal-awal pemakaian, atau muncul keluhan baru, keringat keluar lebih banyak, lebih sering kencing dan BAB, itu tandanya terjadi proses detoksifikasi (pembuangan racun). Lanjutkan konsumsi BioTerra sampai keluhan hilang.\r\nKetika memakai BioTerra, tanamkan keyakinan bahwa atas ijin Allah produk ini dapat menjadi wasilah kesembuhan anda. Sebab rasa yakin dapat membantu proses penyembuhan. Jangan lupa berdoa dengan penuh kesungguhan kepada Allah.\r\n\r\nReaksi detoksifikasi yang mungkin terjadi:\r\nPada saat pertama kali minum biasanya terjadi proses pembuangan racun. Tanda umumnya lebih banyak buang air dan berkeringat.\r\nBagi penderita gejala kurang darah dan tekanan darah rendah, tandanya mengantuk dan lemas; lanjutkan konsumsi BioTerra dengan ditambah madu murni, sari kurma, atau gula 1 sendok makan yang dilarutkan ke dalam air.\r\nBagi penderita hipertensi, tandanya kepala pening atau pusing; lanjutkan konsumsi BioTerra dengan ditambah madu murni atau sari kurma.\r\nBagi penderita gejala maag atau gangguan pencernaan, tandanya lambung nyeri dan mual. Harus ditambah madu murni, sari kurma, atau gula 1 sendok makan yang dilarutkan ke dalam air.\r\nPada beberapa orang, tanda pembuangan racun mungkin tambah sakit pada organ yang bermasalah. Misalnya, batuk tambah kencang, lendir tambah banyak, tenggorokan tambah sakit, gatal makin menggila, jantung berdebar-debar. Terus konsumsi BioTerra maka berangsur-angsur sakit tersebut akan berkurang hingga sembuh.\r\nPada penderita batu ginjal dan sejenisnya, mungkin timbul nyeri perut bawah.\r\nPenggunaan BioTerra Gold mungkin menyebabkan tenggorokan terasa kering. Kurangi dosis dan perbanyak minum air putih.\r\n\r\nENDAPAN YANG MUNCUL DALAM BOTOL ADALAH KOLONI PROBIOTIK, BUKAN KOTORAN. JANGAN DIBUANG!","rating":0}
{"no":0,"title":"Alat Pijat Kepala Bakoma","price":"7.500","seller":"eL_Diablos","sellerPlace":"Jakarta Barat","url":"https://www.bukalapak.com/p/kesehatan-2359/obat-suplemen/obat-obatan/gnikvu-jual-alat-pijat-kepala-bakoma?from=&product_owner=normal_seller","sold":124,"seen":1261,"favorite":42,"updated":"2019-10-15 16:45:33","description":"Dropshiper Reseller Cargo Silakan Order","rating":0}
{"no":0,"title":"Habbatussauda Kurma Ajwa 210 Kapsul","price":"47.500","seller":"KIOS BUNDA","sellerPlace":"Jakarta Selatan","url":"https://www.bukalapak.com/p/kesehatan-2359/obat-suplemen/obat-obatan/1s3ina-jual-habbatussauda-kurma-ajwa-210-kapsul?from=&product_owner=normal_seller","sold":704,"seen":9078,"favorite":383,"updated":"2019-10-15 10:11:05","description":"Habbatussauda Cap \"Kurma Ajwa\" TR. 073 367 991.\r\n\r\nHabbatussauda Cap Kurma Ajwa, bahan baku habbatussauda berasal dari Eithopia/Habasyi kualitas terbaik dari Afrika, warna lebih hitam, bau lebih harum, rasa lebih pahit, dan dipupuk hanya dengan pupuk organik\r\n\r\nDeskripsi Produk\r\nPengobatan penyakit menurut syariat Islam lebih dianjurkan dengan menggunakan obat-obatan alami (Non Kimia atau non sintetis) karena lebih aman dan tidak menimbulkan efek samping.\r\nBeberapa zat/obat-obatan dan cara pengobatan yang telah direkomendasikan penggunaannya oleh Rasulullah shalalallahu alaihi wa sallam untuk mengobati penyakit dan menjaga kesehatan, salah satunya adalah dengan mengkonsumsi habbatussauda, sebagaimana sabda Rasulullah shalallahu alaihi wa sallam\r\n\"Sesungguhnya dalam habbatussauda terdapat penyembuh bagi segala macam penyakit kecuali kematian\" (Shohih. H.R Bukhari &amp;amp;amp;amp;amp;amp; Muslim)\r\n\r\nManfaat dan kegunaan\r\nUntuk membantu mengobati berbagai macam penyakit ringan dan kronis seperti : rematik, asam urat, peradangan persendian, tenggorokan, migrain, exim, berbagai alergi, gangguan jantung, batu emepedu, liver, kencing manis, TBC, paru-paru kronis, sesak napas, asma, stroke, menstabilkan kolesterol, tekanan darah dan gula darah, anemia, membantu mengatasi wasir, insomnia, kanker, membuang racun dalam tubuh serta meningkatkan ASI, daya tahan tubuh/stamina.\r\n\r\nAturan pakai:\r\nDewasa : 2-3 kapsul pagi dan sore\r\nAnak-anak : 1-2 kapsul pagi dan sore\r\n\r\n\"Bila dikonsumsi secara rutin akan mendapatkan manfaat yang luar biasa, tubuh anda Insya Allah akan lebih sehat dan tidak mudah sakit\"","rating":0}
{"no":0,"title":"Obat Herbal Telinga Tersumbat - Peradangan Telinga - Obat Telinga Keluar Cairan Bau - Obat Tetes Alami Propolis SM","price":"75.000","seller":"Susi Fatmawati","sellerPlace":"Jakarta Barat","url":"https://www.bukalapak.com/p/kesehatan-2359/obat-suplemen/obat-obatan/244frjh-jual-obat-herbal-telinga-tersumbat-peradangan-telinga-obat-telinga-keluar-cairan-bau-obat-tetes-alami-propolis-sm?from=&product_owner=normal_seller","sold":1,"seen":14,"favorite":0,"updated":"2019-10-14 08:01:17","description":"*BARANG SELALU READY STOCK\r\n*LANGSUNG KLIK BELI SEKARANG, KAMI LANGSUNG PROSES DAN DI KIRIM HARI INI JUGA\r\n*KEASLIAN OBAT TERJAMIN\r\n*AMAN DAN TANPA EFEK SAMPING\r\n*BERGARANSI UANG KEMBALI 100%, JIKA BARANG TIDAK SAMPAI TUJUAN ATAUPUN RUSAK\r\n\r\n>Pengiriman dilakukan sampai jam 14.30 WIB\r\n>Hari minggu tidak melakukan pengiriman, tapi tetap menerima orderan dan dikirim pada hari senin\r\n\r\n**Keterangan Produk\r\nNama Produk : ProPolis SM Propolis Brazil\r\nIsi : 6 ML\r\nDi Produksi : CV. SAMI MANDJOER\r\nLegalitas :\r\n- BPOM RI POM TR 193624961\r\n- Sertifikat HALAL dari MUI\r\n\r\n\"Beli 7 Botol (1 Box) Lebih Hemat, 1 Box Rp. 490.000 (Rp. 70.000/btl)\"\r\n\"Beli 14 Botol (2 Box) Lebih Hemat, 2 Box Rp. 910.000(Rp. 65.000/btl)\"\r\n\r\n============================================================\r\n\r\nPropolis SM Merupakan Produk ASLI Indonesia yang terbuat dari bahan herbal alami tanpa campuran bahan kimia yang berbahaya. Bahan yang digunakan dalam pembuatan Propolis SM yaitu 100% Ekstrak Propolis Brazilian.\r\n\r\nPropolis SM ini di produksi langsung oleh CV. SAMI MANDJOER menggunakan NANO TECHNOLOGY. Teknologi ini sangat bermanfaat untuk mempercepat proses penyerapan nutrisi di dalam tubuh. Ini dikarenakan ekstraksi diolah menjadi ukuran nano sehingga tubuh akan mudah menyerap nutrisi yang ada dalam obat herbal Propolis SM.\r\n\r\n**Khasiat Propolis SM\r\n\r\no)Menjaga kesehatan tubuh secara menyeluruh, sehingga tidak mudah sakit\r\no)Meningkatkan kekebalan tubuh\r\no)Mengatasi berbagai jenis gangguan pada telinga\r\no)Menjaga kesehatan tulang dan sendi\r\no)Melancarkan sistem pencernaan dan sistem pernafasan\r\no)Melancarkan peredaran darah\r\no)Memiliki antioksidan tinggi, antivirus, antitumor, antibakteri\r\no)Mencegah dan mengatasi segala bentuk peradangan\r\no)Membantu mengeluarkan racun dalam tubuh\r\no)Membantu menurunkan kadar gula darah, kolesterol tinggi\r\no)Mempercepat penyembuhan luka luar atau dalam\r\no)Memperbaik sel sel jaringan tubuh yangh rusak\r\no)Membantu mengatasi penyakit TBC, darah tinggi, sinusitis, flu, sakit kepala, asam urat, rematik dll.\r\n\r\n**Aturan Konsumsi\r\n\r\n-Untuk Menjaga Kesehatan : Larutkan 2-3 tetes kedalam 1/4 air putih\r\n-Untuk Pengobatan : Larutkan 4-8 tetes kedalam 1/4 air putih\r\n-Untuk keluhan telinga : Bisa langsung di teteskan 1-2 tetes, dan diamkan selama 30 detik lalu bersihkan\r\n-Untuk pengobatan luar (Kulit), bisa dioleskan langsung pada bagian kulit yang bermasalah.\r\n\r\n**CIRI PRODUK ASLI / PALSU\r\nSilakan teteskan walatra propolis ke dalam 1 botol air putih dan lihat, warnanya akan tetap bening tidak berubah menjadi keruh. Berbeda dengan propolis yang beredar di pasaran akan berubah warna saat dicampur. Produk yang asli memiliki aroma yang bisa tercium.\r\n\r\nDisclaimer : Reaksi/khasiat obat herbal ini setiap individu berbeda-beda, tergantung tingkat keparahan penyakitnya, respon tubuh, pola makan, faktor lingkungan dan usia.","rating":0}
{"no":0,"title":"jamu jamkho herbal penurun koletrol dll","price":"100.000","seller":"healthy111","sellerPlace":"Jakarta Barat","url":"https://www.bukalapak.com/p/kesehatan-2359/obat-suplemen/obat-obatan/xpqm6t-jual-jamu-jamkho-herbal-penurun-koletrol-dll?from=&product_owner=normal_seller","sold":0,"seen":10,"favorite":0,"updated":"2019-10-04 20:56:59","description":"Apa saja REAKSI setelah minum JAMKHO:\r\n\r\n\r\nLangsung terasa hangat di tenggorokan, dada, dan perut.\r\n\r\n\r\nSeperti ada sesuatu yang langsung mengalir di tubuh\r\n\r\n\r\nBadan jadi langsung terasa segar dan tidak mengantuk.\r\n\r\n\r\nKepala terasa ringan dan nyaman\r\n\r\n\r\nPegal-pegal dan tegang di leher dan bahu berangsur jadi ringan\r\n\r\n\r\nApa saja KHASIAT JAMKHO:\r\n\r\n\r\nJAMKHO khasiatnya turunkan kolesterol dengan cepat aman dan nyaman\r\n\r\n\r\nJAMKHO juga membantu turunkan kadar asam urat\r\n\r\n\r\nMembantu tingkatkan kolesterol HDL (kolesterol baik)\r\n\r\n\r\nMembantu turunkan kolesterol LDL (kolesterol jahat)\r\n\r\n\r\nMembantu turunkan trigliserida (kekentalan darah)\r\n\r\n\r\nAturan pakai:\r\n\r\n\r\n1 x 1 sendok makan per hari atau\r\n\r\n\r\n3 x 2 sendok makan per hari jika perlu (maksimum)\r\n\r\n\r\nNetto : 100 ML\r\n\r\n\r\nPOM TR. 133 672 511\r\n\r\n\r\nDiproduksi : PT.MAHKOTADEWA INDONESIA\r\n\r\n\r\nPeringatan: hanya untuk penderita lemak darah yang telah ditetapkan dokter. Selama penggunaan konsultasikan pada dokter secara berkala\r\n\r\n\r\n\r\n\r\nHATI2 PRODUK PALSU DENGAN HARGA MURAH.\r\n\r\n\r\nKAMI TIDAK BERTANGGUNG JAWAB ATAS KEASLIAN PRODUK YANG DI JUAL DI BAWAH HARGA KETENTUAN PRODUSEN YAITU 100-RB / BOTOL!!!\r\n\r\n\r\nJANGAN KORBANKAN KESEHATAN ANDA HANYA KARENA SELISIH HARGA !!!","rating":0}
{"no":0,"title":"Shuzhiwan shu zhi wan obat wasir herbal","price":"150.000","seller":"cahaya mutiara6","sellerPlace":"Jakarta Utara","url":"https://www.bukalapak.com/p/kesehatan-2359/obat-suplemen/obat-obatan/cca9ya-jual-shuzhiwan-shu-zhi-wan-obat-wasir-herbal?from=&product_owner=normal_seller","sold":3,"seen":485,"favorite":1,"updated":"2019-10-03 09:36:19","description":"Ambeyen/wasir adalah kondisi patologis membengkak atau meradangnya Hemorrhoid, struktur vaskular (pembuluh darah) dalam saluran anus yang membantu kontrol buang air besar.\r\n\r\n\r\nAda 2 jenis gejala ambeyen, yaitu ambeyen dalam dan luar.\r\n\r\n\r\nAmbeyen dalam biasanya timbul bersama perdarahan tanpa rasa nyeri,\r\n\r\n\r\nAmbeyen luar terdapat nyeri signifikan dan pembengkakan di area anus.\r\n\r\n\r\nPenyebab wasir sesungguhnya belum diketahui, namun konstipasi dipercaya mempunyai andil cukup besar.\r\n\r\n\r\n(Sumber: Wikipedia/wasir)\r\n\r\n\r\nShu Zhi Wan, merupakan obat Ambeyen (herbal) terbaru di Indonesia yang diproduksi oleh Jilin Province Northeast Asia Pharmaceutical Co., Ltd.\r\n\r\n\r\nKomposisi:\r\n\r\n\r\nRadix Glycyrrhizae, Radix Angelicae Sinensis, Radix et Rhizoma Rhei, Radix Rehmanniae, Radix Scutellariae, Poria, Olibanum, Rhizoma Picrorhizae, dan Herba Schizonepetae.\r\n\r\n\r\nPOM TI. 144-448-361\r\n\r\n\r\nKhasiat dan Kegunaan: Membantu meredakan gejala wasir.\r\n\r\n\r\nDosis dan cara pakai: Diminum sehari 2 kali 20 pil\r\n\r\n\r\nIsi : 144 pil.\r\n\r\n\r\nReview (pengalaman klinis):\r\n\r\n\r\nPada kasus Ambeyen ringan, biasanya konsumsi 2 box.\r\n\r\n\r\nPada kasus Ambeyen dengan perdarahan, perdarahan dapat berkurang dan berhenti, penderita menyatakan adanya perkembangan kesembuhan.","rating":0}
{"no":0,"title":"zen feel coffee-kopi ginseng stamina pria-zenfeel","price":"250.000","seller":"DUNIA FARMA 889","sellerPlace":"Jakarta Utara","url":"https://www.bukalapak.com/p/kesehatan-2359/obat-suplemen/obat-obatan/1pcc4wo-jual-zen-feel-coffee-kopi-ginseng-stamina-pria-zenfeel?from=&product_owner=normal_seller","sold":1,"seen":84,"favorite":0,"updated":"2019-10-04 16:06:00","description":"Saran penyajian\r\n\r\n\r\nSajikan 1 sachet kedalam air 150ml kemudian aduk hingga merata\r\n\r\n\r\nPerhatian\r\n\r\n\r\n-tidak boleh dikonsumsi melebihi dosis yg dianjurkan\r\n\r\n\r\n-harus diperhatikan penggunanya terhadap wanita hamil dan menyusui serta anak anak\r\n\r\n\r\n-tidak di anjurkan penggunaanya pada penderita hipertensi dan diabetes\r\n\r\n\r\n-penggunaan dalam waktu lama(lebih dari waktu 3 Minggu )agar menghentikan konsumsi ginseng selang waktu 2-3 minggu\r\n\r\n\r\nIsi 12 sachet","rating":0}
{"no":0,"title":"Obat Tradisional Sakit Telinga AMAN Untuk Anak - Dewasa- Propolis SM ASLI Mengobati Telinga Borok -Bernanah -Congek -Berair -Berdengung -Berdenging","price":"75.000","seller":"Susi Fatmawati","sellerPlace":"Jakarta Barat","url":"https://www.bukalapak.com/p/kesehatan-2359/obat-suplemen/obat-obatan/28a1mb6-jual-obat-tradisional-sakit-telinga-aman-untuk-anak-dewasa-propolis-sm-asli-mengobati-telinga-borok-bernanah-congek-berair-berdengung-berdenging?from=&product_owner=normal_seller","sold":0,"seen":4,"favorite":0,"updated":"2019-10-11 09:59:14","description":"*BARANG SELALU READY STOCK\r\n*LANGSUNG KLIK BELI SEKARANG, KAMI LANGSUNG PROSES DAN DI KIRIM HARI INI JUGA\r\n*KEASLIAN OBAT TERJAMIN\r\n*AMAN DAN TANPA EFEK SAMPING\r\n*BERGARANSI UANG KEMBALI 100%, JIKA BARANG TIDAK SAMPAI TUJUAN ATAUPUN RUSAK\r\n\r\n==PROMO HARI INI===\r\n\r\n*FREE ONGKIR pembelian 3 botol maksimal Ongkir 25.000 (semua wilayah)\r\n*FREE ONGKIR pembelian 7 botol (1Box) maksimal Ongkir 25,000+sarikurma 1 (Semua wilayah)\r\n\r\n\"7 Botol (1 Box) Rp. 490.000 (FREE ONGKIR)\"\r\n\"14 Botol (2 Box) Rp. 910.000 (FREE ONGKIR)\"\r\n\r\n:: DISKUSIKAN terlebih dulu untuk informasi selengkapnya, ONGKIR akan di kembalikan (transfer) ke rekening atau di ganti dengan pulsa ::\r\n\r\n===========================================\r\n\r\n**Keterangan Produk\r\nNama Produk : ProPolis SM\r\nIsi : 6 ML\r\nDi Produksi : CV. SAMI MANDJOER\r\nLegalitas :\r\n- BPOM RI POM TR 193624961\r\n- Sertifikat HALAL dari MUI\r\n\r\nPropolis SM Merupakan Produk ASLI Indonesia yang terbuat dari bahan herbal alami tanpa campuran bahan kimia yang berbahaya. Bahan yang digunakan dalam pembuatan Propolis SM yaitu 100% Ekstrak Propolis Brazilian.\r\n\r\nPropolis SM ini di produksi langsung oleh CV. SAMI MANDJOER menggunakan NANO TECHNOLOGY. Teknologi ini sangat bermanfaat untuk mempercepat proses penyerapan nutrisi di dalam tubuh. Ini dikarenakan ekstraksi diolah menjadi ukuran nano sehingga tubuh akan mudah menyerap nutrisi yang ada dalam obat herbal Propolis SM.\r\n\r\n**Khasiat Propolis SM\r\n\r\no)Menjaga kesehatan tubuh secara menyeluruh, sehingga tidak mudah sakit\r\no)Meningkatkan kekebalan tubuh\r\no)Mengatasi berbagai jenis gangguan pada telinga\r\no)Menjaga kesehatan tulang dan sendi\r\no)Melancarkan sistem pencernaan dan sistem pernafasan\r\no)Melancarkan peredaran darah\r\no)Memiliki antioksidan tinggi, antivirus, antitumor, antibakteri\r\no)Mencegah dan mengatasi segala bentuk peradangan\r\no)Membantu mengeluarkan racun dalam tubuh\r\no)Membantu menurunkan kadar gula darah, kolesterol tinggi\r\no)Mempercepat penyembuhan luka luar atau dalam\r\no)Memperbaik sel sel jaringan tubuh yangh rusak\r\no)Membantu mengatasi berbagai jenis penyakit.\r\n\r\n**Aturan Konsumsi\r\n\r\n-Untuk Menjaga Kesehatan : Larutkan 2-3 tetes kedalam 1/4 air putih\r\n-Untuk Pengobatan : Larutkan 4-8 tetes kedalam 1/4 air putih\r\n-Untuk keluhan telinga : Bisa langsung di teteskan 1-2 tetes, dan diamkan selama 30 detik lalu bersihkan\r\n-Untuk pengobatan luar (Kulit), bisa dioleskan langsung pada bagian kulit yang be